(lp0
(lp1
F91.5
aF91.5
aF91.5
aF91.5
aF91.5
aa(lp2
F99.5
aF99.5
aF99.5
aF80.0
aF80.0
aa(lp3
F100.5
aF100.5
aF100.5
aF80.25
aF80.25
aa(lp4
F96.0
aF96.0
aF96.0
aF80.0
aF80.0
aa(lp5
F101.75
aF101.75
aF101.75
aF101.75
aF101.75
aa(lp6
F100.75
aF100.75
aF100.75
aF80.0
aF80.0
aa(lp7
F99.75
aF99.75
aF99.75
aF99.75
aF99.75
aa(lp8
F101.5
aF101.5
aF101.5
aF81.25
aF81.25
aa(lp9
F100.75
aF100.75
aF100.75
aF80.0
aF80.0
aa(lp10
F102.0
aF102.0
aF102.0
aF82.75
aF82.75
aa(lp11
F90.75
aF90.75
aF90.75
aF80.5
aF80.5
aa(lp12
F100.25
aF100.25
aF100.25
aF80.0
aF80.0
aa(lp13
F99.75
aF99.75
aF99.75
aF99.75
aF99.75
aa(lp14
F98.25
aF98.25
aF98.25
aF80.0
aF80.0
aa(lp15
F98.75
aF98.75
aF98.75
aF83.25
aF83.25
aa(lp16
F101.0
aF101.0
aF101.0
aF80.0
aF80.0
aa(lp17
F102.0
aF102.0
aF102.0
aF80.25
aF80.25
aa(lp18
F98.25
aF98.25
aF98.25
aF80.75
aF80.75
aa(lp19
F102.0
aF102.0
aF102.0
aF80.0
aF80.0
aa(lp20
F97.5
aF97.5
aF97.5
aF82.75
aF82.75
aa(lp21
F99.5
aF99.5
aF99.5
aF80.0
aF80.0
aa(lp22
F98.25
aF98.25
aF98.25
aF81.0
aF81.0
aa(lp23
F100.75
aF100.75
aF100.75
aF80.0
aF80.0
aa(lp24
F100.0
aF100.0
aF100.0
aF80.0
aF80.0
aa(lp25
F101.25
aF101.25
aF101.25
aF80.0
aF80.0
aa(lp26
F101.5
aF101.5
aF101.5
aF83.0
aF83.0
aa(lp27
F92.0
aF92.0
aF92.0
aF81.0
aF81.0
aa(lp28
F95.5
aF95.5
aF95.5
aF80.0
aF80.0
aa(lp29
F95.25
aF95.25
aF95.25
aF80.0
aF80.0
aa(lp30
F100.5
aF100.5
aF100.5
aF80.0
aF80.0
aa(lp31
F96.75
aF96.75
aF96.75
aF96.75
aF96.75
aa(lp32
F99.5
aF99.5
aF99.5
aF99.5
aF99.5
aa(lp33
F99.5
aF99.5
aF99.5
aF81.5
aF81.5
aa(lp34
F101.25
aF101.25
aF101.25
aF80.0
aF80.0
aa(lp35
F91.0
aF91.0
aF91.0
aF80.5
aF80.5
aa(lp36
F101.75
aF101.75
aF101.75
aF87.0
aF87.0
aa(lp37
F101.5
aF101.5
aF101.5
aF101.5
aF101.5
aa(lp38
F98.0
aF98.0
aF98.0
aF98.0
aF98.0
aa(lp39
F102.0
aF102.0
aF98.0
aF80.0
aF80.0
aa(lp40
F100.75
aF100.75
aF100.75
aF80.5
aF80.5
aa(lp41
F98.75
aF98.75
aF98.75
aF80.0
aF80.0
aa(lp42
F98.75
aF98.75
aF98.75
aF81.25
aF81.25
aa(lp43
F100.25
aF100.25
aF100.25
aF100.25
aF100.25
aa(lp44
F101.0
aF101.0
aF101.0
aF101.0
aF101.0
aa(lp45
F99.25
aF99.25
aF99.25
aF80.5
aF80.5
aa(lp46
F98.75
aF98.75
aF98.75
aF81.25
aF81.25
aa(lp47
F100.25
aF100.25
aF100.25
aF100.25
aF100.25
aa(lp48
F101.25
aF101.25
aF101.25
aF80.25
aF80.25
aa(lp49
F101.75
aF101.75
aF101.75
aF80.0
aF80.0
aa(lp50
F99.75
aF99.75
aF99.75
aF99.75
aF99.75
aa(lp51
F99.25
aF99.25
aF99.25
aF81.75
aF81.75
aa(lp52
F102.0
aF102.0
aF102.0
aF80.25
aF80.25
aa(lp53
F101.5
aF101.5
aF101.5
aF80.0
aF80.0
aa(lp54
F100.0
aF100.0
aF100.0
aF80.25
aF80.25
aa(lp55
F101.5
aF101.5
aF101.5
aF80.0
aF80.0
aa(lp56
F100.75
aF100.75
aF100.75
aF82.25
aF82.25
aa(lp57
F100.25
aF100.25
aF100.25
aF80.0
aF80.0
aa(lp58
F99.25
aF99.25
aF99.25
aF80.25
aF80.25
aa(lp59
F101.25
aF101.25
aF101.25
aF80.25
aF80.25
aa(lp60
F101.75
aF101.75
aF101.75
aF91.0
aF80.0
aa(lp61
F99.0
aF99.0
aF99.0
aF99.0
aF99.0
aa(lp62
F96.25
aF96.25
aF96.25
aF80.0
aF80.0
aa(lp63
F100.5
aF100.5
aF100.5
aF80.0
aF80.0
aa(lp64
F99.0
aF99.0
aF99.0
aF81.0
aF81.0
aa(lp65
F100.5
aF100.5
aF100.5
aF80.0
aF80.0
aa(lp66
F102.0
aF102.0
aF102.0
aF80.0
aF80.0
aa(lp67
F100.25
aF100.25
aF100.25
aF80.25
aF80.25
aa(lp68
F98.5
aF98.5
aF98.5
aF80.0
aF80.0
aa(lp69
F100.0
aF100.0
aF100.0
aF81.25
aF81.25
aa(lp70
F101.0
aF101.0
aF101.0
aF80.75
aF80.75
aa(lp71
F100.5
aF100.5
aF100.5
aF81.5
aF81.5
aa(lp72
F100.5
aF100.5
aF100.5
aF100.5
aF100.5
aa(lp73
F97.25
aF97.25
aF97.25
aF80.0
aF80.0
aa(lp74
F100.25
aF100.25
aF100.25
aF100.25
aF100.25
aa(lp75
F101.75
aF101.75
aF101.75
aF101.75
aF101.75
aa(lp76
F99.25
aF99.25
aF99.25
aF99.25
aF99.25
aa(lp77
F98.0
aF98.0
aF98.0
aF81.5
aF81.5
aa(lp78
F99.5
aF99.5
aF99.5
aF80.25
aF80.25
aa(lp79
F100.5
aF100.5
aF100.5
aF80.25
aF80.25
aa(lp80
F101.0
aF101.0
aF101.0
aF80.0
aF80.0
aa(lp81
F98.75
aF98.75
aF98.75
aF80.75
aF80.75
aa(lp82
F100.75
aF100.75
aF100.75
aF80.0
aF80.0
aa(lp83
F98.5
aF98.5
aF98.5
aF80.25
aF80.25
aa(lp84
F99.5
aF99.5
aF99.5
aF80.25
aF80.25
aa(lp85
F100.5
aF100.5
aF100.5
aF80.0
aF80.0
aa(lp86
F99.25
aF99.25
aF99.25
aF99.25
aF99.25
aa(lp87
F97.0
aF97.0
aF97.0
aF80.0
aF80.0
aa(lp88
F101.75
aF101.75
aF101.75
aF82.0
aF82.0
aa(lp89
F98.25
aF98.25
aF98.25
aF80.75
aF80.75
aa(lp90
F99.0
aF99.0
aF99.0
aF80.0
aF80.0
aa(lp91
F100.0
aF100.0
aF100.0
aF80.0
aF80.0
aa(lp92
F101.5
aF101.5
aF101.5
aF80.75
aF80.75
aa(lp93
F99.0
aF99.0
aF99.0
aF80.0
aF80.0
aa(lp94
F99.5
aF99.5
aF99.5
aF80.75
aF80.75
aa(lp95
F100.0
aF100.0
aF100.0
aF80.0
aF80.0
aa(lp96
F101.75
aF101.75
aF101.75
aF101.75
aF101.75
aa(lp97
F98.25
aF98.25
aF98.25
aF98.25
aF98.25
aa(lp98
F88.25
aF100.0
aF100.0
aF81.25
aF81.25
aa(lp99
F101.75
aF101.75
aF101.75
aF83.0
aF83.0
aa(lp100
F99.5
aF99.5
aF99.5
aF80.0
aF80.0
aa(lp101
F100.5
aF100.5
aF100.5
aF80.25
aF80.25
aa(lp102
F98.5
aF98.5
aF98.5
aF98.5
aF89.25
aa(lp103
F100.25
aF100.25
aF100.25
aF82.5
aF82.5
aa(lp104
F91.25
aF91.25
aF91.25
aF84.75
aF84.75
aa(lp105
F101.25
aF101.25
aF101.25
aF80.5
aF80.5
aa(lp106
F102.0
aF102.0
aF102.0
aF80.0
aF80.0
aa(lp107
F99.75
aF99.75
aF99.75
aF80.25
aF80.25
aa(lp108
F100.25
aF82.5
aF100.25
aF80.0
aF80.0
aa(lp109
F99.5
aF99.5
aF99.5
aF81.0
aF81.0
aa(lp110
F101.0
aF101.0
aF101.0
aF80.25
aF80.25
aa(lp111
F101.5
aF101.5
aF101.5
aF80.25
aF80.25
aa(lp112
F101.5
aF101.5
aF101.5
aF80.0
aF80.0
aa(lp113
F100.5
aF100.5
aF100.5
aF86.25
aF86.25
aa(lp114
F98.75
aF98.75
aF98.75
aF81.75
aF81.75
aa(lp115
F99.0
aF99.0
aF99.0
aF99.0
aF99.0
aa(lp116
F95.0
aF99.0
aF99.0
aF99.0
aF99.0
aa(lp117
F98.25
aF98.25
aF98.25
aF98.25
aF98.25
aa(lp118
F101.0
aF101.0
aF101.0
aF80.0
aF80.0
aa(lp119
F88.25
aF98.0
aF98.0
aF98.0
aF98.0
aa(lp120
F100.25
aF100.25
aF86.25
aF80.0
aF80.0
aa(lp121
F98.0
aF98.0
aF98.0
aF80.25
aF80.25
aa(lp122
F99.5
aF99.5
aF99.5
aF80.0
aF80.0
aa(lp123
F94.0
aF94.0
aF94.0
aF94.0
aF94.0
aa(lp124
F101.0
aF101.0
aF101.0
aF80.0
aF80.0
aa(lp125
F100.25
aF100.25
aF100.25
aF88.0
aF88.0
aa(lp126
F99.25
aF99.25
aF99.25
aF80.0
aF80.0
aa(lp127
F101.25
aF101.25
aF101.25
aF80.0
aF80.0
aa(lp128
F97.25
aF97.25
aF97.25
aF97.25
aF97.25
aa(lp129
F89.0
aF89.0
aF89.0
aF89.0
aF89.0
aa(lp130
F98.75
aF98.75
aF98.75
aF80.0
aF80.0
aa(lp131
F92.75
aF92.75
aF92.75
aF80.0
aF80.0
aa(lp132
F95.5
aF95.5
aF95.5
aF95.5
aF95.5
aa(lp133
F100.75
aF100.75
aF100.75
aF82.0
aF82.0
aa(lp134
F98.5
aF98.5
aF98.5
aF81.0
aF81.0
aa(lp135
F99.75
aF99.75
aF99.75
aF82.25
aF82.25
aa(lp136
F99.0
aF99.0
aF99.0
aF80.75
aF80.75
aa(lp137
F100.0
aF100.0
aF100.0
aF80.0
aF80.0
aa(lp138
F102.0
aF102.0
aF102.0
aF102.0
aF102.0
aa(lp139
F101.25
aF101.25
aF101.25
aF80.25
aF80.25
aa(lp140
F102.0
aF102.0
aF102.0
aF80.0
aF80.0
aa(lp141
F101.0
aF101.0
aF101.0
aF80.0
aF80.0
aa(lp142
F101.25
aF101.25
aF101.25
aF80.25
aF80.25
aa(lp143
F101.25
aF101.25
aF101.25
aF80.0
aF80.0
aa(lp144
F100.75
aF100.75
aF100.75
aF80.0
aF80.0
aa(lp145
F94.5
aF94.5
aF94.5
aF80.75
aF80.75
aa(lp146
F101.75
aF101.75
aF101.75
aF80.0
aF80.0
aa(lp147
F102.0
aF102.0
aF102.0
aF80.25
aF80.25
aa(lp148
F98.75
aF98.75
aF98.75
aF81.25
aF81.25
aa(lp149
F92.25
aF92.25
aF92.25
aF92.25
aF92.25
aa(lp150
F100.5
aF100.5
aF100.5
aF100.5
aF100.5
aa(lp151
F98.0
aF98.0
aF98.0
aF80.5
aF80.5
aa(lp152
F100.25
aF100.25
aF100.25
aF83.25
aF83.25
aa(lp153
F99.5
aF99.5
aF99.5
aF80.25
aF80.25
aa(lp154
F101.0
aF101.0
aF101.0
aF80.5
aF80.5
aa(lp155
F99.75
aF99.75
aF99.75
aF80.0
aF80.0
aa(lp156
F100.0
aF100.0
aF100.0
aF80.5
aF80.5
aa(lp157
F101.5
aF101.5
aF101.5
aF80.0
aF80.0
aa(lp158
F101.75
aF101.75
aF101.75
aF81.75
aF81.75
aa(lp159
F97.75
aF97.75
aF97.75
aF80.5
aF80.5
aa(lp160
F99.25
aF99.25
aF101.0
aF98.5
aF98.5
aa(lp161
F101.75
aF101.75
aF101.75
aF101.75
aF88.5
aa(lp162
F95.75
aF95.75
aF95.75
aF80.5
aF80.5
aa(lp163
F100.25
aF100.25
aF100.25
aF80.25
aF80.25
aa(lp164
F101.0
aF101.0
aF101.0
aF80.0
aF80.0
aa(lp165
F100.75
aF100.75
aF100.75
aF80.75
aF80.75
aa(lp166
F101.75
aF101.75
aF101.75
aF80.0
aF80.0
aa(lp167
F91.5
aF91.5
aF91.5
aF80.0
aF80.0
aa(lp168
F101.75
aF101.75
aF101.75
aF80.0
aF80.0
aa(lp169
F97.75
aF97.75
aF97.75
aF82.25
aF82.25
aa(lp170
F94.75
aF94.75
aF94.75
aF94.75
aF94.75
aa(lp171
F97.25
aF97.25
aF97.25
aF80.0
aF80.0
aa(lp172
F100.0
aF100.0
aF100.0
aF100.0
aF100.0
aa(lp173
F101.0
aF101.0
aF101.0
aF80.0
aF80.0
aa(lp174
F101.5
aF101.5
aF101.5
aF80.25
aF80.25
aa(lp175
F99.75
aF99.75
aF99.75
aF80.25
aF80.25
aa(lp176
F98.75
aF98.75
aF98.75
aF80.0
aF80.0
aa(lp177
F98.0
aF98.0
aF98.0
aF98.0
aF98.0
aa(lp178
F101.5
aF101.5
aF101.5
aF80.0
aF80.0
aa(lp179
F101.0
aF101.0
aF101.0
aF80.25
aF80.25
aa(lp180
F101.5
aF101.5
aF101.5
aF80.0
aF80.0
aa(lp181
F99.0
aF99.0
aF99.0
aF80.0
aF80.0
aa(lp182
F102.0
aF102.0
aF102.0
aF80.0
aF80.0
aa(lp183
F101.75
aF101.75
aF101.75
aF80.5
aF80.5
aa(lp184
F100.25
aF100.25
aF100.25
aF80.5
aF80.5
aa(lp185
F102.0
aF102.0
aF102.0
aF99.5
aF99.5
aa(lp186
F98.0
aF98.0
aF98.0
aF98.0
aF98.0
aa(lp187
F97.75
aF97.75
aF97.75
aF97.75
aF97.75
aa(lp188
F96.0
aF96.0
aF96.0
aF80.0
aF80.0
aa(lp189
F100.75
aF100.75
aF100.75
aF100.75
aF100.75
aa(lp190
F101.75
aF101.75
aF101.75
aF80.0
aF80.0
aa(lp191
F87.25
aF87.25
aF87.25
aF87.25
aF87.25
aa(lp192
F99.25
aF99.25
aF99.25
aF80.0
aF80.0
aa(lp193
F101.5
aF101.5
aF101.5
aF80.25
aF80.25
aa(lp194
F102.0
aF102.0
aF102.0
aF80.0
aF80.0
aa(lp195
F101.75
aF101.75
aF101.75
aF100.25
aF100.25
aa(lp196
F100.5
aF100.5
aF100.5
aF80.25
aF80.25
aa(lp197
F100.5
aF100.5
aF100.5
aF81.0
aF81.0
aa(lp198
F100.75
aF100.75
aF100.75
aF80.5
aF80.5
aa(lp199
F101.0
aF101.0
aF101.0
aF80.0
aF80.0
aa(lp200
F99.75
aF99.75
aF99.75
aF99.75
aF99.75
aa(lp201
F98.75
aF98.75
aF98.75
aF80.25
aF80.25
aa(lp202
F99.25
aF99.25
aF99.25
aF80.0
aF80.0
aa(lp203
F101.5
aF101.5
aF101.5
aF81.5
aF81.5
aa(lp204
F97.75
aF97.75
aF97.75
aF97.75
aF97.75
aa(lp205
F95.25
aF95.25
aF95.25
aF80.0
aF80.0
aa(lp206
F101.25
aF101.25
aF101.25
aF80.0
aF80.0
aa(lp207
F99.75
aF99.75
aF99.75
aF81.0
aF81.0
aa(lp208
F96.25
aF96.25
aF96.25
aF96.25
aF96.25
aa(lp209
F98.5
aF98.5
aF98.5
aF83.75
aF83.75
aa(lp210
F100.75
aF100.75
aF100.75
aF80.5
aF80.5
aa(lp211
F100.5
aF100.5
aF100.5
aF100.5
aF100.5
aa(lp212
F101.5
aF101.5
aF101.5
aF80.0
aF80.0
aa(lp213
F95.75
aF95.75
aF95.75
aF80.0
aF80.0
aa(lp214
F101.25
aF101.25
aF101.25
aF80.25
aF80.25
aa(lp215
F99.5
aF95.5
aF99.5
aF80.0
aF80.0
aa(lp216
F99.75
aF99.75
aF99.75
aF80.0
aF80.0
aa(lp217
F87.5
aF87.5
aF87.5
aF87.5
aF87.5
aa(lp218
F101.25
aF101.25
aF101.25
aF80.75
aF80.75
aa(lp219
F96.5
aF96.5
aF96.5
aF81.25
aF81.25
aa(lp220
F102.0
aF102.0
aF102.0
aF80.0
aF80.0
aa(lp221
F100.25
aF100.25
aF100.25
aF80.0
aF80.0
aa(lp222
F99.75
aF99.75
aF99.75
aF80.5
aF80.5
aa(lp223
F92.5
aF92.5
aF92.5
aF83.25
aF83.25
aa(lp224
F100.75
aF100.75
aF100.75
aF80.5
aF80.5
aa(lp225
F97.0
aF97.0
aF97.0
aF97.0
aF97.0
aa(lp226
F96.25
aF96.25
aF96.25
aF96.25
aF96.25
aa(lp227
F98.75
aF98.75
aF98.75
aF80.25
aF80.25
aa(lp228
F101.5
aF101.5
aF101.5
aF80.0
aF80.0
aa(lp229
F100.25
aF100.25
aF100.25
aF80.25
aF80.25
aa(lp230
F98.5
aF98.5
aF98.5
aF80.5
aF80.5
aa(lp231
F100.75
aF100.75
aF100.75
aF80.0
aF80.0
aa(lp232
F99.5
aF99.5
aF99.5
aF80.5
aF80.5
aa(lp233
F98.25
aF98.25
aF98.25
aF81.25
aF81.25
aa(lp234
F98.25
aF98.25
aF98.25
aF82.25
aF82.25
aa(lp235
F98.0
aF98.0
aF98.0
aF80.0
aF80.0
aa(lp236
F98.5
aF98.5
aF98.5
aF80.25
aF80.25
aa(lp237
F95.25
aF95.25
aF95.25
aF80.75
aF80.75
aa(lp238
F100.5
aF100.5
aF100.5
aF82.0
aF82.0
aa(lp239
F100.0
aF100.0
aF100.0
aF96.0
aF96.0
aa(lp240
F102.0
aF102.0
aF102.0
aF80.0
aF80.0
aa(lp241
F100.25
aF100.25
aF100.25
aF80.25
aF80.25
aa(lp242
F101.75
aF101.75
aF101.75
aF80.5
aF80.5
aa(lp243
F101.25
aF101.25
aF101.25
aF80.0
aF80.0
aa(lp244
F101.0
aF101.0
aF101.0
aF80.25
aF80.25
aa(lp245
F101.0
aF101.0
aF101.0
aF83.75
aF83.75
aa(lp246
F101.75
aF101.75
aF101.75
aF80.5
aF80.5
aa(lp247
F98.75
aF98.75
aF98.75
aF80.75
aF80.75
aa(lp248
F101.25
aF101.25
aF101.25
aF80.0
aF80.0
aa(lp249
F100.5
aF100.5
aF100.5
aF80.5
aF80.5
aa(lp250
F99.25
aF99.25
aF99.25
aF83.25
aF83.25
aa(lp251
F96.25
aF96.25
aF96.25
aF89.25
aF89.25
aa(lp252
F100.75
aF100.75
aF100.75
aF100.75
aF100.75
aa(lp253
F99.25
aF99.25
aF101.75
aF84.0
aF84.0
aa(lp254
F100.5
aF100.5
aF100.5
aF80.75
aF87.5
aa(lp255
F99.75
aF99.75
aF99.75
aF80.0
aF80.0
aa(lp256
F95.0
aF95.0
aF95.0
aF81.5
aF81.5
aa(lp257
F97.75
aF97.75
aF97.75
aF80.25
aF80.25
aa(lp258
F100.0
aF100.0
aF100.0
aF80.0
aF80.0
aa(lp259
F100.75
aF100.75
aF89.0
aF100.75
aF100.75
aa(lp260
F98.75
aF98.75
aF98.75
aF98.75
aF98.75
aa(lp261
F97.75
aF97.75
aF97.75
aF81.25
aF81.25
aa(lp262
F101.75
aF101.75
aF101.75
aF81.75
aF81.75
aa(lp263
F101.25
aF101.25
aF101.25
aF101.25
aF101.25
aa(lp264
F99.5
aF99.5
aF99.5
aF99.5
aF99.5
aa(lp265
F99.5
aF99.5
aF99.5
aF99.5
aF99.5
aa(lp266
F97.0
aF97.0
aF97.0
aF97.0
aF97.0
aa(lp267
F97.25
aF97.25
aF97.25
aF80.0
aF80.0
aa(lp268
F101.25
aF101.25
aF101.25
aF80.25
aF80.25
aa(lp269
F95.0
aF95.0
aF95.0
aF95.0
aF95.0
aa(lp270
F99.25
aF99.25
aF99.25
aF82.0
aF82.0
aa(lp271
F100.0
aF100.0
aF100.0
aF80.0
aF80.0
aa(lp272
F98.75
aF98.75
aF98.75
aF98.75
aF98.75
aa(lp273
F94.5
aF94.5
aF94.5
aF80.25
aF80.25
aa(lp274
F93.75
aF93.75
aF93.75
aF80.25
aF80.25
aa(lp275
F98.75
aF98.75
aF98.75
aF80.0
aF80.0
aa(lp276
F98.25
aF98.25
aF98.25
aF80.25
aF80.25
aa(lp277
F101.75
aF101.75
aF101.75
aF80.0
aF80.0
aa(lp278
F98.75
aF98.75
aF98.75
aF80.25
aF80.25
aa(lp279
F100.75
aF100.75
aF100.75
aF80.0
aF80.0
aa(lp280
F101.75
aF101.75
aF101.75
aF80.5
aF80.5
aa(lp281
F97.0
aF97.0
aF97.0
aF82.25
aF82.25
aa(lp282
F100.75
aF100.75
aF100.75
aF80.0
aF80.0
aa(lp283
F98.75
aF98.75
aF98.75
aF98.75
aF98.75
aa(lp284
F100.75
aF97.75
aF100.75
aF100.75
aF100.75
aa(lp285
F101.75
aF101.75
aF101.75
aF80.0
aF80.0
aa(lp286
F97.75
aF97.75
aF97.75
aF80.25
aF80.25
aa(lp287
F98.5
aF98.5
aF98.5
aF80.5
aF80.5
aa(lp288
F101.25
aF101.25
aF101.25
aF82.0
aF82.0
aa(lp289
F100.75
aF100.75
aF100.75
aF81.25
aF100.0
aa(lp290
F100.25
aF100.25
aF100.25
aF100.25
aF100.25
aa(lp291
F91.75
aF91.75
aF91.75
aF91.75
aF91.75
aa(lp292
F101.25
aF101.25
aF101.25
aF81.0
aF86.5
aa(lp293
F98.5
aF98.5
aF98.5
aF98.5
aF98.5
aa(lp294
F101.75
aF101.75
aF101.75
aF80.0
aF80.0
aa(lp295
F101.75
aF101.75
aF101.75
aF101.75
aF101.75
aa(lp296
F98.5
aF98.5
aF98.5
aF98.5
aF80.5
aa(lp297
F92.25
aF92.25
aF92.25
aF92.25
aF92.25
aa(lp298
F99.25
aF99.25
aF99.25
aF80.0
aF80.0
aa(lp299
F97.25
aF97.25
aF97.25
aF80.0
aF80.0
aa(lp300
F99.75
aF99.75
aF99.75
aF80.25
aF80.25
aa(lp301
F101.75
aF101.75
aF101.75
aF80.0
aF80.0
aa(lp302
F102.0
aF102.0
aF102.0
aF80.0
aF80.0
aa(lp303
F99.25
aF99.25
aF99.25
aF87.5
aF87.5
aa(lp304
F97.5
aF97.5
aF97.5
aF80.0
aF80.0
aa(lp305
F101.5
aF101.5
aF101.5
aF80.0
aF80.0
aa(lp306
F99.5
aF99.5
aF99.5
aF80.25
aF80.25
aa(lp307
F101.5
aF101.5
aF101.5
aF80.0
aF80.0
aa(lp308
F99.75
aF99.75
aF99.75
aF80.0
aF80.0
aa(lp309
F101.25
aF101.25
aF101.25
aF80.0
aF80.0
aa(lp310
F101.0
aF101.0
aF101.0
aF80.0
aF80.0
aa(lp311
F101.0
aF101.0
aF101.0
aF80.0
aF80.0
aa(lp312
F99.0
aF99.0
aF99.0
aF80.0
aF80.0
aa(lp313
F102.0
aF102.0
aF102.0
aF80.0
aF80.0
aa(lp314
F101.25
aF101.25
aF101.25
aF80.0
aF80.0
aa(lp315
F99.25
aF99.25
aF99.25
aF80.0
aF80.0
aa(lp316
F100.25
aF100.25
aF100.25
aF92.0
aF92.0
aa(lp317
F98.5
aF98.5
aF98.5
aF98.5
aF92.75
aa(lp318
F102.0
aF102.0
aF102.0
aF80.0
aF80.0
aa(lp319
F98.0
aF98.0
aF98.0
aF80.5
aF80.5
aa(lp320
F99.25
aF99.25
aF99.25
aF96.0
aF96.0
aa(lp321
F101.25
aF101.25
aF101.25
aF82.5
aF82.5
aa(lp322
F98.25
aF98.25
aF98.25
aF80.25
aF80.25
aa(lp323
F101.0
aF101.0
aF101.0
aF80.0
aF80.0
aa(lp324
F102.0
aF102.0
aF102.0
aF80.25
aF80.25
aa(lp325
F100.5
aF100.5
aF100.5
aF100.5
aF100.5
aa(lp326
F101.75
aF101.75
aF101.75
aF80.0
aF80.0
aa(lp327
F96.75
aF96.75
aF96.75
aF83.0
aF83.0
aa(lp328
F101.0
aF101.0
aF101.0
aF101.0
aF101.0
aa(lp329
F102.0
aF102.0
aF102.0
aF102.0
aF102.0
aa(lp330
F99.25
aF99.25
aF99.25
aF80.75
aF80.75
aa(lp331
F100.0
aF100.0
aF100.0
aF80.0
aF80.0
aa(lp332
F96.75
aF96.75
aF96.75
aF96.75
aF96.75
aa(lp333
F102.0
aF102.0
aF102.0
aF80.75
aF80.75
aa(lp334
F100.25
aF100.25
aF100.25
aF100.25
aF100.25
aa(lp335
F98.75
aF98.75
aF98.75
aF80.25
aF80.25
aa(lp336
F100.75
aF100.75
aF100.75
aF80.0
aF80.0
aa(lp337
F95.25
aF95.25
aF95.25
aF80.0
aF80.0
aa(lp338
F98.75
aF98.75
aF98.75
aF80.0
aF80.0
aa(lp339
F102.0
aF102.0
aF102.0
aF89.0
aF89.0
aa(lp340
F101.25
aF101.25
aF101.25
aF80.0
aF80.0
aa(lp341
F96.25
aF96.25
aF96.25
aF80.0
aF80.0
aa(lp342
F99.5
aF99.5
aF99.5
aF99.5
aF99.5
aa(lp343
F99.0
aF99.0
aF99.0
aF81.5
aF81.5
aa(lp344
F100.25
aF100.25
aF100.25
aF80.0
aF80.0
aa(lp345
F100.75
aF100.75
aF100.75
aF80.0
aF80.0
aa(lp346
F101.5
aF101.5
aF101.5
aF86.25
aF86.25
aa(lp347
F100.5
aF100.5
aF100.5
aF80.75
aF80.75
aa(lp348
F98.25
aF98.25
aF98.25
aF80.0
aF80.0
aa(lp349
F95.75
aF95.75
aF95.75
aF80.0
aF80.0
aa(lp350
F98.5
aF98.5
aF98.5
aF98.5
aF98.5
aa(lp351
F101.5
aF101.5
aF101.5
aF80.0
aF80.0
aa(lp352
F97.25
aF97.25
aF97.25
aF80.75
aF80.75
aa(lp353
F101.75
aF101.75
aF101.75
aF80.0
aF80.0
aa(lp354
F100.25
aF100.25
aF100.25
aF80.0
aF80.0
aa(lp355
F100.75
aF100.75
aF100.75
aF80.0
aF80.0
aa(lp356
F98.75
aF98.75
aF98.75
aF80.25
aF80.25
aa(lp357
F101.25
aF101.25
aF101.25
aF83.5
aF83.5
aa(lp358
F99.5
aF99.5
aF99.5
aF80.5
aF80.5
aa(lp359
F99.25
aF99.25
aF99.25
aF99.25
aF99.25
aa(lp360
F101.25
aF101.25
aF101.25
aF80.25
aF80.25
aa(lp361
F99.25
aF99.25
aF99.25
aF80.25
aF80.25
aa(lp362
F99.75
aF99.75
aF99.75
aF99.75
aF99.75
aa(lp363
F101.5
aF101.5
aF101.5
aF101.5
aF101.5
aa(lp364
F99.5
aF99.5
aF99.5
aF99.5
aF99.5
aa(lp365
F97.75
aF97.75
aF97.75
aF80.0
aF80.0
aa(lp366
F99.0
aF99.0
aF99.0
aF80.25
aF80.25
aa(lp367
F98.5
aF98.5
aF98.5
aF81.0
aF81.0
aa(lp368
F99.25
aF99.25
aF99.25
aF99.25
aF99.25
aa(lp369
F95.75
aF95.75
aF95.75
aF81.0
aF81.0
aa(lp370
F101.75
aF101.75
aF101.75
aF80.25
aF80.25
aa(lp371
F102.0
aF102.0
aF102.0
aF80.25
aF80.25
aa(lp372
F99.0
aF101.75
aF101.75
aF80.0
aF80.0
aa(lp373
F94.25
aF94.25
aF94.25
aF94.25
aF94.25
aa(lp374
F102.0
aF102.0
aF102.0
aF80.25
aF80.25
aa(lp375
F94.25
aF94.25
aF94.25
aF82.75
aF82.75
aa(lp376
F94.5
aF94.5
aF94.5
aF80.0
aF80.0
aa(lp377
F98.25
aF98.25
aF98.25
aF80.75
aF80.75
aa(lp378
F101.0
aF101.0
aF101.0
aF80.0
aF80.0
aa(lp379
F99.75
aF99.75
aF99.75
aF99.75
aF99.75
aa(lp380
F101.5
aF101.5
aF101.5
aF82.25
aF82.25
aa(lp381
F98.25
aF98.25
aF98.25
aF80.75
aF80.75
aa(lp382
F101.5
aF101.5
aF101.5
aF101.5
aF101.5
aa(lp383
F99.25
aF99.25
aF99.25
aF80.0
aF80.0
aa(lp384
F100.0
aF100.0
aF100.0
aF95.25
aF80.0
aa(lp385
F100.25
aF100.25
aF100.25
aF80.0
aF80.0
aa(lp386
F99.75
aF99.75
aF99.75
aF80.0
aF80.0
aa(lp387
F99.25
aF99.25
aF99.25
aF84.0
aF84.0
aa(lp388
F89.5
aF89.5
aF89.5
aF83.25
aF83.25
aa(lp389
F100.25
aF100.25
aF100.25
aF100.25
aF100.25
aa(lp390
F95.75
aF95.75
aF95.75
aF81.75
aF81.75
aa(lp391
F99.75
aF99.75
aF99.75
aF80.0
aF80.0
aa(lp392
F84.5
aF97.5
aF97.5
aF80.0
aF80.0
aa(lp393
F100.75
aF100.75
aF100.75
aF80.25
aF80.25
aa(lp394
F99.75
aF99.75
aF99.75
aF80.75
aF80.75
aa(lp395
F102.0
aF102.0
aF102.0
aF80.0
aF80.0
aa(lp396
F99.5
aF99.5
aF99.5
aF80.0
aF80.0
aa(lp397
F99.25
aF99.25
aF99.25
aF80.0
aF80.0
aa(lp398
F99.5
aF99.5
aF99.5
aF80.0
aF80.0
aa(lp399
F99.75
aF99.75
aF99.75
aF80.0
aF80.0
aa(lp400
F101.5
aF101.5
aF101.5
aF100.5
aF100.5
aa(lp401
F100.75
aF100.75
aF100.75
aF89.25
aF89.25
aa(lp402
F98.0
aF98.0
aF98.0
aF82.25
aF82.25
aa(lp403
F97.0
aF97.0
aF97.0
aF97.0
aF97.0
aa(lp404
F95.0
aF95.0
aF95.0
aF90.75
aF80.0
aa(lp405
F99.75
aF99.75
aF99.75
aF99.75
aF99.75
aa(lp406
F97.5
aF97.5
aF97.5
aF80.5
aF80.5
aa(lp407
F92.75
aF92.75
aF92.75
aF92.75
aF92.75
aa(lp408
F98.75
aF98.75
aF98.75
aF80.5
aF80.5
aa(lp409
F98.75
aF98.75
aF98.75
aF98.75
aF98.75
aa(lp410
F100.0
aF100.0
aF100.0
aF100.0
aF100.0
aa(lp411
F101.75
aF101.75
aF101.75
aF80.25
aF80.25
aa(lp412
F99.0
aF99.0
aF99.0
aF80.25
aF80.25
aa(lp413
F97.75
aF97.75
aF97.75
aF80.25
aF80.25
aa(lp414
F99.25
aF99.25
aF99.25
aF99.25
aF99.25
aa(lp415
F96.75
aF96.75
aF96.75
aF96.75
aF96.75
aa(lp416
F101.75
aF101.75
aF101.75
aF80.0
aF80.0
aa(lp417
F101.5
aF101.5
aF101.5
aF80.25
aF80.25
aa(lp418
F90.5
aF90.5
aF90.5
aF82.5
aF82.5
aa(lp419
F98.5
aF98.5
aF98.5
aF80.75
aF80.75
aa(lp420
F101.75
aF101.75
aF101.75
aF80.0
aF80.0
aa(lp421
F100.25
aF100.25
aF100.25
aF80.0
aF80.0
aa(lp422
F99.25
aF99.25
aF99.25
aF80.5
aF80.5
aa(lp423
F102.0
aF102.0
aF102.0
aF80.0
aF80.0
aa(lp424
F96.0
aF96.0
aF96.0
aF87.75
aF87.75
aa(lp425
F99.5
aF99.5
aF99.5
aF80.25
aF80.25
aa(lp426
F100.0
aF100.0
aF100.0
aF80.75
aF80.75
aa(lp427
F100.75
aF100.75
aF100.75
aF80.0
aF80.0
aa(lp428
F100.0
aF100.0
aF100.0
aF80.0
aF80.0
aa(lp429
F95.0
aF95.0
aF95.0
aF95.0
aF95.0
aa(lp430
F98.0
aF98.0
aF98.0
aF80.25
aF80.25
aa(lp431
F96.0
aF96.0
aF96.0
aF80.0
aF80.0
aa(lp432
F101.25
aF101.25
aF101.25
aF80.0
aF80.0
aa(lp433
F102.0
aF102.0
aF102.0
aF80.0
aF80.0
aa(lp434
F98.75
aF98.75
aF98.75
aF98.75
aF98.75
aa(lp435
F99.5
aF99.5
aF99.5
aF80.0
aF80.0
aa(lp436
F101.5
aF101.5
aF101.5
aF101.5
aF101.5
aa(lp437
F102.0
aF102.0
aF102.0
aF102.0
aF102.0
aa(lp438
F100.5
aF100.5
aF100.5
aF80.0
aF80.0
aa(lp439
F100.25
aF100.25
aF100.25
aF80.25
aF80.25
aa(lp440
F101.5
aF101.5
aF101.5
aF81.0
aF81.0
aa(lp441
F100.0
aF100.0
aF100.0
aF80.0
aF80.0
aa(lp442
F97.5
aF97.5
aF97.5
aF80.0
aF80.0
aa(lp443
F100.5
aF100.5
aF100.5
aF80.0
aF80.0
aa(lp444
F100.5
aF100.5
aF100.5
aF80.25
aF80.25
aa(lp445
F99.0
aF99.0
aF99.0
aF80.0
aF80.0
aa(lp446
F102.0
aF102.0
aF102.0
aF81.25
aF81.25
aa(lp447
F100.25
aF100.25
aF100.25
aF100.25
aF100.25
aa(lp448
F99.0
aF99.0
aF99.0
aF80.5
aF80.5
aa(lp449
F101.0
aF101.0
aF101.0
aF80.0
aF80.0
aa(lp450
F100.25
aF100.25
aF100.25
aF80.0
aF80.0
aa(lp451
F101.25
aF101.25
aF86.75
aF80.0
aF80.0
aa(lp452
F85.0
aF95.75
aF95.75
aF82.5
aF82.5
aa(lp453
F83.5
aF100.25
aF100.25
aF83.0
aF83.0
aa(lp454
F100.75
aF100.75
aF100.75
aF80.0
aF80.0
aa(lp455
F98.0
aF98.0
aF98.0
aF80.0
aF80.0
aa(lp456
F101.75
aF101.75
aF101.75
aF80.0
aF80.0
aa(lp457
F99.75
aF99.75
aF99.75
aF81.25
aF81.25
aa(lp458
F97.5
aF91.5
aF97.5
aF81.0
aF81.0
aa(lp459
F100.75
aF100.75
aF100.75
aF80.0
aF80.0
aa(lp460
F89.5
aF89.5
aF89.5
aF89.5
aF89.5
aa(lp461
F98.25
aF98.25
aF98.25
aF80.0
aF80.0
aa(lp462
F96.5
aF96.5
aF96.5
aF80.0
aF80.0
aa(lp463
F101.5
aF101.5
aF101.5
aF80.0
aF80.0
aa(lp464
F99.5
aF99.5
aF99.5
aF99.5
aF99.5
aa(lp465
F100.75
aF100.75
aF100.75
aF80.0
aF80.0
aa(lp466
F99.5
aF99.5
aF99.5
aF80.0
aF80.0
aa(lp467
F98.0
aF98.0
aF98.0
aF98.0
aF98.0
aa(lp468
F102.0
aF102.0
aF102.0
aF80.25
aF80.25
aa(lp469
F101.0
aF101.0
aF101.0
aF80.5
aF80.5
aa(lp470
F100.0
aF100.0
aF100.0
aF80.0
aF80.0
aa(lp471
F98.25
aF98.25
aF98.25
aF80.0
aF80.0
aa(lp472
F100.75
aF100.75
aF100.75
aF80.0
aF80.0
aa(lp473
F101.0
aF101.0
aF101.0
aF80.0
aF80.0
aa(lp474
F101.75
aF101.75
aF101.75
aF80.5
aF80.5
aa(lp475
F95.25
aF95.25
aF95.25
aF95.25
aF95.25
aa(lp476
F99.75
aF99.75
aF99.75
aF99.75
aF99.75
aa(lp477
F100.75
aF100.75
aF100.75
aF80.5
aF80.5
aa(lp478
F99.75
aF99.75
aF99.75
aF80.0
aF80.0
aa(lp479
F101.0
aF101.0
aF101.0
aF82.75
aF82.75
aa(lp480
F97.75
aF97.75
aF97.75
aF80.0
aF80.0
aa(lp481
F101.5
aF101.5
aF101.5
aF101.5
aF101.5
aa(lp482
F99.0
aF99.0
aF99.0
aF80.0
aF80.0
aa(lp483
F100.5
aF100.5
aF100.5
aF89.5
aF89.5
aa(lp484
F102.0
aF102.0
aF102.0
aF102.0
aF102.0
aa(lp485
F101.75
aF101.75
aF101.75
aF81.0
aF81.0
aa(lp486
F101.5
aF101.5
aF101.5
aF80.0
aF80.0
aa(lp487
F100.5
aF100.5
aF100.5
aF80.0
aF80.0
aa(lp488
F100.25
aF100.25
aF100.25
aF80.25
aF80.25
aa(lp489
F100.5
aF100.5
aF100.5
aF80.0
aF80.0
aa(lp490
F99.5
aF99.5
aF99.5
aF81.0
aF81.0
aa(lp491
F101.75
aF101.75
aF101.75
aF101.75
aF101.75
aa(lp492
F101.5
aF101.5
aF101.5
aF85.25
aF85.25
aa(lp493
F102.0
aF102.0
aF102.0
aF80.0
aF80.0
aa(lp494
F101.25
aF101.25
aF101.25
aF80.25
aF80.25
aa(lp495
F100.75
aF100.75
aF100.75
aF100.75
aF100.75
aa(lp496
F101.5
aF101.5
aF101.5
aF80.75
aF80.75
aa(lp497
F101.75
aF101.75
aF101.75
aF80.75
aF80.75
aa(lp498
F102.0
aF102.0
aF102.0
aF80.0
aF80.0
aa(lp499
F101.0
aF101.0
aF101.0
aF80.0
aF80.0
aa(lp500
F101.25
aF101.25
aF101.25
aF101.25
aF101.25
aa(lp501
F99.75
aF99.75
aF99.75
aF99.75
aF99.75
aa(lp502
F100.0
aF100.0
aF100.0
aF80.0
aF80.0
aa(lp503
F100.25
aF100.25
aF100.25
aF100.25
aF100.25
aa(lp504
F100.25
aF100.25
aF100.25
aF100.25
aF100.25
aa(lp505
F97.5
aF97.5
aF97.5
aF101.75
aF80.5
aa(lp506
F94.25
aF94.25
aF94.25
aF80.0
aF80.0
aa(lp507
F101.0
aF101.0
aF101.0
aF80.0
aF80.0
aa(lp508
F100.0
aF100.0
aF100.0
aF80.5
aF80.5
aa(lp509
F100.75
aF100.75
aF100.75
aF80.0
aF80.0
aa(lp510
F98.5
aF98.5
aF98.5
aF98.5
aF98.5
aa(lp511
F100.5
aF100.5
aF100.5
aF81.5
aF81.5
aa(lp512
F99.0
aF99.0
aF99.0
aF80.0
aF80.0
aa(lp513
F98.75
aF98.75
aF98.75
aF80.0
aF80.0
aa(lp514
F91.75
aF91.75
aF91.75
aF91.75
aF91.75
aa(lp515
F101.0
aF101.0
aF101.0
aF80.0
aF80.0
aa(lp516
F97.25
aF97.25
aF97.25
aF81.0
aF81.0
aa(lp517
F99.75
aF99.75
aF99.75
aF80.0
aF80.0
aa(lp518
F101.0
aF101.0
aF101.0
aF80.0
aF80.0
aa(lp519
F102.0
aF102.0
aF102.0
aF80.0
aF80.0
aa(lp520
F100.75
aF100.75
aF100.75
aF85.75
aF85.75
aa(lp521
F101.25
aF101.25
aF101.25
aF101.25
aF101.25
aa(lp522
F96.75
aF96.75
aF96.75
aF81.0
aF81.0
aa(lp523
F100.25
aF100.25
aF100.25
aF80.5
aF80.5
aa(lp524
F99.75
aF99.75
aF99.75
aF80.0
aF80.0
aa(lp525
F99.5
aF99.5
aF99.5
aF99.5
aF99.5
aa(lp526
F99.5
aF99.5
aF99.5
aF99.5
aF99.5
aa(lp527
F98.0
aF98.0
aF98.0
aF81.5
aF81.5
aa(lp528
F100.75
aF97.25
aF100.75
aF80.25
aF80.25
aa(lp529
F93.5
aF93.5
aF93.5
aF93.5
aF93.5
aa(lp530
F101.0
aF101.0
aF101.0
aF80.0
aF80.0
aa(lp531
F100.5
aF100.5
aF100.5
aF80.0
aF80.0
aa(lp532
F96.0
aF96.0
aF96.0
aF80.0
aF80.0
aa(lp533
F100.75
aF100.75
aF100.75
aF100.75
aF100.75
aa(lp534
F101.75
aF101.75
aF89.5
aF80.0
aF80.0
aa(lp535
F98.0
aF98.0
aF98.0
aF98.0
aF98.0
aa(lp536
F99.5
aF102.0
aF102.0
aF102.0
aF102.0
aa(lp537
F98.5
aF98.5
aF98.5
aF94.5
aF94.5
aa(lp538
F100.5
aF100.5
aF100.5
aF93.25
aF93.25
aa(lp539
F100.5
aF100.5
aF100.5
aF81.25
aF81.25
aa(lp540
F100.0
aF100.0
aF100.0
aF80.0
aF80.0
aa(lp541
F100.75
aF100.75
aF100.75
aF80.0
aF80.0
aa(lp542
F100.25
aF100.25
aF100.25
aF80.0
aF80.0
aa(lp543
F100.0
aF100.0
aF100.0
aF80.0
aF80.0
aa(lp544
F100.5
aF100.5
aF100.5
aF80.0
aF80.0
aa(lp545
F98.75
aF98.75
aF98.75
aF81.75
aF81.75
aa(lp546
F99.5
aF99.5
aF99.5
aF80.0
aF80.0
aa(lp547
F101.75
aF101.75
aF101.75
aF99.25
aF99.25
aa(lp548
F100.0
aF100.0
aF100.0
aF81.0
aF81.0
aa(lp549
F99.25
aF99.25
aF99.25
aF80.0
aF80.0
aa(lp550
F100.5
aF100.5
aF100.5
aF100.5
aF100.5
aa(lp551
F98.5
aF98.5
aF98.5
aF80.25
aF80.25
aa(lp552
F101.0
aF101.0
aF101.0
aF80.5
aF80.5
aa(lp553
F88.75
aF88.75
aF88.75
aF88.75
aF88.75
aa(lp554
F100.5
aF100.5
aF100.5
aF80.0
aF80.0
aa(lp555
F90.25
aF90.25
aF90.25
aF90.25
aF90.25
aa(lp556
F98.75
aF98.75
aF98.75
aF80.75
aF80.75
aa(lp557
F100.5
aF100.5
aF100.5
aF80.25
aF80.25
aa(lp558
F101.5
aF101.5
aF101.5
aF80.0
aF80.0
aa(lp559
F100.0
aF100.0
aF100.0
aF80.0
aF80.0
aa(lp560
F100.0
aF100.0
aF100.0
aF88.25
aF88.25
aa(lp561
F101.25
aF101.25
aF101.25
aF80.0
aF80.0
aa(lp562
F102.0
aF102.0
aF102.0
aF102.0
aF102.0
aa(lp563
F101.75
aF101.75
aF101.75
aF80.5
aF80.5
aa(lp564
F100.75
aF100.75
aF100.75
aF84.75
aF84.75
aa(lp565
F100.5
aF100.5
aF100.5
aF80.0
aF80.0
aa(lp566
F99.75
aF99.75
aF99.75
aF99.75
aF99.75
aa(lp567
F101.5
aF101.5
aF101.5
aF101.5
aF101.5
aa(lp568
F99.75
aF99.75
aF99.75
aF80.0
aF80.0
aa(lp569
F98.0
aF98.0
aF98.0
aF83.0
aF83.0
aa(lp570
F99.5
aF99.5
aF99.5
aF99.5
aF99.5
aa(lp571
F101.25
aF101.25
aF101.25
aF80.0
aF80.0
aa(lp572
F96.0
aF96.0
aF96.0
aF80.75
aF80.75
aa(lp573
F101.0
aF101.0
aF101.0
aF80.0
aF80.0
aa(lp574
F96.75
aF96.75
aF96.75
aF85.5
aF85.5
aa(lp575
F100.0
aF100.0
aF100.0
aF80.25
aF80.25
aa(lp576
F96.25
aF96.25
aF96.25
aF80.5
aF80.5
aa(lp577
F101.25
aF101.25
aF101.25
aF80.25
aF80.25
aa(lp578
F102.0
aF102.0
aF102.0
aF81.25
aF81.25
aa(lp579
F101.25
aF101.25
aF101.25
aF101.25
aF101.25
aa(lp580
F102.0
aF102.0
aF102.0
aF83.5
aF83.5
aa(lp581
F99.25
aF99.25
aF99.25
aF99.25
aF99.25
aa(lp582
F101.0
aF101.0
aF101.0
aF80.75
aF80.75
aa(lp583
F101.5
aF101.5
aF101.5
aF80.5
aF80.5
aa(lp584
F99.75
aF99.75
aF99.75
aF81.5
aF81.5
aa(lp585
F100.25
aF100.25
aF100.25
aF100.25
aF100.25
aa(lp586
F102.0
aF102.0
aF102.0
aF80.0
aF80.0
aa(lp587
F93.5
aF93.5
aF93.5
aF80.0
aF80.0
aa(lp588
F96.5
aF96.5
aF96.5
aF80.5
aF80.5
aa(lp589
F101.25
aF101.25
aF101.25
aF80.25
aF80.25
aa(lp590
F100.0
aF100.0
aF100.0
aF80.5
aF80.5
aa(lp591
F101.25
aF101.25
aF101.25
aF80.25
aF80.25
aa(lp592
F101.75
aF101.75
aF101.75
aF80.5
aF80.5
aa(lp593
F98.75
aF98.75
aF98.75
aF81.0
aF81.0
aa(lp594
F101.0
aF101.0
aF101.0
aF101.0
aF101.0
aa(lp595
F100.5
aF100.5
aF100.5
aF80.0
aF80.0
aa(lp596
F97.75
aF97.75
aF97.75
aF80.5
aF80.5
aa(lp597
F95.0
aF95.0
aF95.0
aF85.25
aF85.25
aa(lp598
F101.75
aF101.75
aF101.75
aF80.0
aF80.0
aa(lp599
F92.0
aF92.0
aF92.0
aF92.0
aF92.0
aa(lp600
F100.5
aF100.5
aF100.5
aF80.0
aF80.0
aa(lp601
F96.5
aF96.5
aF96.5
aF80.0
aF80.0
aa(lp602
F99.25
aF99.25
aF99.25
aF80.0
aF80.0
aa(lp603
F95.75
aF95.75
aF95.75
aF80.0
aF80.0
aa(lp604
F98.25
aF98.25
aF98.25
aF83.5
aF83.5
aa(lp605
F99.75
aF99.75
aF99.75
aF81.75
aF81.75
aa(lp606
F96.25
aF96.25
aF96.25
aF80.5
aF80.5
aa(lp607
F99.5
aF99.5
aF99.5
aF80.5
aF80.5
aa(lp608
F100.75
aF100.75
aF100.75
aF80.0
aF80.0
aa(lp609
F101.75
aF101.75
aF101.75
aF101.75
aF101.75
aa(lp610
F90.25
aF90.25
aF90.25
aF80.25
aF80.25
aa(lp611
F97.0
aF97.0
aF97.0
aF80.0
aF80.0
aa(lp612
F100.75
aF100.75
aF100.75
aF80.5
aF80.5
aa(lp613
F93.75
aF93.75
aF93.75
aF93.75
aF93.75
aa(lp614
F100.25
aF100.25
aF100.25
aF100.25
aF100.25
aa(lp615
F99.75
aF99.75
aF99.75
aF80.0
aF80.0
aa(lp616
F99.25
aF99.25
aF99.25
aF99.25
aF99.25
aa(lp617
F98.25
aF98.25
aF98.25
aF80.0
aF80.0
aa(lp618
F96.75
aF96.75
aF96.75
aF96.75
aF96.75
aa(lp619
F99.75
aF99.75
aF99.75
aF81.0
aF81.0
aa(lp620
F99.25
aF99.25
aF99.25
aF99.25
aF99.25
aa(lp621
F100.0
aF100.0
aF100.0
aF100.0
aF100.0
aa(lp622
F98.25
aF98.25
aF98.25
aF80.0
aF80.0
aa(lp623
F99.5
aF99.5
aF99.5
aF99.5
aF99.5
aa(lp624
F97.25
aF102.0
aF102.0
aF80.0
aF80.0
aa(lp625
F98.5
aF98.5
aF98.5
aF81.0
aF81.0
aa(lp626
F99.0
aF99.0
aF99.0
aF80.0
aF80.0
aa(lp627
F95.75
aF95.75
aF95.75
aF90.0
aF95.75
aa(lp628
F100.75
aF100.75
aF100.75
aF81.75
aF81.75
aa(lp629
F101.0
aF101.0
aF101.0
aF101.0
aF101.0
aa(lp630
F101.75
aF101.75
aF101.75
aF101.75
aF101.75
aa(lp631
F101.25
aF101.25
aF101.25
aF80.25
aF80.25
aa(lp632
F99.0
aF99.0
aF99.0
aF80.0
aF80.0
aa(lp633
F100.5
aF100.5
aF100.5
aF80.5
aF80.5
aa(lp634
F101.0
aF101.0
aF101.0
aF101.0
aF101.0
aa(lp635
F100.0
aF87.25
aF100.0
aF80.0
aF80.0
aa(lp636
F101.25
aF101.25
aF101.25
aF80.5
aF80.5
aa(lp637
F100.75
aF100.75
aF100.75
aF80.0
aF80.0
aa(lp638
F101.5
aF101.5
aF101.5
aF80.25
aF80.25
aa(lp639
F99.5
aF99.5
aF99.5
aF99.5
aF99.5
aa(lp640
F98.75
aF98.75
aF98.75
aF95.0
aF98.75
aa(lp641
F95.5
aF95.5
aF95.5
aF80.5
aF80.5
aa(lp642
F99.0
aF99.0
aF99.0
aF80.25
aF80.25
aa(lp643
F97.75
aF97.75
aF97.75
aF97.75
aF97.75
aa(lp644
F101.5
aF101.5
aF101.5
aF80.5
aF80.5
aa(lp645
F100.0
aF100.0
aF100.0
aF80.0
aF80.0
aa(lp646
F101.5
aF101.5
aF101.5
aF80.5
aF80.5
aa(lp647
F100.0
aF100.0
aF100.0
aF87.25
aF87.25
aa(lp648
F99.0
aF99.0
aF81.25
aF80.25
aF80.25
aa(lp649
F95.25
aF95.25
aF95.25
aF86.25
aF86.25
aa(lp650
F97.0
aF97.0
aF97.0
aF97.0
aF97.0
aa(lp651
F100.25
aF100.25
aF100.25
aF80.0
aF80.0
aa(lp652
F95.5
aF95.5
aF95.5
aF95.5
aF95.5
aa(lp653
F97.25
aF97.25
aF97.25
aF81.25
aF81.25
aa(lp654
F100.75
aF100.75
aF100.75
aF80.25
aF80.25
aa(lp655
F100.25
aF100.25
aF100.25
aF80.0
aF80.0
aa(lp656
F99.5
aF99.5
aF99.5
aF80.25
aF80.25
aa(lp657
F99.25
aF99.25
aF99.25
aF81.0
aF81.0
aa(lp658
F100.75
aF100.75
aF100.75
aF80.5
aF80.5
aa(lp659
F101.25
aF101.25
aF101.25
aF80.5
aF80.5
aa(lp660
F96.5
aF96.5
aF96.5
aF80.25
aF80.25
aa(lp661
F100.0
aF100.0
aF100.0
aF80.0
aF80.0
aa(lp662
F102.0
aF102.0
aF102.0
aF80.0
aF80.0
aa(lp663
F98.75
aF98.75
aF98.75
aF80.0
aF80.0
aa(lp664
F101.0
aF101.0
aF101.0
aF81.0
aF81.0
aa(lp665
F100.25
aF100.25
aF100.25
aF80.25
aF80.25
aa(lp666
F100.75
aF100.75
aF100.75
aF100.75
aF100.75
aa(lp667
F95.75
aF95.75
aF95.75
aF95.75
aF95.75
aa(lp668
F92.25
aF92.25
aF92.25
aF92.25
aF92.25
aa(lp669
F100.25
aF100.25
aF100.25
aF80.25
aF80.25
aa(lp670
F101.75
aF101.75
aF101.75
aF80.25
aF80.25
aa(lp671
F100.5
aF100.5
aF100.5
aF80.0
aF80.0
aa(lp672
F102.0
aF102.0
aF102.0
aF80.0
aF80.0
aa(lp673
F100.0
aF100.0
aF100.0
aF80.0
aF80.0
aa(lp674
F101.75
aF101.75
aF101.75
aF80.25
aF80.25
aa(lp675
F100.5
aF100.5
aF100.5
aF80.0
aF80.0
aa(lp676
F98.25
aF98.25
aF98.25
aF98.25
aF98.25
aa(lp677
F101.0
aF101.0
aF101.0
aF80.25
aF80.25
aa(lp678
F100.75
aF100.75
aF100.75
aF100.75
aF100.75
aa(lp679
F99.5
aF99.5
aF99.5
aF80.25
aF80.25
aa(lp680
F89.25
aF89.25
aF89.25
aF89.25
aF89.25
aa(lp681
F100.25
aF100.25
aF100.25
aF80.0
aF80.0
aa(lp682
F99.75
aF99.75
aF99.75
aF80.0
aF80.0
aa(lp683
F99.0
aF99.0
aF99.0
aF80.0
aF80.0
aa(lp684
F101.25
aF101.25
aF101.25
aF80.0
aF80.0
aa(lp685
F101.0
aF101.0
aF101.0
aF101.0
aF101.0
aa(lp686
F99.25
aF99.25
aF99.25
aF99.25
aF99.25
aa(lp687
F101.0
aF101.0
aF101.0
aF80.0
aF80.0
aa(lp688
F97.5
aF97.5
aF97.5
aF80.0
aF80.0
aa(lp689
F99.75
aF99.75
aF99.75
aF80.0
aF80.0
aa(lp690
F99.75
aF99.75
aF99.75
aF80.75
aF80.75
aa(lp691
F100.0
aF100.0
aF100.0
aF82.75
aF82.75
aa(lp692
F100.5
aF100.5
aF100.5
aF80.75
aF80.75
aa(lp693
F97.0
aF97.0
aF97.0
aF80.5
aF80.5
aa(lp694
F95.0
aF95.0
aF95.0
aF80.0
aF80.0
aa(lp695
F98.75
aF98.75
aF98.75
aF84.25
aF84.25
aa(lp696
F99.75
aF99.75
aF99.75
aF99.25
aF99.25
aa(lp697
F98.75
aF98.75
aF98.75
aF80.25
aF80.25
aa(lp698
F101.75
aF101.75
aF101.75
aF80.0
aF80.0
aa(lp699
F101.25
aF101.25
aF101.25
aF81.25
aF81.25
aa(lp700
F98.75
aF98.75
aF98.75
aF81.25
aF81.25
aa(lp701
F102.0
aF102.0
aF102.0
aF102.0
aF102.0
aa(lp702
F101.5
aF101.5
aF101.5
aF80.25
aF80.25
aa(lp703
F101.0
aF101.0
aF101.0
aF80.5
aF80.5
aa(lp704
F99.5
aF81.75
aF99.5
aF80.0
aF80.0
aa(lp705
F102.0
aF102.0
aF102.0
aF80.5
aF80.5
aa(lp706
F101.75
aF101.75
aF101.75
aF101.75
aF101.75
aa(lp707
F99.5
aF99.5
aF99.5
aF80.0
aF80.0
aa(lp708
F92.25
aF92.25
aF92.25
aF80.5
aF80.5
aa(lp709
F100.5
aF100.5
aF100.5
aF100.5
aF100.5
aa(lp710
F99.75
aF99.75
aF99.75
aF80.0
aF80.0
aa(lp711
F96.0
aF96.0
aF96.0
aF96.0
aF92.25
aa(lp712
F99.5
aF99.5
aF99.5
aF80.75
aF80.75
aa(lp713
F99.5
aF99.5
aF99.5
aF80.25
aF80.25
aa(lp714
F101.5
aF101.5
aF101.5
aF87.5
aF87.5
aa(lp715
F98.0
aF88.25
aF98.0
aF98.0
aF98.0
aa(lp716
F101.5
aF101.5
aF101.5
aF80.0
aF80.0
aa(lp717
F100.5
aF100.5
aF100.5
aF80.0
aF80.0
aa(lp718
F101.0
aF101.0
aF101.0
aF81.0
aF81.0
aa(lp719
F98.0
aF98.0
aF98.0
aF81.75
aF80.0
aa(lp720
F100.25
aF100.25
aF100.25
aF100.25
aF100.25
aa(lp721
F98.25
aF98.25
aF98.25
aF80.25
aF80.25
aa(lp722
F99.0
aF99.0
aF99.0
aF80.0
aF80.0
aa(lp723
F94.0
aF94.0
aF94.0
aF94.0
aF94.0
aa(lp724
F101.5
aF101.5
aF101.5
aF80.75
aF80.75
aa(lp725
F100.0
aF100.0
aF100.0
aF80.0
aF80.0
aa(lp726
F97.0
aF97.0
aF97.0
aF97.0
aF97.0
aa(lp727
F99.0
aF99.0
aF99.0
aF80.75
aF80.75
aa(lp728
F98.5
aF98.5
aF98.5
aF80.0
aF80.0
aa(lp729
F102.0
aF102.0
aF102.0
aF80.0
aF80.0
aa(lp730
F100.0
aF100.0
aF100.0
aF100.0
aF100.0
aa(lp731
F101.5
aF101.5
aF101.5
aF101.25
aF80.0
aa(lp732
F100.5
aF100.5
aF100.5
aF80.25
aF80.25
aa(lp733
F100.0
aF100.0
aF100.0
aF80.0
aF80.0
aa(lp734
F99.25
aF99.25
aF99.25
aF81.0
aF81.0
aa(lp735
F101.75
aF101.75
aF101.75
aF80.25
aF80.25
aa(lp736
F102.0
aF102.0
aF102.0
aF81.0
aF81.0
aa(lp737
F96.75
aF96.75
aF96.75
aF80.0
aF80.0
aa(lp738
F102.0
aF102.0
aF102.0
aF80.5
aF80.5
aa(lp739
F99.25
aF99.25
aF99.25
aF85.5
aF85.5
aa(lp740
F98.25
aF98.25
aF98.25
aF98.25
aF98.25
aa(lp741
F95.75
aF95.75
aF95.75
aF80.25
aF80.25
aa(lp742
F100.5
aF100.5
aF100.5
aF80.0
aF80.0
aa(lp743
F99.75
aF99.75
aF99.75
aF99.75
aF99.75
aa(lp744
F101.0
aF101.0
aF101.0
aF80.0
aF80.0
aa(lp745
F101.75
aF101.75
aF101.75
aF80.25
aF80.25
aa(lp746
F100.25
aF100.25
aF100.25
aF82.25
aF82.25
aa(lp747
F100.75
aF100.75
aF100.75
aF81.75
aF81.75
aa(lp748
F100.0
aF100.0
aF100.0
aF80.5
aF80.5
aa(lp749
F99.75
aF99.75
aF99.75
aF80.0
aF80.0
aa(lp750
F98.75
aF98.75
aF98.75
aF80.0
aF80.0
aa(lp751
F98.75
aF98.75
aF98.75
aF80.0
aF80.0
aa(lp752
F97.75
aF97.75
aF97.75
aF80.0
aF80.0
aa(lp753
F100.25
aF100.25
aF100.25
aF80.0
aF80.0
aa(lp754
F99.25
aF99.25
aF99.25
aF80.0
aF80.0
aa(lp755
F102.0
aF102.0
aF102.0
aF80.75
aF80.75
aa(lp756
F98.75
aF98.75
aF98.75
aF80.5
aF80.5
aa(lp757
F100.25
aF100.25
aF100.25
aF100.25
aF100.25
aa(lp758
F98.25
aF98.25
aF98.25
aF98.25
aF98.25
aa(lp759
F99.75
aF99.75
aF99.75
aF99.75
aF99.75
aa(lp760
F98.0
aF98.0
aF98.0
aF80.0
aF80.0
aa(lp761
F101.75
aF101.75
aF101.75
aF81.0
aF81.0
aa(lp762
F100.25
aF100.25
aF100.25
aF80.25
aF80.25
aa(lp763
F98.25
aF98.25
aF98.25
aF80.0
aF80.0
aa(lp764
F101.5
aF101.5
aF101.5
aF80.0
aF80.0
aa(lp765
F100.25
aF100.25
aF100.25
aF80.0
aF80.0
aa(lp766
F99.0
aF99.0
aF99.0
aF80.25
aF80.25
aa(lp767
F101.5
aF101.5
aF101.5
aF80.0
aF80.0
aa(lp768
F99.0
aF99.0
aF99.0
aF80.25
aF80.25
aa(lp769
F101.5
aF101.5
aF101.5
aF101.5
aF101.5
aa(lp770
F98.25
aF98.25
aF98.25
aF80.0
aF80.0
aa(lp771
F94.75
aF94.75
aF94.75
aF94.75
aF94.75
aa(lp772
F98.75
aF98.75
aF98.75
aF98.75
aF98.75
aa(lp773
F101.5
aF101.5
aF101.5
aF83.25
aF80.75
aa(lp774
F96.5
aF96.5
aF96.5
aF81.25
aF81.25
aa(lp775
F101.5
aF101.5
aF101.5
aF101.5
aF101.5
aa(lp776
F99.25
aF99.25
aF99.25
aF99.25
aF99.25
aa(lp777
F101.5
aF101.5
aF101.5
aF81.75
aF81.75
aa(lp778
F102.0
aF82.0
aF102.0
aF102.0
aF102.0
aa(lp779
F101.25
aF101.25
aF101.25
aF80.0
aF80.0
aa(lp780
F102.0
aF102.0
aF102.0
aF81.25
aF81.25
aa(lp781
F101.25
aF101.25
aF101.25
aF80.25
aF80.25
aa(lp782
F101.25
aF101.25
aF101.25
aF80.0
aF80.0
aa(lp783
F100.75
aF100.75
aF100.75
aF80.0
aF80.0
aa(lp784
F97.25
aF97.25
aF97.25
aF80.0
aF80.0
aa(lp785
F100.0
aF100.0
aF100.0
aF100.0
aF100.0
aa(lp786
F102.0
aF102.0
aF102.0
aF80.5
aF80.5
aa(lp787
F101.75
aF101.75
aF101.75
aF99.75
aF99.75
aa(lp788
F99.0
aF99.0
aF99.0
aF99.0
aF99.0
aa(lp789
F101.75
aF101.75
aF101.75
aF80.0
aF80.0
aa(lp790
F101.5
aF101.5
aF101.5
aF80.25
aF80.25
aa(lp791
F101.0
aF101.0
aF101.0
aF80.25
aF80.25
aa(lp792
F101.5
aF101.5
aF101.5
aF80.25
aF80.25
aa(lp793
F101.25
aF101.25
aF101.25
aF101.25
aF101.25
aa(lp794
F100.75
aF100.75
aF100.75
aF80.0
aF80.0
aa(lp795
F101.0
aF101.0
aF101.0
aF101.0
aF101.0
aa(lp796
F98.75
aF98.75
aF98.75
aF81.5
aF81.5
aa(lp797
F100.25
aF100.25
aF100.25
aF80.25
aF80.25
aa(lp798
F100.5
aF100.5
aF100.5
aF80.0
aF80.0
aa(lp799
F98.5
aF98.5
aF98.5
aF80.0
aF80.0
aa(lp800
F100.75
aF100.75
aF100.75
aF80.5
aF80.5
aa(lp801
F98.25
aF98.25
aF98.25
aF80.0
aF80.0
aa(lp802
F95.5
aF95.5
aF95.5
aF95.5
aF95.5
aa(lp803
F96.5
aF96.5
aF96.5
aF96.5
aF96.5
aa(lp804
F100.75
aF100.75
aF100.75
aF80.75
aF80.75
aa(lp805
F96.5
aF96.5
aF96.5
aF82.25
aF82.25
aa(lp806
F96.75
aF96.75
aF96.75
aF96.75
aF96.75
aa(lp807
F100.75
aF100.75
aF100.75
aF80.25
aF80.25
aa(lp808
F97.75
aF97.75
aF97.75
aF80.25
aF80.25
aa(lp809
F99.75
aF99.75
aF99.75
aF80.75
aF80.75
aa(lp810
F94.75
aF94.75
aF94.75
aF81.25
aF81.25
aa(lp811
F100.0
aF100.0
aF100.0
aF80.0
aF80.0
aa(lp812
F97.0
aF97.0
aF97.0
aF80.0
aF80.0
aa(lp813
F96.75
aF96.75
aF99.5
aF80.0
aF80.0
aa(lp814
F101.75
aF101.75
aF101.75
aF101.75
aF101.75
aa(lp815
F99.0
aF99.0
aF99.0
aF80.0
aF80.0
aa(lp816
F100.25
aF100.25
aF100.25
aF100.25
aF100.25
aa(lp817
F98.75
aF98.75
aF98.75
aF98.75
aF98.75
aa(lp818
F99.5
aF99.5
aF99.5
aF80.5
aF80.5
aa(lp819
F100.5
aF100.5
aF100.5
aF80.25
aF80.25
aa(lp820
F99.25
aF99.25
aF99.25
aF80.5
aF80.5
aa(lp821
F94.75
aF94.75
aF94.75
aF80.0
aF80.0
aa(lp822
F101.5
aF101.5
aF101.5
aF101.5
aF101.5
aa(lp823
F102.0
aF102.0
aF102.0
aF80.25
aF80.25
aa(lp824
F101.75
aF101.75
aF101.75
aF94.0
aF80.5
aa(lp825
F97.25
aF97.25
aF97.25
aF80.25
aF80.25
aa(lp826
F101.25
aF101.25
aF101.25
aF80.0
aF80.0
aa(lp827
F98.0
aF98.0
aF98.0
aF80.25
aF80.25
aa(lp828
F95.25
aF95.25
aF95.25
aF80.0
aF80.0
aa(lp829
F98.75
aF98.75
aF98.75
aF80.25
aF80.25
aa(lp830
F98.75
aF98.75
aF98.75
aF98.75
aF98.75
aa(lp831
F99.25
aF99.25
aF84.0
aF82.0
aF82.0
aa(lp832
F98.5
aF98.5
aF98.5
aF80.25
aF80.25
aa(lp833
F92.25
aF92.25
aF92.25
aF80.25
aF80.25
aa(lp834
F102.0
aF102.0
aF102.0
aF80.0
aF80.0
aa(lp835
F99.5
aF99.5
aF99.5
aF80.5
aF80.5
aa(lp836
F101.75
aF101.75
aF101.75
aF80.25
aF80.25
aa(lp837
F100.25
aF100.25
aF100.25
aF81.5
aF81.5
aa(lp838
F99.75
aF99.75
aF99.75
aF99.75
aF99.75
aa(lp839
F100.75
aF100.75
aF100.75
aF80.25
aF80.25
aa(lp840
F99.5
aF99.5
aF99.5
aF80.25
aF80.25
aa(lp841
F90.5
aF90.5
aF90.5
aF80.0
aF80.0
aa(lp842
F99.75
aF99.5
aF99.5
aF81.0
aF81.0
aa(lp843
F102.0
aF102.0
aF102.0
aF80.25
aF80.25
aa(lp844
F101.75
aF101.75
aF101.75
aF80.25
aF80.25
aa(lp845
F96.0
aF96.0
aF96.0
aF81.25
aF81.25
aa(lp846
F99.0
aF99.0
aF99.0
aF99.0
aF99.0
aa(lp847
F101.75
aF101.75
aF101.75
aF101.75
aF101.75
aa(lp848
F99.0
aF99.0
aF99.0
aF80.0
aF80.0
aa(lp849
F101.75
aF101.75
aF101.75
aF84.75
aF84.75
aa(lp850
F100.25
aF100.25
aF100.25
aF100.25
aF100.25
aa(lp851
F98.75
aF98.75
aF89.25
aF80.0
aF80.0
aa(lp852
F100.5
aF100.5
aF100.5
aF81.5
aF81.5
aa(lp853
F92.75
aF92.75
aF92.75
aF92.75
aF92.75
aa(lp854
F100.5
aF100.5
aF100.5
aF80.5
aF80.5
aa(lp855
F100.25
aF87.75
aF100.25
aF81.0
aF81.0
aa(lp856
F101.5
aF101.5
aF101.5
aF101.5
aF101.5
aa(lp857
F98.25
aF98.25
aF98.25
aF98.25
aF98.25
aa(lp858
F101.5
aF101.5
aF101.5
aF80.5
aF80.5
aa(lp859
F97.25
aF97.25
aF97.25
aF80.0
aF80.0
aa(lp860
F100.5
aF100.5
aF100.5
aF100.5
aF100.5
aa(lp861
F98.5
aF98.5
aF98.5
aF80.0
aF80.0
aa(lp862
F100.0
aF100.0
aF100.0
aF80.25
aF80.25
aa(lp863
F98.5
aF98.5
aF98.5
aF80.0
aF80.0
aa(lp864
F100.75
aF100.75
aF100.75
aF80.5
aF80.5
aa(lp865
F99.5
aF99.5
aF99.5
aF80.0
aF80.0
aa(lp866
F101.5
aF101.5
aF101.5
aF80.5
aF80.5
aa(lp867
F100.75
aF100.75
aF100.75
aF80.0
aF80.0
aa(lp868
F101.0
aF101.0
aF101.0
aF82.25
aF82.25
aa(lp869
F98.75
aF98.75
aF98.75
aF80.0
aF80.0
aa(lp870
F102.0
aF102.0
aF102.0
aF102.0
aF102.0
aa(lp871
F100.0
aF100.0
aF100.0
aF100.0
aF100.0
aa(lp872
F101.75
aF101.75
aF101.75
aF80.5
aF80.5
aa(lp873
F101.5
aF101.5
aF101.5
aF80.0
aF80.0
aa(lp874
F100.5
aF100.5
aF100.5
aF81.0
aF81.0
aa(lp875
F101.75
aF101.75
aF101.75
aF80.0
aF80.0
aa(lp876
F101.75
aF101.75
aF101.75
aF80.75
aF80.75
aa(lp877
F95.25
aF95.25
aF95.25
aF95.25
aF95.25
aa(lp878
F101.5
aF101.5
aF101.5
aF101.5
aF101.5
aa(lp879
F99.75
aF99.75
aF99.75
aF99.75
aF99.75
aa(lp880
F101.25
aF101.25
aF101.25
aF101.25
aF101.25
aa(lp881
F99.0
aF99.0
aF99.0
aF99.0
aF99.0
aa(lp882
F98.25
aF98.25
aF98.25
aF81.0
aF81.0
aa(lp883
F95.25
aF95.25
aF95.25
aF81.25
aF81.25
aa(lp884
F93.5
aF93.5
aF93.5
aF83.75
aF83.75
aa(lp885
F96.0
aF96.0
aF96.0
aF80.25
aF80.25
aa(lp886
F101.75
aF101.75
aF101.75
aF101.75
aF101.75
aa(lp887
F101.75
aF101.75
aF101.75
aF80.0
aF80.0
aa(lp888
F99.25
aF99.25
aF99.25
aF99.25
aF99.25
aa(lp889
F100.75
aF100.75
aF100.75
aF80.25
aF80.25
aa(lp890
F102.0
aF102.0
aF102.0
aF80.0
aF80.0
aa(lp891
F101.25
aF101.25
aF101.25
aF96.25
aF96.25
aa(lp892
F101.0
aF101.0
aF101.0
aF80.0
aF80.0
aa(lp893
F98.75
aF98.75
aF98.75
aF80.0
aF80.0
aa(lp894
F102.0
aF102.0
aF102.0
aF102.0
aF102.0
aa(lp895
F102.0
aF102.0
aF102.0
aF80.0
aF80.0
aa(lp896
F101.0
aF101.0
aF101.0
aF80.25
aF80.25
aa(lp897
F101.25
aF101.25
aF101.25
aF80.0
aF80.0
aa(lp898
F98.75
aF98.75
aF98.75
aF80.25
aF80.25
aa(lp899
F102.0
aF102.0
aF102.0
aF80.0
aF80.0
aa(lp900
F99.0
aF99.0
aF99.0
aF81.5
aF81.5
aa(lp901
F91.5
aF91.5
aF91.5
aF81.25
aF81.25
aa(lp902
F100.25
aF100.25
aF100.25
aF80.5
aF80.5
aa(lp903
F97.5
aF97.5
aF97.5
aF83.5
aF83.5
aa(lp904
F101.25
aF101.25
aF101.25
aF80.0
aF80.0
aa(lp905
F99.25
aF99.25
aF99.25
aF99.25
aF99.25
aa(lp906
F102.0
aF102.0
aF102.0
aF80.25
aF80.25
aa(lp907
F101.75
aF101.75
aF101.75
aF80.0
aF80.0
aa(lp908
F102.0
aF102.0
aF102.0
aF80.25
aF80.25
aa(lp909
F100.0
aF100.0
aF100.0
aF80.5
aF80.5
aa(lp910
F101.5
aF101.5
aF101.5
aF80.5
aF80.5
aa(lp911
F101.25
aF101.25
aF101.25
aF80.75
aF80.75
aa(lp912
F100.0
aF100.0
aF100.0
aF80.5
aF80.5
aa(lp913
F88.5
aF100.75
aF100.75
aF80.75
aF80.75
aa(lp914
F101.75
aF101.75
aF101.75
aF80.25
aF80.25
aa(lp915
F101.75
aF101.75
aF101.75
aF80.0
aF80.0
aa(lp916
F99.75
aF99.75
aF99.75
aF80.25
aF80.25
aa(lp917
F97.25
aF97.25
aF97.25
aF97.25
aF97.25
aa(lp918
F101.25
aF101.25
aF101.25
aF80.25
aF80.25
aa(lp919
F96.75
aF96.75
aF96.75
aF81.0
aF81.0
aa(lp920
F99.5
aF99.5
aF97.75
aF80.5
aF80.5
aa(lp921
F99.25
aF99.25
aF99.25
aF80.75
aF80.75
aa(lp922
F93.75
aF93.75
aF93.75
aF80.25
aF80.25
aa(lp923
F102.0
aF102.0
aF102.0
aF102.0
aF102.0
aa(lp924
F102.0
aF102.0
aF102.0
aF80.25
aF80.25
aa(lp925
F100.0
aF100.0
aF100.0
aF80.25
aF80.25
aa(lp926
F101.75
aF101.75
aF101.75
aF81.25
aF81.25
aa(lp927
F96.0
aF96.0
aF96.0
aF96.0
aF96.0
aa(lp928
F100.75
aF100.75
aF100.75
aF80.75
aF80.75
aa(lp929
F102.0
aF102.0
aF102.0
aF80.25
aF80.25
aa(lp930
F101.25
aF101.25
aF101.25
aF83.5
aF83.5
aa(lp931
F96.75
aF96.75
aF96.75
aF81.0
aF81.0
aa(lp932
F95.75
aF95.75
aF95.75
aF80.0
aF80.0
aa(lp933
F97.75
aF97.75
aF97.75
aF97.75
aF97.75
aa(lp934
F98.75
aF98.75
aF98.75
aF80.0
aF80.0
aa(lp935
F101.75
aF101.75
aF101.75
aF101.75
aF101.75
aa(lp936
F96.75
aF96.75
aF96.75
aF80.0
aF80.0
aa(lp937
F101.75
aF101.75
aF101.75
aF80.0
aF80.0
aa(lp938
F101.75
aF101.75
aF101.75
aF80.0
aF80.0
aa(lp939
F100.0
aF100.0
aF100.0
aF80.0
aF80.0
aa(lp940
F97.75
aF97.75
aF97.75
aF97.75
aF97.75
aa(lp941
F101.25
aF101.25
aF101.25
aF101.25
aF101.25
aa(lp942
F100.0
aF100.0
aF100.0
aF80.0
aF80.0
aa(lp943
F100.0
aF100.0
aF100.0
aF80.0
aF80.0
aa(lp944
F97.75
aF97.75
aF97.75
aF80.25
aF80.25
aa(lp945
F100.5
aF100.5
aF100.5
aF80.0
aF80.0
aa(lp946
F101.25
aF101.25
aF101.25
aF80.0
aF80.0
aa(lp947
F100.75
aF100.75
aF100.75
aF100.75
aF100.75
aa(lp948
F96.5
aF96.5
aF96.5
aF80.0
aF80.0
aa(lp949
F99.25
aF99.25
aF99.25
aF80.5
aF80.5
aa(lp950
F97.25
aF97.25
aF97.25
aF97.25
aF97.25
aa(lp951
F99.0
aF99.0
aF99.0
aF80.0
aF80.0
aa(lp952
F101.75
aF101.75
aF101.75
aF80.25
aF80.25
aa(lp953
F92.5
aF92.5
aF92.5
aF80.5
aF80.5
aa(lp954
F88.25
aF88.25
aF88.25
aF83.75
aF83.75
aa(lp955
F100.0
aF100.0
aF100.0
aF98.25
aF98.25
aa(lp956
F97.5
aF97.5
aF97.5
aF80.0
aF80.0
aa(lp957
F101.5
aF101.5
aF101.5
aF101.5
aF101.5
aa(lp958
F94.75
aF94.75
aF94.75
aF80.25
aF80.25
aa(lp959
F101.25
aF101.25
aF101.25
aF80.25
aF80.25
aa(lp960
F99.75
aF99.75
aF99.75
aF99.75
aF99.75
aa(lp961
F100.0
aF100.0
aF100.0
aF100.0
aF100.0
aa(lp962
F100.75
aF100.75
aF100.75
aF80.0
aF80.0
aa(lp963
F99.25
aF99.25
aF99.25
aF81.0
aF81.0
aa(lp964
F99.5
aF99.5
aF99.5
aF84.0
aF84.0
aa(lp965
F99.75
aF99.75
aF99.75
aF81.75
aF81.75
aa(lp966
F100.75
aF100.75
aF100.75
aF80.0
aF80.0
aa(lp967
F101.75
aF101.75
aF89.5
aF80.0
aF80.0
aa(lp968
F100.5
aF100.5
aF100.5
aF80.5
aF80.5
aa(lp969
F98.0
aF98.0
aF98.0
aF80.0
aF80.0
aa(lp970
F98.5
aF98.5
aF98.5
aF80.0
aF80.0
aa(lp971
F99.0
aF99.0
aF99.0
aF80.0
aF80.0
aa(lp972
F99.75
aF89.75
aF99.75
aF80.75
aF80.75
aa(lp973
F97.25
aF97.25
aF97.25
aF81.0
aF81.0
aa(lp974
F99.75
aF99.75
aF99.75
aF81.25
aF81.25
aa(lp975
F100.5
aF100.5
aF100.5
aF80.5
aF80.5
aa(lp976
F99.25
aF99.25
aF99.25
aF98.0
aF98.0
aa(lp977
F101.0
aF101.0
aF101.0
aF101.0
aF101.0
aa(lp978
F100.0
aF100.0
aF100.0
aF100.0
aF100.0
aa(lp979
F101.25
aF101.25
aF101.25
aF80.75
aF80.25
aa(lp980
F99.75
aF99.75
aF99.75
aF99.75
aF99.75
aa(lp981
F100.5
aF100.5
aF100.5
aF80.5
aF80.5
aa(lp982
F101.25
aF101.25
aF101.25
aF101.25
aF101.25
aa(lp983
F101.75
aF101.75
aF101.75
aF80.0
aF80.0
aa(lp984
F97.5
aF97.5
aF97.5
aF80.0
aF80.0
aa(lp985
F102.0
aF102.0
aF102.0
aF102.0
aF102.0
aa(lp986
F95.5
aF95.5
aF95.5
aF95.5
aF95.5
aa(lp987
F97.75
aF97.75
aF97.75
aF80.0
aF80.0
aa(lp988
F97.75
aF97.75
aF97.75
aF80.75
aF80.75
aa(lp989
F100.5
aF100.5
aF100.5
aF99.5
aF99.5
aa(lp990
F100.0
aF100.0
aF100.0
aF80.75
aF80.75
aa(lp991
F100.0
aF100.0
aF100.0
aF80.25
aF80.25
aa(lp992
F101.75
aF101.75
aF101.75
aF80.0
aF80.0
aa(lp993
F92.75
aF92.75
aF92.75
aF80.0
aF80.0
aa(lp994
F102.0
aF102.0
aF102.0
aF102.0
aF102.0
aa(lp995
F100.0
aF100.0
aF100.0
aF80.0
aF80.0
aa(lp996
F99.0
aF99.0
aF99.0
aF99.0
aF99.0
aa(lp997
F102.0
aF102.0
aF102.0
aF102.0
aF102.0
aa(lp998
F98.5
aF98.5
aF98.5
aF80.0
aF80.0
aa(lp999
F101.0
aF101.0
aF101.0
aF81.5
aF81.5
aa(lp1000
F99.0
aF99.0
aF99.0
aF80.0
aF80.0
aa.