6080.0,5120.0,5120.0,5120.0,5120.0
1152.0,1152.0,1152.0,1152.0,1152.0
776.0,776.0,776.0,776.0,776.0
6049.15,5408.85,5408.85,5408.85,5408.85
6082.95,5136.0,5136.0,5136.0,5136.0
5096.0,4676.0,4676.0,4676.0,4676.0
3240.0,3240.0,3240.0,3240.0,3240.0
5140.8,4158.0,4158.0,4158.0,4158.0
1058.75,1058.75,1058.75,1058.75,1058.75
5844.6,4941.9,4941.9,4941.9,4941.9
5064.15,4559.1,4559.1,4559.1,4559.1
4804.15,4149.6,4149.6,4149.6,4149.6
5894.75,5216.45,5216.45,5216.45,5216.45
5584.5,5003.1,5018.4,5003.1,5003.1
5801.6,4780.4,4780.4,4780.4,4780.4
5836.8,4909.6,4909.6,4909.6,4909.6
5524.45,5054.95,5054.95,5399.25,5054.95
-406.0,-406.0,-406.0,-406.0,-406.0
4688.75,4688.75,4688.75,4688.75,4688.75
2660.75,2660.75,2660.75,2660.75,2660.75
5763.8,5232.5,5232.5,5232.5,5232.5
4920.75,4045.95,4045.95,4045.95,4045.95
5054.6,4216.4,4216.4,4216.4,4216.4
5799.75,4588.5,4588.5,4588.5,4588.5
5467.35,4706.8,4706.8,4706.8,4706.8
5976.0,5796.0,5796.0,5796.0,5796.0
5840.0,4701.2,4701.2,4701.2,4701.2
294.75,294.75,294.75,294.75,294.75
5173.35,4531.8,4531.8,4531.8,4531.8
5017.6,4262.4,4262.4,4262.4,4262.4
-408.0,-408.0,-408.0,-408.0,-408.0
5037.55,4208.75,4623.15,4208.75,4208.75
5765.55,5248.75,5248.75,5248.75,5248.75
5628.15,4841.1,4841.1,4841.1,4841.1
6028.75,5216.25,5216.25,5216.25,5216.25
5297.6,5112.8,5112.8,5112.8,5112.8
5376.75,5312.55,5312.55,5312.55,5312.55
5920.0,4750.8,4750.8,4750.8,4750.8
1244.75,1244.75,1244.75,1244.75,1244.75
6000.0,4800.0,4800.0,4800.0,4800.0
6055.2,5585.4,5585.4,5585.4,5585.4
6023.95,5184.15,5184.15,5184.15,5184.15
2490.75,2490.75,2490.75,2490.75,2490.75
5669.55,4761.25,4761.25,4761.25,4761.25
5862.35,5022.65,5022.65,5022.65,5022.65
98.75,98.75,98.75,98.75,98.75
6116.55,5808.0,5808.0,5808.0,5808.0
6042.4,5328.6,5328.6,5328.6,5328.6
5619.75,4808.5,4808.5,4808.5,4808.5
6028.75,5216.25,5216.25,5216.25,5216.25
4538.4,4160.2,4160.2,4160.2,4160.2
5982.6,5441.8,5441.8,5441.8,5441.8
6032.55,4912.0,4912.0,4912.0,4912.0
3158.75,3158.75,3158.75,3158.75,3158.75
5916.75,5539.45,5539.45,5539.45,5539.45
5836.8,4909.6,4909.6,4909.6,4909.6
5314.95,4603.5,4603.5,4603.5,4603.5
5855.75,4749.5,4749.5,4749.5,4749.5
5760.0,4651.2,4651.2,4651.2,4651.2
4847.0,4414.7,4414.7,4414.7,4414.7
5986.75,4991.55,4991.55,4991.55,4991.55
6060.2,5024.0,5024.0,5024.0,5024.0
6053.95,5505.15,5505.15,5505.15,5505.15
-299.25,-299.25,-299.25,-299.25,-299.25
6036.8,4928.0,4928.0,4928.0,4928.0
5776.35,4699.65,4699.65,4699.65,4699.65
5975.2,4943.4,4943.4,4943.4,4943.4
585.0,585.0,585.0,585.0,585.0
96.75,99.25,99.25,99.25,99.25
6051.15,5440.95,5440.95,5440.95,5440.95
5396.95,4933.5,4933.5,4933.5,4933.5
5623.2,4615.0,4615.0,4615.0,4615.0
5875.2,4622.4,4622.4,4622.4,4622.4
5997.4,5039.7,5039.7,5039.7,5039.7
200.5,200.5,183.0,200.5,200.5
5724.6,4554.3,4554.3,4554.3,4554.3
6117.8,5408.0,5408.0,5408.0,5408.0
5662.15,4552.2,4552.2,4552.2,4552.2
4970.75,4970.75,4970.75,4970.75,4970.75
5830.15,5232.6,5232.6,5232.6,5232.6
5954.55,5168.1,5168.1,5168.1,5168.1
3240.0,3240.0,3240.0,3240.0,3240.0
5828.6,4877.3,4877.3,4877.3,4877.3
5577.35,5526.8,5526.8,5526.8,5526.8
5779.95,5508.75,5508.75,5508.75,5508.75
5981.75,5715.5,5715.5,5715.5,5715.5
4814.6,4495.4,4495.4,4495.4,4495.4
6106.95,5296.0,5296.0,5296.0,5296.0
-401.0,-401.0,-401.0,-401.0,-401.0
6028.2,4896.0,4896.0,4896.0,4896.0
6118.95,5424.0,5424.0,5424.0,5424.0
0.0,0.0,0.0,0.0,0.0
3948.75,3948.75,3948.75,3948.75,3948.75
1701.0,1701.0,1701.0,1701.0,1701.0
5776.0,4924.8,4924.8,4924.8,4924.8
6000.0,4800.0,4800.0,4800.0,4800.0
5442.75,4852.75,4852.75,4852.75,4852.75
6023.75,4880.0,4880.0,4880.0,4880.0
5889.0,4862.2,4862.2,4862.2,4862.2
5875.2,4622.4,4622.4,4622.4,4622.4
5718.15,4714.2,4714.2,4714.2,4714.2
5109.0,4349.2,4349.2,4349.2,4349.2
5870.6,4797.8,4797.8,4797.8,4797.8
5256.0,4847.2,4847.2,4847.2,4847.2
5896.8,5232.6,5232.6,5232.6,5232.6
6009.8,4832.0,4832.0,4832.0,4832.0
5993.95,5023.65,5023.65,5023.65,5023.65
5775.0,5362.5,5362.5,5362.5,5362.5
5664.8,4745.0,4745.0,4745.0,4745.0
1279.95,1328.25,1328.25,1328.25,1328.25
5811.0,4812.7,4812.7,4812.7,4812.7
5008.15,4821.6,4821.6,4821.6,4821.6
6123.75,5520.0,5520.0,5520.0,5520.0
5560.75,4823.25,4823.25,4823.25,4823.25
5174.4,4369.2,4369.2,4369.2,4369.2
6060.2,5024.0,5024.0,5024.0,5024.0
5760.0,4651.2,4651.2,4651.2,4651.2
5304.55,4570.5,4570.5,4570.5,4570.5
5445.0,5445.0,5445.0,5445.0,5445.0
6088.55,5168.0,5168.0,5168.0,5168.0
5381.15,4622.45,4622.45,4622.45,4622.45
5940.0,4815.0,4815.0,4815.0,4815.0
5359.95,4556.65,4556.65,4556.65,4556.65
5930.2,4782.9,4782.9,4782.9,4782.9
5064.15,4559.1,4559.1,4559.1,4559.1
5809.0,5086.8,5086.8,5086.8,5086.8
6032.55,4912.0,4912.0,4912.0,4912.0
5416.2,5049.0,5049.0,5049.0,5049.0
5845.35,4717.3,4717.3,4717.3,4717.3
5819.4,5151.6,5151.6,5151.6,5151.6
6032.55,4912.0,4912.0,4912.0,4912.0
6102.95,5936.0,5936.0,5936.0,5936.0
2745.0,2745.0,2745.0,2745.0,2745.0
4761.6,4178.8,4178.8,4178.8,4178.8
6088.55,5168.0,5168.0,5168.0,5168.0
5268.75,4650.55,4650.55,4650.55,4650.55
5965.8,5248.6,5248.6,5248.6,5248.6
5696.95,4649.4,4649.4,4649.4,4649.4
5178.55,4240.5,4240.5,4240.5,4240.5
5408.55,4999.5,4999.5,4999.5,4999.5
5670.15,5036.7,5036.7,5036.7,5036.7
6096.2,5216.0,5216.0,5216.0,5216.0
294.75,294.75,294.75,294.75,294.75
4617.0,4617.0,4617.0,4617.0,4617.0
6096.2,5216.0,5216.0,5216.0,5216.0
3158.75,3158.75,3158.75,3158.75,3158.75
6021.4,5168.1,5168.1,5168.1,5168.1
6082.95,6064.0,6064.0,6064.0,6064.0
5765.55,4667.35,4667.35,4667.35,4667.35
5499.0,4610.7,4610.7,4610.7,4610.7
4979.55,4472.25,4472.25,4472.25,4472.25
5089.35,4299.4,4299.4,4299.4,4299.4
5523.35,4936.4,4936.4,4936.4,4936.4
5904.0,5297.2,5297.2,5297.2,5297.2
4544.75,4544.75,4544.75,4544.75,4544.75
5765.55,4667.35,4667.35,4667.35,4667.35
5954.55,5168.1,5168.1,5168.1,5168.1
6052.0,5457.0,5457.0,5457.0,5457.0
5718.35,4538.15,4538.15,4538.15,4538.15
5504.35,4627.05,4627.05,4627.05,4627.05
4329.0,4024.8,4024.8,4024.8,4024.8
-403.0,-403.0,-403.0,-403.0,-403.0
965.0,965.0,965.0,965.0,965.0
1880.0,1880.0,1880.0,1880.0,1880.0
5783.4,4957.2,4957.2,4957.2,4957.2
3158.75,3158.75,3158.75,3158.75,3158.75
5661.0,4987.8,4987.8,4987.8,4987.8
5915.55,5636.35,5636.35,5636.35,5636.35
5976.0,5796.0,5796.0,5796.0,5796.0
5625.6,4790.55,4790.55,4717.3,4790.55
3320.75,3320.75,3320.75,3320.75,3320.75
5809.0,5086.8,5086.8,5086.8,5086.8
5688.0,5150.8,5150.8,5150.8,5150.8
6055.0,5617.5,5617.5,5617.5,5617.5
6052.75,5697.75,5697.75,5697.75,5697.75
-99.25,-99.25,-99.25,-99.25,-99.25
5237.75,4764.2,4764.2,4764.2,4764.2
5611.0,5068.5,5068.5,5068.5,5068.5
5840.0,4701.2,4701.2,4701.2,4701.2
5718.75,4956.25,4956.25,4956.25,4956.25
5222.4,4501.6,4501.6,4501.6,4501.6
6063.75,5040.0,5040.0,5040.0,5040.0
5685.75,4617.0,4617.0,4617.0,4617.0
5994.95,4784.0,4784.0,4784.0,4784.0
6014.55,4848.0,4848.0,4848.0,4848.0
3240.0,3240.0,3240.0,3240.0,3240.0
4718.55,4208.1,4208.1,4208.1,4208.1
5816.95,5135.4,5135.4,5135.4,5135.4
3401.0,3401.0,3401.0,3401.0,3401.0
5957.0,5184.2,5184.2,5184.2,5184.2
5973.75,4720.0,4720.0,4720.0,4720.0
6088.55,5168.0,5168.0,5168.0,5168.0
4412.5,4150.0,4762.5,4150.0,4150.0
6073.8,5088.0,5088.0,5088.0,5088.0
5817.6,4636.8,4636.8,4636.8,4636.8
5772.8,5330.0,5330.0,5330.0,5330.0
5664.8,4745.0,4745.0,4745.0,4745.0
5892.75,4670.55,4670.55,4670.55,4670.55
6124.95,5584.0,5584.0,5584.0,5584.0
5265.0,4455.0,4455.0,4455.0,4455.0
5082.75,4154.05,4154.05,4154.05,4154.05
5670.15,5036.7,5036.7,5036.7,5036.7
5520.0,4498.8,4498.8,4498.8,4498.8
5900.6,5264.9,5264.9,5264.9,5264.9
5181.0,5243.8,5243.8,5243.8,5243.8
5892.75,4670.55,4670.55,4670.55,4670.55
4901.0,4901.0,4901.0,4901.0,4901.0
4544.75,4544.75,4544.75,4544.75,4544.75
5852.0,4974.2,4974.2,4974.2,4974.2
4875.0,4187.5,4187.5,4187.5,4187.5
5059.2,4542.4,4542.4,4542.4,4542.4
5860.8,4765.6,4765.6,4765.6,4765.6
6055.2,5585.4,5585.4,5585.4,5585.4
5062.75,4378.95,4378.95,4378.95,4378.95
-99.25,-99.25,-99.25,-99.25,-99.25
6098.55,5232.0,5232.0,5232.0,5232.0
5763.8,5232.5,5232.5,5232.5,5232.5
2361.6,2714.4,2714.4,2714.4,2714.4
6100.8,5248.0,5248.0,5248.0,5248.0
1263.15,1193.85,1193.85,1193.85,1193.85
585.0,585.0,585.0,585.0,585.0
4324.8,3604.0,3604.0,3604.0,3604.0
6124.95,5616.0,5616.0,5616.0,5616.0
6014.55,4848.0,4848.0,4848.0,4848.0
5702.4,4665.6,4665.6,4665.6,4665.6
5097.55,4478.85,4478.85,4478.85,4478.85
3183.3,2843.1,2843.1,2843.1,3013.2
5280.0,4342.8,4342.8,4342.8,4342.8
5587.2,4694.4,4694.4,4694.4,4694.4
4649.4,4169.7,4169.7,4169.7,4169.7
6016.0,5136.0,5136.0,5136.0,5136.0
5930.2,4782.9,4782.9,4782.9,4782.9
3979.4,4040.0,3312.8,3312.8,3312.8
5593.6,4970.4,4970.4,4970.4,4970.4
5862.35,5022.65,5022.65,5022.65,5022.65
2232.0,2232.0,2232.0,2232.0,2232.0
4340.1,3563.1,3563.1,4484.4,3563.1
5577.0,4661.8,4661.8,4661.8,4661.8
3968.0,4377.2,4377.2,4377.2,4377.2
5707.8,4907.5,4907.5,4907.5,4907.5
5839.75,5329.8,5329.8,5329.8,5329.8
6049.15,5408.85,5408.85,5408.85,5408.85
294.75,294.75,294.75,294.75,294.75
3948.75,3948.75,3948.75,3948.75,3948.75
5829.0,4669.0,4669.0,4669.0,4669.0
5806.15,5070.6,5070.6,5070.6,5070.6
5826.15,5200.2,5200.2,5200.2,5200.2
5832.0,5832.0,5832.0,5832.0,5832.0
5205.15,4492.3,4492.3,4492.3,4330.9
4544.75,4177.25,4177.25,4177.25,4177.25
3819.1,4177.8,3555.35,3555.35,3555.35
5730.75,4570.45,4570.45,4570.45,4570.45
5683.4,5118.2,5118.2,5118.2,5118.2
6108.8,5312.0,5312.0,5312.0,5312.0
5705.0,5705.0,5705.0,5705.0,5705.0
5862.35,5022.65,5022.65,5022.65,5022.65
4862.75,4465.25,4465.25,4465.25,4465.25
5661.0,4987.8,4987.8,4987.8,4987.8
5737.95,5053.75,5053.75,5053.75,5053.75
5984.55,4752.0,4752.0,4752.0,4752.0
98.75,98.75,98.75,98.75,98.75
4561.75,4394.7,4394.7,4394.7,4394.7
5975.2,4943.4,4943.4,4943.4,4943.4
5953.95,4863.15,4863.15,4863.15,4863.15
6023.75,4880.0,4880.0,4880.0,4880.0
5877.6,5119.2,5056.0,5119.2,5119.2
3240.0,3240.0,3240.0,3240.0,3240.0
6036.8,4928.0,4928.0,4928.0,4928.0
5968.2,4704.0,4704.0,4704.0,4704.0
5171.2,4224.0,4224.0,4224.0,4224.0
5252.8,4422.0,4422.0,4422.0,4422.0
5452.8,4657.6,4657.6,4657.6,4657.6
2255.4,2356.2,2356.2,2356.2,2356.2
6063.75,5040.0,5040.0,5040.0,5040.0
4264.05,3537.1,3537.1,4253.2,3537.1
392.0,392.0,392.0,392.0,392.0
6000.0,4800.0,4800.0,4800.0,4800.0
5944.75,4831.05,4831.05,4831.05,4831.05
5984.55,4752.0,4752.0,4752.0,4752.0
-403.0,-403.0,-403.0,-403.0,-403.0
6098.55,5232.0,5232.0,5232.0,5232.0
5158.4,4134.4,4505.6,4134.4,4134.4
1968.75,1968.75,1968.75,1968.75,1968.75
1968.75,1968.75,1968.75,1968.75,1968.75
5985.0,5635.0,5635.0,5635.0,5635.0
0.0,0.0,0.0,0.0,0.0
6124.2,5536.0,5536.0,5536.0,5536.0
2318.75,2318.75,2318.75,2318.75,2318.75
6063.75,5040.0,5040.0,5040.0,5040.0
585.0,585.0,585.0,585.0,585.0
6045.0,4960.0,4960.0,4960.0,4960.0
5817.6,4636.8,4636.8,4636.8,4636.8
5896.8,5232.6,5232.6,5232.6,5232.6
6110.55,5328.0,5328.0,5328.0,5328.0
5832.0,5248.8,5248.8,5248.8,5248.8
5477.4,5033.7,5033.7,5033.7,5033.7
5127.15,4253.35,4253.35,4253.35,4253.35
5707.2,5346.4,5346.4,5346.4,5346.4
4403.4,4231.2,4231.2,4231.2,4231.2
-395.0,-403.0,-403.0,-403.0,-403.0
4830.75,4830.75,4830.75,4830.75,4830.75
5299.2,4554.0,4554.0,4554.0,4554.0
5634.2,4647.5,4647.5,4647.5,4647.5
5413.75,5032.5,5032.5,5032.5,5032.5
6123.2,5504.0,5504.0,5504.0,5504.0
5566.55,5231.6,5231.6,5231.6,5231.6
5771.0,4683.5,4683.5,4683.5,4683.5
5546.55,5067.6,5067.6,5067.6,5067.6
5456.75,4918.55,4918.55,4918.55,4918.55
1968.75,1968.75,1968.75,1968.75,1968.75
5576.0,5576.0,5576.0,5576.0,5576.0
-402.0,-402.0,-402.0,-402.0,-402.0
5345.4,4998.1,4998.1,4998.1,4998.1
5640.75,5640.75,5640.75,5640.75,5640.75
4442.8,3712.0,3712.0,3712.0,4698.0
6122.55,5712.0,5712.0,5712.0,5712.0
5971.15,4927.35,4927.35,4927.35,4927.35
6076.95,5104.0,5104.0,5104.0,5104.0
6019.2,4864.0,4864.0,4864.0,4864.0
5875.35,4813.9,4813.9,4813.9,4813.9
5185.8,4257.0,4257.0,4257.0,4257.0
5862.35,5022.65,5022.65,5022.65,5022.65
6093.75,5200.0,5200.0,5200.0,5200.0
6009.8,4832.0,4832.0,4832.0,4832.0
6116.55,5808.0,5808.0,5808.0,5808.0
-407.0,-407.0,-407.0,-407.0,-407.0
5032.55,4166.6,4166.6,4166.6,4166.6
0.0,0.0,0.0,0.0,0.0
5270.95,4471.5,4471.5,4471.5,4471.5
5884.55,4846.1,4846.1,4846.1,4846.1
5524.75,4692.45,4692.45,4692.45,4692.45
1244.75,1244.75,1244.75,1244.75,1244.75
776.0,776.0,776.0,776.0,776.0
5639.55,4663.75,4663.75,4663.75,4663.75
5801.6,4780.4,4780.4,4780.4,4780.4
4660.9,4457.7,4267.2,4267.2,4267.2
5824.0,5184.0,5184.0,5184.0,5184.0
6124.2,5664.0,5664.0,5664.0,5664.0
870.75,870.75,870.75,870.75,870.75
6019.2,4864.0,4864.0,4864.0,4864.0
5089.35,4299.4,4299.4,4299.4,4299.4
5555.75,5133.2,5133.2,5133.2,5133.2
5075.0,4137.5,4137.5,4137.5,4137.5
5715.2,4940.0,4940.0,4940.0,4940.0
6120.95,5456.0,5456.0,5456.0,5456.0
4505.15,4074.95,4074.95,4074.95,4074.95
5978.6,5377.4,5377.4,5377.4,5377.4
0.0,0.0,0.0,0.0,0.0
5317.95,4849.15,4849.15,4849.15,4849.15
6106.95,5296.0,5296.0,5296.0,5296.0
-299.25,-299.25,-299.25,-299.25,-299.25
701.75,596.75,701.75,701.75,701.75
-199.0,-199.0,-199.0,-199.0,-199.0
5555.4,4596.6,4596.6,4596.6,4596.6
4915.75,4452.0,4452.0,4452.0,4452.0
-400.0,-400.0,-400.0,-400.0,-400.0
5400.75,5073.0,4560.0,4560.0,4560.0
5640.0,4890.0,4890.0,4890.0,4890.0
2912.0,2912.0,2912.0,2912.0,2912.0
5890.35,5184.15,5184.15,5184.15,5184.15
-199.0,-199.0,-199.0,-199.0,-199.0
5379.35,4444.4,4444.4,4444.4,4444.4
4324.25,4949.0,3993.5,3993.5,3993.5
2745.0,2745.0,2745.0,2745.0,2745.0
2405.0,2405.0,2405.0,2405.0,2405.0
5897.6,4894.4,4894.4,4894.4,4894.4
5824.0,5184.0,5184.0,5184.0,5184.0
4025.0,4025.0,4025.0,4025.0,4025.0
5391.75,4477.2,4477.2,4477.2,4477.2
6116.55,5808.0,5808.0,5808.0,5808.0
5496.75,5181.75,5181.75,5181.75,5181.75
5957.0,5957.0,5957.0,5957.0,5957.0
2490.75,2490.75,2490.75,2490.75,2490.75
5546.55,5067.6,5067.6,5067.6,5067.6
1337.0,1337.0,1337.0,1337.0,1337.0
2318.75,2318.75,2318.75,2318.75,2318.75
6051.15,5440.95,5440.95,5440.95,5440.95
870.75,870.75,870.75,870.75,870.75
5905.8,4926.6,4926.6,4926.6,4926.6
5569.35,5264.4,5264.4,5264.4,5264.4
6116.55,5808.0,5808.0,5808.0,5808.0
5913.6,5426.4,5426.4,5426.4,5426.4
6124.2,5664.0,5664.0,5664.0,5664.0
5657.75,4971.5,4971.5,4971.5,4971.5
4275.0,4061.25,3802.5,3802.5,3802.5
5979.75,5393.5,5393.5,5393.5,5393.5
5427.15,4786.95,4786.95,4786.95,4786.95
5108.75,5108.75,5108.75,5108.75,5108.75
5140.8,4158.0,4158.0,4158.0,4158.0
6045.4,5360.7,5360.7,5360.7,5360.7
5555.55,4436.25,4436.25,4436.25,4436.25
5593.6,4970.4,4970.4,4970.4,4970.4
5108.15,4726.1,4726.1,4726.1,4726.1
5259.35,4863.8,4863.8,4863.8,4863.8
5628.75,4631.25,4631.25,4631.25,4631.25
5954.55,5168.1,5168.1,5168.1,5168.1
5940.8,5087.6,5087.6,5087.6,5087.6
2057.0,2057.0,2057.0,2057.0,2057.0
5875.2,4622.4,4622.4,4622.4,4622.4
6007.15,5087.85,5087.85,5087.85,5087.85
5552.35,4790.55,4790.55,4790.55,4790.55
5949.4,4847.1,4847.1,4847.1,4847.1
5493.75,4805.2,4805.2,4805.2,4805.2
5286.75,4359.25,4359.25,4359.25,4359.25
5312.0,5312.0,5312.0,5312.0,5312.0
4325.0,4325.0,4325.0,4325.0,4325.0
5108.75,5108.75,5108.75,5108.75,5108.75
5173.35,4531.8,4531.8,4531.8,4531.8
5761.95,5216.25,5216.25,5216.25,5216.25
5971.35,5296.9,5296.9,5296.9,5296.9
5519.8,4676.1,4676.1,4676.1,4676.1
5562.2,4452.5,4452.5,4452.5,4452.5
5364.75,5147.05,5147.05,5147.05,5147.05
5959.35,5200.3,5200.3,5200.3,5200.3
776.0,776.0,776.0,776.0,776.0
5148.55,4174.5,4174.5,4174.5,4174.5
6018.75,5152.05,5152.05,5152.05,5152.05
6124.55,5552.0,5552.0,5552.0,5552.0
2490.75,2490.75,2490.75,2490.75,2490.75
5962.55,4688.0,4688.0,4688.0,4688.0
6100.8,5248.0,5248.0,5248.0,5248.0
5076.0,4653.0,4737.6,4737.6,4737.6
5697.75,5232.3,5232.3,5232.3,5232.3
5846.95,5459.4,5459.4,5459.4,5459.4
5350.4,5031.2,5031.2,5031.2,5031.2
4472.0,4472.0,4472.0,4472.0,4472.0
5880.35,5119.55,5119.55,5119.55,5119.55
5715.2,4940.0,4940.0,4940.0,4940.0
6116.55,5392.0,5392.0,5392.0,5392.0
98.75,98.75,98.75,98.75,98.75
5921.0,4991.0,4991.0,4991.0,4991.0
5339.2,4686.0,4686.0,4686.0,4686.0
4623.0,3875.5,3875.5,3875.5,3875.5
5634.2,4647.5,4647.5,4647.5,4647.5
4361.6,3978.8,3978.8,3978.8,3978.8
835.0,997.5,997.5,997.5,997.5
1428.75,1428.75,1428.75,1428.75,1428.75
1152.0,1152.0,1152.0,1152.0,1152.0
-400.0,-400.0,-400.0,-400.0,-400.0
5781.6,4715.8,4715.8,4715.8,4715.8
5928.0,5023.2,5023.2,5023.2,5023.2
5590.35,4954.05,4954.05,4954.05,4954.05
6124.55,5552.0,5552.0,5552.0,5552.0
5074.5,4602.75,4105.5,4105.5,4105.5
5353.35,4378.8,4378.8,4378.8,4378.8
5696.95,4649.4,4649.4,4649.4,4649.4
5973.0,5313.0,5313.0,5313.0,5313.0
1610.75,1610.75,1610.75,1610.75,1610.75
5896.8,5232.6,5232.6,5232.6,5232.6
5538.15,4547.7,4547.7,4547.7,4547.7
5249.0,4814.0,4814.0,4814.0,4814.0
5736.8,4586.6,4586.6,4586.6,4586.6
4483.35,4155.3,4155.3,4155.3,4155.3
776.0,776.0,776.0,776.0,776.0
3540.9,2905.8,2905.8,3453.9,2905.8
5894.75,5216.45,5216.45,5216.45,5216.45
6031.0,5232.3,5232.3,5232.3,5232.3
0.0,0.0,0.0,0.0,0.0
5520.0,4920.0,4920.0,4920.0,4920.0
5953.95,4863.15,4863.15,4863.15,4863.15
5971.35,5296.9,5296.9,5296.9,5296.9
5590.25,4720.0,5103.5,4720.0,4720.0
5799.75,4588.5,4588.5,4588.5,4588.5
5548.8,4420.0,4420.0,4420.0,4420.0
372.75,421.05,421.05,421.05,421.05
5971.35,5296.9,5296.9,5296.9,5296.9
6100.8,5248.0,5248.0,5248.0,5248.0
5587.8,4517.5,4517.5,4517.5,4517.5
5984.55,4752.0,4752.0,4752.0,4752.0
6045.4,5360.7,5360.7,5360.7,5360.7
5937.75,5071.5,5071.5,5071.5,5071.5
3401.0,3401.0,3401.0,3401.0,3401.0
1880.0,1880.0,1880.0,1880.0,1880.0
6124.8,5632.0,5632.0,5632.0,5632.0
4083.75,3735.0,3735.0,3735.0,4455.0
6048.0,5392.8,5392.8,5392.8,5392.8
5669.55,4761.25,4761.25,4761.25,4761.25
6123.75,5680.0,5680.0,5680.0,5680.0
5897.6,4894.4,4894.4,4894.4,4894.4
5855.75,4749.5,4749.5,4749.5,4749.5
5984.0,5667.2,5667.2,5667.2,5667.2
870.75,870.75,870.75,870.75,870.75
5462.6,4690.4,4690.4,4690.4,4690.4
5898.4,4686.6,4686.6,4686.6,4686.6
6040.75,5312.55,5312.55,5312.55,5312.55
6028.2,4896.0,4896.0,4896.0,4896.0
5979.75,5393.5,5393.5,5393.5,5393.5
5957.0,5957.0,5957.0,5957.0,5957.0
6098.55,5968.0,5968.0,5968.0,5968.0
2994.75,2994.75,2994.75,2994.75,2994.75
5040.0,5040.0,5040.0,5040.0,5040.0
6076.95,5104.0,5104.0,5104.0,5104.0
5449.95,4885.65,4885.65,4885.65,4885.65
5011.2,4838.4,4838.4,4838.4,4838.4
6000.0,4800.0,4800.0,4800.0,4800.0
6031.0,5232.3,5232.3,5232.3,5232.3
1968.75,1968.75,1968.75,1968.75,1968.75
5768.75,5768.75,5768.75,5768.75,5768.75
6014.55,4848.0,4848.0,4848.0,4848.0
6100.8,5248.0,5248.0,5248.0,5248.0
5608.35,5052.15,5052.15,5052.15,5052.15
5489.6,4788.8,4788.8,4788.8,4788.8
4824.0,4529.2,4529.2,4529.2,4529.2
3599.75,3291.2,3291.2,3291.2,3291.2
6067.2,5056.0,5056.0,5056.0,5056.0
5830.15,5232.6,5232.6,5232.6,5232.6
6115.2,5376.0,5376.0,5376.0,5376.0
6117.8,5408.0,5408.0,5408.0,5408.0
5985.0,5506.2,5506.2,5506.2,5506.2
4541.0,4015.2,4015.2,4218.35,4015.2
5779.8,5492.5,5492.5,5492.5,5492.5
4506.6,3751.8,3751.8,3751.8,3751.8
5979.75,5393.5,5393.5,5393.5,5393.5
5957.0,5184.2,5184.2,5184.2,5184.2
5177.0,5177.0,5177.0,5177.0,5177.0
3270.15,3008.2,3008.2,3008.2,3008.2
5145.6,4448.8,4448.8,4448.8,4448.8
1790.75,1790.75,1790.75,1790.75,1790.75
4544.75,4544.75,4544.75,4544.75,4544.75
6046.75,5376.75,5376.75,5376.75,5376.75
5378.75,5378.75,5378.75,5378.75,5378.75
6014.55,4848.0,4848.0,4848.0,4848.0
-99.25,-99.25,-99.25,-99.25,-99.25
5889.0,4862.2,4862.2,4862.2,4862.2
5914.75,4734.75,4734.75,4734.75,4734.75
0.0,0.0,0.0,0.0,0.0
5426.55,4575.6,4575.6,4575.6,4575.6
5735.0,5037.5,5037.5,5037.5,5037.5
5797.0,5022.0,5022.0,5022.0,5022.0
5979.2,4736.0,4736.0,4736.0,4736.0
5973.75,4720.0,4720.0,4720.0,4720.0
6112.2,5344.0,5344.0,5344.0,5344.0
5711.55,4923.75,4923.75,4923.75,4923.75
1610.75,1610.75,1610.75,1610.75,1610.75
5075.75,4266.2,4266.2,4266.2,4266.2
6080.0,5120.0,5120.0,5120.0,5120.0
5781.6,4715.8,4715.8,4715.8,4715.8
5724.6,4554.3,4554.3,4554.3,4554.3
5280.0,4342.8,4342.8,4342.8,4342.8
6098.55,5232.0,5232.0,5232.0,5232.0
6115.2,5376.0,5376.0,5376.0,5376.0
6037.15,5280.45,5280.45,5280.45,5280.45
6000.0,4800.0,4800.0,4800.0,4800.0
372.4,372.4,372.4,372.4,373.35
5894.75,5894.75,5894.75,5894.75,5894.75
6028.75,5216.25,5216.25,5216.25,5216.25
5957.0,5184.2,5184.2,5184.2,5184.2
5402.95,4966.5,4966.5,4966.5,4966.5
4100.75,4100.75,4100.75,4100.75,4100.75
4970.75,4970.75,4970.75,4970.75,4970.75
6000.0,4800.0,4800.0,4800.0,4800.0
4970.75,4970.75,4970.75,4970.75,4970.75
6040.75,5312.55,5312.55,5312.55,5312.55
5949.35,5135.9,5135.9,5135.9,5135.9
4060.8,3747.6,3747.6,3747.6,3747.6
6093.75,5200.0,5200.0,5200.0,5200.0
5178.55,4240.5,4240.5,4240.5,4240.5
6076.95,5104.0,5104.0,5104.0,5104.0
4617.0,4617.0,4617.0,4617.0,4617.0
3077.0,3077.0,3077.0,3077.0,3077.0
5695.95,4858.75,4858.75,4858.75,4858.75
6009.8,4832.0,4832.0,4832.0,4832.0
6118.95,5424.0,5424.0,5424.0,5424.0
6026.4,5200.2,5200.2,5200.2,5200.2
5606.4,4759.6,4759.6,4759.6,4759.6
6123.75,5520.0,5520.0,5520.0,5520.0
5962.75,4895.25,4895.25,4895.25,4895.25
5982.6,5441.8,5441.8,5441.8,5441.8
6023.75,4880.0,4880.0,4880.0,4880.0
6028.75,5216.25,5216.25,5216.25,5216.25
5690.15,5167.1,5167.1,5167.1,5167.1
6116.55,5392.0,5392.0,5392.0,5392.0
392.0,392.0,392.0,392.0,392.0
5642.35,5379.15,5379.15,5379.15,5379.15
1058.75,1058.75,1058.75,1058.75,1058.75
6019.2,4864.0,4864.0,4864.0,4864.0
-299.25,-299.25,-299.25,-299.25,-299.25
5772.15,4908.6,4908.6,4908.6,4908.6
5974.55,5329.1,5329.1,5329.1,5329.1
5905.8,4926.6,4926.6,4926.6,4926.6
5059.2,4542.4,4542.4,4542.4,4542.4
6043.95,5344.65,5344.65,5344.65,5344.65
1428.75,1428.75,1428.75,1428.75,1428.75
6100.8,5248.0,5248.0,5248.0,5248.0
488.75,488.75,488.75,488.75,488.75
5793.75,5005.8,5005.8,5005.8,5005.8
4761.6,4178.8,4178.8,4178.8,4178.8
5852.0,4974.2,4974.2,4974.2,4974.2
5976.0,5345.2,5345.2,5345.2,5345.2
5548.8,4420.0,4420.0,4420.0,4420.0
294.75,294.75,294.75,294.75,294.75
5897.6,4894.4,4894.4,4894.4,4894.4
5940.8,5087.6,5087.6,5087.6,5087.6
5304.0,4264.0,4264.0,4264.0,4264.0
6113.75,5360.0,5360.0,5360.0,5360.0
5724.6,4554.3,4554.3,4554.3,4554.3
5915.55,5636.35,5636.35,5636.35,5636.35
6108.8,5312.0,5312.0,5312.0,5312.0
5839.75,5329.8,5329.8,5329.8,5329.8
5925.15,4766.85,4766.85,4766.85,4766.85
5380.2,4851.0,4851.0,4851.0,4851.0
5534.35,4725.15,4725.15,4725.15,4725.15
5160.6,4695.3,4695.3,4695.3,4695.3
5655.0,4712.5,4712.5,4712.5,4712.5
5040.0,5040.0,5040.0,5040.0,5040.0
5611.0,5068.5,5068.5,5068.5,5068.5
5900.6,5264.9,5264.9,5264.9,5264.9
-400.0,-400.0,-400.0,-400.0,-400.0
870.75,870.75,870.75,870.75,870.75
3867.75,3304.3,3304.3,3304.3,3304.3
5956.8,4672.0,4672.0,4672.0,4672.0
5982.6,5699.4,5699.4,5699.4,5699.4
2318.75,2318.75,2318.75,2318.75,2318.75
5971.15,4927.35,4927.35,4927.35,4927.35
5217.1,4124.85,4548.9,4124.85,4124.85
4818.75,4330.45,4330.45,4330.45,4330.45
-406.0,-406.0,-406.0,-406.0,-406.0
2057.0,2057.0,2057.0,2057.0,2057.0
6042.4,5842.2,5842.2,5842.2,5842.2
5205.15,4451.95,4451.95,4451.95,4451.95
5255.25,4368.0,4941.3,4368.0,4368.0
1790.75,1790.75,1790.75,1790.75,1790.75
-402.0,-402.0,-402.0,-402.0,-402.0
5901.75,4910.5,4910.5,4910.5,4910.5
5937.75,5071.5,5071.5,5071.5,5071.5
4099.4,3543.2,3543.2,3543.2,3543.2
6080.0,6080.0,6080.0,6080.0,6080.0
5860.8,4765.6,4765.6,4765.6,4765.6
5707.75,4681.8,4681.8,4681.8,4681.8
5277.95,4683.65,4683.65,4683.65,4683.65
5244.75,5244.75,5244.75,5244.75,5244.75
-401.0,-401.0,-401.0,-401.0,-401.0
4752.0,4032.0,4032.0,4032.0,4032.0
4660.15,3847.2,3847.2,3847.2,3847.2
627.15,741.85,741.85,741.85,741.85
5608.35,5052.15,5052.15,5052.15,5052.15
6085.8,6048.0,6048.0,6048.0,6048.0
5890.35,5184.15,5184.15,5184.15,5184.15
4836.0,4381.0,4381.0,4381.0,4381.0
5534.35,4725.15,4725.15,4725.15,4725.15
5270.95,4471.5,4471.5,4471.5,4471.5
776.0,776.0,776.0,776.0,776.0
5855.75,4749.5,4749.5,4749.5,4749.5
5304.0,4264.0,4264.0,4264.0,4264.0
6000.75,5055.75,5055.75,5055.75,5055.75
2318.75,2318.75,2318.75,2318.75,2318.75
3077.0,3077.0,3077.0,3077.0,3077.0
6070.55,5072.0,5072.0,5072.0,5072.0
5447.65,5115.3,4624.0,4624.0,4624.0
6018.75,6018.75,6018.75,6018.75,6018.75
6076.95,5104.0,5104.0,5104.0,5104.0
6115.2,5376.0,5376.0,5376.0,5376.0
6117.8,5408.0,5408.0,5408.0,5408.0
5435.15,4819.85,4819.85,4819.85,4819.85
6045.4,5360.7,5360.7,5360.7,5360.7
5896.8,5232.6,5232.6,5232.6,5232.6
5669.55,4761.25,4761.25,4761.25,4761.25
5280.0,4342.8,4342.8,4342.8,4342.8
5575.2,4485.0,4485.0,4485.0,4485.0
5957.0,5184.2,5184.2,5184.2,5184.2
5643.4,4503.6,4503.6,4503.6,4503.6
4823.55,3888.0,4617.0,3888.0,3888.0
5885.55,5151.85,5151.85,5151.85,5151.85
4589.5,4425.1,5507.4,4425.1,4425.1
5474.15,4384.7,4384.7,4384.7,4384.7
5768.75,5768.75,5768.75,5768.75,5768.75
2576.0,2576.0,2576.0,2576.0,2576.0
6026.4,5200.2,5200.2,5200.2,5200.2
5435.2,5214.0,5214.0,5214.0,5214.0
5884.55,4846.1,4846.1,4846.1,4846.1
5811.0,4812.7,4812.7,4812.7,4812.7
2994.75,2994.75,2994.75,2994.75,2994.75
6117.8,5792.0,5792.0,5792.0,5792.0
3560.0,3560.0,3560.0,3560.0,3560.0
5985.0,5506.2,5506.2,5506.2,5506.2
6009.8,4832.0,4832.0,4832.0,4832.0
5892.75,4670.55,4670.55,4670.55,4670.55
5958.4,4879.2,4879.2,4879.2,4879.2
5728.15,4746.6,4746.6,4746.6,4746.6
3077.0,3077.0,3077.0,3077.0,3077.0
5409.95,4721.15,4721.15,4721.15,4721.15
5718.75,4956.25,4956.25,4956.25,4956.25
5993.95,5023.65,5023.65,5023.65,5023.65
5707.75,4681.8,4681.8,4681.8,4681.8
5293.75,4537.5,4537.5,4537.5,4537.5
3794.75,3794.75,3794.75,3794.75,3794.75
5811.0,4812.7,4812.7,4812.7,4812.7
5299.2,4766.4,4766.4,4766.4,4766.4
5793.6,4572.4,4572.4,4572.4,4572.4
2952.0,2919.2,3181.6,2919.2,2919.2
2405.0,2405.0,2405.0,2405.0,2405.0
5725.55,4988.75,4988.75,4988.75,4988.75
5312.0,5312.0,5312.0,5312.0,5312.0
5931.35,5039.3,5039.3,5039.3,5039.3
5979.2,4736.0,4736.0,4736.0,4736.0
6124.95,5616.0,5616.0,5616.0,5616.0
6036.8,4928.0,4928.0,4928.0,4928.0
5949.4,4847.1,4847.1,4847.1,4847.1
2057.0,2057.0,2057.0,2057.0,2057.0
2057.0,2057.0,2057.0,2057.0,2057.0
3158.75,3158.75,3158.75,3158.75,3158.75
6118.95,5776.0,5776.0,5776.0,5776.0
5354.4,4540.2,4540.2,4540.2,4540.2
5985.35,5522.3,5522.3,5522.3,5522.3
2576.0,2576.0,2576.0,2576.0,2576.0
5806.35,4796.55,4796.55,4796.55,4796.55
5924.55,5007.1,5007.1,5007.1,5007.1
4875.35,4748.9,4748.9,4748.9,4748.9
5309.8,4587.0,4587.0,4587.0,4587.0
4977.6,4050.4,4050.4,4050.4,4050.4
294.75,294.75,294.75,294.75,294.75
294.75,294.75,294.75,294.75,294.75
3480.75,3480.75,3480.75,3480.75,3480.75
5476.6,4545.3,4545.3,4545.3,4545.3
4544.75,4544.75,4544.75,4544.75,4544.75
5654.4,4955.2,4955.2,4955.2,4955.2
5310.75,4816.05,4816.05,4816.05,4816.05
1701.0,1701.0,1701.0,1701.0,1701.0
5664.8,4745.0,4745.0,4745.0,4745.0
5771.0,4683.5,4683.5,4683.5,4683.5
5728.15,4746.6,4746.6,4746.6,4746.6
4857.75,4284.0,4284.0,4284.0,4284.0
-401.0,-401.0,-401.0,-401.0,-401.0
-404.0,-404.0,-404.0,-404.0,-404.0
5814.4,5119.2,5119.2,5119.2,5119.2
5975.2,4943.4,4943.4,4943.4,4943.4
5264.0,4634.0,4634.0,4634.0,4634.0
5572.6,4872.3,4872.3,4872.3,4872.3
5990.4,5007.6,5007.6,5007.6,5007.6
5510.75,5510.75,5510.75,5510.75,5510.75
5447.75,4641.2,4641.2,4641.2,4641.2
5984.55,4752.0,4752.0,4752.0,4752.0
5575.2,4485.0,4485.0,4485.0,4485.0
4760.0,4760.0,4760.0,4760.0,4760.0
5605.6,5035.8,5035.8,5035.8,5035.8
5472.0,5000.8,5000.8,5000.8,5000.8
2745.0,2745.0,2745.0,2745.0,2745.0
5845.75,5427.0,5427.0,5427.0,5427.0
294.75,294.75,294.75,294.75,294.75
6105.0,5280.0,5280.0,5280.0,5280.0
6113.75,5360.0,5360.0,5360.0,5360.0
5852.0,4974.2,4974.2,4974.2,4974.2
2405.0,2405.0,2405.0,2405.0,2405.0
5602.75,5019.45,5019.45,5019.45,5019.45
5108.75,5108.75,5108.75,5108.75,5108.75
5985.6,5602.8,5602.8,5602.8,5602.8
5962.55,4688.0,4688.0,4688.0,4688.0
5958.4,4879.2,4879.2,4879.2,4879.2
5593.6,4970.4,4970.4,4970.4,4970.4
6091.2,5184.0,5184.0,5184.0,5184.0
6053.95,5505.15,5505.15,5505.15,5505.15
5768.75,5281.25,5281.25,5281.25,5281.25
5746.2,5102.5,5102.5,5102.5,5102.5
5931.35,5039.3,5039.3,5039.3,5039.3
5538.15,4547.7,4547.7,4547.7,4547.7
5781.6,4715.8,4715.8,4715.8,4715.8
5356.8,4752.0,4752.0,4752.0,4752.0
6054.75,5537.25,5537.25,5537.25,5537.25
5266.2,4309.9,4309.9,4309.9,4309.9
1880.0,1880.0,1880.0,1880.0,1880.0
4799.75,4444.7,4444.7,4444.7,4444.7
3872.0,3872.0,3872.0,3872.0,3872.0
870.75,870.75,870.75,870.75,870.75
4398.75,4398.75,4398.75,4398.75,4398.75
5909.4,4718.7,4718.7,4718.7,4718.7
1244.75,1244.75,1244.75,1244.75,1244.75
2576.0,2576.0,2576.0,2576.0,2576.0
2232.0,2232.0,2232.0,2232.0,2232.0
197.0,197.0,197.0,197.0,197.0
5880.0,4830.0,4830.0,4830.0,4830.0
5973.75,4720.0,4720.0,4720.0,4720.0
488.75,488.75,488.75,488.75,488.75
6048.0,5778.0,5778.0,5778.0,5778.0
294.75,294.75,294.75,294.75,294.75
1244.75,1244.75,1244.75,1244.75,1244.75
5994.95,4784.0,4784.0,4784.0,4784.0
5971.35,5296.9,5296.9,5296.9,5296.9
5883.0,5135.7,5135.7,5135.7,5135.7
4688.6,4010.3,4010.3,4010.3,4010.3
5949.4,4847.1,4847.1,4847.1,4847.1
5746.95,4811.4,4811.4,4811.4,4811.4
5425.0,5115.0,5115.0,5115.0,5115.0
5364.75,5147.05,5147.05,5147.05,5147.05
3192.0,3007.2,3007.2,3007.2,3007.2
5892.75,4670.55,4670.55,4670.55,4670.55
-400.0,-400.0,-400.0,-400.0,-400.0
2660.75,2660.75,2660.75,2660.75,2660.75
2318.75,2318.75,2318.75,2318.75,2318.75
5883.0,5135.7,5135.7,5135.7,5135.7
5722.2,4972.5,4972.5,4972.5,4972.5
5751.4,4827.6,4827.6,4827.6,4827.6
98.75,98.75,98.75,98.75,98.75
5958.4,4879.2,4879.2,4879.2,4879.2
5643.4,4503.6,4503.6,4503.6,4503.6
6112.2,5344.0,5344.0,5344.0,5344.0
5740.8,5070.0,5070.0,5070.0,5070.0
5597.0,4727.0,4727.0,4727.0,4727.0
4176.0,4176.0,4176.0,4176.0,4176.0
5989.8,4768.0,4768.0,4768.0,4768.0
1244.75,1244.75,1244.75,1244.75,1244.75
2232.0,2232.0,2232.0,2232.0,2232.0
5805.8,4604.6,4604.6,4604.6,4604.6
-199.0,-199.0,-199.0,-199.0,-199.0
5832.0,5832.0,5832.0,5832.0,5832.0
2318.75,2318.75,2318.75,2318.75,2318.75
5664.8,4745.0,4745.0,4745.0,4745.0
2490.75,2490.75,2490.75,2490.75,2490.75
4936.75,4079.25,4079.25,4079.25,4079.25
5339.75,4346.0,4346.0,4346.0,4346.0
5985.75,5554.5,5554.5,5554.5,5554.5
2144.75,2144.75,2144.75,2144.75,2144.75
5162.55,4498.6,4498.6,4498.6,4498.6
488.75,488.75,488.75,488.75,488.75
6010.2,5103.9,5103.9,5103.9,5103.9
5635.0,5264.7,5264.7,5264.7,5264.7
6124.2,5536.0,5536.0,5536.0,5536.0
4952.35,4112.55,4112.55,4112.55,4112.55
5090.4,4170.6,4170.6,4170.6,4170.6
-406.0,-406.0,-406.0,-406.0,-406.0
5733.0,4762.8,4762.8,4762.8,4762.8
5162.55,4498.6,4498.6,4498.6,4498.6
1428.75,1428.75,1428.75,1428.75,1428.75
6018.75,5152.05,5152.05,5152.05,5152.05
5896.8,5232.6,5232.6,5232.6,5232.6
5640.75,5640.75,5640.75,5640.75,5640.75
4901.0,4901.0,4901.0,4901.0,4901.0
5848.15,5524.2,5524.2,5524.2,5524.2
5865.75,4781.7,4781.7,4781.7,4781.7
5198.6,4614.8,4614.8,4614.8,4614.8
5485.35,4772.4,4772.4,4772.4,4772.4
1653.25,1653.25,1440.75,1653.25,1653.25
4895.55,4237.75,4237.75,4237.75,4237.75
4531.95,4143.15,4143.15,4143.15,4143.15
5985.75,5554.5,5554.5,5554.5,5554.5
6125.0,5600.0,5600.0,5600.0,5600.0
5177.0,5177.0,5177.0,5177.0,5177.0
6049.15,5408.85,5408.85,5408.85,5408.85
4867.95,4170.75,4170.75,4170.75,4170.75
6108.8,5312.0,5312.0,5312.0,5312.0
5678.4,5085.6,5085.6,5085.6,5085.6
5985.35,5618.9,5618.9,5618.9,5618.9
4888.4,3932.5,3932.5,3932.5,4343.9
5776.0,4924.8,4924.8,4924.8,4924.8
4250.75,4250.75,4250.75,4250.75,4250.75
5442.75,4852.75,4852.75,4852.75,4852.75
-402.0,-402.0,-402.0,-402.0,-402.0
-199.0,-199.0,-199.0,-199.0,-199.0
5346.6,4362.4,4362.4,4362.4,4362.4
776.0,776.0,776.0,776.0,776.0
5445.0,5445.0,5445.0,5445.0,5445.0
6120.0,5760.0,5760.0,5760.0,5760.0
5602.75,5019.45,5019.45,5019.45,5019.45
5386.2,4638.9,4638.9,4638.9,4638.9
1610.75,1610.75,1610.75,1610.75,1610.75
5751.4,4827.6,4827.6,4827.6,4827.6
965.0,965.0,965.0,965.0,965.0
-99.25,-99.25,-99.25,-99.25,-99.25
2145.35,1968.8,1968.8,1968.8,1968.8
5912.75,5700.95,5700.95,5700.95,5700.95
3163.55,2786.75,2786.75,2786.75,2786.75
4372.2,4284.0,4372.2,4372.2,4372.2
5516.55,4903.6,4903.6,4903.6,4903.6
5725.55,4988.75,4988.75,4988.75,4988.75
5183.75,4565.0,4565.0,4565.0,4565.0
5237.4,4244.1,4244.1,4244.1,4244.1
5661.0,4987.8,4987.8,4987.8,4987.8
5513.75,4482.5,4482.5,4482.5,4482.5
6091.2,5184.0,5184.0,5184.0,5184.0
-199.0,-199.0,-199.0,-199.0,-199.0
6110.55,5328.0,5328.0,5328.0,5328.0
5973.0,5313.0,5313.0,5313.0,5313.0
5469.15,4984.35,4984.35,4984.35,4984.35
5725.55,4988.75,4988.75,4988.75,4988.75
5616.0,5101.2,5101.2,5101.2,5101.2
-99.25,-99.25,-99.25,-99.25,-99.25
5266.2,4309.9,4309.9,4309.9,4309.9
-299.25,-299.25,-299.25,-299.25,-299.25
6056.55,5008.0,5008.0,5008.0,5008.0
5815.55,4828.85,4828.85,4828.85,4828.85
6010.2,5103.9,5103.9,5103.9,5103.9
5418.75,4754.05,4754.05,4754.05,4754.05
5138.35,4612.05,4612.05,4612.05,4612.05
5935.15,4798.95,4798.95,4798.95,4798.95
1489.8,1482.0,1482.0,1482.0,1482.0
5659.95,4728.75,4728.75,4728.75,4728.75
6019.2,4864.0,4864.0,4864.0,4864.0
2994.75,2994.75,2994.75,2994.75,2994.75
5108.35,4512.15,4512.15,4512.15,4512.15
4784.0,4394.0,4394.0,4394.0,4394.0
4740.75,4128.25,4128.25,4128.25,4128.25
5481.0,4401.0,4401.0,4401.0,4401.0
5405.4,4704.7,4704.7,4704.7,4704.7
5900.6,5264.9,5264.9,5264.9,5264.9
6018.75,5152.05,5152.05,5152.05,5152.05
5399.8,4349.1,4349.1,4349.1,4349.1
3570.75,3694.95,3694.95,3694.95,3694.95
6123.2,5696.0,5696.0,5696.0,5696.0
5270.0,5037.5,5270.0,5037.5,5270.0
2912.0,2912.0,2912.0,2912.0,2912.0
-406.0,-406.0,-406.0,-406.0,-406.0
3077.0,3077.0,3077.0,3077.0,3077.0
6000.75,5055.75,5055.75,5055.75,5055.75
5940.8,5087.6,5087.6,5087.6,5087.6
6085.8,5152.0,5152.0,5152.0,5152.0
5034.15,4989.6,4989.6,4989.6,4989.6
5312.75,4425.05,4425.05,4425.05,4425.05
4831.4,3974.6,3974.6,3974.6,3974.6
4996.75,4212.45,4212.45,4212.45,4212.45
3560.0,3560.0,3560.0,3560.0,3560.0
4181.8,4202.4,3296.0,3296.0,3296.0
6051.15,5729.85,5729.85,5729.85,5729.85
5830.15,5232.6,5232.6,5232.6,5232.6
4443.75,3825.0,3825.0,3825.0,3825.0
-99.25,-99.25,-99.25,-99.25,-99.25
4743.75,4275.7,4275.7,4275.7,4275.7
5832.0,5832.0,5832.0,5832.0,5832.0
5624.8,5166.6,5166.6,5166.6,5166.6
5953.95,4863.15,4863.15,4863.15,4863.15
5329.8,4653.0,4653.0,4653.0,4653.0
5828.6,4877.3,4877.3,4877.3,4877.3
-405.0,-405.0,-405.0,-405.0,-405.0
5068.8,4249.6,4249.6,4249.6,4249.6
-400.0,-400.0,-400.0,-400.0,-400.0
4684.8,4123.6,4123.6,4123.6,4123.6
5962.55,4688.0,4688.0,4688.0,4688.0
2232.0,2232.0,2232.0,2232.0,2232.0
4398.75,4398.75,4398.75,4398.75,4398.75
392.0,392.0,392.0,392.0,392.0
4768.35,4195.65,4195.65,4195.65,4195.65
6123.75,5680.0,5680.0,5680.0,5680.0
5799.75,4588.5,4588.5,4588.5,4588.5
5583.55,4921.35,4921.35,4921.35,4921.35
5877.6,5103.4,5103.4,5103.4,5103.4
2994.75,2994.75,2994.75,2994.75,2994.75
5909.4,4718.7,4718.7,4718.7,4718.7
6100.8,5248.0,5248.0,5248.0,5248.0
5840.0,4701.2,4701.2,4701.2,4701.2
4335.7,3654.7,3654.7,3654.7,4596.75
0.0,0.0,0.0,0.0,0.0
4544.75,4544.75,4544.75,4544.75,4544.75
4916.75,4667.45,4667.45,4667.45,4667.45
5887.0,4654.5,4654.5,4654.5,4654.5
5961.6,5216.4,5216.4,5216.4,5216.4
5385.6,4316.4,4316.4,4316.4,4316.4
-404.0,-404.0,-404.0,-404.0,-404.0
5962.55,4688.0,4688.0,4688.0,4688.0
5376.0,4606.0,4606.0,4606.0,4606.0
5431.2,4803.4,4803.4,4803.4,4803.4
2994.75,2994.75,2994.75,2994.75,2994.75
5949.4,4847.1,4847.1,4847.1,4847.1
5680.95,5101.9,5101.9,5101.9,5101.9
5365.4,4573.1,4573.1,4573.1,4573.1
5593.6,4970.4,4970.4,4970.4,4970.4
-408.0,-408.0,-408.0,-408.0,-408.0
5963.75,5232.5,5232.5,5232.5,5232.5
5025.0,4150.0,4150.0,4150.0,4150.0
5680.95,5039.3,5039.3,5039.3,5289.7
5378.75,5378.75,5378.75,5378.75,5378.75
5959.35,5200.3,5200.3,5200.3,5200.3
6050.2,5424.9,5424.9,5424.9,5424.9
1701.0,1701.0,1701.0,1701.0,1701.0
5655.0,4712.5,4712.5,4712.5,4712.5
5667.2,5020.4,5020.4,5020.4,5020.4
5962.75,4895.25,4895.25,4895.25,4895.25
4815.8,4053.5,4053.5,4053.5,4053.5
6116.55,5392.0,5392.0,5392.0,5392.0
776.0,776.0,776.0,776.0,776.0
5805.8,4604.6,4604.6,4604.6,4604.6
6052.8,4992.0,4992.0,4992.0,4992.0
6000.75,5055.75,5055.75,5055.75,5055.75
1610.75,1610.75,1610.75,1610.75,1610.75
5862.35,5022.65,5022.65,5022.65,5022.65
5193.75,4598.2,4598.2,4598.2,4598.2
6045.4,5360.7,5360.7,5360.7,5360.7
4542.6,3819.4,3819.4,3819.4,3819.4
6016.0,5136.0,5136.0,5136.0,5136.0
5755.75,4843.8,4843.8,4843.8,4843.8
5040.0,5040.0,5040.0,5040.0,5040.0
6098.55,5232.0,5232.0,5232.0,5232.0
4940.8,4172.8,4172.8,4608.0,4172.8
6067.2,5056.0,5056.0,5056.0,5056.0
5956.8,4672.0,4672.0,4672.0,4672.0
6052.75,5697.75,5697.75,5697.75,5697.75
-299.25,-299.25,-299.25,-299.25,-299.25
2318.75,2318.75,2318.75,2318.75,2318.75
6117.8,5408.0,5408.0,5408.0,5408.0
6028.2,4896.0,4896.0,4896.0,4896.0
5894.75,5216.45,5216.45,5216.45,5216.45
5949.4,4847.1,4847.1,4847.1,4847.1
4760.0,4760.0,4760.0,4760.0,4760.0
4173.0,3680.8,3680.8,3680.8,3680.8
4899.4,4401.6,4401.6,4401.6,4401.6
5771.0,4683.5,4683.5,4683.5,4683.5
5925.15,4766.85,4766.85,4766.85,4766.85
6082.95,5136.0,5136.0,5136.0,5136.0
5418.75,4754.05,4754.05,4754.05,4754.05
-299.25,-299.25,-299.25,-299.25,-299.25
6040.95,4944.0,4944.0,4944.0,4944.0
-403.0,-403.0,-403.0,-403.0,-403.0
5796.75,4764.25,4764.25,4764.25,4764.25
