2746.85,2746.85,2746.85,2192.0,2192.0
2531.25,2531.25,2531.25,2000.0,2000.0
-407.0,-407.0,-407.0,-407.0,-407.0
2599.35,2599.35,2599.35,2070.45,2070.45
3214.4,3214.4,3214.4,2624.0,2624.0
4129.2,4129.2,4129.2,3563.1,3563.1
-299.25,-299.25,-299.25,-299.25,-299.25
3364.85,3364.85,3364.85,2768.0,2768.0
-402.0,-402.0,-402.0,-402.0,-402.0
3512.6,3512.6,3512.6,2912.0,2912.0
2994.75,2994.75,2994.75,2994.75,2994.75
3240.0,3240.0,3240.0,3240.0,3240.0
3315.0,3315.0,3315.0,2720.0,2720.0
3120.0,3120.0,3120.0,2600.0,2600.0
3112.6,3112.6,3112.6,2528.0,2528.0
2380.95,2380.95,2380.95,1877.85,1877.85
3414.4,3414.4,3414.4,2816.0,2816.0
2531.25,2531.25,2531.25,2000.0,2000.0
2585.6,2585.6,2585.6,2048.0,2048.0
-405.0,-405.0,-405.0,-405.0,-405.0
2800.0,2800.0,2800.0,2240.0,2240.0
3132.4,3132.4,3132.4,2747.0,2747.0
98.75,98.75,98.75,98.75,98.75
2585.6,2585.6,2585.6,2048.0,2048.0
590.15,590.15,590.15,468.35,590.15
2693.4,2693.4,2693.4,2144.0,2144.0
2760.0,2760.0,2760.0,2214.9,2214.9
1337.0,1337.0,1337.0,1337.0,1337.0
-406.0,-406.0,-406.0,-406.0,-406.0
3315.0,3315.0,3315.0,2720.0,2720.0
2666.65,2666.65,2666.65,2141.3,2141.3
2957.65,2957.65,2957.65,2384.0,2384.0
3069.35,3069.35,3069.35,2551.25,2551.25
2585.6,2585.6,2585.6,2048.0,2048.0
2693.4,2693.4,2693.4,2144.0,2144.0
4434.75,4434.75,4434.75,3900.15,3900.15
-403.0,-403.0,-403.0,-403.0,-403.0
-405.0,-405.0,-405.0,-405.0,-405.0
834.35,834.35,834.35,735.95,735.95
2531.25,2531.25,2531.25,2000.0,2000.0
2957.65,2957.65,2957.65,2384.0,2384.0
3073.2,3073.2,3073.2,2503.8,2503.8
2852.85,2852.85,2852.85,2288.0,2288.0
2905.4,2905.4,2905.4,2336.0,2336.0
3800.0,3800.0,3800.0,3200.0,3200.0
2366.4,2366.4,2366.4,1856.0,1856.0
1701.0,1701.0,1701.0,1701.0,1701.0
2299.55,2299.55,2299.55,1824.95,1824.95
3948.0,3948.0,3948.0,3370.5,3370.5
2800.0,2800.0,2800.0,2240.0,2240.0
2653.2,2653.2,2653.2,2118.6,2118.6
2328.75,2328.75,2328.75,1868.75,1868.75
197.0,197.0,197.0,197.0,197.0
2746.2,2746.2,2746.2,2235.6,2235.6
2328.75,2328.75,2328.75,1868.75,1868.75
3175.2,3175.2,3175.2,2600.1,2600.1
2586.45,2586.45,2586.45,2089.8,2089.8
-403.0,-403.0,-403.0,-403.0,-403.0
2905.4,2905.4,2905.4,2336.0,2336.0
2366.4,2366.4,2366.4,1856.0,1856.0
-299.25,-299.25,-299.25,-299.25,-299.25
-407.0,-407.0,-407.0,-407.0,-407.0
-400.0,-400.0,-400.0,-400.0,-400.0
-404.0,-404.0,-404.0,-403.0,-403.0
2438.15,2438.15,2438.15,1966.25,1966.25
2613.0,2613.0,2613.0,2093.0,2093.0
1542.8,1542.8,1542.8,1303.4,1303.4
2250.4,2250.4,2250.4,2030.0,2030.0
3722.4,3722.4,3722.4,3237.3,3237.3
2366.4,2366.4,2366.4,1856.0,1856.0
2328.75,2328.75,2328.75,1868.75,1868.75
2905.4,2905.4,2905.4,2336.0,2336.0
2436.0,2436.0,2436.0,1926.0,1926.0
2476.6,2476.6,2476.6,1952.0,1952.0
2957.65,2957.65,2957.65,2384.0,2384.0
2299.55,2299.55,2299.55,1824.95,1824.95
2852.85,2852.85,2852.85,2288.0,2288.0
3474.0,3474.0,3474.0,2889.0,2889.0
2366.4,2366.4,2366.4,1856.0,1856.0
2653.2,2653.2,2653.2,2118.6,2118.6
2531.25,2531.25,2531.25,2000.0,2000.0
2478.45,2478.45,2478.45,1992.6,1992.6
3347.55,3347.55,3347.55,2793.95,2793.95
-401.0,-401.0,-401.0,-401.0,-401.0
2055.35,2055.35,2055.35,1661.45,1661.45
2720.0,2720.0,2720.0,2189.6,2189.6
2955.0,2955.0,2955.0,2430.0,2430.0
2192.4,2192.4,2192.4,1765.8,1765.8
2531.25,2531.25,2531.25,2000.0,2000.0
3069.35,3069.35,3069.35,2551.25,2551.25
2050.2,2050.2,2050.2,1713.6,1713.6
3170.35,3170.35,3170.35,2648.75,2648.75
2421.65,2421.65,2421.65,1904.0,1904.0
2354.8,2354.8,2354.8,1873.4,1873.4
2364.0,2364.0,2364.0,2034.0,2034.0
-400.0,-400.0,-400.0,-400.0,-400.0
3714.75,3714.75,3714.75,3129.75,3129.75
3315.0,3315.0,3315.0,2720.0,2720.0
-402.0,-402.0,-402.0,-402.0,-402.0
-407.0,-407.0,-407.0,-407.0,-407.0
3120.0,3120.0,3120.0,2600.0,2600.0
2905.4,2905.4,2905.4,2336.0,2336.0
3619.35,3619.35,3619.35,3033.45,3033.45
2666.65,2666.65,2666.65,2141.3,2141.3
3163.65,3163.65,3163.65,2576.0,2576.0
2905.4,2905.4,2905.4,2336.0,2336.0
3175.2,3175.2,3175.2,2600.1,2600.1
2970.0,2970.0,2970.0,2407.5,2407.5
3532.8,3532.8,3532.8,2962.4,2962.4
-408.0,-408.0,-408.0,-408.0,-408.0
3609.6,3609.6,3609.6,3008.0,3008.0
3561.25,3561.25,3561.25,2960.0,2960.0
2917.95,2917.95,2917.95,2359.35,2359.35
488.75,488.75,488.75,488.75,488.75
2476.6,2476.6,2476.6,1952.0,1952.0
2720.0,2720.0,2720.0,2189.6,2189.6
2733.15,2733.15,2733.15,2212.55,2212.55
3512.6,3512.6,3512.6,2912.0,2912.0
2798.85,2798.85,2798.85,2284.2,2284.2
2838.55,2838.55,2838.55,2309.45,2309.45
119.4,119.4,119.4,117.0,117.0
2800.0,2800.0,2800.0,2240.0,2240.0
-402.0,-402.0,-402.0,-402.0,-402.0
2666.6,2666.6,2666.6,2184.2,2184.2
2490.75,2490.75,2490.75,1974.15,1974.15
4048.75,3433.75,4048.75,3331.25,3331.25
2397.85,2397.85,2397.85,1939.7,1939.7
-404.0,-404.0,-404.0,-404.0,-404.0
2599.35,2599.35,2599.35,2070.45,2070.45
2865.6,2865.6,2865.6,2311.2,2311.2
2746.85,2746.85,2746.85,2192.0,2192.0
-408.0,-408.0,-408.0,-408.0,-408.0
-99.25,-99.25,-99.25,-99.25,-99.25
2653.2,2653.2,2653.2,2204.3,2204.3
2424.0,2424.0,2424.0,1944.0,1944.0
2559.05,2559.05,2559.05,2044.7,2044.7
2586.45,2586.45,2586.45,2089.8,2089.8
3325.95,3325.95,3325.95,2744.55,2744.55
955.2,955.2,955.2,885.6,885.6
2421.65,2421.65,2421.65,1904.0,1904.0
2547.75,2547.75,2547.75,2147.85,2147.85
2325.6,2325.6,2325.6,1829.7,1829.7
2476.6,2476.6,2476.6,1952.0,1952.0
-299.25,-299.25,-299.25,-299.25,-299.25
2852.85,2852.85,2852.85,2288.0,2288.0
-199.0,-199.0,-199.0,-199.0,-199.0
2366.4,2366.4,2366.4,1856.0,1856.0
2666.65,2666.65,2666.65,2141.3,2141.3
585.0,585.0,585.0,585.0,585.0
2531.25,2531.25,2531.25,2000.0,2000.0
2476.6,2476.6,2476.6,1952.0,1952.0
2284.8,2284.8,2284.8,1803.2,1803.2
2284.8,2284.8,2284.8,1803.2,1803.2
3021.75,3021.75,3021.75,2455.65,2455.65
2626.8,2626.8,2626.8,2158.2,2158.2
3021.75,3021.75,3021.75,2455.65,2455.65
2291.4,2291.4,2291.4,1881.0,1881.0
2438.15,2438.15,2438.15,1966.25,1966.25
60.15,60.15,60.15,58.05,58.05
-403.0,-403.0,-403.0,-403.0,-403.0
3061.25,3061.25,3061.25,2480.0,2480.0
3085.05,3085.05,3085.05,2527.7,2527.7
2852.85,2852.85,2852.85,2288.0,2288.0
3542.75,3542.75,3542.75,2987.75,2987.75
98.75,98.75,98.75,98.75,98.75
3061.25,3061.25,3061.25,2480.0,2480.0
2531.25,2531.25,2531.25,2000.0,2000.0
585.0,585.0,585.0,585.0,585.0
-404.0,-404.0,-404.0,-404.0,-404.0
2811.6,2811.6,2811.6,2307.5,2307.5
2653.2,2653.2,2653.2,2118.6,2118.6
-404.0,-404.0,-404.0,-404.0,-404.0
2800.0,2800.0,2800.0,2240.0,2240.0
3009.6,3009.6,3009.6,2432.0,2432.0
-407.0,-407.0,-407.0,-407.0,-407.0
2450.25,2450.25,2450.25,1948.1,1948.1
2576.0,2576.0,2576.0,2576.0,2576.0
2014.95,2014.95,2014.95,1722.05,1722.05
1152.0,1152.0,1152.0,1152.0,1152.0
3061.25,3061.25,3061.25,2480.0,2480.0
2693.4,2693.4,2693.4,2144.0,2144.0
2192.4,2192.4,2192.4,1765.8,1765.8
3112.6,3112.6,3112.6,2528.0,2528.0
2852.85,2852.85,2852.85,2288.0,2288.0
3112.6,3112.6,3112.6,2528.0,2528.0
-403.0,-403.0,-403.0,-403.0,-403.0
3214.75,3289.9,3289.9,2672.0,2672.0
3124.35,3124.35,3124.35,2551.95,2551.95
-199.0,-199.0,-199.0,-199.0,-199.0
3672.0,4147.2,4147.2,3542.4,3542.4
2476.6,2476.6,2476.6,1952.0,1952.0
-99.25,-99.25,-99.25,-99.25,-99.25
3315.0,3315.0,3315.0,2720.0,2720.0
3571.2,3571.2,3571.2,2985.3,2985.3
2693.25,2693.25,2693.25,2187.0,2187.0
2693.4,2693.4,2693.4,2144.0,2144.0
2057.0,2057.0,2057.0,2057.0,2057.0
3220.4,3220.4,3220.4,2697.5,2697.5
3401.0,3401.0,3401.0,3401.0,3401.0
2666.65,2666.65,2666.65,2141.3,2141.3
2531.25,2531.25,2531.25,2000.0,2000.0
-407.0,-407.0,-407.0,-407.0,-407.0
2366.4,2366.4,2366.4,1856.0,1856.0
2383.6,2383.6,2383.6,1917.5,1917.5
4638.85,4638.85,4638.85,4112.0,4112.0
2314.2,2314.2,2314.2,1846.8,1846.8
2436.0,2436.0,2436.0,1926.0,1926.0
2380.95,2380.95,2380.95,1877.85,1877.85
2421.65,2421.65,2421.65,1904.0,1904.0
2852.85,2852.85,2852.85,2288.0,2288.0
1356.6,1356.6,1356.6,1339.6,1091.4
2800.0,2800.0,2800.0,2240.0,2240.0
2585.6,2585.6,2585.6,2048.0,2048.0
2572.8,2572.8,2572.8,2067.2,2067.2
2746.85,2746.85,2746.85,2192.0,2192.0
4040.4,4040.4,4040.4,3696.3,3696.3
2476.6,2476.6,2476.6,1952.0,1952.0
3248.15,3248.15,3248.15,2697.05,2697.05
2600.0,2600.0,2600.0,2112.5,2112.5
2666.65,2666.65,2666.65,2141.3,2141.3
2262.4,2262.4,2262.4,1836.8,1836.8
2366.4,2366.4,2366.4,1856.0,1856.0
3497.7,3497.7,3310.8,2865.8,2865.8
3522.75,3522.75,3522.75,2937.15,2937.15
2823.55,3024.7,3024.7,2384.0,2384.0
3112.6,3112.6,3112.6,2528.0,2528.0
3484.25,3484.25,3484.25,2914.1,2914.1
-405.0,-405.0,-405.0,-405.0,-405.0
1380.4,1380.4,1380.4,1179.8,1179.8
3124.35,3124.35,3124.35,2551.95,2551.95
2436.0,2442.0,2442.0,1920.0,1920.0
-400.0,-400.0,-400.0,-400.0,-400.0
-404.0,-404.0,-404.0,-404.0,-404.0
-406.0,-406.0,-406.0,-406.0,-406.0
1611.9,1611.9,1611.9,1296.0,1559.25
2421.65,2421.65,2421.65,1904.0,1904.0
3214.4,3214.4,3214.4,2624.0,2624.0
-402.0,-402.0,-402.0,-402.0,-402.0
2492.4,2492.4,2492.4,2015.0,2015.0
3264.85,3264.85,3264.85,2672.0,2672.0
4001.8,4001.8,4001.8,3445.4,3445.4
2366.4,2366.4,2366.4,1856.0,1856.0
-407.0,-407.0,-407.0,-407.0,-407.0
2970.0,2970.0,2970.0,2407.5,2407.5
2852.85,2852.85,2852.85,2288.0,2288.0
2476.6,2476.6,2476.6,1952.0,1952.0
2585.6,2585.6,2585.6,2048.0,2048.0
3021.75,3021.75,3021.75,2455.65,2455.65
2478.45,2478.45,2478.45,1992.6,1992.6
3061.25,3061.25,3061.25,2480.0,2480.0
3315.0,3315.0,3315.0,2720.0,2720.0
98.75,98.75,98.75,98.75,98.75
2545.2,2545.2,2545.2,2022.3,2022.3
3112.6,3112.6,3112.6,2528.0,2528.0
2478.45,2478.45,2478.45,1992.6,1992.6
-408.0,-408.0,-408.0,-408.0,-408.0
4031.25,4031.25,4031.25,3440.0,3440.0
2531.25,2531.25,2531.25,2000.0,2000.0
2380.95,2380.95,2380.95,1877.85,1877.85
3561.25,3561.25,3561.25,2960.0,2960.0
3571.2,3571.2,3571.2,2985.3,2985.3
-401.0,-401.0,-401.0,-401.0,-401.0
2218.15,2218.15,2218.15,1771.25,1771.25
3522.75,3522.75,3522.75,2937.15,2937.15
2424.0,2424.0,2424.0,1944.0,1944.0
2380.95,2380.95,2380.95,1877.85,1877.85
3061.25,3061.25,3061.25,2480.0,2480.0
2693.4,2693.4,2693.4,2144.0,2144.0
-400.0,-400.0,-400.0,-400.0,-400.0
2905.4,2905.4,2905.4,2336.0,2336.0
3021.75,3021.75,3021.75,2455.65,2455.65
2800.0,2800.0,2800.0,2240.0,2240.0
3364.85,3364.85,3364.85,2768.0,2768.0
-406.0,-406.0,-406.0,-406.0,-406.0
3561.25,3561.25,3561.25,2960.0,2960.0
-408.0,-408.0,-408.0,-402.0,-402.0
98.75,98.75,98.75,98.75,98.75
2380.95,2380.95,2380.95,1877.85,1877.85
870.75,870.75,870.75,862.15,690.15
2770.65,2770.65,2770.65,2326.5,2326.5
2960.55,2960.55,2960.55,2547.45,2547.45
2450.25,2450.25,2450.25,1948.1,1948.1
2957.65,2957.65,2957.65,2384.0,2384.0
1929.6,1929.6,1929.6,1627.2,1627.2
3325.95,3325.95,3325.95,2744.55,2744.55
2759.15,2759.15,2759.15,2258.75,2258.75
2912.0,2912.0,2912.0,2912.0,2912.0
2421.65,2421.65,2421.65,1904.0,1904.0
2222.0,2222.0,2222.0,1809.5,1809.5
2345.85,2345.85,2345.85,1872.0,1989.0
2369.25,2369.25,2369.25,1895.4,1895.4
-405.0,-405.0,-405.0,-405.0,-405.0
2800.0,2800.0,2800.0,2240.0,2240.0
2421.65,2421.65,2421.65,1904.0,1904.0
3060.0,3591.0,3591.0,2979.0,2979.0
3505.75,3505.75,3505.75,3043.25,3043.25
2982.25,2982.25,2982.25,2431.1,2431.1
2639.65,2639.65,2639.65,2096.0,2096.0
2436.0,2436.0,2436.0,1926.0,1926.0
-406.0,-406.0,-406.0,-406.0,-406.0
1520.0,1520.0,1520.0,1520.0,1520.0
2476.6,2476.6,2476.6,1952.0,1952.0
2424.0,2424.0,2424.0,1944.0,1944.0
2299.55,2299.55,2299.55,1824.95,1824.95
2849.25,2849.25,2849.25,2378.0,2378.0
2812.95,2812.95,2812.95,2263.05,2263.05
2613.0,2613.0,2613.0,2093.0,2093.0
2587.0,2587.0,2587.0,2132.0,2132.0
1664.6,1664.6,1664.6,1394.0,1394.0
2653.2,2653.2,2653.2,2204.3,2204.3
2466.15,2466.15,2466.15,2011.05,2011.05
3609.6,3609.6,3609.6,3008.0,3008.0
2639.65,2639.65,2639.65,2096.0,2096.0
3927.0,3927.0,3927.0,3402.0,3402.0
2380.95,2380.95,2380.95,1877.85,1877.85
2366.4,2366.4,2366.4,1856.0,1856.0
1520.0,1520.0,1520.0,1520.0,1520.0
2166.75,2166.75,2166.75,1760.15,1760.15
2970.0,2970.0,2970.0,2407.5,2407.5
2476.6,2476.6,2476.6,1952.0,1952.0
356.4,356.4,356.4,348.3,348.3
1660.0,1660.0,1660.0,1560.4,1332.15
2383.6,2383.6,2383.6,1917.5,1917.5
-199.0,-199.0,-199.0,-199.0,-199.0
2121.6,2121.6,2121.6,1695.2,1695.2
-403.0,-403.0,-403.0,-403.0,-403.0
4455.0,3633.75,4455.0,3600.0,3600.0
2162.4,2162.4,2162.4,1722.5,1722.5
2852.85,2852.85,2852.85,2288.0,2288.0
3561.25,3561.25,3561.25,2960.0,2960.0
2531.25,2531.25,2531.25,2000.0,2000.0
-406.0,-406.0,-406.0,-406.0,-406.0
-400.0,-400.0,-400.0,-400.0,-400.0
2746.85,2746.85,2746.85,2192.0,2192.0
2800.0,2800.0,2800.0,2240.0,2240.0
2733.15,2733.15,2733.15,2212.55,2212.55
1151.4,1151.4,1151.4,1114.35,912.0
3364.85,3364.85,3364.85,2768.0,2768.0
3237.0,3237.0,3237.0,2672.6,2672.6
2334.5,2334.5,2334.5,1840.0,1880.25
-402.0,-402.0,-402.0,-402.0,-402.0
2325.6,2325.6,2325.6,1829.7,1829.7
-404.0,-404.0,-404.0,-404.0,-404.0
-402.0,-402.0,-402.0,-402.0,-402.0
3493.3,3493.3,3493.3,2896.0,2905.05
2746.85,2746.85,2746.85,2192.0,2192.0
-406.0,-406.0,-406.0,-406.0,-406.0
2288.25,2288.25,2288.25,1841.9,1841.9
2706.75,2706.75,2706.75,2166.75,2166.75
2262.4,2262.4,2262.4,1836.8,1836.8
-402.0,-402.0,-402.0,-402.0,-402.0
-407.0,-407.0,-407.0,-407.0,-407.0
2585.6,2585.6,2585.6,2048.0,2048.0
3264.85,3264.85,3264.85,2672.0,2672.0
2679.2,2679.2,2679.2,2250.8,2250.8
3009.6,3009.6,3009.6,2432.0,2432.0
3021.75,3021.75,3021.75,2455.65,2455.65
2453.85,2453.85,2453.85,2029.5,2029.5
2639.65,2639.65,2639.65,2096.0,2096.0
1428.75,1428.75,1428.75,1428.75,1428.75
3163.65,3163.65,3163.65,2576.0,2576.0
-403.0,-403.0,-403.0,-403.0,-403.0
2284.8,2284.8,2284.8,1803.2,1803.2
3163.65,3163.65,3163.65,2576.0,2576.0
2244.0,2244.0,2244.0,1776.5,1776.5
2288.25,2288.25,2288.25,1841.9,1841.9
2585.6,2585.6,2585.6,2048.0,2048.0
2957.65,2957.65,2957.65,2384.0,2384.0
-406.0,-406.0,-406.0,-406.0,-406.0
2476.6,2476.6,2476.6,1952.0,1952.0
2745.0,2745.0,2745.0,2745.0,2745.0
469.2,469.2,469.2,470.4,469.2
-199.0,-199.0,-199.0,-199.0,-199.0
-299.25,-299.25,-299.25,-299.25,-299.25
2693.4,2693.4,2693.4,2144.0,2144.0
2366.4,2366.4,2366.4,1856.0,1856.0
-405.0,-405.0,-405.0,-405.0,-405.0
2746.85,2746.85,2746.85,2192.0,2192.0
2865.6,2865.6,2865.6,2311.2,2311.2
2626.8,2626.8,2626.8,2158.2,2158.2
2476.6,2476.6,2476.6,1952.0,1952.0
1790.75,1790.75,1790.75,1790.75,1790.75
3009.6,3009.6,3009.6,2432.0,2432.0
2994.4,2994.4,2994.4,2454.8,2454.8
-403.0,-403.0,-403.0,-403.0,-403.0
2653.2,2653.2,2653.2,2118.6,2118.6
2639.65,2639.65,2639.65,2096.0,2096.0
2745.25,2745.25,2745.25,2279.6,2279.6
2905.4,2905.4,2905.4,2336.0,2336.0
-404.0,-404.0,-404.0,-404.0,-404.0
-99.25,-99.25,-99.25,-99.25,-99.25
2531.25,2531.25,2531.25,2000.0,2000.0
1058.75,1058.75,1058.75,1058.75,1058.75
1766.65,1766.65,1766.65,1557.5,1557.5
3112.6,3112.6,3112.6,2528.0,2528.0
2693.4,2693.4,2693.4,2144.0,2144.0
2639.65,2639.65,2639.65,2096.0,2096.0
2004.85,2004.85,2004.85,1737.2,1737.2
2532.6,2532.6,2532.6,2041.2,2041.2
2409.75,2409.75,2409.75,1921.85,1921.85
2731.35,2731.35,2731.35,2300.45,2300.45
-406.0,-406.0,-406.0,-406.0,-406.0
2366.4,2366.4,2366.4,1856.0,1856.0
2639.65,2639.65,2639.65,2096.0,2096.0
-402.0,-402.0,-402.0,-402.0,-402.0
3124.35,3124.35,3124.35,2551.95,2551.95
3657.65,3657.65,3657.65,3056.0,3056.0
3315.0,3315.0,3315.0,2720.0,2720.0
3522.75,3522.75,3522.75,2937.15,2937.15
2878.25,2878.25,2878.25,2334.5,2334.5
1869.3,1869.3,1869.3,1669.35,1497.3
2436.0,2436.0,2436.0,1926.0,1926.0
2693.4,2693.4,2693.4,2144.0,2144.0
-199.0,-199.0,-199.0,-199.0,-199.0
2586.45,2586.45,2586.45,2089.8,2089.8
2800.0,2800.0,2800.0,2240.0,2240.0
2585.6,2585.6,2585.6,2048.0,2048.0
810.6,810.6,810.6,810.6,827.4
1058.75,1058.75,1058.75,1058.75,1058.75
2680.0,2680.0,2680.0,2164.1,2164.1
3061.25,3061.25,3061.25,2480.0,2480.0
2797.4,2847.1,2847.1,2279.1,2279.1
3061.25,3061.25,3061.25,2480.0,2480.0
2545.2,2545.2,2545.2,2022.3,2022.3
3667.2,3667.2,3667.2,3081.6,3081.6
3417.6,3417.6,3417.6,2892.5,2892.5
488.75,488.75,488.75,488.75,488.75
2746.85,2746.85,2746.85,2192.0,2192.0
2243.05,2243.05,2243.05,1909.7,1909.7
98.75,98.75,98.75,98.75,98.75
3561.25,3561.25,3561.25,2960.0,2960.0
1632.15,1632.15,1632.15,1397.25,1397.25
2693.4,2693.4,2693.4,2144.0,2144.0
-199.0,-199.0,-199.0,-199.0,-199.0
-407.0,-407.0,-407.0,-407.0,-407.0
3463.65,3463.65,3463.65,2864.0,2864.0
3033.8,3033.8,3033.8,2479.4,2479.4
2957.65,2957.65,2957.65,2384.0,2384.0
-407.0,-407.0,-407.0,-407.0,-407.0
2504.8,2504.8,2504.8,1996.4,1996.4
2340.25,2340.25,2340.25,1851.5,1851.5
-408.0,-408.0,-408.0,-408.0,-408.0
2504.8,2504.8,2504.8,1996.4,1996.4
3092.55,3092.55,3092.55,2599.65,2599.65
2957.65,2957.65,2957.65,2384.0,2384.0
2413.95,2413.95,2413.95,2002.55,2002.55
2693.4,2693.4,2693.4,2144.0,2144.0
-199.0,-199.0,-199.0,-199.0,-199.0
3918.75,3918.75,3918.75,3375.35,3375.35
2639.65,2639.65,2639.65,2096.0,2096.0
-404.0,-404.0,-404.0,-404.0,-404.0
392.0,392.0,392.0,392.0,392.0
1387.2,1387.2,1387.2,1169.6,1169.6
2800.0,2800.0,2800.0,2240.0,2240.0
2545.2,2545.2,2545.2,2022.3,2022.3
2559.05,2559.05,2559.05,2044.7,2044.7
2746.85,2746.85,2746.85,2192.0,2192.0
2450.25,2450.25,2450.25,1948.1,1948.1
2639.65,2639.65,2639.65,2096.0,2096.0
2545.2,2545.2,2545.2,2022.3,2022.3
2559.05,2559.05,2559.05,2044.7,2044.7
0.0,0.0,0.0,0.0,0.0
1428.75,1428.75,1428.75,1428.75,1428.75
-404.0,-404.0,-404.0,-404.0,-404.0
2825.8,2825.8,2825.8,2286.2,2286.2
2957.65,2957.65,2957.65,2384.0,2384.0
2706.75,2706.75,2706.75,2166.75,2166.75
2421.65,2421.65,2421.65,1904.0,1904.0
2760.0,2760.0,2760.0,2214.9,2214.9
2626.55,2626.55,2626.55,2115.65,2115.65
3045.75,3045.75,3045.75,2503.25,2503.25
392.0,392.0,392.0,392.0,392.0
1290.25,1290.25,1290.25,1176.5,1176.5
2693.4,2693.4,2693.4,2144.0,2144.0
2905.4,2905.4,2905.4,2336.0,2336.0
1185.9,1185.9,1185.9,1165.25,944.0
3800.0,3800.0,3800.0,3200.0,3200.0
2940.0,2940.0,2940.0,2452.5,2452.5
3956.25,3956.25,3956.25,3397.1,3397.1
3657.65,3657.65,3657.65,3056.0,3056.0
-405.0,-405.0,-405.0,-405.0,-405.0
98.75,98.75,98.75,98.75,98.75
585.0,585.0,585.0,585.0,585.0
2852.85,2852.85,2852.85,2288.0,2288.0
3835.2,3045.6,3835.2,3064.4,3064.4
3561.25,3561.25,3561.25,2960.0,2960.0
2746.85,2746.85,2746.85,2192.0,2192.0
2746.85,2746.85,2746.85,2192.0,2192.0
-401.0,-401.0,-401.0,-401.0,-401.0
3181.6,3181.6,3181.6,2673.2,2673.2
2531.25,2531.25,2531.25,2000.0,2000.0
2421.65,2421.65,2421.65,1904.0,1904.0
3375.6,3375.6,3375.6,2792.7,2792.7
1337.0,1337.0,1337.0,1337.0,1337.0
-402.0,-402.0,-402.0,-402.0,-402.0
3264.85,3264.85,3264.85,2672.0,2672.0
3192.75,3192.75,3192.75,2697.75,2697.75
2531.25,2531.25,2531.25,2000.0,2000.0
2531.25,2531.25,2531.25,2000.0,2000.0
3414.4,3414.4,3414.4,2816.0,2816.0
2585.6,2585.6,2585.6,2048.0,2048.0
-401.0,-401.0,-401.0,-401.0,-401.0
2532.6,2532.6,2532.6,2041.2,2041.2
3009.6,3009.6,3009.6,2432.0,2432.0
2970.0,2970.0,2970.0,2407.5,2407.5
2492.4,2492.4,2492.4,2015.0,2015.0
3163.65,3163.65,3163.65,2576.0,2576.0
3136.0,3136.0,3136.0,2576.0,2576.0
2325.6,2325.6,2325.6,1829.7,1829.7
-405.0,-405.0,-405.0,-405.0,-405.0
2957.65,2957.65,2957.65,2384.0,2384.0
2580.6,2808.3,2808.3,2256.3,2256.3
2476.6,2476.6,2476.6,1952.0,1952.0
4305.5,4305.5,3618.8,3488.0,3488.0
3512.6,3512.6,3512.6,2912.0,2912.0
-405.0,-405.0,-405.0,-405.0,-405.0
2366.4,2366.4,2366.4,1856.0,1856.0
2917.95,2917.95,2917.95,2359.35,2359.35
2851.2,2851.2,2851.2,2332.8,2332.8
2660.75,2660.75,2660.75,2660.75,2660.75
2531.25,2531.25,2531.25,2000.0,2000.0
2720.0,2720.0,2720.0,2189.6,2189.6
2035.15,2035.15,2035.15,1691.75,1691.75
-404.0,-404.0,-404.0,-404.0,-404.0
2680.0,2680.0,2680.0,2164.1,2164.1
3009.6,3009.6,3009.6,2432.0,2432.0
2706.75,2706.75,2706.75,2166.75,2166.75
3214.4,3214.4,3214.4,2624.0,2624.0
2852.85,2852.85,2852.85,2288.0,2288.0
2383.6,2383.6,2383.6,1917.5,1917.5
2852.85,2852.85,2852.85,2288.0,2288.0
2325.6,2325.6,2325.6,1829.7,1829.7
4019.4,4019.4,3481.45,3258.15,3258.15
2409.75,2409.75,2409.75,1921.85,1921.85
2793.35,3276.35,3276.35,2648.45,2648.45
2476.6,2476.6,2476.6,1952.0,1952.0
3021.75,3021.75,3021.75,2455.65,2455.65
3124.35,3124.35,3124.35,2551.95,2551.95
2942.75,2942.75,2942.75,2406.35,2406.35
-408.0,-408.0,-408.0,-408.0,-408.0
2890.8,2890.8,2890.8,2357.9,2357.9
3325.95,3325.95,3325.95,2744.55,2744.55
2585.6,2585.6,2585.6,2048.0,2048.0
3009.6,3009.6,3009.6,2432.0,2432.0
2518.75,2518.75,2518.75,2018.75,2018.75
2705.75,2705.75,2705.75,2253.65,2253.65
2927.3,2927.3,2847.0,2343.3,2343.3
2380.95,2380.95,2380.95,1877.85,1877.85
2476.6,2476.6,2476.6,1952.0,1952.0
2639.65,2639.65,2639.65,2096.0,2096.0
2144.75,2144.75,2144.75,2144.75,2144.75
2905.4,2905.4,2905.4,2336.0,2336.0
3130.4,3457.2,3457.2,2752.0,2752.0
2325.6,2325.6,2325.6,1829.7,1829.7
4202.15,4202.15,4202.15,3721.25,3721.25
2380.95,2380.95,2380.95,1877.85,1877.85
2476.6,2476.6,2476.6,1952.0,1952.0
4541.35,4541.35,4541.35,4111.25,4111.25
2693.4,2693.4,2693.4,2144.0,2144.0
2244.0,2244.0,2244.0,1776.5,1776.5
2693.4,2693.4,2693.4,2144.0,2144.0
2706.75,2706.75,2706.75,2166.75,2166.75
2531.25,2531.25,2531.25,2000.0,2000.0
4218.0,4218.0,4218.0,3659.4,3659.4
2693.4,2693.4,2693.4,2144.0,2144.0
2436.0,2436.0,2436.0,1926.0,1926.0
1610.75,1610.75,1610.75,1610.75,1610.75
-199.0,-199.0,-199.0,-199.0,-199.0
3386.25,3386.25,3386.25,2817.5,2817.5
2585.6,2585.6,2585.6,2048.0,2048.0
2366.4,2366.4,2366.4,1856.0,1856.0
-99.25,-99.25,-99.25,-99.25,-99.25
98.75,98.75,98.75,98.75,98.75
-408.0,-408.0,-408.0,-391.0,-391.0
3561.25,3561.25,3561.25,2960.0,2960.0
3667.2,3667.2,3667.2,3081.6,3081.6
2476.6,2476.6,2476.6,1952.0,1952.0
-407.0,-407.0,-407.0,-407.0,-407.0
2476.6,2476.6,2476.6,1952.0,1952.0
2111.2,2111.2,2111.2,1710.8,1710.8
2421.65,2421.65,2421.65,1904.0,1904.0
2317.25,2317.25,2317.25,1886.0,1886.0
-99.25,-99.25,-99.25,-99.25,-99.25
3021.75,3021.75,3021.75,2455.65,2455.65
2585.6,2585.6,2585.6,2048.0,2048.0
3571.2,3571.2,3571.2,2985.3,2985.3
3463.65,3463.65,3463.65,2864.0,2864.0
2706.4,2706.4,2706.4,2210.0,2210.0
3618.75,3618.75,3618.75,3194.15,3194.15
2397.85,2397.85,2397.85,1939.7,1939.7
2236.65,2236.65,2236.65,1831.5,1831.5
2917.95,2917.95,2917.95,2359.35,2359.35
2380.95,2380.95,2380.95,1877.85,1877.85
-406.0,-406.0,-406.0,-406.0,-406.0
2531.25,2531.25,2531.25,2000.0,2000.0
2354.8,2354.8,2354.8,1873.4,1873.4
3136.0,3136.0,3136.0,2576.0,2576.0
-299.25,-299.25,-299.25,-299.25,-299.25
2476.6,2476.6,2476.6,1952.0,1952.0
1668.3,1668.3,1668.3,1328.0,1539.65
2600.0,2600.0,2600.0,2112.5,2112.5
741.85,741.85,741.85,684.5,684.5
2343.2,2343.2,2343.2,1890.8,1890.8
2942.75,2942.75,2942.75,2406.35,2406.35
2970.0,2970.0,2970.0,2407.5,2407.5
2852.85,2852.85,2852.85,2288.0,2288.0
3561.25,3561.25,3561.25,2960.0,2960.0
-408.0,-408.0,-408.0,-392.0,-392.0
4060.0,3280.0,4060.0,3200.0,3200.0
2478.45,2478.45,2478.45,1992.6,1992.6
1428.75,1428.75,1428.75,1428.75,1428.75
2653.2,2653.2,2653.2,2118.6,2118.6
-404.0,-404.0,-404.0,-404.0,-404.0
-408.0,-408.0,-408.0,-399.0,-399.0
98.75,98.75,98.75,98.75,98.75
2412.0,2412.0,2412.0,1962.0,1962.0
2957.65,2957.65,2957.65,2384.0,2384.0
3021.75,3021.75,3021.75,2455.65,2455.65
3561.25,3561.25,3561.25,2960.0,2960.0
2531.25,2531.25,2531.25,2000.0,2000.0
2825.8,2825.8,2825.8,2286.2,2286.2
3061.25,3061.25,3061.25,2480.0,2480.0
2395.4,2395.4,2395.4,1899.8,1899.8
2693.4,2693.4,2693.4,2144.0,2144.0
-406.0,-406.0,-406.0,-406.0,-406.0
2366.4,2366.4,2366.4,1856.0,1856.0
-81.6,-81.6,-81.6,-76.0,-76.0
2421.65,2421.65,2421.65,1904.0,1904.0
2559.05,2559.05,2559.05,2044.7,2044.7
2626.55,2626.55,2626.55,2115.65,2115.65
680.75,680.75,680.75,680.75,680.75
1441.75,1193.55,1441.75,1441.75,1441.75
3846.85,3846.85,3846.85,3248.0,3248.0
1397.25,1397.25,1397.25,1200.6,1200.6
-407.0,-407.0,-407.0,-407.0,-407.0
2800.0,2800.0,2800.0,2240.0,2240.0
2800.0,2800.0,2800.0,2240.0,2240.0
2599.35,2599.35,2599.35,2070.45,2070.45
2917.95,2917.95,2917.95,2359.35,2359.35
2957.65,2957.65,2957.65,2384.0,2384.0
2585.6,2585.6,2585.6,2048.0,2048.0
3993.75,3993.75,3993.75,3418.65,3418.65
2585.6,2585.6,2585.6,2048.0,2048.0
2979.2,2979.2,2979.2,2477.6,2477.6
1964.25,1964.25,1964.25,1619.9,1619.9
-299.25,-299.25,-299.25,-299.25,-299.25
-400.0,-400.0,-400.0,-400.0,-400.0
-403.0,-403.0,-403.0,-403.0,-403.0
2366.4,2366.4,2366.4,1856.0,1856.0
2639.65,2639.65,2639.65,2096.0,2096.0
3561.25,3561.25,3561.25,2960.0,2960.0
3124.35,3124.35,3124.35,2551.95,2551.95
2436.0,2436.0,2436.0,1926.0,1926.0
1428.75,1428.75,1428.75,1428.75,1428.75
2746.85,2746.85,2746.85,2192.0,2192.0
3175.2,3175.2,3175.2,2600.1,2600.1
392.0,392.0,392.0,392.0,392.0
2706.75,2706.75,2706.75,2166.75,2166.75
0.0,0.0,0.0,0.0,0.0
2585.6,2585.6,2585.6,2048.0,2048.0
3264.85,3264.85,3264.85,2672.0,2672.0
2852.85,2852.85,2852.85,2288.0,2288.0
2585.6,2585.6,2585.6,2048.0,2048.0
2746.2,2746.2,2746.2,2235.6,2235.6
2746.85,2746.85,2746.85,2192.0,2192.0
2366.4,2366.4,2366.4,1856.0,1856.0
-404.0,-404.0,-404.0,-404.0,-404.0
-199.0,-199.0,-199.0,-199.0,-199.0
1716.0,1716.0,1716.0,1408.0,1768.8
2490.75,2490.75,2490.75,1974.15,1974.15
-407.0,-407.0,-407.0,-407.0,-407.0
-408.0,-408.0,-408.0,-384.0,-408.0
3273.6,3484.8,3484.8,2816.0,2816.0
2905.4,2905.4,2905.4,2336.0,2336.0
3033.8,3033.8,3033.8,2479.4,2479.4
2798.85,2798.85,2798.85,2284.2,2284.2
3136.0,3136.0,3136.0,2576.0,2576.0
2409.75,2409.75,2409.75,1921.85,1921.85
3336.8,3336.8,3336.8,2769.2,2769.2
2666.6,2666.6,2666.6,2184.2,2184.2
2852.85,2852.85,2852.85,2288.0,2288.0
2380.95,2380.95,2380.95,1877.85,1877.85
2436.0,2436.0,2436.0,1926.0,1926.0
2572.8,2572.8,2572.8,2067.2,2067.2
2905.4,2905.4,2905.4,2336.0,2336.0
3893.4,3893.4,3893.4,3296.0,3296.0
3414.4,3414.4,3414.4,2816.0,2816.0
2476.6,2476.6,2476.6,1952.0,1952.0
2585.6,2585.6,2585.6,2048.0,2048.0
2262.4,2262.4,2262.4,1836.8,1836.8
2639.65,2639.65,2639.65,2096.0,2096.0
3112.6,3112.6,3112.6,2528.0,2528.0
2436.0,2436.0,2436.0,1926.0,1926.0
3085.05,3085.05,3085.05,2527.7,2527.7
2970.0,2970.0,2970.0,2407.5,2407.5
-401.0,-401.0,-401.0,-401.0,-401.0
2838.55,2838.55,2838.55,2309.45,2309.45
2746.85,2746.85,2746.85,2192.0,2192.0
2693.4,2693.4,2693.4,2144.0,2144.0
3255.5,3255.5,3255.5,2898.5,2720.0
2085.75,2085.75,2085.75,1704.65,1704.65
-403.0,-403.0,-403.0,-403.0,-403.0
2020.0,2020.0,2020.0,1670.0,1670.0
2903.25,2903.25,2903.25,2381.4,2381.4
2905.4,2905.4,2905.4,2336.0,2336.0
2693.4,2693.4,2693.4,2144.0,2144.0
2970.0,2970.0,2970.0,2407.5,2407.5
2745.25,2745.25,2745.25,2279.6,2279.6
2905.4,2905.4,2905.4,2336.0,2336.0
-199.0,-199.0,-199.0,-199.0,-199.0
2284.8,2284.8,2284.8,1803.2,1803.2
2121.6,2121.6,2121.6,1695.2,1695.2
2653.35,2686.6,2686.6,2128.0,2128.0
2331.6,2331.6,2331.6,1908.2,1908.2
0.0,0.0,0.0,0.0,0.0
2800.0,2800.0,2800.0,2240.0,2240.0
2567.4,2244.0,2250.6,2567.4,2567.4
2706.4,2706.4,2706.4,2210.0,2210.0
2800.0,2800.0,2800.0,2240.0,2240.0
2478.45,2478.45,2478.45,1992.6,1992.6
2405.0,2405.0,2405.0,2405.0,2405.0
2957.65,2957.65,2957.65,2384.0,2384.0
3163.65,3163.65,3163.65,2576.0,2576.0
3112.6,3112.6,3112.6,2528.0,2528.0
2490.75,2490.75,2490.75,1974.15,1974.15
2421.65,2421.65,2421.65,1904.0,1904.0
2366.4,2366.4,2366.4,1856.0,1856.0
-404.0,-404.0,-404.0,-404.0,-404.0
3214.4,3214.4,3214.4,2624.0,2624.0
2314.2,2314.2,2314.2,1846.8,1846.8
1688.4,1688.4,1688.4,1449.0,1449.0
2585.6,2585.6,2585.6,2048.0,2048.0
4076.6,4076.6,4076.6,3488.0,3488.0
1520.0,1520.0,1520.0,1520.0,1520.0
294.75,294.75,294.75,294.75,294.75
680.75,680.75,680.75,680.75,680.75
-299.25,-299.25,-299.25,-299.25,-299.25
2852.85,2852.85,2852.85,2288.0,2288.0
2639.65,2639.65,2639.65,2096.0,2096.0
2177.45,2177.45,2177.45,1744.1,1744.1
3684.8,3684.8,3684.8,3214.4,3214.4
2706.75,2706.75,2706.75,2166.75,2166.75
197.0,197.0,197.0,197.0,197.0
2746.85,2746.85,2746.85,2192.0,2192.0
-404.0,-404.0,-404.0,-404.0,-404.0
2421.65,2421.65,2421.65,1904.0,1904.0
294.75,294.75,294.75,294.75,294.75
3163.65,3163.65,3163.65,2576.0,2576.0
3512.6,3512.6,3512.6,2912.0,2912.0
-405.0,-405.0,-405.0,-405.0,-405.0
2852.85,2852.85,2852.85,2288.0,2288.0
3733.5,3458.0,3733.5,3040.0,3040.0
2160.0,2160.0,2160.0,1814.4,1814.4
2340.25,2340.25,2340.25,1851.5,1851.5
-404.0,-404.0,-404.0,-404.0,-404.0
2957.65,2957.65,2957.65,2384.0,2384.0
2812.95,2812.95,2812.95,2263.05,2263.05
2325.6,2325.6,2325.6,1829.7,1829.7
2325.6,2325.6,2325.6,1829.7,1829.7
-408.0,-408.0,-408.0,-408.0,-408.0
465.75,465.75,465.75,426.65,426.65
-400.0,-400.0,-400.0,-400.0,-400.0
2322.45,2322.45,2322.45,1965.6,1965.6
-405.0,-405.0,-405.0,-405.0,-405.0
-405.0,-405.0,-405.0,-405.0,-405.0
1142.6,1142.6,1142.6,1073.0,1073.0
2572.8,2572.8,2572.8,2067.2,2067.2
-406.0,-406.0,-406.0,-406.0,-406.0
997.05,997.05,997.05,963.9,963.9
-408.0,-408.0,-408.0,-408.0,-408.0
3474.0,3474.0,3474.0,2889.0,2889.0
2157.1,2157.1,2157.1,1696.0,1764.9
2426.05,2426.05,2426.05,1984.4,1984.4
-405.0,-405.0,-405.0,-405.0,-405.0
2905.4,2905.4,2905.4,2336.0,2336.0
2476.6,2476.6,2476.6,1952.0,1952.0
2693.4,2693.4,2693.4,2144.0,2144.0
3792.0,3792.0,3436.8,3072.0,3072.0
3364.85,3364.85,3364.85,2768.0,2768.0
3298.75,3298.75,3298.75,2948.75,2948.75
2258.85,2258.85,2258.85,1798.2,1798.2
3202.55,3202.55,3202.55,2847.65,2847.65
2626.75,2626.75,2626.75,2201.15,2201.15
1520.0,1520.0,1520.0,1520.0,1520.0
3163.65,3163.65,3163.65,2576.0,2576.0
-408.0,-408.0,-408.0,-408.0,-408.0
3609.6,3609.6,3609.6,3008.0,3008.0
2800.0,2800.0,2800.0,2240.0,2240.0
2476.6,2476.6,2476.6,1952.0,1952.0
3494.4,3494.4,3494.4,2939.3,2939.3
1610.75,1610.75,1610.75,1610.75,1610.75
2518.75,2518.75,2518.75,2018.75,2018.75
-408.0,-408.0,-408.0,-408.0,-408.0
2476.6,2476.6,2476.6,1952.0,1952.0
3192.75,3192.75,3192.75,2697.75,2697.75
2366.4,2366.4,2366.4,1856.0,1856.0
3259.2,3259.2,3259.2,2721.6,2721.6
3325.95,3325.95,3325.95,2744.55,2744.55
-407.0,-407.0,-407.0,-407.0,-407.0
3009.6,3009.6,3009.6,2432.0,2432.0
-407.0,-407.0,-407.0,-407.0,-407.0
0.0,0.0,0.0,0.0,0.0
2421.65,2421.65,2421.65,1904.0,1904.0
2930.4,2930.4,2930.4,2382.8,2382.8
2905.4,2905.4,2905.4,2336.0,2336.0
2970.0,2970.0,2970.0,2407.5,2407.5
2531.25,2531.25,2531.25,2000.0,2000.0
2732.4,2732.4,2732.4,2256.3,2256.3
4801.65,4801.65,4801.65,4304.0,4304.0
2800.0,2800.0,2800.0,2240.0,2240.0
1527.6,1527.6,1527.6,1326.2,1326.2
2653.2,2653.2,2653.2,2118.6,2118.6
2917.95,2917.95,2917.95,2359.35,2359.35
2436.0,2436.0,2436.0,1926.0,1926.0
2586.45,2586.45,2586.45,2089.8,2089.8
2354.8,2354.8,2354.8,1873.4,1873.4
2340.25,2340.25,2340.25,1851.5,1851.5
3692.1,3329.4,3692.1,2985.3,2985.3
3705.4,3705.4,3705.4,3104.0,3104.0
3629.0,3629.0,3629.0,3059.0,3059.0
2328.75,2328.75,2328.75,1868.75,1868.75
2302.8,2302.8,2302.8,1863.9,1863.9
2476.6,2476.6,2476.6,1952.0,1952.0
2693.4,2693.4,2693.4,2144.0,2144.0
2852.85,2852.85,2852.85,2288.0,2288.0
2970.0,2970.0,2970.0,2407.5,2407.5
2314.2,2314.2,2314.2,1846.8,1846.8
2531.25,2531.25,2531.25,2000.0,2000.0
3325.95,3325.95,3325.95,2744.55,2744.55
-99.25,-99.25,-99.25,-99.25,-99.25
2693.4,2693.4,2693.4,2144.0,2144.0
3302.4,3302.4,3302.4,2820.8,2820.8
2585.6,2585.6,2585.6,2048.0,2048.0
2905.4,2905.4,2905.4,2336.0,2336.0
2599.35,2599.35,2599.35,2070.45,2070.45
2852.85,2852.85,2852.85,2288.0,2288.0
3214.4,3214.4,3214.4,2624.0,2624.0
2878.25,2878.25,2878.25,2334.5,2334.5
2613.0,2613.0,2613.0,2093.0,2093.0
2166.75,2166.75,2166.75,1760.15,1760.15
3386.25,3386.25,3386.25,2817.5,2817.5
2476.6,2476.6,2476.6,1952.0,1952.0
2800.0,2800.0,2800.0,2240.0,2240.0
3061.25,3061.25,3061.25,2480.0,2480.0
-404.0,-404.0,-404.0,-396.0,-396.0
965.0,965.0,965.0,965.0,965.0
2600.0,2600.0,2600.0,2112.5,2112.5
3480.75,3480.75,3480.75,3480.75,3480.75
488.75,488.75,488.75,488.75,488.75
3752.85,3752.85,3752.85,3152.0,3152.0
2531.25,2531.25,2531.25,2000.0,2000.0
2573.55,2573.55,2573.55,2109.15,2109.15
2746.85,2746.85,2746.85,2192.0,2192.0
3264.85,3264.85,3264.85,2672.0,2672.0
2825.8,2825.8,2825.8,2286.2,2286.2
2693.4,2693.4,2693.4,2144.0,2144.0
3112.6,3112.6,3112.6,2528.0,2528.0
3937.2,3937.2,3712.8,3264.0,3264.0
2752.75,2752.75,2752.75,2438.15,2438.15
2424.0,2424.0,2424.0,1944.0,1944.0
2825.8,2825.8,2825.8,2286.2,2286.2
3465.0,3263.75,3465.0,2800.0,2800.0
2970.0,2970.0,2970.0,2407.5,2407.5
2905.4,2905.4,2905.4,2336.0,2336.0
-405.0,-405.0,-405.0,-405.0,-405.0
2325.6,2325.6,2325.6,1829.7,1829.7
2760.0,2760.0,2760.0,2214.9,2214.9
2878.25,2878.25,2878.25,2334.5,2334.5
2733.15,2733.15,2733.15,2212.55,2212.55
3163.65,3163.65,3163.65,2576.0,2576.0
2653.2,2653.2,2653.2,2118.6,2118.6
-408.0,-408.0,-408.0,-408.0,-408.0
2271.3,1824.95,2271.3,2271.3,1909.7
3705.4,3705.4,3705.4,3104.0,3104.0
2746.85,2746.85,2746.85,2192.0,2192.0
2366.4,2366.4,2366.4,1856.0,1856.0
2970.0,2970.0,2970.0,2407.5,2407.5
2680.0,2680.0,2680.0,2164.1,2164.1
3414.4,3414.4,3414.4,2816.0,2816.0
2130.6,2130.6,2130.6,1844.4,1696.0
3214.4,3214.4,3214.4,2624.0,2624.0
2905.4,2905.4,2905.4,2336.0,2336.0
2371.8,2371.8,2371.8,1935.2,1935.2
2383.6,2383.6,2383.6,1917.5,1917.5
4258.6,3488.2,4258.6,3445.4,3445.4
-408.0,-408.0,-408.0,-408.0,-408.0
2421.65,2421.65,2421.65,1904.0,1904.0
3474.0,3474.0,3474.0,2889.0,2889.0
-400.0,-400.0,-400.0,-400.0,-400.0
1142.4,1142.4,1142.4,980.0,980.0
2545.2,2545.2,2545.2,2022.3,2022.3
2531.25,2531.25,2531.25,2000.0,2000.0
2786.0,2786.0,2786.0,2261.0,2261.0
-406.0,-406.0,-406.0,-406.0,-406.0
3364.85,3364.85,3364.85,2768.0,2768.0
2424.0,2424.0,2424.0,1944.0,1944.0
3315.0,3315.0,3315.0,2720.0,2720.0
2800.0,2800.0,2800.0,2240.0,2240.0
2773.05,2773.05,2773.05,2237.9,2237.9
-408.0,-408.0,-408.0,-408.0,-408.0
-299.25,-299.25,-299.25,-299.25,-299.25
3512.6,3512.6,3512.6,2912.0,2912.0
-406.0,-406.0,-406.0,-406.0,-406.0
870.75,870.75,870.75,870.75,870.75
2412.0,2412.0,2412.0,1962.0,1962.0
-199.0,-199.0,-199.0,-199.0,-199.0
3315.0,3315.0,3315.0,2720.0,2720.0
488.75,488.75,488.75,488.75,488.75
3163.65,3163.65,3163.65,2576.0,2576.0
2599.35,2599.35,2599.35,2070.45,2070.45
1745.8,1745.8,1745.8,1453.4,1453.4
2626.55,2626.55,2626.55,2115.65,2115.65
2587.0,2587.0,2587.0,2132.0,2132.0
2786.0,2786.0,2786.0,2261.0,2261.0
3112.6,3112.6,3112.6,2528.0,2528.0
-407.0,-407.0,-407.0,-407.0,-407.0
-405.0,-405.0,-405.0,-405.0,-405.0
2531.25,2531.25,2531.25,2000.0,2000.0
2693.4,2693.4,2693.4,2144.0,2144.0
2533.65,2533.65,2533.65,2082.8,2082.8
1088.75,1329.95,1329.95,1329.95,1329.95
2492.4,2492.4,2492.4,2015.0,2015.0
1058.75,1058.75,1058.75,1058.75,1058.75
380.95,380.95,380.95,360.05,360.05
2325.6,2325.6,2325.6,1829.7,1829.7
2421.65,2421.65,2421.65,1904.0,1904.0
1058.75,1058.75,1058.75,1058.75,1058.75
3073.2,3073.2,3073.2,2503.8,2503.8
3021.75,3021.75,3021.75,2455.65,2455.65
3629.0,3629.0,3629.0,3059.0,3059.0
2798.85,2798.85,2798.85,2284.2,2284.2
4337.85,4337.85,4337.85,3895.7,3895.7
3112.6,3112.6,3112.6,2528.0,2528.0
2599.35,2599.35,2599.35,2070.45,2070.45
2438.15,2438.15,2438.15,1966.25,1966.25
3893.4,3893.4,3893.4,3296.0,3296.0
3281.0,3281.0,3281.0,2771.0,2771.0
2666.65,2666.65,2666.65,2141.3,2141.3
-408.0,-408.0,-408.0,-408.0,-408.0
2917.95,2917.95,2917.95,2359.35,2359.35
2693.4,2693.4,2693.4,2144.0,2144.0
2733.15,2733.15,2733.15,2212.55,2212.55
2639.65,2639.65,2639.65,2096.0,2096.0
3214.4,3214.4,3214.4,2624.0,2624.0
2759.15,2759.15,2759.15,2258.75,2258.75
2436.0,2436.0,2436.0,1926.0,1926.0
2478.45,2478.45,2478.45,1992.6,1992.6
2436.0,2436.0,2436.0,1926.0,1926.0
2691.0,2691.0,2691.0,2318.4,2318.4
2666.25,2666.25,2666.25,2227.5,2227.5
-404.0,-404.0,-404.0,-404.0,-404.0
2759.15,2759.15,2759.15,2258.75,2258.75
-405.0,-405.0,-405.0,-405.0,-405.0
2203.2,2203.2,2203.2,1749.6,1749.6
-407.0,-407.0,-407.0,-407.0,-407.0
776.0,776.0,776.0,776.0,776.0
2760.0,2760.0,2760.0,2214.9,2214.9
0.0,0.0,0.0,0.0,0.0
-181.0,-203.5,-203.5,-203.5,-203.5
2421.65,2421.65,2421.65,1904.0,1904.0
3073.2,3073.2,3073.2,2503.8,2503.8
3225.75,3225.75,3225.75,2648.25,2648.25
3752.85,3752.85,3752.85,3152.0,3152.0
-407.0,-407.0,-407.0,-407.0,-407.0
3264.85,3264.85,3264.85,2672.0,2672.0
3164.8,3726.0,3726.0,2953.2,2953.2
2531.25,2531.25,2531.25,2000.0,2000.0
1880.0,1880.0,1880.0,1880.0,1880.0
3474.0,3474.0,3474.0,2889.0,2889.0
-401.0,-401.0,-401.0,-401.0,-401.0
2927.85,2927.85,2927.85,2428.7,2428.7
2852.85,2852.85,2852.85,2288.0,2288.0
2666.65,2666.65,2666.65,2141.3,2141.3
2354.8,2354.8,2354.8,1873.4,1873.4
2369.25,2369.25,2369.25,1895.4,1895.4
2942.75,2942.75,2942.75,2406.35,2406.35
2613.45,2613.45,2613.45,2135.3,2135.3
3209.25,3209.25,3209.25,2673.0,2673.0
3414.4,3414.4,3414.4,2816.0,2816.0
2800.0,2800.0,2800.0,2240.0,2240.0
2852.85,2852.85,2852.85,2288.0,2288.0
2917.95,2917.95,2917.95,2359.35,2359.35
2852.85,2852.85,2852.85,2288.0,2288.0
2957.65,2957.65,2957.65,2384.0,2384.0
2340.25,2340.25,2340.25,1851.5,1851.5
3364.85,3364.85,3364.85,2768.0,2768.0
3298.0,3298.0,3298.0,2745.5,2745.5
-408.0,-408.0,-408.0,-408.0,-408.0
3077.0,3077.0,3077.0,3077.0,3077.0
2613.0,2613.0,2613.0,2093.0,2093.0
-402.0,-402.0,-402.0,-402.0,-402.0
2299.55,2299.55,2299.55,1824.95,1824.95
-403.0,-403.0,-403.0,-403.0,-403.0
2236.65,2236.65,2236.65,1831.5,1831.5
3099.6,3099.6,3099.6,2796.2,2796.2
79.6,76.8,79.6,79.6,79.6
2218.15,2218.15,2218.15,1771.25,1771.25
0.0,0.0,0.0,0.0,0.0
-404.0,-404.0,-404.0,-404.0,-404.0
2065.15,2065.15,2065.15,1735.55,1735.55
