3267.0,3267.0,2648.25,2648.25,3143.25
-403.0,-403.0,-403.0,-403.0,-403.0
4982.0,4982.0,4253.25,4253.25,4253.25
294.75,294.75,294.75,294.75,294.75
4397.9,4397.9,3547.05,3547.05,3547.05
4648.55,4648.55,3835.95,3835.95,3835.95
4511.3,4511.3,3675.45,3675.45,3675.45
-407.0,-407.0,-407.0,-407.0,-407.0
4252.5,4252.5,3360.0,3360.0,3360.0
-408.0,-408.0,-408.0,-408.0,-408.0
4100.6,4100.6,3252.2,3252.2,3252.2
4222.4,4222.4,3328.0,3328.0,3328.0
4192.1,4192.1,3296.0,3296.0,3296.0
4826.0,4826.0,4089.4,4089.4,4089.4
4161.6,4161.6,3264.0,3264.0,3264.0
-404.0,-404.0,-404.0,-404.0,-404.0
4428.9,4428.9,3552.0,3552.0,3552.0
4630.95,4630.95,4041.1,4354.85,4041.1
4964.9,4964.9,4192.0,4192.0,4192.0
3665.25,3665.25,2977.45,2977.45,2995.55
4400.0,4400.0,3520.0,3520.0,3520.0
513.5,513.5,504.4,504.4,504.4
4192.1,4192.1,3296.0,3296.0,3296.0
4411.8,4411.8,3716.4,3716.4,3716.4
4100.6,4100.6,3252.2,3252.2,3252.2
4457.6,4457.6,3584.0,3584.0,3584.0
4310.75,4310.75,3450.75,3450.75,3450.75
4625.6,4625.6,3776.0,3776.0,3776.0
4869.2,4869.2,4182.85,4182.85,4182.85
4367.0,4367.0,3542.0,3542.0,3542.0
1520.0,1520.0,1520.0,1520.0,1520.0
4282.4,4282.4,3392.0,3392.0,3392.0
4812.5,4812.5,4000.0,4000.0,4000.0
4161.5,4161.5,3290.25,3290.25,3290.25
-199.0,-199.0,-199.0,-199.0,-199.0
4660.4,4660.4,3952.8,3952.8,3952.8
2639.0,2639.0,2249.0,2249.0,2249.0
4428.9,4428.9,3552.0,3552.0,3552.0
4160.7,4160.7,3343.05,3343.05,3343.05
4364.75,4364.75,3569.15,3569.15,3569.15
4457.6,4457.6,3584.0,3584.0,3584.0
3594.5,3594.5,3057.6,3057.6,3057.6
-402.0,-402.0,-402.0,-402.0,-402.0
4192.1,4192.1,3296.0,3296.0,3296.0
0.0,0.0,0.0,0.0,0.0
4252.5,4252.5,3360.0,3360.0,3360.0
4336.2,4336.2,3536.85,3536.85,3536.85
585.0,585.0,585.0,585.0,585.0
4341.6,4341.6,3456.0,3456.0,3456.0
4161.6,4161.6,3264.0,3264.0,3264.0
3523.5,3523.5,2784.0,2784.0,3097.2
4370.9,4370.9,3488.0,3488.0,3488.0
4131.05,4131.05,3258.15,3258.15,3258.15
2727.0,2727.0,2160.0,2160.0,2679.75
4486.1,4486.1,3616.0,3616.0,3616.0
4212.0,4212.0,3542.4,3542.4,3542.4
4566.8,4566.8,3739.65,3739.65,3739.65
4252.5,4252.5,3360.0,3360.0,3360.0
1058.75,1058.75,1058.75,1058.75,1058.75
4838.4,4838.4,4032.0,4032.0,4032.0
870.75,870.75,870.75,870.75,870.75
4282.4,4282.4,3392.0,3392.0,3392.0
585.0,585.0,585.0,585.0,585.0
-299.25,-299.25,-299.25,-299.25,-299.25
4008.95,4008.95,3181.55,3181.55,3181.55
3418.8,3418.8,2696.4,2696.4,2990.4
4131.05,4131.05,3258.15,3258.15,3258.15
4369.05,4369.05,3514.95,3514.95,3514.95
5062.5,5062.5,4320.0,4320.0,4320.0
4312.1,4312.1,3424.0,3424.0,3424.0
4281.3,4281.3,3418.65,3418.65,3418.65
4466.0,4334.0,3520.0,3520.0,3520.0
853.55,853.55,853.55,750.35,853.55
3890.75,3890.75,3260.35,3260.35,3260.35
4282.4,4282.4,3392.0,3392.0,3392.0
4161.5,4161.5,3290.25,3290.25,3290.25
-404.0,-404.0,-404.0,-404.0,-404.0
4100.4,4100.4,3226.05,3226.05,3226.05
5225.6,5225.6,4544.0,4544.0,4544.0
2998.8,2998.8,2491.65,2491.65,2491.65
4100.6,4100.6,3252.2,3252.2,3252.2
-199.0,-199.0,-199.0,-199.0,-199.0
4070.0,4070.0,3220.0,3220.0,3220.0
4252.5,4252.5,3360.0,3360.0,3360.0
4395.6,4395.6,3574.2,3574.2,3574.2
-404.0,-404.0,-404.0,-404.0,-404.0
3800.0,3800.0,3135.0,3135.0,3135.0
4161.5,4161.5,3290.25,3290.25,3290.25
4486.1,4486.1,3616.0,3616.0,3616.0
-402.0,-402.0,-402.0,-402.0,-402.0
4733.6,4733.6,3904.0,3904.0,3904.0
4907.5,5934.3,4832.0,4832.0,4832.0
1152.0,1152.0,1152.0,1152.0,1152.0
4428.9,4428.9,3552.0,3552.0,3552.0
4221.8,4221.8,3354.45,3354.45,3354.45
182.25,182.25,174.15,174.15,174.15
5014.1,5014.1,4256.0,4256.0,4256.0
4271.8,4229.4,3413.2,3413.2,3413.2
4473.5,4473.5,3726.0,3726.0,3726.0
4728.5,4728.5,3932.25,3932.25,3932.25
4010.0,4010.0,3260.0,3260.0,3260.0
4652.9,4652.9,3808.0,3808.0,3808.0
4161.6,4161.6,3264.0,3264.0,3264.0
-406.0,-406.0,-406.0,-406.0,-406.0
4426.55,4426.55,3579.15,3579.15,3579.15
4486.1,4486.1,3616.0,3616.0,3616.0
4514.4,4514.4,3648.0,3648.0,3648.0
3978.0,3978.0,3149.25,3149.25,3149.25
4100.6,4100.6,3252.2,3252.2,3252.2
-401.0,-401.0,-401.0,-401.0,-401.0
4310.75,4310.75,3450.75,3450.75,3450.75
4612.7,4612.7,3859.85,3859.85,3859.85
2592.9,2592.9,2251.05,2251.05,2251.05
4675.4,4675.4,3868.05,3868.05,3868.05
4486.1,4486.1,3616.0,3616.0,3616.0
4940.0,4940.0,4160.0,4160.0,4160.0
4309.2,4309.2,3477.6,3477.6,3477.6
4424.0,4424.0,3606.4,3606.4,3606.4
4514.4,4514.4,3648.0,3648.0,3648.0
4252.5,4252.5,3360.0,3360.0,3360.0
4252.5,4252.5,3360.0,3360.0,3360.0
4161.6,4161.6,3264.0,3264.0,3264.0
3919.5,3919.5,3188.25,3188.25,3188.25
4356.8,4356.8,3651.2,3651.2,3651.2
-401.0,-401.0,-401.0,-401.0,-401.0
4625.6,4625.6,3776.0,3776.0,3776.0
4192.1,4192.1,3296.0,3296.0,3296.0
4222.4,4222.4,3328.0,3328.0,3328.0
4276.8,4276.8,3499.2,3499.2,3499.2
1337.0,1337.0,1337.0,1337.0,1337.0
4864.1,4864.1,4064.0,4064.0,4064.0
4008.95,4008.95,3181.55,3181.55,3181.55
4161.5,4161.5,3290.25,3290.25,3290.25
-299.25,-299.25,-299.25,-299.25,-299.25
4486.1,4486.1,3616.0,3616.0,3616.0
4117.2,4456.65,3569.7,3569.7,3569.7
4161.6,4161.6,3264.0,3264.0,3264.0
4161.2,4161.2,3316.6,3316.6,3316.6
4039.7,4039.7,3319.05,3319.05,3319.05
4542.5,4542.5,3680.0,3680.0,3680.0
4250.6,4250.6,3413.2,3413.2,3413.2
4652.9,4652.9,3808.0,3808.0,3808.0
294.75,294.75,294.75,294.75,294.75
895.4,895.4,822.8,822.8,822.8
392.0,392.0,392.0,392.0,392.0
3949.1,3949.1,3353.2,3353.2,3353.2
3794.4,3794.4,3031.8,3031.8,3031.8
3947.9,3947.9,3142.8,3142.8,3142.8
4221.0,4221.0,3381.0,3381.0,3381.0
4483.25,4483.25,3643.35,3643.35,3643.35
3890.75,3890.75,3260.35,3260.35,3260.35
4341.6,4341.6,3456.0,3456.0,3456.0
4542.5,4542.5,3680.0,3680.0,3680.0
-407.0,-407.0,-407.0,-407.0,-407.0
4598.1,4598.1,3744.0,3744.0,3744.0
3766.5,3766.5,3050.4,3050.4,3050.4
4282.4,4282.4,3392.0,3392.0,3392.0
4312.1,4312.1,3424.0,3424.0,3424.0
-99.25,-99.25,-99.25,-99.25,-99.25
4100.4,4100.4,3226.05,3226.05,3226.05
4542.5,4542.5,3680.0,3680.0,3680.0
392.0,392.0,392.0,392.0,392.0
4625.6,4625.6,3776.0,3776.0,3776.0
4221.0,4221.0,3381.0,3381.0,3381.0
-408.0,-408.0,-408.0,-408.0,-408.0
4483.25,4483.25,3643.35,3643.35,3643.35
439.4,525.2,525.2,525.2,525.2
3825.8,3825.8,3064.4,3064.4,3064.4
3797.6,3797.6,3083.2,3083.2,3083.2
4370.9,4370.9,3488.0,3488.0,3488.0
-404.0,-404.0,-398.0,-398.0,-398.0
-299.25,-299.25,-299.25,-299.25,-299.25
4040.0,4040.0,3240.0,3240.0,3240.0
3524.25,3524.25,3635.25,2960.0,2960.0
4542.5,4542.5,3680.0,3680.0,3680.0
4486.1,4486.1,3616.0,3616.0,3616.0
4222.4,4222.4,3328.0,3328.0,3328.0
4282.4,4282.4,3392.0,3392.0,3392.0
4252.5,4252.5,3360.0,3360.0,3360.0
-99.25,-99.25,-99.25,-99.25,-99.25
4282.4,4282.4,3392.0,3392.0,3392.0
4340.0,4340.0,3482.85,3482.85,3482.85
4252.5,4252.5,3360.0,3360.0,3360.0
-407.0,-407.0,-405.0,-405.0,-405.0
3771.5,3771.5,3154.0,3154.0,3154.0
4397.9,4397.9,3547.05,3547.05,3547.05
4511.3,4511.3,3675.45,3675.45,3675.45
4431.2,4431.2,3804.8,3804.8,3804.8
965.0,965.0,965.0,965.0,965.0
4161.6,4161.6,3264.0,3264.0,3264.0
4100.6,4100.6,3252.2,3252.2,3252.2
3613.4,3613.4,2937.0,2937.0,2937.0
294.75,294.75,294.75,294.75,294.75
585.0,585.0,585.0,585.0,585.0
4252.5,4252.5,3360.0,3360.0,3360.0
4370.9,4370.9,3488.0,3488.0,3488.0
4486.1,4486.1,3616.0,3616.0,3616.0
4222.4,4222.4,3328.0,3328.0,3328.0
197.0,197.0,197.0,197.0,197.0
4310.75,4310.75,3450.75,3450.75,3450.75
3742.2,3742.2,3146.85,3146.85,3146.85
4486.1,4486.1,3616.0,3616.0,3616.0
4252.5,4252.5,3360.0,3360.0,3360.0
3581.6,3581.6,2904.0,2904.0,2904.0
-400.0,-400.0,-400.0,-400.0,-400.0
4312.1,4312.1,3424.0,3424.0,3424.0
4161.6,4161.6,3264.0,3264.0,3264.0
4733.6,4733.6,3904.0,3904.0,3904.0
-299.25,-299.25,-299.25,-299.25,-299.25
3830.75,3830.75,3353.15,3353.15,3353.15
4009.5,4009.5,3207.6,3207.6,3207.6
-199.0,-199.0,-199.0,-199.0,-199.0
4100.6,4100.6,3252.2,3252.2,3252.2
4222.4,4222.4,3328.0,3328.0,3328.0
585.0,585.0,585.0,585.0,585.0
4367.0,4367.0,3542.0,3542.0,3542.0
4252.5,4252.5,3360.0,3360.0,3360.0
4940.0,4940.0,4160.0,4160.0,4160.0
4998.2,4998.2,4314.8,4314.8,4314.8
4161.6,4161.6,3264.0,3264.0,3264.0
4621.5,4621.5,3803.85,3803.85,3803.85
3888.95,3888.95,3155.55,3155.55,3155.55
4428.9,4428.9,3552.0,3552.0,3552.0
4161.6,4161.6,3264.0,3264.0,3264.0
3918.8,3918.8,3162.2,3162.2,3162.2
4085.0,4085.0,3601.25,3601.25,3601.25
4428.9,4428.9,3552.0,3552.0,3552.0
3855.6,3855.6,3071.25,3071.25,3071.25
4760.1,4760.1,3936.0,3936.0,3936.0
1520.0,1520.0,1520.0,1520.0,1520.0
4192.1,4192.1,3296.0,3296.0,3296.0
4281.3,4281.3,3418.65,3418.65,3418.65
4957.55,4957.55,4221.15,4221.15,4221.15
4338.2,4338.2,3509.8,3509.8,3509.8
4218.8,4218.8,3434.4,3434.4,3434.4
4780.8,4780.8,3996.45,3996.45,3996.45
4341.6,4341.6,3456.0,3456.0,3456.0
4191.75,4191.75,3322.35,3322.35,3322.35
4252.5,4252.5,3360.0,3360.0,3360.0
4426.55,4426.55,3579.15,3579.15,3579.15
-99.25,-99.25,-99.25,-99.25,-99.25
-299.25,-299.25,-299.25,-299.25,-299.25
4008.95,4008.95,3181.55,3181.55,3181.55
4192.1,4192.1,3296.0,3296.0,3296.0
4812.8,4812.8,4147.2,4147.2,4147.2
0.0,0.0,0.0,0.0,0.0
4282.4,4282.4,3392.0,3392.0,3392.0
4428.9,4428.9,3552.0,3552.0,3552.0
-402.0,-402.0,-402.0,-402.0,-402.0
-401.0,-401.0,-401.0,-401.0,-401.0
1520.0,1520.0,1520.0,1520.0,1520.0
4282.4,4282.4,3392.0,3392.0,3392.0
4192.1,4192.1,3296.0,3296.0,3296.0
5077.8,5077.8,4381.65,4381.65,4381.65
4039.7,4039.7,3213.85,3213.85,3213.85
4700.2,5580.6,4600.8,4600.8,4600.8
4192.1,4192.1,3296.0,3296.0,3296.0
4594.25,4594.25,3771.75,3771.75,3771.75
4009.95,4009.95,3286.35,3286.35,3286.35
-406.0,-406.0,-406.0,-406.0,-406.0
4341.6,4341.6,3456.0,3456.0,3456.0
4514.4,4514.4,3648.0,3648.0,3648.0
4625.6,4625.6,3776.0,3776.0,3776.0
4161.2,4161.2,3316.6,3316.6,3316.6
4514.4,4514.4,3648.0,3648.0,3648.0
3268.3,3268.3,2680.65,2712.85,2712.85
4130.3,4130.3,3337.2,3337.2,3337.2
4542.5,4542.5,3680.0,3680.0,3680.0
4070.25,4070.25,3246.15,3246.15,3246.15
3628.8,3628.8,3024.0,3619.35,3024.0
3947.9,3947.9,3152.5,3152.5,3123.4
-404.0,-404.0,-404.0,-404.0,-404.0
4192.1,4192.1,3296.0,3296.0,3296.0
-401.0,-401.0,-401.0,-401.0,-401.0
4617.2,4617.2,3831.8,3831.8,3831.8
4008.95,4008.95,3181.55,3181.55,3181.55
197.0,197.0,197.0,197.0,197.0
0.0,0.0,0.0,0.0,0.0
4449.2,4449.2,3666.05,3666.05,3666.05
3070.4,3070.4,2584.0,2584.0,2584.0
-400.0,-400.0,-400.0,-400.0,-400.0
4786.4,4786.4,3968.0,3968.0,3968.0
4281.3,4281.3,3418.65,3418.65,3418.65
776.0,776.0,776.0,776.0,776.0
4680.5,4370.0,3691.5,3691.5,3691.5
680.75,680.75,680.75,680.75,680.75
3753.6,3753.6,3513.6,3072.0,3072.0
4400.0,4400.0,3520.0,3520.0,3520.0
3947.9,3947.9,3142.8,3142.8,3142.8
-400.0,-400.0,-400.0,-400.0,-400.0
3975.0,3975.0,3964.4,3413.2,3413.2
3978.0,3978.0,3149.25,3149.25,3149.25
4832.3,4832.3,4060.65,4060.65,4060.65
4340.0,4340.0,3482.85,3482.85,3482.85
4191.75,4191.75,3322.35,3322.35,3322.35
4161.6,4161.6,3264.0,3264.0,3264.0
4155.2,4155.2,3476.8,3476.8,3476.8
4486.1,4486.1,3616.0,3616.0,3616.0
-400.0,-400.0,-400.0,-400.0,-400.0
4130.3,4130.3,3337.2,3337.2,3337.2
4303.35,4303.35,3558.75,3558.75,3558.75
4161.2,4161.2,3316.6,3316.6,3316.6
4191.75,4191.75,3322.35,3322.35,3322.35
4190.45,4190.45,3375.35,3375.35,3375.35
4129.65,4129.65,3363.75,3363.75,3363.75
-403.0,-403.0,-403.0,-403.0,-403.0
4312.1,4312.1,3424.0,3424.0,3424.0
4189.5,4189.5,3402.0,3402.0,3402.0
4341.6,4341.6,3456.0,3456.0,3456.0
4281.3,4281.3,3418.65,3418.65,3418.65
4221.0,4221.0,3381.0,3381.0,3381.0
3979.4,3979.4,3201.25,3201.25,3201.25
4307.45,4307.45,3504.55,3504.55,3504.55
4312.1,4312.1,3424.0,3424.0,3424.0
4281.3,4281.3,3418.65,3418.65,3418.65
-402.0,-402.0,-402.0,-402.0,-402.0
4964.9,4964.9,4192.0,4192.0,4192.0
1370.3,1370.3,1345.45,1345.45,1345.45
4009.95,4009.95,3286.35,3286.35,3286.35
4901.0,4901.0,4186.0,4186.0,4186.0
4527.9,4527.9,3790.8,3790.8,3790.8
4508.0,4508.0,3703.0,3703.0,3703.0
4100.6,4100.6,3252.2,3252.2,3252.2
4191.75,4191.75,3322.35,3322.35,3322.35
4514.4,4514.4,3648.0,3648.0,3648.0
-407.0,-407.0,-407.0,-407.0,-407.0
4039.2,4039.2,3187.8,3187.8,3187.8
4598.1,4598.1,3744.0,3744.0,3744.0
-401.0,-401.0,-401.0,-401.0,-401.0
4192.1,4192.1,3296.0,3296.0,3296.0
1790.75,1790.75,1790.75,1790.75,1790.75
4733.6,4733.6,3904.0,3904.0,3904.0
4340.0,4340.0,3482.85,3482.85,3482.85
4161.6,4161.6,3264.0,3264.0,3264.0
4100.6,4100.6,3278.45,3278.45,3278.45
4280.0,4280.0,3445.4,3445.4,3445.4
3872.0,3872.0,3872.0,3872.0,3872.0
218.35,218.35,218.35,209.55,218.35
3645.6,3645.6,3003.9,3385.2,3003.9
4680.0,4680.0,3840.0,3840.0,3840.0
4310.75,4310.75,3450.75,3450.75,3450.75
4282.4,4282.4,3392.0,3392.0,3392.0
2994.75,2994.75,2994.75,2994.75,2994.75
4039.7,4039.7,3319.05,3319.05,3319.05
-299.25,-299.25,-299.25,-299.25,-299.25
4278.5,4278.5,3472.25,3472.25,3472.25
3802.4,3802.4,3292.8,3292.8,3292.8
-299.25,-299.25,-299.25,-299.25,-299.25
4312.1,4312.1,3424.0,3424.0,3424.0
4191.75,4191.75,3322.35,3322.35,3322.35
4222.4,4222.4,3328.0,3328.0,3328.0
4336.2,4336.2,3536.85,3536.85,3536.85
5018.75,5018.75,4468.75,4468.75,4468.75
3800.0,3800.0,3135.0,3135.0,3135.0
4131.0,4131.0,3284.4,3284.4,3284.4
-403.0,-403.0,-403.0,-403.0,-403.0
-404.0,-404.0,-404.0,-404.0,-404.0
4222.4,4222.4,3328.0,3328.0,3328.0
4039.2,4039.2,3187.8,3187.8,3187.8
4340.0,4340.0,3482.85,3482.85,3482.85
1337.0,1337.0,1337.0,1337.0,1337.0
4340.0,4340.0,3482.85,3482.85,3482.85
4252.5,4252.5,3360.0,3360.0,3360.0
3886.85,3886.85,3103.75,3103.75,3103.75
1701.0,1701.0,1701.0,1701.0,1701.0
4989.6,4989.6,4224.0,4224.0,4224.0
3857.0,3857.0,3097.0,3097.0,3097.0
4161.5,4161.5,3290.25,3290.25,3290.25
3539.9,3539.9,3094.0,3094.0,3094.0
4040.0,4040.0,3240.0,3240.0,3240.0
3978.0,3978.0,3149.25,3149.25,3149.25
4341.6,4341.6,3456.0,3456.0,3456.0
4621.5,4621.5,3803.85,3803.85,3803.85
4652.9,4652.9,3808.0,3808.0,3808.0
4950.0,4950.0,4250.4,4250.4,4250.4
5921.85,4685.1,4656.0,4656.0,4656.0
-405.0,-405.0,-405.0,-405.0,-405.0
4395.6,4395.6,3574.2,3574.2,3574.2
4826.0,4826.0,4089.4,4089.4,4089.4
-401.0,-401.0,-401.0,-401.0,-401.0
4780.8,4780.8,3996.45,3996.45,3996.45
4161.6,4161.6,3264.0,3264.0,3264.0
4369.05,4369.05,3514.95,3514.95,3514.95
-403.0,-403.0,-403.0,-403.0,-403.0
4070.3,4070.3,3272.4,3272.4,3272.4
4424.0,4424.0,3606.4,3606.4,3606.4
4272.8,4272.8,3553.4,3553.4,3553.4
4191.2,4191.2,3348.8,3348.8,3348.8
4838.4,4838.4,4032.0,4032.0,4032.0
4370.9,4370.9,3488.0,3488.0,3488.0
4222.4,4222.4,3328.0,3328.0,3328.0
4341.6,4341.6,3456.0,3456.0,3456.0
4161.6,4161.6,3264.0,3264.0,3264.0
-299.25,-299.25,-299.25,-299.25,-299.25
4338.2,4338.2,3509.8,3509.8,3509.8
4660.4,4660.4,3952.8,3952.8,3952.8
-408.0,-408.0,-408.0,-408.0,-408.0
4370.9,4370.9,3488.0,3488.0,3488.0
2490.75,2490.75,2490.75,2490.75,2490.75
4457.6,4457.6,3584.0,3584.0,3584.0
4806.65,4806.65,4028.55,4028.55,4028.55
4161.5,4161.5,3290.25,3290.25,3290.25
4161.5,4161.5,3290.25,3290.25,3290.25
4309.2,4309.2,3477.6,3477.6,3477.6
4100.6,4100.6,3252.2,3252.2,3252.2
5006.25,5006.25,4285.35,4285.35,4285.35
2994.75,2994.75,2994.75,2994.75,2994.75
4625.6,4625.6,3776.0,3776.0,3776.0
-404.0,-404.0,-404.0,-404.0,-404.0
3672.0,3672.0,2952.0,2952.0,2952.0
2912.0,2912.0,2912.0,2912.0,2912.0
4161.5,4161.5,3290.25,3290.25,3290.25
3796.1,3796.1,3057.45,3057.45,3057.45
4222.4,4222.4,3328.0,3328.0,3328.0
4161.5,4161.5,3290.25,3290.25,3290.25
4480.2,4480.2,3670.8,3670.8,3670.8
4370.9,4370.9,3488.0,3488.0,3488.0
3713.0,3713.0,3139.6,3139.6,3139.6
4009.5,4009.5,3207.6,3207.6,3207.6
-401.0,-401.0,-401.0,-401.0,-401.0
1100.0,1100.0,1100.0,1100.0,893.75
4161.6,4161.6,3264.0,3264.0,3264.0
4252.5,4252.5,3360.0,3360.0,3360.0
2902.5,2902.5,2640.0,2640.0,2640.0
4594.25,4594.25,3771.75,3771.75,3771.75
4278.5,4278.5,3472.25,3472.25,3472.25
4452.2,4452.2,3638.6,3638.6,3638.6
4514.4,4514.4,3648.0,3648.0,3648.0
4893.75,4893.75,4215.15,4215.15,4215.15
-99.25,-99.25,-99.25,-99.25,-99.25
-404.0,-404.0,-404.0,-404.0,-404.0
-402.0,-402.0,-402.0,-402.0,-402.0
4514.4,4514.4,3648.0,3648.0,3648.0
0.0,0.0,0.0,0.0,0.0
4161.6,4161.6,3264.0,3264.0,3264.0
4220.0,4220.0,3407.65,3407.65,3407.65
4457.6,4457.6,3584.0,3584.0,3584.0
1968.75,1968.75,1968.75,1968.75,1968.75
4625.6,4625.6,3776.0,3776.0,3776.0
4310.75,4310.75,3450.75,3450.75,3450.75
4252.5,4252.5,3360.0,3360.0,3360.0
3480.75,3480.75,3480.75,3480.75,3480.75
4222.4,4222.4,3328.0,3328.0,3328.0
-407.0,-407.0,-407.0,-407.0,-407.0
4100.4,4100.4,3226.05,3226.05,3226.05
4100.4,4100.4,3304.8,3304.8,3304.8
4800.6,4800.6,4057.2,4057.2,4057.2
-401.0,-401.0,-401.0,-401.0,-401.0
6080.0,6080.0,6080.0,6080.0,6080.0
4298.45,4298.45,3613.35,3613.35,3613.35
-299.25,-299.25,-299.25,-299.25,-299.25
1078.55,1078.55,983.15,983.15,983.15
4370.9,4370.9,3488.0,3488.0,3488.0
1152.0,1152.0,1152.0,1152.0,1152.0
4428.9,4428.9,3552.0,3552.0,3552.0
4384.4,4384.4,3683.8,3683.8,3683.8
4039.7,4039.7,3213.85,3213.85,3213.85
4400.0,4400.0,3520.0,3520.0,3520.0
4426.55,4426.55,3579.15,3579.15,3579.15
-407.0,-407.0,-407.0,-407.0,-407.0
4070.0,4070.0,3220.0,3220.0,3220.0
294.75,294.75,294.75,294.75,294.75
3838.0,3838.0,3049.5,3049.5,3230.0
-404.0,-404.0,-404.0,-404.0,-404.0
197.0,197.0,197.0,197.0,197.0
4192.1,4192.1,3296.0,3296.0,3296.0
-402.0,-402.0,-402.0,-402.0,-402.0
4837.5,4837.5,4179.6,4179.6,4179.6
4191.2,4191.2,3348.8,3348.8,3348.8
4486.1,4486.1,3616.0,3616.0,3616.0
965.0,965.0,965.0,965.0,965.0
4312.1,4312.1,3424.0,3424.0,3424.0
-406.0,-406.0,-406.0,-406.0,-406.0
4192.1,4192.1,3296.0,3296.0,3296.0
4280.0,4280.0,3445.4,3445.4,3445.4
4008.95,4008.95,3181.55,3181.55,3181.55
4455.0,4455.0,3611.25,3611.25,3611.25
5378.9,5378.9,4768.0,4768.0,4768.0
4282.4,4282.4,3392.0,3392.0,3392.0
3215.3,3215.3,2654.4,2654.4,2654.4
4370.9,4370.9,3488.0,3488.0,3488.0
4098.6,4098.6,3384.45,3384.45,3384.45
4282.4,4282.4,3392.0,3392.0,3392.0
4625.6,4625.6,3776.0,3776.0,3776.0
4130.75,4130.75,3310.75,3310.75,3310.75
4282.4,4282.4,3392.0,3392.0,3392.0
-99.25,-99.25,-99.25,-99.25,-99.25
-299.25,-299.25,-299.25,-299.25,-299.25
4100.4,4100.4,3226.05,3226.05,3226.05
-400.0,-400.0,-400.0,-400.0,-400.0
4542.5,4542.5,3680.0,3680.0,3680.0
4483.25,4483.25,3643.35,3643.35,3643.35
4514.4,4514.4,3648.0,3648.0,3648.0
4426.55,4426.55,3579.15,3579.15,3579.15
3876.0,3876.0,3059.0,3135.0,3059.0
4036.5,4036.5,3425.85,3425.85,3425.85
-408.0,-408.0,-408.0,-408.0,-408.0
-402.0,-402.0,-402.0,-402.0,-402.0
4400.0,4400.0,3520.0,3520.0,3520.0
4130.75,4130.75,3310.75,3310.75,3310.75
4040.1,4040.1,3266.25,3266.25,3266.25
4514.4,4514.4,3648.0,3648.0,3648.0
4130.75,4130.75,3310.75,3310.75,3310.75
4652.9,4652.9,3808.0,3808.0,3808.0
4192.1,4192.1,3296.0,3296.0,3296.0
4369.05,4369.05,3514.95,3514.95,3514.95
4341.6,4341.6,3456.0,3456.0,3456.0
4733.6,4733.6,3904.0,3904.0,3904.0
4452.2,4452.2,3638.6,3638.6,3638.6
5489.15,5489.15,4991.55,4991.55,4991.55
4100.0,4100.0,3331.25,3331.25,3331.25
-400.0,-400.0,-400.0,-400.0,-400.0
4310.75,4310.75,3450.75,3450.75,3450.75
4670.6,4670.6,3896.2,3896.2,3896.2
4310.75,4310.75,3450.75,3450.75,3450.75
392.0,392.0,392.0,392.0,392.0
-99.25,-99.25,-99.25,-99.25,-99.25
4341.6,4341.6,3456.0,3456.0,3456.0
4486.1,4486.1,3616.0,3616.0,3616.0
5801.4,4849.15,4688.0,4688.0,4688.0
4397.9,4397.9,3547.05,3547.05,3547.05
4336.2,4336.2,3536.85,3536.85,3536.85
4282.4,4282.4,3392.0,3392.0,3392.0
-406.0,-406.0,-406.0,-406.0,-406.0
4222.4,4222.4,3328.0,3328.0,3328.0
4400.0,4400.0,3520.0,3520.0,3520.0
98.75,98.75,98.75,98.75,98.75
4428.9,4428.9,3552.0,3552.0,3552.0
4221.0,4221.0,3381.0,3381.0,3381.0
-402.0,-402.0,-402.0,-402.0,-402.0
4608.0,4608.0,3888.0,3888.0,3888.0
4539.15,4539.15,3707.55,3707.55,3707.55
-406.0,-406.0,-406.0,-406.0,-406.0
4220.0,4220.0,3407.65,3407.65,3407.65
3770.55,3770.55,3127.95,3127.95,3127.95
3889.7,3889.7,3181.6,3181.6,3181.6
4754.75,4754.75,3964.35,3964.35,3964.35
4191.2,4191.2,3348.8,3348.8,3348.8
-405.0,-405.0,-405.0,-405.0,-405.0
4008.95,4008.95,3181.55,3181.55,3181.55
4161.5,4161.5,3290.25,3290.25,3290.25
-402.0,-402.0,-402.0,-402.0,-402.0
2144.75,2144.75,2144.75,2144.75,2144.75
4161.5,4161.5,3290.25,3290.25,3290.25
-406.0,-406.0,-406.0,-406.0,-406.0
4310.75,4310.75,3450.75,3450.75,3450.75
4426.55,4426.55,3579.15,3579.15,3579.15
98.75,98.75,98.75,98.75,98.75
4428.9,4428.9,3552.0,3552.0,3552.0
4598.1,4598.1,3744.0,3744.0,3744.0
3239.0,3239.0,2804.4,2804.4,2804.4
4191.75,4191.75,3322.35,3322.35,3322.35
4455.0,4455.0,3611.25,3611.25,3611.25
4486.1,4486.1,3616.0,3616.0,3616.0
4428.9,4428.9,3552.0,3552.0,3552.0
4131.05,4131.05,3258.15,3258.15,3258.15
4251.65,4251.65,3386.55,3386.55,3386.55
4851.2,4851.2,4121.6,4121.6,4121.6
4514.4,4514.4,3648.0,3648.0,3648.0
4397.9,4397.9,3547.05,3547.05,3547.05
4876.2,4876.2,4153.8,4153.8,4153.8
870.75,870.75,870.75,870.75,870.75
4099.4,4099.4,3357.8,3357.8,3357.8
4428.9,4428.9,3552.0,3552.0,3552.0
3950.15,3950.15,3273.55,3273.55,3273.55
4455.0,4455.0,3611.25,3611.25,3611.25
4625.6,4625.6,3776.0,3776.0,3776.0
4280.0,4280.0,3445.4,3445.4,3445.4
4397.9,4397.9,3547.05,3547.05,3547.05
4252.5,4252.5,3360.0,3360.0,3360.0
3320.0,3320.0,2805.4,2805.4,2805.4
4826.0,4826.0,4089.4,4089.4,4089.4
4486.1,4486.1,3616.0,3616.0,3616.0
4670.6,4670.6,3896.2,3896.2,3896.2
3276.35,3276.35,2696.75,2696.75,2696.75
4367.0,4367.0,3542.0,3542.0,3542.0
-408.0,-408.0,-408.0,-408.0,-408.0
2490.75,2490.75,2490.75,2490.75,2490.75
3800.9,3800.9,3161.05,3161.05,3161.05
-406.0,-406.0,-396.0,-396.0,-396.0
-99.25,-99.25,-99.25,-99.25,-99.25
-405.0,-405.0,-405.0,-405.0,-405.0
4675.4,4675.4,3868.05,3868.05,3868.05
4783.25,4783.25,4385.75,4385.75,4385.75
4514.4,4514.4,3648.0,3648.0,3648.0
4486.1,4486.1,3616.0,3616.0,3616.0
3918.8,3918.8,3162.2,3162.2,3162.2
-403.0,-403.0,-403.0,-403.0,-403.0
4131.05,4131.05,3258.15,3258.15,3258.15
4486.1,4486.1,3616.0,3616.0,3616.0
4252.5,4252.5,3360.0,3360.0,3360.0
-404.0,-404.0,-404.0,-404.0,-404.0
4161.6,4161.6,3264.0,3264.0,3264.0
3802.1,3802.1,3445.05,3097.65,3097.65
4341.6,4341.6,3456.0,3456.0,3456.0
5014.1,5014.1,4256.0,4256.0,4256.0
4222.4,4222.4,3328.0,3328.0,3328.0
4222.4,4222.4,3328.0,3328.0,3328.0
1058.75,1058.75,1058.75,1058.75,1058.75
4280.0,4280.0,3445.4,3445.4,3445.4
4191.75,4191.75,3322.35,3322.35,3322.35
4100.6,4100.6,3252.2,3252.2,3252.2
4644.0,4644.0,3864.0,3864.0,3864.0
-403.0,-403.0,-403.0,-403.0,-403.0
-403.0,-403.0,-403.0,-403.0,-403.0
4341.6,4341.6,3456.0,3456.0,3456.0
-400.0,-400.0,-400.0,-400.0,-400.0
4161.2,4161.2,3316.6,3316.6,3316.6
4192.1,4192.1,3296.0,3296.0,3296.0
4341.6,4341.6,3456.0,3456.0,3456.0
4393.1,4393.1,3601.45,3601.45,3601.45
-405.0,-405.0,-405.0,-405.0,-405.0
2745.0,2745.0,2745.0,2745.0,2745.0
4282.4,4282.4,3392.0,3392.0,3392.0
4008.95,4008.95,3181.55,3181.55,3181.55
4488.5,4488.5,3842.25,3842.25,3842.25
-402.0,-402.0,-402.0,-402.0,-402.0
-199.0,-199.0,-199.0,-199.0,-199.0
4514.4,4514.4,3648.0,3648.0,3648.0
-407.0,-407.0,-407.0,-407.0,-407.0
4312.1,4312.1,3424.0,3424.0,3424.0
4648.55,4648.55,3835.95,3835.95,3835.95
4252.5,4252.5,3360.0,3360.0,3360.0
4222.4,4222.4,3328.0,3328.0,3328.0
4511.3,4511.3,3675.45,3675.45,3675.45
4590.2,4590.2,3799.6,3799.6,3799.6
4648.55,4648.55,3835.95,3835.95,3835.95
4161.6,4161.6,3264.0,3264.0,3264.0
4161.5,4161.5,3290.25,3290.25,3290.25
4486.1,4486.1,3616.0,3616.0,3616.0
-407.0,-407.0,-407.0,-407.0,-407.0
4161.5,4161.5,3290.25,3290.25,3290.25
4486.1,4486.1,3616.0,3616.0,3616.0
4370.9,4370.9,3488.0,3488.0,3488.0
4864.1,4864.1,4064.0,4064.0,4064.0
4455.0,4455.0,3611.25,3611.25,3611.25
4039.2,4039.2,3187.8,3187.8,3187.8
4218.8,4218.8,3434.4,3434.4,3434.4
197.0,197.0,197.0,197.0,197.0
98.75,98.75,98.75,98.75,98.75
4100.4,4100.4,3226.05,3226.05,3226.05
4620.0,4492.95,3696.0,3696.0,3696.0
3917.9,3917.9,3136.25,3136.25,3136.25
870.75,870.75,870.75,870.75,870.75
3764.75,3764.75,3024.75,3024.75,3024.75
0.0,0.0,0.0,0.0,0.0
4914.9,4914.9,4128.0,4128.0,4128.0
4514.4,4514.4,3648.0,3648.0,3648.0
4652.9,4652.9,3808.0,3808.0,3808.0
4625.6,4625.6,3776.0,3776.0,3776.0
4428.9,4428.9,3552.0,3552.0,3552.0
4864.1,4864.1,4064.0,4064.0,4064.0
4644.0,4644.0,3864.0,3864.0,3864.0
4161.6,4161.6,3264.0,3264.0,3264.0
4040.0,4040.0,3240.0,3240.0,3240.0
4455.0,4455.0,3611.25,3611.25,3611.25
4760.1,4760.1,3936.0,3936.0,3936.0
4192.1,4192.1,3296.0,3296.0,3296.0
4338.2,4338.2,3509.8,3509.8,3509.8
4367.0,4367.0,3542.0,3542.0,3542.0
3872.0,3872.0,3872.0,3872.0,3872.0
4222.4,4222.4,3328.0,3328.0,3328.0
4282.4,4282.4,3392.0,3392.0,3392.0
4400.0,4400.0,3520.0,3520.0,3520.0
0.0,0.0,0.0,0.0,0.0
-404.0,-404.0,-404.0,-404.0,-394.0
4570.4,4570.4,3712.0,3712.0,3712.0
2652.0,2652.0,2086.5,2548.0,2086.5
4282.4,4282.4,3392.0,3392.0,3392.0
4455.0,4455.0,3611.25,3611.25,3611.25
0.0,0.0,0.0,0.0,0.0
4566.8,4566.8,3739.65,3739.65,3739.65
4397.9,4397.9,3547.05,3547.05,3547.05
98.75,98.75,98.75,98.75,98.75
4218.8,4218.8,3434.4,3434.4,3434.4
4187.0,4187.0,3455.6,3455.6,3455.6
771.75,895.5,895.5,895.5,895.5
4100.4,4100.4,3226.05,3226.05,3226.05
3948.75,3948.75,3168.75,3168.75,3168.75
4008.95,4008.95,3181.55,3181.55,3181.55
98.75,98.75,98.75,98.75,98.75
4341.6,4341.6,3456.0,3456.0,3456.0
4280.0,4280.0,3445.4,3445.4,3445.4
4338.2,4338.2,3509.8,3509.8,3509.8
4336.2,4336.2,3536.85,3536.85,3536.85
5034.7,4591.95,4073.3,4073.3,4073.3
4222.4,4222.4,3328.0,3328.0,3328.0
4338.2,4338.2,3509.8,3509.8,3509.8
4585.95,4585.95,3827.55,3827.55,3827.55
4408.25,4408.25,3744.15,3744.15,3744.15
4838.4,4838.4,4032.0,4032.0,4032.0
4706.9,4706.9,3872.0,3872.0,3872.0
3917.9,3917.9,3136.25,3136.25,3136.25
3948.75,3948.75,3168.75,3168.75,3168.75
4222.4,4222.4,3328.0,3328.0,3328.0
4449.2,4449.2,3666.05,3666.05,3666.05
4511.3,4511.3,3675.45,3675.45,3675.45
4377.6,4377.6,3739.2,3739.2,3739.2
4281.3,4281.3,3418.65,3418.65,3418.65
4428.9,4428.9,3552.0,3552.0,3552.0
4312.1,4312.1,3424.0,3424.0,3424.0
3797.6,3797.6,3083.2,3083.2,3083.2
4706.9,4706.9,3872.0,3872.0,3872.0
4251.65,4251.65,3386.55,3386.55,3386.55
4039.7,4039.7,3213.85,3213.85,3213.85
4723.2,4723.2,3960.6,3960.6,3960.6
-400.0,-400.0,-400.0,-400.0,-400.0
4223.7,4223.7,3755.7,3755.7,4469.4
4222.4,4222.4,3328.0,3328.0,3328.0
4370.9,4370.9,3488.0,3488.0,3488.0
-408.0,-408.0,-408.0,-408.0,-408.0
4222.4,4222.4,3328.0,3328.0,3328.0
4070.0,4070.0,3220.0,3220.0,3220.0
4069.25,4069.25,3351.75,3351.75,3351.75
-405.0,-405.0,-405.0,-405.0,-405.0
4697.0,4697.0,3928.4,3928.4,3928.4
4282.4,4282.4,3392.0,3392.0,3392.0
2987.45,2987.45,2555.35,2555.35,2555.35
2144.75,2144.75,2144.75,2144.75,2144.75
1790.75,1790.75,1790.75,1790.75,1790.75
98.75,98.75,98.75,98.75,98.75
4280.0,4280.0,3445.4,3445.4,3445.4
4222.4,4222.4,3328.0,3328.0,3328.0
4428.9,4428.9,3552.0,3552.0,3552.0
3855.6,3855.6,3071.25,3071.25,3071.25
4338.2,4338.2,3509.8,3509.8,3509.8
4940.0,4940.0,4160.0,4160.0,4160.0
-403.0,-403.0,-403.0,-403.0,-403.0
197.0,197.0,197.0,197.0,197.0
-199.0,-199.0,-199.0,-199.0,-199.0
4542.5,4542.5,3680.0,3680.0,3680.0
3920.0,3920.0,3214.4,3214.4,3214.4
4455.0,4455.0,3611.25,3611.25,3611.25
197.0,197.0,197.0,197.0,197.0
4131.05,4131.05,3258.15,3258.15,3258.15
1701.0,1701.0,1701.0,1701.0,1701.0
4457.6,4457.6,3584.0,3584.0,3584.0
4312.1,4312.1,3424.0,3424.0,3424.0
4282.4,4282.4,3392.0,3392.0,3392.0
4192.1,4192.1,3296.0,3296.0,3296.0
4131.0,4131.0,3284.4,3284.4,3284.4
4940.0,4940.0,4160.0,4160.0,4160.0
3764.75,3764.75,3024.75,3024.75,3024.75
3978.8,3978.8,3175.2,3175.2,3175.2
-99.25,-99.25,-99.25,-99.25,-99.25
3766.5,3766.5,3050.4,3050.4,3050.4
4648.55,4648.55,3835.95,3835.95,3835.95
2632.0,2632.0,2632.0,2352.0,2632.0
4428.9,4428.9,3552.0,3552.0,3552.0
-408.0,-408.0,-408.0,-408.0,-408.0
3855.6,3855.6,3071.25,3071.25,3071.25
0.0,0.0,0.0,0.0,0.0
4457.6,4457.6,3584.0,3584.0,3584.0
4421.25,4421.25,3633.75,3633.75,3633.75
4222.4,4222.4,3328.0,3328.0,3328.0
4222.4,4222.4,3328.0,3328.0,3328.0
4331.25,4331.25,3846.15,3846.15,3846.15
4706.9,4706.9,3872.0,3872.0,3872.0
4501.8,4501.8,3928.4,3928.4,4318.8
4457.6,4457.6,3584.0,3584.0,3584.0
-406.0,-406.0,-406.0,-406.0,-406.0
4542.5,4542.5,3680.0,3680.0,3680.0
4249.35,4249.35,3439.95,3439.95,3439.95
4158.0,4158.0,3423.0,3423.0,3423.0
3709.25,3653.75,3080.25,3080.25,3080.25
4191.75,4191.75,3322.35,3322.35,3322.35
4310.75,4310.75,3450.75,3450.75,3450.75
-408.0,-408.0,-408.0,-408.0,-408.0
4457.6,4457.6,3584.0,3584.0,3584.0
4397.9,4397.9,3547.05,3547.05,3547.05
4246.25,4246.25,3493.75,3493.75,3493.75
4680.0,4680.0,3840.0,3840.0,3840.0
4598.1,4598.1,3744.0,3744.0,3744.0
4508.0,4508.0,3703.0,3703.0,3703.0
4864.1,4864.1,4064.0,4064.0,4064.0
4100.4,4100.4,3226.05,3226.05,3226.05
5110.1,5110.1,4384.0,4384.0,4384.0
4251.65,4251.65,3386.55,3386.55,3386.55
4542.5,4542.5,3680.0,3680.0,3680.0
4504.5,4504.5,3730.65,3730.65,3730.65
4428.9,4428.9,3552.0,3552.0,3552.0
1237.95,1237.95,1187.55,1187.55,1187.55
-406.0,-406.0,-406.0,-406.0,-406.0
561.15,561.15,584.35,561.15,561.15
4192.1,4192.1,3296.0,3296.0,3296.0
4674.8,4326.8,3758.4,3758.4,3758.4
4278.5,4278.5,3472.25,3472.25,3472.25
4220.0,4220.0,3407.65,3407.65,3407.65
-405.0,-405.0,-405.0,-405.0,-405.0
3979.4,3979.4,3201.25,3201.25,3201.25
965.0,965.0,965.0,965.0,965.0
4511.3,4545.65,3664.0,3664.0,3664.0
-403.0,-403.0,-403.0,-403.0,-403.0
4864.1,4864.1,4064.0,4064.0,4064.0
-405.0,-405.0,-405.0,-405.0,-405.0
4212.0,4212.0,3542.4,3542.4,3542.4
-403.0,-403.0,-403.0,-403.0,-403.0
4008.95,4008.95,3181.55,3181.55,3181.55
4542.5,4542.5,3680.0,3680.0,3680.0
4370.9,4370.9,3488.0,3488.0,3488.0
197.0,197.0,197.0,197.0,197.0
4067.55,4067.55,3405.15,3405.15,3405.15
-404.0,-404.0,-404.0,-404.0,-404.0
4760.1,4760.1,3936.0,3936.0,3936.0
4008.95,4008.95,3181.55,3181.55,3181.55
4397.9,4397.9,3547.05,3547.05,3547.05
4192.4,4192.4,3735.25,3735.25,3735.25
4706.9,4706.9,3872.0,3872.0,3872.0
-403.0,-403.0,-403.0,-403.0,-403.0
4570.4,4570.4,3712.0,3712.0,3712.0
4310.75,4310.75,3450.75,3450.75,3450.75
4570.4,4570.4,3712.0,3712.0,3712.0
-404.0,-404.0,-404.0,-404.0,-404.0
5321.25,4757.5,4455.0,4455.0,4455.0
5006.25,5006.25,4285.35,4285.35,4285.35
4455.0,4455.0,3611.25,3611.25,3611.25
4192.1,4192.1,3296.0,3296.0,3296.0
4070.0,4070.0,3220.0,3220.0,3220.0
4680.0,4680.0,3840.0,3840.0,3840.0
4100.6,4100.6,3278.45,3278.45,3278.45
1648.35,1648.35,1409.4,1575.45,1409.4
3276.35,3276.35,2696.75,2696.75,2696.75
4964.9,4964.9,4192.0,4192.0,4192.0
4554.8,4554.8,3823.2,3823.2,3823.2
4250.6,4250.6,3413.2,3413.2,3413.2
2578.1,2578.1,2032.0,2546.35,2032.0
1516.9,1516.9,1516.9,1516.9,1258.95
4100.4,4100.4,3226.05,3226.05,3226.05
4367.0,4367.0,3542.0,3542.0,3542.0
4449.2,4449.2,3666.05,3666.05,3666.05
4680.0,4680.0,3840.0,3840.0,3840.0
294.75,294.75,294.75,294.75,294.75
98.75,98.75,98.75,98.75,98.75
4340.0,4340.0,3482.85,3482.85,3482.85
4312.1,4312.1,3424.0,3424.0,3424.0
4476.95,4476.95,3698.35,3698.35,3698.35
4070.15,4070.15,3298.75,3298.75,3298.75
4428.9,4428.9,3552.0,3552.0,3552.0
5350.4,5350.4,4924.8,4924.8,4924.8
4594.25,4594.25,3771.75,3771.75,3771.75
4310.75,4310.75,3450.75,3450.75,3450.75
4252.5,4252.5,3360.0,3360.0,3360.0
4192.1,4192.1,3296.0,3296.0,3296.0
2646.2,2646.2,2122.2,2122.2,2574.15
428.4,428.4,400.05,400.05,400.05
4282.4,4282.4,3392.0,3392.0,3392.0
3678.3,3678.3,3028.65,3028.65,3028.65
4192.1,4192.1,3296.0,3296.0,3296.0
4428.9,4428.9,3552.0,3552.0,3552.0
4249.35,4249.35,3439.95,3439.95,3439.95
4040.1,4040.1,3266.25,3266.25,3266.25
4052.75,4052.75,3622.75,3622.75,3622.75
-199.0,-199.0,-199.0,-199.0,-199.0
3888.0,3888.0,3129.6,3129.6,3129.6
-407.0,-407.0,-407.0,-407.0,-407.0
4621.5,4621.5,3803.85,3803.85,3803.85
4232.15,4232.15,3657.55,3657.55,3657.55
3889.7,3889.7,3181.6,3181.6,3181.6
3969.55,3969.55,3161.85,3299.75,3161.85
-402.0,-402.0,-402.0,-402.0,-402.0
4457.6,4457.6,3584.0,3584.0,3584.0
4486.1,4486.1,3616.0,3616.0,3616.0
4483.25,4483.25,3643.35,3643.35,3643.35
4222.4,4222.4,3328.0,3328.0,3328.0
4312.1,4312.1,3424.0,3424.0,3424.0
-403.0,-403.0,-403.0,-403.0,-403.0
4542.5,4542.5,3680.0,3680.0,3680.0
-401.0,-401.0,-401.0,-401.0,-401.0
4531.85,4531.85,3762.95,3762.95,3762.95
4250.6,4250.6,3413.2,3413.2,3413.2
3950.1,3950.1,3247.2,3247.2,3247.2
197.0,197.0,197.0,197.0,197.0
4251.65,4251.65,3386.55,3386.55,3386.55
4566.8,4566.8,3739.65,3739.65,3739.65
4421.25,4421.25,3633.75,3633.75,3633.75
-404.0,-404.0,-404.0,-404.0,-404.0
3947.9,3947.9,3142.8,3142.8,3142.8
3703.7,3703.7,2984.8,2984.8,2984.8
294.75,294.75,294.75,294.75,294.75
4457.6,4457.6,3584.0,3584.0,3584.0
3672.0,3672.0,2952.0,2952.0,2952.0
4736.0,4736.0,4198.4,4198.4,4198.4
1701.0,1701.0,1701.0,1701.0,1701.0
4857.75,4857.75,4092.75,4092.75,4092.75
4426.55,4426.55,3579.15,3579.15,3579.15
4341.6,4341.6,3456.0,3456.0,3456.0
3794.4,3794.4,3031.8,3031.8,3031.8
-57.45,-60.0,-60.0,-60.0,-60.0
4974.2,4974.2,4282.6,4282.6,4282.6
4039.2,4039.2,3187.8,3187.8,3187.8
3627.0,3627.0,3143.4,3143.4,3143.4
5183.0,5183.0,4572.4,4572.4,4572.4
4160.0,4160.0,3369.6,3369.6,3369.6
4400.0,4400.0,3520.0,3520.0,3520.0
4341.6,4341.6,3456.0,3456.0,3456.0
4370.9,4370.9,3488.0,3488.0,3488.0
4191.75,4191.75,3322.35,3322.35,3322.35
4281.3,4281.3,3418.65,3418.65,3418.65
2057.0,2057.0,2057.0,2057.0,2057.0
4222.4,4222.4,3328.0,3328.0,3328.0
4367.0,4367.0,3542.0,3542.0,3542.0
-299.25,-299.25,-299.25,-299.25,-299.25
4100.6,4100.6,3252.2,3252.2,3252.2
4369.05,4369.05,3514.95,3514.95,3514.95
3555.2,3555.2,2921.6,2921.6,2921.6
2543.75,2543.75,2000.0,2000.0,2506.25
4191.75,4191.75,3322.35,3322.35,3322.35
4222.4,4222.4,3328.0,3328.0,3328.0
3077.0,3077.0,3077.0,3077.0,3077.0
4743.45,4743.45,4021.35,4021.35,4021.35
-407.0,-407.0,-407.0,-407.0,-407.0
1014.0,1014.0,1014.0,956.8,1014.0
4192.1,4192.1,3296.0,3296.0,3296.0
4883.0,4883.0,4124.85,4124.85,4124.85
5225.6,5225.6,4544.0,4544.0,4544.0
4131.05,4131.05,3258.15,3258.15,3258.15
4296.6,4285.75,3515.4,3515.4,3515.4
-401.0,-401.0,-401.0,-401.0,-401.0
4251.65,4251.65,3386.55,3386.55,3386.55
4514.4,4514.4,3648.0,3648.0,3648.0
4249.35,4249.35,3439.95,3439.95,3439.95
4282.4,4282.4,3392.0,3392.0,3392.0
3584.25,3584.25,2929.35,2929.35,2929.35
3919.5,3919.5,3188.25,3188.25,3188.25
4160.7,4160.7,3343.05,3343.05,3343.05
4192.1,4192.1,3296.0,3296.0,3296.0
3768.05,3768.05,3076.15,3076.15,3076.15
5292.5,5292.5,4640.0,4640.0,4640.0
3949.85,3949.85,3220.95,3220.95,3220.95
4250.6,4250.6,3413.2,3413.2,3413.2
4008.95,4008.95,3181.55,3181.55,3181.55
4483.25,4483.25,3643.35,3643.35,3643.35
4883.0,4883.0,4124.85,4124.85,4124.85
4307.45,4307.45,3504.55,3504.55,3504.55
776.0,776.0,776.0,776.0,776.0
4191.75,4191.75,3322.35,3322.35,3322.35
4612.7,4612.7,3859.85,3859.85,3859.85
4754.75,4754.75,3964.35,3964.35,3964.35
4680.0,4680.0,3840.0,3840.0,3840.0
4760.1,4760.1,3936.0,3936.0,3936.0
-404.0,-404.0,-404.0,-404.0,-404.0
4334.0,4334.0,3564.0,3564.0,3564.0
2232.0,2232.0,2232.0,2232.0,2232.0
4397.9,4397.9,3547.05,3547.05,3547.05
4100.0,4100.0,3331.25,3331.25,3331.25
4452.2,4452.2,3638.6,3638.6,3638.6
4542.5,4542.5,3680.0,3680.0,3680.0
3766.5,3766.5,3050.4,3050.4,3050.4
3764.75,3764.75,3024.75,3024.75,3024.75
4252.5,4252.5,3360.0,3360.0,3360.0
4282.4,4282.4,3392.0,3392.0,3392.0
-408.0,-408.0,-408.0,-408.0,-408.0
4511.3,4511.3,3675.45,3675.45,3675.45
1058.75,1058.75,1058.75,1058.75,1058.75
-408.0,-408.0,-408.0,-408.0,-408.0
4312.1,4312.1,3424.0,3424.0,3424.0
4161.6,4161.6,3264.0,3264.0,3264.0
4341.6,4341.6,3456.0,3456.0,3456.0
4369.05,4369.05,3514.95,3514.95,3514.95
4426.55,4426.55,3579.15,3579.15,3579.15
294.75,294.75,294.75,294.75,294.75
4222.4,4222.4,3328.0,3328.0,3328.0
4251.65,4251.65,3386.55,3386.55,3386.55
4989.6,4989.6,4224.0,4224.0,4224.0
4307.45,4307.45,3504.55,3504.55,3504.55
4457.6,4457.6,3584.0,3584.0,3584.0
294.75,294.75,294.75,294.75,294.75
1610.75,1610.75,1610.75,1610.75,1610.75
5270.6,5270.6,4701.2,4701.2,4701.2
4341.6,4341.6,3456.0,3456.0,3456.0
3528.8,3528.8,2939.2,2939.2,2939.2
4222.4,4222.4,3328.0,3328.0,3328.0
4282.4,4282.4,3392.0,3392.0,3392.0
4400.0,4400.0,3520.0,3520.0,3520.0
3676.4,3676.4,3535.0,3535.0,3535.0
4625.6,4625.6,3776.0,3776.0,3776.0
4341.6,4341.6,3456.0,3456.0,3456.0
5762.9,4690.4,4590.3,4590.3,4590.3
4400.0,4400.0,3520.0,3520.0,3520.0
98.75,98.75,98.75,98.75,98.75
4457.6,4457.6,3584.0,3584.0,3584.0
1790.75,1790.75,1790.75,1790.75,1790.75
3796.1,3796.1,3057.45,3057.45,3057.45
4455.0,4455.0,3611.25,3611.25,3611.25
4395.6,4395.6,3574.2,3574.2,3574.2
4655.0,4655.0,3981.25,3981.25,3981.25
-404.0,-404.0,-404.0,-404.0,-404.0
4791.5,4791.5,4234.65,4234.65,4234.65
-299.25,-299.25,-299.25,-299.25,-299.25
4125.05,4125.05,3470.95,3470.95,3470.95
3827.25,3827.25,3090.15,3090.15,3090.15
4457.6,4457.6,3584.0,3584.0,3584.0
4191.75,4191.75,3322.35,3322.35,3322.35
4161.6,4161.6,3264.0,3264.0,3264.0
-405.0,-405.0,-405.0,-405.0,-405.0
3872.0,3872.0,3872.0,3872.0,3872.0
-405.0,-405.0,-405.0,-405.0,-405.0
4131.05,4131.05,3258.15,3258.15,3258.15
4486.1,4486.1,3616.0,3616.0,3616.0
4312.1,4312.1,3424.0,3424.0,3424.0
