(lp0
(lp1
F97.25
aF83.25
aF83.25
aF83.25
aF90.0
aa(lp2
F93.25
aF80.0
aF80.0
aF80.0
aF80.0
aa(lp3
F91.75
aF80.25
aF80.25
aF80.25
aF80.25
aa(lp4
F100.75
aF80.75
aF80.75
aF80.75
aF80.75
aa(lp5
F90.5
aF80.5
aF80.5
aF80.5
aF80.5
aa(lp6
F100.5
aF100.5
aF100.5
aF100.5
aF100.5
aa(lp7
F93.75
aF80.0
aF80.0
aF80.0
aF80.0
aa(lp8
F96.0
aF81.0
aF81.0
aF81.0
aF81.0
aa(lp9
F99.5
aF80.0
aF80.0
aF80.0
aF80.0
aa(lp10
F100.0
aF80.0
aF80.0
aF80.0
aF80.0
aa(lp11
F94.25
aF94.25
aF94.25
aF94.25
aF94.25
aa(lp12
F89.75
aF80.75
aF80.75
aF80.75
aF80.75
aa(lp13
F96.25
aF80.25
aF80.25
aF80.25
aF80.25
aa(lp14
F95.5
aF95.5
aF95.5
aF95.5
aF95.5
aa(lp15
F87.0
aF87.0
aF87.0
aF87.0
aF87.0
aa(lp16
F100.0
aF80.0
aF80.0
aF80.0
aF80.0
aa(lp17
F101.5
aF81.25
aF81.25
aF81.25
aF81.25
aa(lp18
F94.0
aF80.75
aF80.75
aF80.75
aF80.75
aa(lp19
F94.5
aF82.25
aF82.25
aF82.25
aF82.25
aa(lp20
F89.25
aF81.25
aF81.25
aF81.25
aF81.25
aa(lp21
F91.5
aF83.25
aF83.25
aF83.25
aF83.25
aa(lp22
F93.0
aF81.0
aF81.0
aF93.75
aF81.0
aa(lp23
F81.5
aF81.5
aF81.5
aF81.5
aF81.5
aa(lp24
F96.75
aF80.5
aF80.5
aF80.5
aF80.5
aa(lp25
F96.75
aF80.75
aF80.75
aF80.75
aF80.75
aa(lp26
F87.25
aF98.25
aF98.25
aF98.25
aF98.25
aa(lp27
F101.0
aF101.0
aF101.0
aF101.0
aF101.0
aa(lp28
F98.5
aF98.5
aF98.5
aF98.5
aF98.5
aa(lp29
F100.25
aF81.5
aF81.5
aF81.5
aF81.5
aa(lp30
F90.5
aF81.75
aF81.75
aF81.75
aF81.75
aa(lp31
F102.0
aF80.0
aF80.0
aF80.0
aF80.0
aa(lp32
F100.75
aF80.0
aF80.0
aF80.0
aF80.0
aa(lp33
F100.0
aF100.0
aF100.0
aF100.0
aF100.0
aa(lp34
F96.0
aF81.25
aF81.25
aF81.25
aF81.25
aa(lp35
F87.75
aF80.5
aF80.5
aF80.5
aF80.5
aa(lp36
F94.25
aF80.25
aF80.25
aF80.25
aF80.25
aa(lp37
F89.75
aF82.5
aF82.5
aF82.5
aF82.5
aa(lp38
F85.75
aF85.75
aF85.75
aF85.75
aF85.75
aa(lp39
F94.25
aF80.75
aF80.75
aF80.75
aF80.75
aa(lp40
F99.0
aF80.0
aF80.0
aF80.0
aF80.0
aa(lp41
F96.75
aF85.0
aF85.0
aF85.0
aF85.0
aa(lp42
F90.5
aF90.75
aF90.75
aF90.75
aF90.75
aa(lp43
F100.25
aF80.0
aF80.0
aF80.0
aF80.0
aa(lp44
F88.75
aF80.0
aF80.0
aF80.0
aF80.0
aa(lp45
F94.25
aF80.25
aF80.25
aF80.25
aF80.25
aa(lp46
F93.75
aF83.0
aF83.0
aF83.0
aF83.0
aa(lp47
F98.5
aF80.5
aF80.5
aF80.5
aF80.5
aa(lp48
F94.5
aF80.0
aF80.0
aF80.0
aF80.0
aa(lp49
F101.75
aF80.25
aF80.25
aF80.25
aF80.25
aa(lp50
F90.75
aF90.75
aF90.75
aF90.75
aF90.75
aa(lp51
F88.25
aF80.25
aF80.25
aF80.25
aF80.25
aa(lp52
F102.0
aF83.0
aF83.0
aF83.0
aF83.0
aa(lp53
F88.5
aF88.5
aF88.5
aF88.5
aF88.5
aa(lp54
F93.75
aF84.75
aF84.75
aF84.75
aF84.75
aa(lp55
F99.0
aF99.0
aF99.0
aF99.0
aF99.0
aa(lp56
F100.0
aF81.75
aF81.75
aF81.75
aF81.75
aa(lp57
F94.25
aF80.25
aF80.25
aF80.25
aF80.25
aa(lp58
F100.5
aF80.0
aF80.0
aF80.0
aF80.0
aa(lp59
F99.75
aF80.0
aF80.0
aF80.0
aF80.0
aa(lp60
F88.75
aF80.25
aF80.25
aF80.25
aF80.25
aa(lp61
F100.75
aF80.0
aF80.0
aF80.0
aF80.0
aa(lp62
F89.75
aF89.75
aF89.75
aF89.75
aF89.75
aa(lp63
F100.25
aF100.25
aF100.25
aF100.25
aF100.25
aa(lp64
F99.0
aF80.75
aF80.75
aF80.75
aF80.75
aa(lp65
F91.0
aF84.5
aF84.5
aF84.5
aF84.5
aa(lp66
F93.5
aF80.0
aF80.0
aF80.0
aF80.0
aa(lp67
F99.5
aF80.0
aF80.0
aF80.0
aF80.0
aa(lp68
F100.75
aF80.0
aF80.0
aF80.0
aF80.0
aa(lp69
F97.5
aF81.5
aF81.5
aF81.5
aF81.5
aa(lp70
F88.75
aF80.25
aF80.25
aF80.25
aF80.25
aa(lp71
F101.5
aF80.5
aF80.5
aF80.5
aF80.5
aa(lp72
F98.0
aF80.25
aF80.25
aF80.25
aF80.25
aa(lp73
F98.25
aF80.75
aF80.75
aF80.75
aF80.75
aa(lp74
F94.5
aF82.0
aF82.0
aF82.0
aF82.0
aa(lp75
F91.5
aF80.25
aF80.25
aF80.25
aF80.25
aa(lp76
F97.5
aF97.5
aF97.5
aF97.5
aF97.5
aa(lp77
F98.75
aF80.75
aF80.75
aF80.75
aF80.75
aa(lp78
F94.75
aF80.0
aF80.0
aF80.0
aF80.0
aa(lp79
F85.0
aF81.0
aF81.0
aF81.0
aF81.0
aa(lp80
F92.0
aF80.0
aF80.0
aF80.0
aF80.0
aa(lp81
F95.75
aF80.0
aF80.0
aF80.0
aF80.0
aa(lp82
F100.5
aF82.0
aF82.0
aF82.0
aF82.0
aa(lp83
F92.25
aF84.25
aF84.25
aF84.25
aF84.25
aa(lp84
F91.25
aF82.0
aF82.0
aF82.0
aF82.0
aa(lp85
F100.75
aF82.25
aF82.25
aF82.25
aF82.25
aa(lp86
F82.25
aF82.25
aF82.25
aF82.25
aF82.25
aa(lp87
F91.25
aF80.0
aF80.0
aF80.0
aF80.0
aa(lp88
F99.25
aF82.5
aF82.5
aF82.5
aF82.5
aa(lp89
F91.25
aF81.0
aF81.0
aF81.0
aF81.0
aa(lp90
F99.5
aF101.0
aF101.0
aF101.0
aF101.0
aa(lp91
F82.25
aF80.0
aF80.0
aF80.0
aF80.0
aa(lp92
F93.25
aF80.0
aF80.0
aF80.0
aF80.0
aa(lp93
F91.25
aF87.0
aF87.0
aF87.0
aF87.0
aa(lp94
F99.75
aF81.25
aF81.25
aF81.25
aF81.25
aa(lp95
F88.75
aF88.75
aF88.75
aF88.75
aF88.75
aa(lp96
F93.5
aF81.25
aF81.25
aF81.25
aF81.25
aa(lp97
F92.0
aF80.5
aF80.5
aF80.5
aF80.5
aa(lp98
F91.0
aF81.5
aF81.5
aF81.5
aF81.5
aa(lp99
F101.75
aF101.75
aF101.75
aF101.75
aF101.75
aa(lp100
F97.5
aF80.0
aF80.0
aF80.0
aF80.0
aa(lp101
F98.5
aF98.5
aF98.5
aF98.5
aF98.5
aa(lp102
F87.25
aF80.25
aF80.25
aF80.25
aF80.25
aa(lp103
F85.0
aF80.25
aF80.25
aF80.25
aF80.25
aa(lp104
F97.0
aF80.25
aF80.25
aF80.25
aF80.25
aa(lp105
F100.75
aF82.25
aF82.25
aF82.25
aF82.25
aa(lp106
F90.5
aF90.5
aF90.5
aF90.5
aF90.5
aa(lp107
F99.0
aF99.0
aF99.0
aF99.0
aF99.0
aa(lp108
F99.75
aF82.5
aF82.5
aF82.5
aF82.5
aa(lp109
F98.25
aF80.75
aF80.75
aF80.75
aF80.75
aa(lp110
F99.0
aF84.0
aF84.0
aF84.0
aF84.0
aa(lp111
F100.5
aF81.75
aF81.75
aF81.75
aF81.75
aa(lp112
F100.5
aF100.5
aF100.5
aF100.5
aF100.5
aa(lp113
F89.75
aF80.0
aF80.0
aF80.0
aF80.0
aa(lp114
F98.25
aF81.0
aF81.0
aF81.0
aF81.0
aa(lp115
F91.5
aF80.25
aF80.25
aF80.25
aF80.25
aa(lp116
F85.25
aF81.25
aF81.25
aF81.25
aF81.25
aa(lp117
F100.5
aF80.25
aF80.25
aF80.25
aF80.25
aa(lp118
F99.0
aF80.5
aF80.5
aF80.5
aF80.5
aa(lp119
F91.5
aF80.0
aF80.0
aF80.0
aF80.0
aa(lp120
F97.25
aF90.75
aF80.0
aF80.0
aF80.0
aa(lp121
F89.5
aF89.5
aF89.5
aF89.5
aF89.5
aa(lp122
F99.25
aF80.75
aF80.75
aF80.75
aF80.75
aa(lp123
F92.0
aF82.75
aF82.75
aF82.75
aF82.75
aa(lp124
F97.75
aF97.75
aF97.75
aF97.75
aF97.75
aa(lp125
F92.5
aF82.25
aF82.25
aF82.25
aF82.25
aa(lp126
F99.25
aF81.0
aF81.0
aF81.0
aF81.0
aa(lp127
F93.25
aF93.25
aF93.25
aF93.25
aF93.25
aa(lp128
F81.25
aF80.5
aF80.5
aF80.5
aF80.5
aa(lp129
F82.5
aF82.5
aF82.5
aF82.5
aF82.5
aa(lp130
F100.75
aF100.75
aF100.75
aF100.75
aF100.75
aa(lp131
F91.0
aF81.5
aF81.5
aF81.5
aF81.5
aa(lp132
F95.25
aF81.5
aF81.5
aF81.5
aF81.5
aa(lp133
F98.5
aF91.75
aF91.75
aF91.75
aF91.75
aa(lp134
F90.75
aF82.0
aF82.0
aF82.0
aF82.0
aa(lp135
F90.25
aF90.25
aF90.25
aF90.25
aF90.25
aa(lp136
F98.0
aF80.5
aF80.5
aF80.5
aF80.5
aa(lp137
F100.75
aF80.75
aF80.75
aF80.75
aF80.75
aa(lp138
F97.25
aF84.0
aF84.0
aF84.0
aF84.0
aa(lp139
F102.0
aF83.0
aF83.0
aF83.0
aF83.0
aa(lp140
F85.0
aF81.75
aF81.75
aF81.75
aF81.75
aa(lp141
F90.75
aF90.75
aF90.75
aF90.75
aF90.75
aa(lp142
F101.75
aF83.25
aF83.25
aF83.25
aF83.25
aa(lp143
F95.0
aF86.25
aF86.25
aF86.25
aF86.25
aa(lp144
F91.25
aF81.5
aF81.5
aF81.5
aF81.5
aa(lp145
F95.25
aF81.25
aF81.25
aF81.25
aF81.25
aa(lp146
F99.25
aF81.5
aF81.5
aF81.5
aF81.5
aa(lp147
F82.75
aF80.0
aF80.0
aF80.0
aF80.0
aa(lp148
F95.0
aF95.0
aF95.0
aF95.0
aF95.0
aa(lp149
F100.25
aF100.25
aF100.25
aF100.25
aF100.25
aa(lp150
F85.25
aF85.25
aF85.25
aF85.25
aF81.0
aa(lp151
F88.5
aF82.0
aF82.0
aF82.0
aF82.0
aa(lp152
F102.0
aF82.25
aF82.25
aF82.25
aF82.25
aa(lp153
F93.75
aF83.25
aF83.25
aF83.25
aF83.25
aa(lp154
F91.5
aF80.25
aF80.25
aF80.25
aF80.25
aa(lp155
F95.25
aF80.75
aF80.75
aF80.75
aF80.75
aa(lp156
F84.5
aF82.5
aF82.5
aF82.5
aF82.5
aa(lp157
F92.5
aF80.25
aF80.25
aF80.25
aF80.25
aa(lp158
F100.75
aF80.0
aF80.0
aF80.0
aF80.0
aa(lp159
F80.5
aF80.5
aF80.5
aF80.5
aF80.5
aa(lp160
F98.0
aF80.0
aF80.0
aF80.0
aF80.0
aa(lp161
F92.75
aF80.5
aF80.5
aF80.5
aF80.5
aa(lp162
F83.5
aF80.25
aF80.25
aF80.25
aF80.25
aa(lp163
F97.0
aF80.25
aF80.25
aF80.25
aF80.25
aa(lp164
F97.0
aF82.5
aF82.5
aF82.5
aF82.5
aa(lp165
F93.0
aF80.5
aF80.5
aF80.5
aF80.5
aa(lp166
F83.25
aF83.25
aF83.25
aF83.25
aF83.25
aa(lp167
F89.5
aF80.75
aF80.75
aF80.75
aF80.75
aa(lp168
F95.25
aF95.25
aF95.25
aF95.25
aF95.25
aa(lp169
F92.5
aF81.5
aF81.5
aF81.5
aF81.5
aa(lp170
F87.0
aF80.0
aF80.0
aF80.0
aF80.0
aa(lp171
F88.0
aF88.0
aF88.0
aF88.0
aF88.0
aa(lp172
F92.5
aF80.5
aF80.5
aF80.5
aF80.5
aa(lp173
F99.0
aF81.0
aF81.0
aF81.0
aF81.0
aa(lp174
F95.0
aF81.0
aF81.0
aF81.0
aF81.0
aa(lp175
F88.0
aF84.5
aF84.5
aF84.5
aF84.5
aa(lp176
F102.0
aF80.0
aF80.0
aF80.0
aF80.0
aa(lp177
F85.75
aF85.75
aF85.75
aF85.75
aF85.75
aa(lp178
F101.0
aF80.25
aF80.25
aF80.25
aF80.25
aa(lp179
F95.75
aF80.5
aF80.5
aF80.5
aF80.5
aa(lp180
F95.25
aF81.25
aF81.25
aF81.25
aF81.25
aa(lp181
F98.25
aF80.5
aF95.25
aF80.5
aF80.5
aa(lp182
F97.0
aF83.5
aF83.5
aF83.5
aF83.5
aa(lp183
F91.75
aF80.25
aF80.25
aF80.25
aF80.25
aa(lp184
F89.0
aF80.5
aF80.5
aF80.5
aF80.5
aa(lp185
F98.0
aF83.0
aF83.0
aF83.0
aF83.0
aa(lp186
F90.0
aF81.25
aF81.25
aF81.25
aF81.25
aa(lp187
F99.75
aF80.5
aF80.5
aF80.5
aF80.5
aa(lp188
F96.25
aF96.25
aF96.25
aF96.25
aF96.25
aa(lp189
F99.0
aF80.25
aF80.25
aF80.25
aF80.25
aa(lp190
F98.5
aF82.0
aF82.0
aF82.0
aF82.0
aa(lp191
F100.75
aF80.5
aF80.5
aF80.5
aF80.5
aa(lp192
F91.75
aF80.25
aF80.25
aF80.25
aF80.25
aa(lp193
F94.75
aF80.25
aF80.25
aF80.25
aF80.25
aa(lp194
F99.25
aF80.25
aF80.25
aF80.25
aF80.25
aa(lp195
F93.75
aF93.75
aF93.75
aF93.75
aF93.75
aa(lp196
F95.0
aF80.75
aF80.75
aF80.75
aF80.75
aa(lp197
F97.25
aF80.0
aF80.0
aF80.0
aF80.0
aa(lp198
F91.5
aF81.5
aF81.5
aF81.5
aF81.5
aa(lp199
F92.25
aF80.75
aF80.75
aF80.75
aF80.75
aa(lp200
F89.5
aF80.0
aF80.0
aF80.0
aF80.0
aa(lp201
F93.5
aF80.5
aF80.5
aF80.5
aF80.5
aa(lp202
F94.0
aF94.0
aF94.0
aF94.0
aF94.0
aa(lp203
F99.25
aF99.25
aF99.25
aF99.25
aF99.25
aa(lp204
F92.25
aF83.0
aF83.0
aF83.0
aF83.0
aa(lp205
F98.5
aF82.25
aF82.25
aF82.25
aF82.25
aa(lp206
F94.0
aF83.5
aF83.5
aF83.5
aF83.5
aa(lp207
F88.25
aF88.25
aF88.25
aF88.25
aF88.25
aa(lp208
F92.25
aF92.25
aF92.25
aF92.25
aF92.25
aa(lp209
F99.0
aF80.25
aF80.25
aF80.25
aF80.25
aa(lp210
F94.0
aF80.0
aF80.0
aF80.0
aF80.0
aa(lp211
F94.5
aF85.5
aF85.5
aF85.5
aF85.5
aa(lp212
F81.25
aF81.25
aF81.25
aF81.25
aF81.25
aa(lp213
F101.5
aF89.0
aF89.0
aF89.0
aF89.0
aa(lp214
F93.25
aF80.5
aF80.5
aF80.5
aF80.5
aa(lp215
F87.75
aF87.75
aF87.75
aF87.75
aF87.75
aa(lp216
F97.0
aF82.0
aF82.0
aF82.0
aF82.0
aa(lp217
F94.75
aF94.75
aF94.75
aF94.75
aF100.5
aa(lp218
F97.25
aF80.0
aF80.0
aF80.0
aF80.0
aa(lp219
F91.25
aF82.75
aF82.75
aF82.75
aF82.75
aa(lp220
F91.75
aF81.0
aF81.0
aF81.0
aF81.0
aa(lp221
F90.25
aF80.5
aF80.5
aF80.5
aF80.5
aa(lp222
F91.5
aF80.5
aF80.5
aF80.5
aF80.5
aa(lp223
F101.75
aF85.25
aF85.25
aF85.25
aF85.25
aa(lp224
F82.5
aF80.0
aF80.0
aF80.0
aF80.0
aa(lp225
F96.5
aF80.0
aF80.0
aF80.0
aF80.0
aa(lp226
F96.75
aF80.0
aF80.0
aF80.0
aF80.0
aa(lp227
F96.5
aF80.5
aF80.5
aF80.5
aF80.5
aa(lp228
F94.0
aF81.0
aF81.0
aF81.0
aF81.0
aa(lp229
F95.75
aF80.0
aF80.0
aF80.0
aF80.0
aa(lp230
F97.5
aF80.25
aF80.25
aF80.25
aF80.25
aa(lp231
F95.25
aF81.0
aF81.0
aF81.0
aF81.0
aa(lp232
F95.0
aF82.75
aF82.75
aF82.75
aF82.75
aa(lp233
F98.25
aF98.25
aF98.25
aF98.25
aF98.25
aa(lp234
F97.0
aF80.0
aF80.0
aF80.0
aF80.0
aa(lp235
F100.25
aF100.25
aF100.25
aF100.25
aF100.25
aa(lp236
F80.75
aF80.25
aF80.25
aF80.25
aF80.25
aa(lp237
F100.5
aF80.5
aF80.5
aF80.5
aF80.5
aa(lp238
F97.0
aF80.0
aF80.0
aF80.0
aF80.0
aa(lp239
F98.75
aF82.0
aF82.0
aF82.0
aF82.0
aa(lp240
F99.25
aF81.75
aF81.75
aF81.75
aF81.75
aa(lp241
F98.75
aF82.5
aF82.5
aF82.5
aF82.5
aa(lp242
F98.5
aF83.0
aF83.0
aF83.0
aF83.0
aa(lp243
F102.0
aF102.0
aF102.0
aF102.0
aF102.0
aa(lp244
F96.0
aF82.25
aF82.25
aF82.25
aF82.25
aa(lp245
F91.75
aF81.0
aF81.0
aF81.0
aF81.0
aa(lp246
F97.0
aF81.5
aF81.5
aF81.5
aF81.5
aa(lp247
F99.75
aF99.75
aF99.75
aF99.75
aF99.75
aa(lp248
F102.0
aF80.0
aF80.0
aF80.0
aF80.0
aa(lp249
F93.25
aF80.0
aF80.0
aF80.0
aF80.0
aa(lp250
F97.25
aF81.5
aF81.5
aF81.5
aF81.5
aa(lp251
F94.75
aF80.0
aF80.0
aF80.0
aF80.0
aa(lp252
F100.5
aF100.5
aF100.5
aF100.5
aF100.5
aa(lp253
F100.5
aF82.5
aF82.5
aF82.5
aF82.5
aa(lp254
F98.0
aF80.0
aF80.0
aF80.0
aF80.0
aa(lp255
F98.5
aF80.25
aF80.25
aF80.25
aF80.25
aa(lp256
F93.75
aF101.25
aF80.75
aF80.75
aF80.75
aa(lp257
F87.0
aF81.5
aF81.5
aF81.5
aF81.5
aa(lp258
F100.5
aF82.5
aF82.5
aF82.5
aF82.5
aa(lp259
F101.0
aF81.25
aF81.25
aF81.25
aF81.25
aa(lp260
F92.5
aF80.0
aF80.0
aF80.0
aF80.0
aa(lp261
F81.75
aF81.75
aF81.75
aF81.75
aF81.75
aa(lp262
F91.25
aF81.0
aF81.0
aF81.0
aF81.0
aa(lp263
F95.5
aF80.25
aF80.25
aF80.25
aF80.25
aa(lp264
F90.5
aF90.5
aF90.5
aF90.5
aF90.5
aa(lp265
F82.75
aF80.5
aF80.5
aF80.5
aF80.5
aa(lp266
F98.75
aF80.5
aF80.5
aF80.5
aF80.5
aa(lp267
F85.25
aF85.25
aF85.25
aF85.25
aF85.25
aa(lp268
F97.5
aF81.0
aF81.0
aF81.0
aF81.0
aa(lp269
F87.0
aF87.0
aF87.0
aF87.0
aF87.0
aa(lp270
F89.5
aF80.0
aF80.0
aF80.0
aF80.0
aa(lp271
F100.75
aF82.75
aF82.75
aF82.75
aF82.75
aa(lp272
F88.5
aF83.0
aF83.0
aF83.0
aF83.0
aa(lp273
F97.75
aF100.25
aF97.75
aF97.75
aF97.75
aa(lp274
F96.5
aF80.0
aF80.0
aF80.0
aF80.0
aa(lp275
F93.0
aF93.0
aF93.0
aF93.0
aF93.0
aa(lp276
F98.25
aF84.5
aF84.5
aF84.5
aF84.5
aa(lp277
F88.5
aF80.75
aF80.75
aF80.75
aF80.75
aa(lp278
F90.75
aF80.5
aF80.5
aF80.5
aF80.5
aa(lp279
F92.25
aF92.25
aF92.25
aF92.25
aF92.25
aa(lp280
F97.5
aF80.0
aF80.0
aF80.0
aF80.0
aa(lp281
F94.5
aF80.0
aF80.0
aF80.0
aF80.0
aa(lp282
F94.75
aF81.5
aF81.5
aF81.5
aF81.5
aa(lp283
F100.0
aF100.0
aF100.0
aF100.0
aF100.0
aa(lp284
F90.75
aF90.75
aF90.75
aF90.75
aF90.75
aa(lp285
F98.0
aF80.0
aF80.0
aF80.0
aF80.0
aa(lp286
F89.75
aF80.25
aF80.25
aF80.25
aF80.25
aa(lp287
F90.0
aF81.5
aF81.5
aF81.5
aF81.5
aa(lp288
F97.25
aF97.25
aF97.25
aF97.25
aF97.25
aa(lp289
F97.0
aF82.75
aF82.75
aF82.75
aF82.75
aa(lp290
F93.5
aF82.5
aF82.5
aF82.5
aF82.5
aa(lp291
F102.0
aF80.25
aF80.25
aF80.25
aF80.25
aa(lp292
F96.0
aF96.0
aF96.0
aF96.0
aF96.0
aa(lp293
F94.25
aF80.0
aF80.0
aF80.0
aF80.0
aa(lp294
F102.0
aF82.25
aF82.25
aF82.25
aF82.25
aa(lp295
F95.0
aF80.75
aF80.75
aF80.75
aF80.75
aa(lp296
F92.75
aF81.25
aF81.25
aF81.25
aF81.25
aa(lp297
F83.5
aF81.0
aF81.0
aF81.0
aF81.0
aa(lp298
F97.0
aF97.0
aF97.0
aF97.0
aF97.0
aa(lp299
F100.5
aF100.5
aF100.5
aF100.5
aF100.5
aa(lp300
F101.75
aF80.0
aF80.0
aF80.0
aF80.0
aa(lp301
F92.5
aF92.5
aF92.5
aF92.5
aF92.5
aa(lp302
F98.0
aF80.5
aF80.5
aF101.25
aF80.5
aa(lp303
F89.0
aF80.75
aF80.75
aF80.75
aF80.75
aa(lp304
F83.25
aF83.25
aF83.25
aF83.25
aF83.25
aa(lp305
F94.0
aF94.0
aF94.0
aF94.0
aF94.0
aa(lp306
F96.5
aF96.5
aF96.5
aF96.5
aF96.5
aa(lp307
F90.75
aF81.25
aF81.25
aF81.25
aF81.25
aa(lp308
F97.5
aF80.0
aF80.0
aF80.0
aF80.0
aa(lp309
F86.25
aF80.0
aF80.0
aF80.0
aF80.0
aa(lp310
F101.5
aF80.25
aF80.25
aF80.25
aF80.25
aa(lp311
F93.25
aF80.5
aF80.5
aF80.5
aF80.5
aa(lp312
F94.75
aF82.25
aF82.25
aF82.25
aF82.25
aa(lp313
F94.0
aF94.0
aF94.0
aF94.0
aF94.0
aa(lp314
F98.25
aF81.25
aF81.25
aF81.25
aF81.25
aa(lp315
F89.0
aF80.5
aF80.5
aF80.5
aF80.5
aa(lp316
F90.25
aF80.75
aF80.75
aF80.75
aF80.75
aa(lp317
F102.0
aF80.75
aF80.75
aF80.75
aF80.75
aa(lp318
F99.5
aF84.0
aF84.0
aF84.0
aF84.0
aa(lp319
F99.5
aF80.0
aF80.0
aF80.0
aF80.0
aa(lp320
F100.5
aF84.5
aF84.5
aF84.5
aF84.5
aa(lp321
F94.75
aF80.25
aF80.25
aF90.25
aF80.25
aa(lp322
F97.5
aF82.0
aF82.0
aF82.0
aF82.0
aa(lp323
F95.25
aF81.0
aF81.0
aF81.0
aF81.0
aa(lp324
F90.0
aF82.25
aF82.25
aF82.25
aF82.25
aa(lp325
F91.25
aF82.0
aF82.0
aF82.0
aF82.0
aa(lp326
F92.5
aF92.5
aF92.5
aF92.5
aF92.5
aa(lp327
F88.75
aF81.0
aF81.0
aF81.0
aF81.0
aa(lp328
F98.25
aF95.0
aF95.0
aF95.0
aF95.0
aa(lp329
F95.25
aF80.0
aF80.0
aF80.0
aF80.0
aa(lp330
F99.0
aF82.75
aF82.75
aF82.75
aF82.75
aa(lp331
F100.75
aF80.25
aF80.25
aF80.25
aF80.25
aa(lp332
F95.75
aF81.75
aF81.75
aF81.75
aF81.75
aa(lp333
F99.75
aF81.25
aF81.25
aF81.25
aF81.25
aa(lp334
F94.0
aF94.0
aF94.0
aF94.0
aF94.0
aa(lp335
F81.0
aF81.0
aF81.0
aF81.0
aF81.0
aa(lp336
F101.75
aF101.75
aF101.75
aF101.75
aF101.75
aa(lp337
F82.5
aF80.5
aF80.5
aF97.75
aF80.5
aa(lp338
F97.75
aF97.75
aF97.75
aF97.75
aF97.75
aa(lp339
F102.0
aF102.0
aF102.0
aF102.0
aF102.0
aa(lp340
F91.5
aF91.5
aF91.5
aF91.5
aF91.5
aa(lp341
F93.5
aF80.0
aF80.0
aF80.0
aF80.0
aa(lp342
F98.0
aF80.75
aF80.75
aF80.75
aF80.75
aa(lp343
F85.5
aF80.5
aF80.5
aF80.5
aF80.5
aa(lp344
F101.75
aF80.75
aF80.75
aF80.75
aF80.75
aa(lp345
F97.75
aF80.25
aF80.25
aF80.25
aF80.25
aa(lp346
F101.0
aF101.0
aF101.0
aF101.0
aF101.0
aa(lp347
F98.5
aF82.75
aF82.75
aF82.75
aF82.75
aa(lp348
F100.5
aF80.25
aF80.25
aF80.25
aF80.25
aa(lp349
F99.25
aF84.25
aF84.25
aF84.25
aF84.25
aa(lp350
F99.5
aF99.5
aF99.5
aF99.5
aF99.5
aa(lp351
F95.5
aF90.0
aF90.0
aF90.0
aF90.0
aa(lp352
F84.75
aF84.75
aF84.75
aF84.75
aF84.75
aa(lp353
F101.0
aF83.5
aF83.5
aF83.5
aF83.5
aa(lp354
F102.0
aF80.5
aF80.5
aF80.5
aF80.5
aa(lp355
F94.5
aF94.5
aF94.5
aF94.5
aF94.5
aa(lp356
F94.25
aF81.5
aF81.5
aF81.5
aF81.5
aa(lp357
F93.0
aF93.0
aF93.0
aF93.0
aF93.0
aa(lp358
F101.25
aF81.0
aF81.0
aF81.0
aF81.0
aa(lp359
F90.0
aF81.25
aF81.25
aF81.5
aF81.25
aa(lp360
F101.25
aF80.5
aF80.5
aF80.5
aF80.5
aa(lp361
F91.25
aF82.0
aF82.0
aF82.0
aF82.0
aa(lp362
F95.5
aF95.5
aF95.5
aF95.5
aF95.5
aa(lp363
F91.25
aF91.25
aF91.25
aF91.25
aF91.25
aa(lp364
F102.0
aF80.25
aF80.25
aF91.0
aF80.25
aa(lp365
F91.75
aF80.0
aF80.0
aF80.0
aF80.0
aa(lp366
F94.25
aF80.25
aF80.25
aF80.25
aF80.25
aa(lp367
F99.0
aF83.25
aF83.25
aF83.25
aF83.25
aa(lp368
F101.25
aF81.5
aF81.5
aF81.5
aF81.5
aa(lp369
F99.25
aF80.25
aF80.25
aF80.25
aF80.25
aa(lp370
F96.25
aF96.25
aF96.25
aF96.25
aF96.25
aa(lp371
F95.75
aF80.75
aF80.75
aF80.75
aF80.75
aa(lp372
F101.0
aF80.5
aF80.5
aF80.5
aF80.5
aa(lp373
F102.0
aF80.75
aF80.75
aF80.75
aF80.75
aa(lp374
F100.0
aF100.0
aF100.0
aF100.0
aF100.0
aa(lp375
F99.75
aF100.5
aF100.5
aF100.5
aF100.5
aa(lp376
F92.0
aF80.75
aF80.75
aF80.75
aF80.75
aa(lp377
F96.0
aF82.0
aF82.0
aF82.0
aF82.0
aa(lp378
F97.5
aF80.25
aF80.25
aF80.25
aF80.25
aa(lp379
F88.75
aF84.5
aF84.5
aF84.5
aF84.5
aa(lp380
F99.75
aF84.25
aF84.25
aF84.25
aF84.25
aa(lp381
F85.0
aF85.0
aF85.0
aF85.0
aF85.0
aa(lp382
F98.5
aF80.75
aF80.75
aF80.75
aF80.75
aa(lp383
F101.25
aF101.25
aF101.25
aF101.25
aF101.25
aa(lp384
F98.25
aF81.0
aF81.0
aF81.0
aF81.0
aa(lp385
F87.25
aF94.25
aF94.25
aF94.25
aF94.25
aa(lp386
F93.75
aF82.0
aF82.0
aF82.0
aF82.0
aa(lp387
F93.5
aF80.0
aF80.0
aF80.0
aF80.0
aa(lp388
F98.75
aF80.5
aF80.5
aF80.5
aF80.5
aa(lp389
F102.0
aF102.0
aF102.0
aF102.0
aF102.0
aa(lp390
F96.25
aF80.25
aF80.25
aF80.25
aF80.25
aa(lp391
F96.5
aF94.5
aF94.5
aF94.5
aF94.5
aa(lp392
F91.5
aF81.0
aF81.0
aF81.0
aF81.0
aa(lp393
F89.5
aF82.0
aF82.0
aF82.0
aF82.0
aa(lp394
F89.5
aF81.0
aF81.0
aF81.0
aF81.0
aa(lp395
F93.75
aF81.5
aF81.5
aF81.5
aF90.75
aa(lp396
F84.5
aF80.25
aF80.25
aF80.25
aF80.25
aa(lp397
F101.0
aF80.0
aF80.0
aF80.0
aF80.0
aa(lp398
F95.5
aF81.5
aF81.5
aF81.5
aF81.5
aa(lp399
F101.5
aF101.5
aF101.5
aF101.5
aF101.5
aa(lp400
F88.75
aF81.0
aF81.0
aF81.0
aF81.0
aa(lp401
F100.0
aF100.0
aF100.0
aF100.0
aF100.0
aa(lp402
F98.25
aF80.25
aF80.25
aF80.25
aF80.25
aa(lp403
F97.25
aF83.5
aF83.5
aF90.0
aF83.5
aa(lp404
F95.75
aF82.75
aF82.75
aF82.75
aF82.75
aa(lp405
F83.0
aF81.75
aF81.75
aF81.75
aF81.75
aa(lp406
F95.0
aF84.25
aF84.25
aF84.25
aF84.25
aa(lp407
F92.5
aF82.5
aF82.5
aF82.5
aF82.5
aa(lp408
F92.25
aF85.5
aF85.5
aF85.5
aF85.5
aa(lp409
F93.25
aF81.5
aF81.5
aF81.5
aF81.5
aa(lp410
F99.5
aF81.25
aF81.25
aF81.25
aF81.25
aa(lp411
F92.0
aF85.5
aF85.5
aF85.5
aF85.5
aa(lp412
F97.75
aF97.75
aF97.75
aF97.75
aF97.75
aa(lp413
F90.0
aF90.0
aF86.0
aF90.0
aF90.0
aa(lp414
F94.75
aF84.75
aF84.75
aF84.75
aF84.75
aa(lp415
F98.0
aF81.0
aF81.0
aF81.0
aF81.0
aa(lp416
F88.0
aF80.25
aF80.25
aF80.25
aF80.25
aa(lp417
F99.0
aF81.75
aF81.75
aF81.75
aF81.75
aa(lp418
F96.0
aF82.5
aF82.5
aF82.5
aF82.5
aa(lp419
F95.0
aF81.0
aF81.0
aF81.0
aF81.0
aa(lp420
F95.0
aF95.0
aF95.0
aF95.0
aF95.0
aa(lp421
F96.75
aF80.75
aF80.75
aF80.75
aF80.75
aa(lp422
F90.0
aF80.25
aF80.25
aF80.25
aF80.25
aa(lp423
F82.5
aF80.0
aF80.0
aF80.0
aF80.0
aa(lp424
F93.0
aF80.5
aF80.5
aF80.5
aF80.5
aa(lp425
F95.5
aF89.0
aF89.0
aF89.0
aF89.0
aa(lp426
F93.25
aF80.0
aF80.0
aF80.0
aF80.0
aa(lp427
F99.75
aF81.25
aF81.25
aF81.25
aF81.25
aa(lp428
F98.0
aF80.75
aF80.75
aF80.75
aF80.75
aa(lp429
F92.0
aF80.0
aF80.0
aF80.0
aF80.0
aa(lp430
F93.5
aF81.5
aF81.5
aF81.5
aF81.5
aa(lp431
F101.25
aF82.75
aF82.75
aF82.75
aF82.75
aa(lp432
F95.25
aF80.0
aF80.0
aF80.0
aF80.0
aa(lp433
F100.25
aF80.0
aF80.0
aF80.0
aF80.0
aa(lp434
F90.25
aF80.75
aF80.75
aF80.75
aF80.75
aa(lp435
F99.5
aF82.0
aF82.0
aF82.0
aF82.0
aa(lp436
F101.0
aF83.25
aF83.25
aF83.25
aF83.25
aa(lp437
F95.5
aF81.0
aF81.0
aF81.0
aF81.0
aa(lp438
F90.5
aF80.75
aF80.75
aF80.75
aF80.75
aa(lp439
F98.25
aF80.25
aF80.25
aF80.25
aF80.25
aa(lp440
F84.75
aF84.75
aF84.75
aF84.75
aF84.75
aa(lp441
F98.75
aF98.75
aF98.75
aF98.75
aF98.75
aa(lp442
F84.0
aF84.0
aF84.0
aF84.0
aF84.0
aa(lp443
F92.75
aF80.75
aF80.75
aF80.75
aF80.75
aa(lp444
F93.5
aF84.0
aF84.0
aF84.0
aF84.0
aa(lp445
F101.0
aF81.0
aF81.0
aF81.0
aF81.0
aa(lp446
F96.0
aF82.0
aF82.0
aF82.0
aF82.0
aa(lp447
F92.75
aF80.0
aF80.0
aF80.0
aF80.0
aa(lp448
F86.0
aF86.0
aF86.0
aF86.0
aF86.0
aa(lp449
F86.5
aF80.25
aF80.25
aF80.25
aF80.25
aa(lp450
F91.0
aF80.5
aF80.5
aF80.5
aF80.5
aa(lp451
F101.0
aF101.0
aF101.0
aF101.0
aF101.0
aa(lp452
F94.75
aF80.0
aF80.0
aF80.0
aF80.0
aa(lp453
F96.0
aF80.75
aF80.75
aF80.75
aF80.75
aa(lp454
F101.75
aF81.75
aF81.75
aF81.75
aF81.75
aa(lp455
F96.5
aF96.5
aF96.5
aF96.5
aF96.5
aa(lp456
F99.25
aF80.0
aF80.0
aF80.0
aF80.0
aa(lp457
F90.0
aF90.0
aF90.0
aF90.0
aF90.0
aa(lp458
F98.0
aF82.75
aF82.75
aF82.75
aF82.75
aa(lp459
F101.25
aF84.25
aF84.25
aF84.25
aF84.25
aa(lp460
F100.25
aF80.25
aF80.25
aF80.25
aF80.25
aa(lp461
F97.5
aF97.5
aF97.5
aF97.5
aF97.5
aa(lp462
F100.75
aF81.0
aF81.0
aF81.0
aF81.0
aa(lp463
F86.25
aF80.25
aF80.25
aF80.25
aF80.25
aa(lp464
F98.5
aF80.5
aF80.5
aF80.5
aF80.5
aa(lp465
F95.25
aF95.25
aF95.25
aF95.25
aF95.25
aa(lp466
F95.25
aF80.5
aF80.5
aF80.5
aF80.5
aa(lp467
F96.75
aF84.5
aF84.5
aF84.5
aF84.5
aa(lp468
F93.75
aF80.25
aF80.25
aF80.25
aF80.25
aa(lp469
F95.25
aF84.25
aF84.25
aF84.25
aF84.25
aa(lp470
F94.5
aF80.25
aF80.25
aF80.25
aF80.25
aa(lp471
F101.0
aF80.5
aF80.5
aF80.5
aF80.5
aa(lp472
F101.0
aF101.0
aF101.0
aF101.0
aF101.0
aa(lp473
F98.25
aF81.25
aF81.25
aF81.25
aF81.25
aa(lp474
F92.75
aF80.0
aF80.0
aF80.0
aF80.0
aa(lp475
F93.0
aF82.75
aF82.75
aF82.75
aF82.75
aa(lp476
F93.25
aF82.25
aF82.25
aF82.25
aF82.25
aa(lp477
F92.0
aF81.0
aF81.0
aF81.0
aF81.0
aa(lp478
F86.0
aF86.0
aF86.0
aF86.0
aF86.0
aa(lp479
F92.25
aF82.25
aF82.25
aF82.25
aF82.25
aa(lp480
F97.5
aF97.5
aF97.5
aF97.5
aF97.5
aa(lp481
F101.0
aF84.75
aF84.75
aF84.75
aF84.75
aa(lp482
F93.75
aF80.75
aF80.75
aF80.75
aF80.75
aa(lp483
F90.0
aF80.25
aF80.25
aF80.25
aF80.25
aa(lp484
F99.5
aF99.5
aF99.5
aF99.5
aF99.5
aa(lp485
F85.75
aF85.75
aF85.75
aF85.75
aF85.75
aa(lp486
F87.0
aF87.0
aF87.0
aF87.0
aF87.0
aa(lp487
F100.5
aF81.25
aF81.25
aF81.25
aF85.0
aa(lp488
F84.25
aF84.25
aF84.25
aF84.25
aF84.25
aa(lp489
F90.25
aF81.5
aF81.5
aF81.5
aF81.5
aa(lp490
F97.5
aF83.5
aF83.5
aF83.5
aF83.5
aa(lp491
F96.0
aF80.5
aF80.5
aF80.5
aF80.5
aa(lp492
F92.0
aF82.0
aF82.0
aF82.0
aF82.0
aa(lp493
F98.25
aF81.5
aF81.5
aF81.5
aF81.5
aa(lp494
F98.0
aF81.5
aF81.5
aF81.5
aF81.5
aa(lp495
F81.5
aF80.5
aF80.5
aF80.5
aF80.5
aa(lp496
F98.5
aF83.25
aF83.25
aF83.25
aF83.25
aa(lp497
F97.0
aF97.0
aF97.0
aF97.0
aF97.0
aa(lp498
F98.5
aF80.0
aF80.0
aF80.0
aF80.0
aa(lp499
F95.5
aF95.5
aF95.5
aF95.5
aF95.5
aa(lp500
F82.5
aF81.25
aF81.25
aF81.25
aF81.25
aa(lp501
F98.5
aF82.25
aF82.25
aF82.25
aF82.25
aa(lp502
F102.0
aF102.0
aF102.0
aF102.0
aF102.0
aa(lp503
F100.5
aF81.0
aF81.0
aF81.0
aF81.0
aa(lp504
F94.5
aF80.0
aF80.0
aF80.0
aF80.0
aa(lp505
F89.5
aF80.25
aF80.25
aF80.25
aF80.25
aa(lp506
F99.0
aF80.25
aF80.25
aF80.25
aF80.25
aa(lp507
F93.25
aF82.25
aF82.25
aF82.25
aF82.25
aa(lp508
F85.0
aF85.0
aF85.0
aF85.0
aF85.0
aa(lp509
F87.25
aF81.0
aF81.0
aF81.0
aF81.0
aa(lp510
F92.5
aF81.75
aF81.75
aF81.75
aF81.75
aa(lp511
F101.75
aF91.0
aF80.25
aF80.25
aF80.25
aa(lp512
F98.75
aF81.0
aF81.0
aF81.0
aF81.0
aa(lp513
F95.25
aF80.0
aF80.0
aF80.0
aF80.0
aa(lp514
F81.75
aF80.0
aF80.0
aF80.0
aF80.0
aa(lp515
F92.5
aF80.0
aF80.0
aF80.0
aF80.0
aa(lp516
F87.5
aF87.5
aF87.5
aF87.5
aF87.5
aa(lp517
F90.75
aF83.25
aF83.25
aF83.25
aF83.25
aa(lp518
F93.0
aF81.75
aF81.75
aF81.75
aF81.75
aa(lp519
F101.0
aF80.5
aF80.5
aF80.5
aF80.5
aa(lp520
F90.75
aF80.25
aF80.25
aF86.5
aF80.25
aa(lp521
F98.25
aF82.25
aF82.25
aF82.25
aF82.25
aa(lp522
F91.25
aF80.25
aF80.25
aF80.25
aF80.25
aa(lp523
F96.5
aF81.0
aF81.0
aF81.0
aF81.0
aa(lp524
F97.25
aF80.0
aF80.0
aF80.0
aF80.0
aa(lp525
F94.25
aF80.5
aF80.5
aF80.5
aF80.5
aa(lp526
F102.0
aF81.0
aF81.0
aF81.0
aF81.0
aa(lp527
F95.25
aF82.0
aF82.0
aF82.0
aF82.0
aa(lp528
F95.0
aF82.5
aF82.5
aF82.5
aF82.5
aa(lp529
F98.75
aF80.25
aF80.25
aF80.25
aF80.25
aa(lp530
F97.5
aF97.5
aF97.5
aF97.5
aF97.5
aa(lp531
F90.75
aF80.25
aF80.25
aF80.25
aF80.25
aa(lp532
F97.5
aF82.5
aF82.5
aF82.5
aF82.5
aa(lp533
F101.5
aF80.25
aF80.25
aF80.25
aF80.25
aa(lp534
F99.75
aF85.0
aF85.0
aF85.0
aF85.0
aa(lp535
F100.5
aF82.75
aF82.75
aF82.75
aF82.75
aa(lp536
F96.5
aF96.5
aF96.5
aF96.5
aF96.5
aa(lp537
F89.75
aF89.75
aF89.75
aF89.75
aF89.75
aa(lp538
F90.5
aF82.75
aF82.75
aF82.75
aF82.75
aa(lp539
F100.25
aF81.75
aF81.75
aF81.75
aF81.75
aa(lp540
F83.5
aF83.5
aF83.5
aF83.5
aF83.5
aa(lp541
F90.75
aF93.0
aF90.75
aF90.75
aF90.75
aa(lp542
F99.0
aF82.75
aF82.75
aF82.75
aF82.75
aa(lp543
F88.25
aF80.5
aF80.5
aF80.5
aF80.5
aa(lp544
F100.5
aF80.25
aF80.25
aF80.25
aF80.25
aa(lp545
F97.5
aF80.0
aF80.0
aF80.0
aF80.0
aa(lp546
F93.75
aF81.5
aF81.5
aF81.5
aF81.5
aa(lp547
F86.0
aF86.0
aF86.0
aF86.0
aF86.0
aa(lp548
F99.5
aF99.5
aF99.5
aF99.5
aF99.5
aa(lp549
F89.5
aF83.75
aF83.75
aF83.75
aF83.75
aa(lp550
F86.0
aF80.0
aF80.0
aF80.0
aF80.0
aa(lp551
F96.25
aF80.75
aF80.75
aF80.75
aF80.75
aa(lp552
F91.5
aF81.75
aF81.75
aF81.75
aF81.75
aa(lp553
F95.5
aF82.75
aF82.75
aF82.75
aF82.75
aa(lp554
F97.25
aF97.25
aF97.25
aF97.25
aF97.25
aa(lp555
F98.25
aF82.75
aF82.75
aF82.75
aF82.75
aa(lp556
F99.0
aF83.25
aF83.25
aF83.25
aF83.25
aa(lp557
F94.5
aF80.75
aF80.75
aF80.75
aF80.75
aa(lp558
F90.75
aF80.0
aF80.0
aF80.0
aF80.0
aa(lp559
F97.75
aF82.0
aF82.0
aF82.0
aF82.0
aa(lp560
F91.25
aF81.25
aF81.25
aF81.25
aF81.25
aa(lp561
F94.5
aF88.5
aF88.5
aF88.5
aF88.5
aa(lp562
F99.25
aF85.5
aF85.5
aF85.5
aF85.5
aa(lp563
F89.0
aF89.0
aF89.0
aF89.0
aF89.0
aa(lp564
F97.25
aF80.0
aF80.0
aF80.0
aF80.0
aa(lp565
F85.75
aF80.75
aF80.75
aF80.75
aF80.75
aa(lp566
F99.5
aF80.75
aF80.75
aF80.75
aF80.75
aa(lp567
F94.5
aF83.5
aF83.5
aF83.5
aF83.5
aa(lp568
F93.0
aF80.0
aF80.0
aF80.0
aF80.0
aa(lp569
F97.0
aF97.0
aF97.0
aF97.0
aF97.0
aa(lp570
F92.0
aF84.25
aF84.25
aF84.25
aF84.25
aa(lp571
F100.5
aF80.0
aF80.0
aF80.0
aF80.0
aa(lp572
F90.25
aF80.25
aF80.25
aF80.25
aF80.25
aa(lp573
F90.5
aF81.0
aF81.0
aF81.0
aF81.0
aa(lp574
F91.25
aF80.0
aF80.0
aF80.0
aF80.0
aa(lp575
F101.75
aF101.75
aF101.75
aF101.75
aF101.75
aa(lp576
F90.75
aF80.0
aF80.0
aF80.0
aF80.0
aa(lp577
F88.0
aF80.25
aF80.25
aF80.25
aF80.25
aa(lp578
F88.25
aF88.25
aF88.25
aF88.25
aF88.25
aa(lp579
F90.5
aF90.5
aF90.5
aF90.5
aF90.5
aa(lp580
F101.5
aF81.0
aF81.0
aF81.0
aF81.0
aa(lp581
F91.0
aF91.0
aF91.0
aF91.0
aF91.0
aa(lp582
F100.5
aF80.25
aF80.25
aF80.25
aF80.25
aa(lp583
F98.25
aF81.5
aF81.5
aF81.5
aF81.5
aa(lp584
F86.75
aF80.0
aF80.0
aF80.0
aF80.0
aa(lp585
F90.5
aF81.25
aF81.25
aF81.25
aF81.25
aa(lp586
F91.75
aF83.25
aF83.25
aF83.25
aF83.25
aa(lp587
F98.25
aF81.75
aF81.75
aF81.75
aF81.75
aa(lp588
F95.5
aF81.75
aF81.75
aF81.75
aF81.75
aa(lp589
F86.75
aF86.75
aF86.75
aF86.75
aF86.75
aa(lp590
F93.75
aF80.75
aF80.75
aF80.75
aF80.75
aa(lp591
F92.5
aF81.75
aF81.75
aF81.75
aF81.75
aa(lp592
F89.75
aF80.0
aF80.0
aF80.0
aF80.0
aa(lp593
F100.0
aF81.75
aF81.75
aF81.75
aF81.75
aa(lp594
F88.25
aF80.75
aF80.75
aF80.75
aF80.75
aa(lp595
F91.75
aF91.75
aF91.75
aF91.75
aF91.75
aa(lp596
F91.75
aF81.0
aF81.0
aF81.0
aF81.0
aa(lp597
F95.5
aF80.5
aF80.5
aF80.5
aF80.5
aa(lp598
F101.25
aF101.25
aF101.25
aF101.25
aF101.25
aa(lp599
F84.5
aF80.5
aF80.5
aF80.5
aF80.5
aa(lp600
F98.5
aF80.25
aF80.25
aF80.25
aF80.25
aa(lp601
F96.5
aF80.75
aF80.75
aF80.75
aF80.75
aa(lp602
F91.5
aF94.0
aF94.0
aF94.0
aF94.0
aa(lp603
F89.0
aF81.5
aF81.5
aF81.5
aF81.5
aa(lp604
F89.5
aF80.25
aF80.25
aF80.25
aF80.25
aa(lp605
F86.5
aF86.5
aF86.5
aF86.5
aF86.5
aa(lp606
F102.0
aF102.0
aF102.0
aF95.25
aF102.0
aa(lp607
F93.75
aF80.25
aF80.25
aF80.25
aF80.25
aa(lp608
F94.75
aF94.75
aF94.75
aF94.75
aF94.75
aa(lp609
F89.0
aF89.0
aF89.0
aF89.0
aF89.0
aa(lp610
F92.0
aF92.0
aF92.0
aF92.0
aF92.0
aa(lp611
F102.0
aF80.25
aF80.25
aF80.25
aF80.25
aa(lp612
F87.75
aF80.0
aF80.0
aF80.0
aF80.0
aa(lp613
F101.0
aF83.5
aF83.5
aF83.5
aF83.5
aa(lp614
F96.25
aF96.25
aF96.25
aF96.25
aF96.25
aa(lp615
F96.75
aF90.0
aF82.25
aF82.25
aF82.25
aa(lp616
F99.25
aF99.25
aF99.25
aF99.25
aF99.25
aa(lp617
F101.75
aF101.75
aF101.75
aF101.75
aF101.75
aa(lp618
F95.75
aF80.25
aF80.25
aF80.25
aF80.25
aa(lp619
F91.5
aF91.5
aF91.5
aF91.5
aF91.5
aa(lp620
F93.75
aF82.75
aF82.75
aF82.75
aF82.75
aa(lp621
F91.75
aF91.75
aF91.75
aF91.75
aF91.75
aa(lp622
F86.5
aF86.5
aF86.5
aF86.5
aF86.5
aa(lp623
F87.5
aF80.25
aF80.25
aF80.25
aF80.25
aa(lp624
F88.25
aF82.75
aF82.75
aF82.75
aF82.75
aa(lp625
F89.25
aF82.75
aF82.75
aF82.75
aF82.75
aa(lp626
F96.75
aF80.5
aF80.5
aF80.5
aF80.5
aa(lp627
F96.25
aF81.75
aF81.75
aF81.75
aF81.75
aa(lp628
F99.0
aF80.0
aF80.0
aF80.0
aF80.0
aa(lp629
F92.25
aF80.5
aF80.5
aF80.5
aF80.5
aa(lp630
F88.25
aF81.0
aF81.0
aF81.0
aF81.0
aa(lp631
F97.25
aF80.75
aF80.75
aF80.75
aF80.75
aa(lp632
F98.75
aF82.5
aF82.5
aF82.5
aF82.5
aa(lp633
F85.5
aF80.75
aF80.75
aF80.75
aF80.75
aa(lp634
F98.75
aF82.75
aF82.75
aF82.75
aF82.75
aa(lp635
F100.5
aF100.5
aF100.5
aF100.5
aF100.5
aa(lp636
F97.0
aF80.25
aF80.25
aF80.25
aF80.25
aa(lp637
F93.5
aF89.75
aF89.75
aF89.75
aF89.75
aa(lp638
F95.0
aF83.0
aF83.0
aF83.0
aF83.0
aa(lp639
F86.75
aF86.75
aF86.75
aF86.75
aF86.75
aa(lp640
F98.25
aF98.25
aF98.25
aF98.25
aF98.25
aa(lp641
F87.0
aF81.25
aF81.25
aF81.25
aF81.25
aa(lp642
F100.25
aF81.0
aF81.0
aF81.0
aF81.0
aa(lp643
F102.0
aF80.0
aF80.0
aF80.0
aF80.0
aa(lp644
F95.5
aF82.5
aF82.5
aF82.5
aF82.5
aa(lp645
F94.75
aF85.0
aF85.0
aF85.0
aF85.0
aa(lp646
F95.0
aF95.0
aF95.0
aF95.0
aF95.0
aa(lp647
F87.5
aF87.5
aF87.5
aF87.5
aF87.5
aa(lp648
F83.25
aF83.25
aF83.25
aF83.25
aF83.25
aa(lp649
F98.5
aF87.75
aF87.75
aF87.75
aF87.75
aa(lp650
F93.0
aF80.0
aF80.0
aF80.0
aF80.0
aa(lp651
F102.0
aF81.0
aF81.0
aF81.0
aF81.0
aa(lp652
F90.5
aF97.0
aF97.0
aF97.0
aF88.25
aa(lp653
F92.5
aF81.0
aF81.0
aF81.0
aF81.0
aa(lp654
F93.25
aF83.5
aF83.5
aF83.5
aF83.5
aa(lp655
F96.75
aF96.75
aF96.75
aF96.75
aF96.75
aa(lp656
F99.5
aF80.75
aF80.75
aF80.75
aF80.75
aa(lp657
F91.5
aF84.5
aF84.5
aF84.5
aF84.5
aa(lp658
F100.5
aF80.0
aF80.0
aF80.0
aF80.0
aa(lp659
F84.5
aF81.0
aF81.0
aF81.0
aF81.0
aa(lp660
F80.0
aF80.0
aF80.0
aF80.0
aF80.0
aa(lp661
F100.75
aF81.0
aF81.0
aF81.0
aF81.0
aa(lp662
F87.75
aF80.25
aF80.25
aF80.25
aF80.25
aa(lp663
F100.75
aF86.0
aF86.0
aF86.0
aF86.0
aa(lp664
F99.25
aF80.25
aF80.25
aF80.25
aF80.25
aa(lp665
F82.0
aF82.0
aF82.0
aF82.0
aF82.0
aa(lp666
F100.5
aF83.75
aF83.75
aF83.75
aF83.75
aa(lp667
F93.5
aF80.25
aF80.25
aF80.25
aF80.25
aa(lp668
F102.0
aF83.0
aF83.0
aF83.0
aF83.0
aa(lp669
F93.0
aF88.0
aF94.0
aF94.0
aF94.0
aa(lp670
F89.0
aF89.0
aF89.0
aF89.0
aF89.0
aa(lp671
F95.75
aF80.25
aF80.25
aF80.25
aF80.25
aa(lp672
F84.5
aF81.0
aF81.0
aF81.0
aF81.0
aa(lp673
F98.5
aF81.0
aF81.0
aF81.0
aF81.0
aa(lp674
F96.75
aF85.75
aF85.75
aF85.75
aF85.75
aa(lp675
F100.5
aF82.75
aF82.75
aF82.75
aF82.75
aa(lp676
F92.0
aF81.0
aF81.0
aF81.0
aF81.0
aa(lp677
F94.25
aF81.0
aF81.0
aF81.0
aF81.0
aa(lp678
F87.25
aF87.25
aF87.25
aF87.25
aF87.25
aa(lp679
F92.25
aF81.0
aF81.0
aF81.0
aF81.0
aa(lp680
F91.25
aF83.75
aF83.75
aF83.75
aF83.75
aa(lp681
F92.75
aF80.0
aF80.0
aF80.0
aF80.0
aa(lp682
F87.0
aF87.0
aF87.0
aF87.0
aF87.0
aa(lp683
F84.75
aF84.75
aF84.75
aF84.75
aF84.75
aa(lp684
F97.25
aF80.5
aF80.5
aF80.5
aF80.5
aa(lp685
F101.25
aF80.0
aF80.0
aF80.0
aF80.0
aa(lp686
F96.75
aF80.0
aF80.0
aF80.0
aF80.0
aa(lp687
F102.0
aF84.5
aF84.5
aF84.5
aF84.5
aa(lp688
F93.25
aF82.5
aF82.5
aF82.5
aF82.5
aa(lp689
F92.5
aF80.0
aF80.0
aF80.0
aF80.0
aa(lp690
F93.75
aF83.0
aF83.0
aF83.0
aF83.0
aa(lp691
F100.25
aF100.25
aF100.25
aF100.25
aF100.25
aa(lp692
F95.0
aF80.0
aF80.0
aF80.0
aF80.0
aa(lp693
F95.5
aF82.25
aF82.25
aF82.25
aF82.25
aa(lp694
F93.5
aF93.5
aF93.5
aF93.5
aF93.5
aa(lp695
F97.25
aF97.25
aF97.25
aF97.25
aF97.25
aa(lp696
F100.5
aF100.5
aF100.5
aF100.5
aF100.5
aa(lp697
F86.5
aF86.5
aF86.5
aF86.5
aF86.5
aa(lp698
F101.0
aF101.0
aF101.0
aF101.0
aF101.0
aa(lp699
F96.75
aF80.0
aF80.0
aF80.0
aF80.0
aa(lp700
F99.5
aF80.5
aF80.5
aF80.5
aF80.5
aa(lp701
F91.25
aF81.75
aF81.75
aF81.75
aF81.75
aa(lp702
F99.25
aF80.75
aF80.75
aF80.75
aF80.75
aa(lp703
F96.5
aF96.5
aF96.5
aF96.5
aF96.5
aa(lp704
F99.75
aF82.5
aF82.5
aF82.5
aF82.5
aa(lp705
F98.75
aF82.5
aF82.5
aF82.5
aF82.5
aa(lp706
F92.25
aF81.0
aF81.0
aF81.0
aF81.0
aa(lp707
F92.75
aF80.0
aF80.0
aF80.0
aF80.0
aa(lp708
F84.0
aF84.0
aF84.0
aF84.0
aF84.0
aa(lp709
F95.5
aF81.25
aF81.25
aF81.25
aF81.25
aa(lp710
F95.5
aF80.25
aF80.25
aF80.25
aF80.25
aa(lp711
F100.75
aF84.0
aF84.0
aF84.0
aF98.25
aa(lp712
F87.5
aF87.5
aF87.5
aF87.5
aF80.0
aa(lp713
F97.25
aF80.0
aF80.0
aF80.0
aF80.0
aa(lp714
F99.5
aF99.5
aF99.5
aF99.5
aF99.5
aa(lp715
F101.25
aF82.25
aF82.25
aF82.25
aF82.25
aa(lp716
F99.75
aF82.5
aF82.5
aF82.5
aF82.5
aa(lp717
F89.5
aF81.75
aF81.75
aF81.75
aF81.75
aa(lp718
F91.75
aF81.25
aF81.25
aF81.25
aF81.25
aa(lp719
F93.5
aF102.0
aF84.0
aF84.0
aF84.0
aa(lp720
F97.0
aF80.0
aF80.0
aF80.0
aF80.0
aa(lp721
F93.25
aF80.0
aF80.0
aF80.0
aF80.0
aa(lp722
F92.0
aF80.25
aF80.25
aF80.25
aF80.25
aa(lp723
F96.75
aF80.0
aF80.0
aF80.0
aF80.0
aa(lp724
F91.75
aF80.75
aF80.75
aF80.75
aF80.75
aa(lp725
F101.25
aF80.75
aF80.75
aF80.75
aF80.75
aa(lp726
F100.25
aF81.75
aF81.75
aF81.75
aF81.75
aa(lp727
F102.0
aF82.25
aF82.25
aF82.25
aF82.25
aa(lp728
F101.5
aF81.75
aF81.75
aF81.75
aF81.75
aa(lp729
F91.0
aF91.0
aF91.0
aF91.0
aF91.0
aa(lp730
F94.5
aF81.25
aF81.25
aF81.25
aF81.25
aa(lp731
F95.0
aF95.0
aF95.0
aF95.0
aF95.0
aa(lp732
F100.5
aF100.5
aF100.5
aF100.5
aF100.5
aa(lp733
F82.5
aF82.5
aF82.5
aF82.5
aF82.5
aa(lp734
F94.25
aF80.5
aF80.5
aF80.5
aF80.5
aa(lp735
F98.0
aF98.0
aF98.0
aF98.0
aF98.0
aa(lp736
F99.0
aF90.75
aF90.75
aF90.75
aF90.75
aa(lp737
F95.25
aF95.25
aF95.25
aF95.25
aF95.25
aa(lp738
F99.25
aF99.25
aF99.25
aF99.25
aF99.25
aa(lp739
F98.75
aF80.75
aF80.75
aF80.75
aF80.75
aa(lp740
F91.0
aF80.0
aF80.0
aF80.0
aF80.0
aa(lp741
F95.75
aF95.75
aF95.75
aF95.75
aF95.75
aa(lp742
F99.0
aF81.5
aF81.5
aF81.5
aF81.5
aa(lp743
F101.5
aF80.5
aF80.5
aF80.5
aF80.5
aa(lp744
F87.0
aF87.0
aF87.0
aF87.0
aF87.0
aa(lp745
F100.5
aF81.0
aF81.0
aF81.0
aF81.0
aa(lp746
F94.75
aF94.75
aF94.75
aF94.75
aF94.75
aa(lp747
F98.5
aF80.5
aF80.5
aF80.5
aF80.5
aa(lp748
F86.25
aF80.75
aF80.75
aF80.75
aF80.75
aa(lp749
F102.0
aF83.0
aF83.0
aF83.0
aF83.0
aa(lp750
F96.5
aF96.5
aF96.5
aF96.5
aF96.5
aa(lp751
F96.5
aF80.25
aF80.25
aF80.25
aF80.25
aa(lp752
F99.5
aF83.0
aF83.0
aF83.0
aF83.0
aa(lp753
F99.5
aF82.0
aF82.0
aF82.0
aF82.0
aa(lp754
F84.75
aF80.75
aF80.75
aF80.75
aF80.75
aa(lp755
F92.25
aF92.25
aF92.25
aF92.25
aF98.25
aa(lp756
F100.5
aF80.0
aF80.0
aF80.0
aF80.0
aa(lp757
F89.75
aF80.5
aF80.5
aF80.5
aF80.5
aa(lp758
F99.0
aF99.0
aF99.0
aF99.0
aF99.0
aa(lp759
F93.5
aF80.75
aF80.75
aF80.75
aF80.75
aa(lp760
F80.5
aF80.5
aF80.5
aF80.5
aF80.5
aa(lp761
F95.0
aF80.75
aF80.75
aF80.75
aF80.75
aa(lp762
F87.75
aF87.75
aF87.75
aF87.75
aF87.75
aa(lp763
F91.5
aF91.5
aF91.5
aF91.5
aF91.5
aa(lp764
F89.75
aF80.0
aF80.0
aF80.0
aF80.0
aa(lp765
F101.0
aF83.25
aF83.25
aF83.25
aF83.25
aa(lp766
F97.75
aF80.0
aF80.0
aF80.0
aF80.0
aa(lp767
F89.25
aF80.25
aF80.25
aF80.25
aF80.25
aa(lp768
F90.75
aF80.0
aF80.0
aF80.0
aF80.0
aa(lp769
F86.5
aF86.5
aF86.5
aF86.5
aF86.5
aa(lp770
F96.5
aF80.25
aF80.25
aF80.25
aF80.25
aa(lp771
F100.5
aF80.75
aF80.75
aF80.75
aF80.75
aa(lp772
F87.75
aF80.0
aF80.0
aF80.0
aF80.0
aa(lp773
F99.25
aF81.0
aF81.0
aF81.0
aF81.0
aa(lp774
F81.0
aF81.0
aF81.0
aF81.0
aF81.0
aa(lp775
F99.5
aF80.5
aF80.5
aF80.5
aF80.5
aa(lp776
F91.25
aF80.0
aF80.0
aF80.0
aF80.0
aa(lp777
F101.75
aF101.75
aF101.75
aF101.75
aF101.75
aa(lp778
F96.0
aF80.0
aF80.0
aF80.0
aF80.0
aa(lp779
F96.5
aF80.25
aF80.25
aF80.25
aF80.25
aa(lp780
F97.25
aF84.0
aF84.0
aF84.0
aF84.0
aa(lp781
F91.0
aF80.5
aF80.5
aF80.5
aF80.5
aa(lp782
F97.0
aF97.0
aF97.0
aF97.0
aF97.0
aa(lp783
F94.25
aF84.75
aF84.75
aF84.75
aF84.75
aa(lp784
F101.0
aF84.25
aF84.25
aF84.25
aF84.25
aa(lp785
F93.25
aF81.25
aF81.25
aF81.25
aF81.25
aa(lp786
F85.0
aF85.0
aF85.0
aF85.0
aF85.0
aa(lp787
F85.75
aF80.0
aF80.0
aF80.0
aF80.0
aa(lp788
F100.75
aF84.25
aF84.25
aF84.25
aF84.25
aa(lp789
F95.75
aF80.75
aF80.75
aF80.75
aF80.75
aa(lp790
F95.25
aF80.25
aF80.25
aF80.25
aF80.25
aa(lp791
F101.0
aF82.25
aF82.25
aF82.25
aF82.25
aa(lp792
F100.5
aF81.0
aF81.0
aF81.0
aF81.0
aa(lp793
F94.75
aF80.0
aF80.0
aF80.0
aF80.0
aa(lp794
F92.5
aF81.25
aF81.25
aF81.25
aF81.25
aa(lp795
F95.5
aF84.0
aF84.0
aF84.0
aF84.0
aa(lp796
F90.25
aF80.0
aF80.0
aF80.0
aF80.0
aa(lp797
F91.25
aF81.0
aF81.0
aF81.0
aF81.0
aa(lp798
F92.25
aF80.75
aF93.25
aF80.75
aF80.75
aa(lp799
F101.25
aF91.25
aF91.25
aF91.25
aF91.25
aa(lp800
F89.75
aF80.25
aF80.25
aF80.25
aF80.25
aa(lp801
F90.5
aF82.25
aF82.25
aF82.25
aF82.25
aa(lp802
F98.0
aF98.0
aF98.0
aF98.0
aF98.0
aa(lp803
F99.5
aF99.5
aF99.5
aF99.5
aF99.5
aa(lp804
F95.75
aF80.0
aF80.0
aF80.0
aF80.0
aa(lp805
F93.75
aF80.75
aF80.75
aF80.75
aF80.75
aa(lp806
F95.0
aF80.75
aF80.75
aF80.75
aF80.75
aa(lp807
F98.75
aF80.5
aF80.5
aF80.5
aF80.5
aa(lp808
F92.5
aF92.5
aF92.5
aF92.5
aF92.5
aa(lp809
F85.25
aF80.5
aF80.5
aF80.5
aF80.5
aa(lp810
F97.0
aF80.5
aF80.5
aF80.5
aF80.5
aa(lp811
F96.0
aF80.5
aF80.5
aF80.5
aF80.5
aa(lp812
F95.25
aF80.5
aF80.5
aF80.5
aF80.5
aa(lp813
F96.75
aF81.25
aF81.25
aF81.25
aF81.25
aa(lp814
F86.5
aF84.75
aF84.75
aF84.75
aF84.75
aa(lp815
F91.75
aF80.25
aF80.25
aF80.25
aF80.25
aa(lp816
F97.5
aF91.25
aF91.25
aF91.25
aF91.25
aa(lp817
F80.0
aF80.0
aF80.0
aF80.0
aF80.0
aa(lp818
F86.5
aF83.0
aF83.0
aF83.0
aF83.0
aa(lp819
F87.5
aF80.25
aF80.25
aF80.25
aF80.25
aa(lp820
F99.25
aF83.0
aF83.0
aF83.0
aF83.0
aa(lp821
F101.5
aF91.75
aF91.75
aF91.75
aF91.75
aa(lp822
F94.75
aF82.25
aF82.25
aF82.25
aF82.25
aa(lp823
F94.75
aF84.75
aF84.75
aF84.75
aF84.75
aa(lp824
F86.5
aF82.0
aF82.0
aF82.0
aF82.0
aa(lp825
F89.75
aF97.25
aF80.0
aF80.0
aF80.0
aa(lp826
F100.5
aF81.0
aF81.0
aF81.0
aF81.0
aa(lp827
F92.25
aF80.75
aF80.75
aF80.75
aF80.75
aa(lp828
F99.25
aF80.0
aF80.0
aF80.0
aF80.0
aa(lp829
F100.75
aF83.25
aF83.25
aF83.25
aF83.25
aa(lp830
F85.25
aF81.25
aF81.25
aF81.25
aF81.25
aa(lp831
F100.75
aF81.5
aF81.5
aF81.5
aF81.5
aa(lp832
F91.25
aF80.0
aF80.0
aF80.0
aF80.0
aa(lp833
F84.25
aF84.25
aF84.25
aF84.25
aF84.25
aa(lp834
F92.25
aF92.25
aF92.25
aF92.25
aF92.25
aa(lp835
F89.0
aF82.25
aF82.25
aF82.25
aF82.25
aa(lp836
F98.5
aF80.5
aF80.5
aF80.5
aF80.5
aa(lp837
F92.5
aF80.25
aF80.25
aF80.25
aF80.25
aa(lp838
F92.75
aF83.75
aF83.75
aF83.75
aF83.75
aa(lp839
F87.0
aF80.5
aF80.5
aF80.5
aF80.5
aa(lp840
F99.75
aF80.5
aF80.5
aF80.5
aF80.5
aa(lp841
F85.5
aF80.5
aF80.5
aF80.5
aF80.5
aa(lp842
F88.5
aF81.0
aF81.0
aF81.0
aF81.0
aa(lp843
F99.0
aF80.0
aF80.0
aF80.0
aF80.0
aa(lp844
F94.0
aF80.25
aF80.25
aF80.25
aF80.25
aa(lp845
F94.0
aF94.0
aF94.0
aF94.0
aF94.0
aa(lp846
F99.25
aF88.0
aF88.0
aF88.0
aF88.0
aa(lp847
F100.75
aF80.0
aF80.0
aF80.0
aF80.0
aa(lp848
F100.5
aF80.5
aF80.5
aF80.5
aF80.5
aa(lp849
F96.75
aF81.25
aF81.25
aF81.25
aF81.25
aa(lp850
F100.5
aF81.0
aF81.0
aF81.0
aF81.0
aa(lp851
F87.5
aF84.75
aF84.75
aF84.75
aF84.75
aa(lp852
F83.0
aF82.25
aF82.25
aF82.25
aF82.25
aa(lp853
F100.0
aF100.0
aF100.0
aF100.0
aF100.0
aa(lp854
F102.0
aF81.0
aF81.0
aF90.25
aF81.0
aa(lp855
F85.0
aF81.25
aF81.25
aF81.25
aF81.25
aa(lp856
F87.5
aF80.25
aF80.25
aF80.25
aF80.25
aa(lp857
F100.0
aF80.75
aF80.75
aF80.75
aF80.75
aa(lp858
F83.5
aF95.75
aF95.75
aF95.75
aF95.75
aa(lp859
F84.5
aF80.75
aF80.75
aF80.75
aF80.75
aa(lp860
F95.75
aF83.25
aF83.25
aF83.25
aF83.25
aa(lp861
F85.5
aF94.0
aF94.0
aF94.0
aF94.0
aa(lp862
F89.5
aF89.5
aF89.5
aF89.5
aF89.5
aa(lp863
F92.0
aF83.25
aF83.25
aF83.25
aF83.25
aa(lp864
F100.25
aF80.25
aF80.25
aF80.25
aF80.25
aa(lp865
F84.75
aF84.75
aF84.75
aF84.75
aF84.75
aa(lp866
F88.0
aF88.0
aF88.0
aF88.0
aF88.0
aa(lp867
F91.5
aF83.5
aF83.5
aF83.5
aF83.5
aa(lp868
F80.75
aF80.75
aF80.75
aF80.75
aF80.75
aa(lp869
F99.25
aF99.25
aF99.25
aF99.25
aF99.25
aa(lp870
F90.0
aF81.5
aF96.75
aF81.5
aF81.5
aa(lp871
F89.5
aF81.5
aF81.5
aF81.5
aF81.5
aa(lp872
F93.75
aF80.5
aF80.5
aF80.5
aF80.5
aa(lp873
F98.25
aF80.25
aF80.25
aF91.75
aF80.25
aa(lp874
F92.75
aF82.5
aF82.5
aF82.5
aF82.5
aa(lp875
F85.25
aF80.0
aF80.0
aF80.0
aF80.0
aa(lp876
F90.25
aF81.25
aF81.25
aF81.25
aF81.25
aa(lp877
F92.5
aF92.5
aF92.5
aF80.75
aF92.5
aa(lp878
F97.75
aF80.0
aF80.0
aF80.0
aF80.0
aa(lp879
F89.5
aF80.75
aF80.75
aF80.75
aF80.75
aa(lp880
F88.0
aF88.0
aF88.0
aF88.0
aF88.0
aa(lp881
F92.5
aF92.5
aF92.5
aF92.5
aF93.5
aa(lp882
F100.5
aF82.5
aF82.5
aF82.5
aF82.5
aa(lp883
F90.75
aF87.75
aF87.75
aF87.75
aF87.75
aa(lp884
F84.0
aF80.75
aF80.75
aF80.75
aF80.75
aa(lp885
F90.0
aF84.5
aF84.5
aF84.5
aF84.5
aa(lp886
F94.0
aF80.25
aF80.25
aF80.25
aF80.25
aa(lp887
F97.25
aF80.0
aF80.0
aF80.0
aF80.0
aa(lp888
F93.25
aF80.25
aF80.25
aF80.25
aF80.25
aa(lp889
F96.5
aF84.5
aF84.5
aF84.5
aF84.5
aa(lp890
F87.0
aF80.5
aF80.5
aF80.5
aF80.5
aa(lp891
F85.75
aF80.5
aF80.5
aF80.5
aF80.5
aa(lp892
F93.75
aF93.75
aF93.75
aF93.75
aF93.75
aa(lp893
F91.75
aF80.25
aF80.25
aF80.25
aF80.25
aa(lp894
F86.5
aF86.5
aF86.5
aF86.5
aF86.5
aa(lp895
F94.25
aF80.0
aF80.0
aF80.0
aF80.0
aa(lp896
F95.5
aF82.0
aF82.0
aF82.0
aF82.0
aa(lp897
F88.25
aF80.75
aF80.75
aF80.75
aF80.75
aa(lp898
F95.0
aF80.0
aF80.0
aF80.0
aF80.0
aa(lp899
F96.25
aF96.25
aF96.25
aF96.25
aF96.25
aa(lp900
F82.0
aF82.0
aF82.0
aF82.0
aF82.0
aa(lp901
F96.25
aF80.75
aF80.75
aF80.75
aF80.75
aa(lp902
F92.5
aF80.5
aF80.5
aF80.5
aF80.5
aa(lp903
F88.5
aF80.0
aF80.0
aF80.0
aF80.0
aa(lp904
F85.5
aF80.5
aF80.5
aF80.5
aF80.5
aa(lp905
F88.0
aF88.0
aF88.0
aF88.0
aF88.0
aa(lp906
F98.0
aF80.5
aF80.5
aF80.5
aF80.5
aa(lp907
F101.25
aF80.0
aF80.0
aF80.0
aF80.0
aa(lp908
F88.75
aF81.25
aF81.25
aF81.25
aF81.25
aa(lp909
F84.0
aF81.5
aF81.5
aF81.5
aF81.5
aa(lp910
F88.75
aF82.25
aF82.25
aF82.25
aF82.25
aa(lp911
F95.25
aF81.0
aF81.0
aF81.0
aF81.0
aa(lp912
F100.25
aF80.0
aF80.0
aF80.0
aF80.0
aa(lp913
F100.5
aF80.0
aF80.0
aF80.0
aF80.0
aa(lp914
F90.0
aF81.25
aF81.25
aF81.25
aF81.25
aa(lp915
F96.25
aF96.25
aF96.25
aF96.25
aF96.25
aa(lp916
F90.25
aF80.0
aF80.0
aF80.0
aF80.0
aa(lp917
F99.5
aF80.0
aF80.0
aF80.0
aF80.0
aa(lp918
F97.5
aF80.0
aF80.0
aF80.0
aF80.0
aa(lp919
F99.75
aF82.5
aF82.5
aF82.5
aF82.5
aa(lp920
F86.25
aF80.0
aF80.0
aF80.0
aF80.0
aa(lp921
F98.5
aF80.75
aF80.75
aF80.75
aF80.75
aa(lp922
F96.5
aF81.25
aF81.25
aF81.25
aF81.25
aa(lp923
F88.0
aF80.25
aF80.25
aF80.25
aF80.25
aa(lp924
F96.5
aF80.25
aF80.25
aF80.25
aF80.25
aa(lp925
F94.25
aF80.5
aF80.5
aF80.5
aF80.5
aa(lp926
F100.25
aF83.75
aF83.75
aF83.75
aF83.75
aa(lp927
F90.25
aF82.25
aF82.25
aF82.25
aF82.25
aa(lp928
F90.0
aF81.5
aF81.5
aF81.5
aF81.5
aa(lp929
F92.0
aF80.75
aF80.75
aF80.75
aF80.75
aa(lp930
F101.0
aF84.0
aF84.0
aF84.0
aF84.0
aa(lp931
F101.25
aF82.0
aF82.0
aF82.0
aF82.0
aa(lp932
F87.5
aF80.0
aF80.0
aF80.0
aF80.0
aa(lp933
F100.5
aF80.75
aF80.75
aF80.75
aF80.75
aa(lp934
F101.0
aF80.75
aF80.75
aF80.75
aF80.75
aa(lp935
F96.5
aF96.5
aF96.5
aF96.5
aF96.5
aa(lp936
F100.5
aF81.75
aF81.75
aF81.75
aF81.75
aa(lp937
F99.25
aF82.75
aF82.75
aF82.75
aF82.75
aa(lp938
F101.75
aF82.25
aF82.25
aF82.25
aF82.25
aa(lp939
F88.75
aF88.75
aF88.75
aF88.75
aF88.75
aa(lp940
F95.75
aF81.5
aF81.5
aF81.5
aF81.5
aa(lp941
F101.5
aF93.5
aF93.5
aF93.5
aF82.25
aa(lp942
F84.0
aF84.0
aF84.0
aF84.0
aF84.0
aa(lp943
F91.5
aF83.25
aF83.25
aF83.25
aF83.25
aa(lp944
F97.75
aF101.5
aF97.75
aF97.75
aF97.75
aa(lp945
F92.5
aF80.5
aF80.5
aF80.5
aF80.5
aa(lp946
F97.75
aF80.5
aF80.5
aF80.5
aF80.5
aa(lp947
F99.0
aF80.25
aF80.25
aF80.25
aF80.25
aa(lp948
F97.25
aF81.5
aF81.5
aF81.5
aF81.5
aa(lp949
F90.0
aF80.5
aF80.5
aF80.5
aF80.5
aa(lp950
F100.25
aF81.75
aF81.75
aF81.75
aF81.75
aa(lp951
F98.75
aF82.5
aF82.5
aF82.5
aF82.5
aa(lp952
F101.5
aF80.5
aF80.5
aF80.5
aF80.5
aa(lp953
F98.25
aF81.25
aF81.25
aF81.25
aF81.25
aa(lp954
F100.5
aF81.0
aF81.0
aF81.0
aF81.0
aa(lp955
F89.0
aF80.0
aF80.0
aF80.0
aF80.0
aa(lp956
F94.5
aF80.0
aF80.0
aF80.0
aF80.0
aa(lp957
F87.0
aF86.75
aF86.75
aF86.75
aF86.75
aa(lp958
F96.0
aF83.75
aF83.75
aF83.75
aF83.75
aa(lp959
F90.0
aF81.75
aF81.75
aF81.75
aF81.75
aa(lp960
F94.0
aF80.0
aF80.0
aF80.0
aF80.0
aa(lp961
F96.25
aF80.0
aF80.0
aF80.0
aF80.0
aa(lp962
F91.25
aF91.25
aF91.25
aF91.25
aF96.0
aa(lp963
F96.25
aF96.25
aF96.25
aF96.25
aF96.25
aa(lp964
F96.5
aF96.5
aF96.5
aF96.5
aF96.5
aa(lp965
F95.5
aF83.5
aF83.5
aF83.5
aF83.5
aa(lp966
F90.5
aF90.5
aF90.5
aF90.5
aF90.5
aa(lp967
F85.25
aF80.25
aF80.25
aF80.25
aF80.25
aa(lp968
F99.5
aF80.25
aF80.25
aF80.25
aF80.25
aa(lp969
F90.0
aF90.0
aF90.0
aF90.0
aF90.0
aa(lp970
F97.0
aF84.25
aF84.25
aF84.25
aF84.25
aa(lp971
F98.25
aF80.75
aF80.75
aF80.75
aF80.75
aa(lp972
F98.75
aF81.25
aF81.25
aF81.25
aF81.25
aa(lp973
F89.75
aF80.25
aF80.25
aF80.25
aF80.25
aa(lp974
F96.25
aF80.0
aF80.0
aF80.0
aF80.0
aa(lp975
F95.75
aF95.75
aF95.75
aF95.75
aF95.75
aa(lp976
F99.25
aF80.5
aF80.5
aF80.5
aF80.5
aa(lp977
F87.75
aF80.0
aF80.0
aF80.0
aF80.0
aa(lp978
F95.0
aF81.75
aF81.75
aF81.75
aF81.75
aa(lp979
F90.5
aF81.0
aF81.0
aF81.0
aF81.0
aa(lp980
F90.0
aF90.0
aF90.0
aF90.0
aF90.0
aa(lp981
F92.75
aF92.75
aF92.75
aF92.75
aF92.75
aa(lp982
F91.75
aF91.75
aF91.75
aF91.75
aF91.75
aa(lp983
F99.5
aF80.5
aF80.5
aF80.5
aF80.5
aa(lp984
F94.75
aF80.0
aF80.0
aF80.0
aF80.0
aa(lp985
F98.5
aF81.75
aF81.75
aF81.75
aF81.75
aa(lp986
F95.25
aF80.0
aF80.0
aF80.0
aF80.0
aa(lp987
F101.75
aF80.0
aF80.0
aF80.0
aF80.0
aa(lp988
F93.5
aF93.5
aF93.5
aF93.5
aF93.5
aa(lp989
F100.25
aF82.0
aF82.0
aF82.0
aF82.0
aa(lp990
F95.25
aF80.0
aF80.0
aF80.0
aF80.0
aa(lp991
F97.0
aF80.75
aF80.75
aF80.75
aF80.75
aa(lp992
F81.5
aF81.5
aF81.5
aF81.5
aF81.5
aa(lp993
F99.0
aF81.75
aF81.75
aF81.75
aF81.75
aa(lp994
F98.25
aF82.25
aF82.25
aF82.25
aF82.25
aa(lp995
F93.25
aF84.5
aF84.5
aF84.5
aF84.5
aa(lp996
F93.25
aF80.75
aF80.75
aF80.75
aF80.75
aa(lp997
F86.0
aF85.75
aF85.75
aF85.75
aF85.75
aa(lp998
F96.25
aF80.5
aF80.5
aF80.5
aF80.5
aa(lp999
F93.5
aF80.0
aF80.0
aF80.0
aF80.0
aa(lp1000
F101.0
aF101.0
aF101.0
aF101.0
aF101.0
aa.