(lp0
(lp1
F101.5
aF101.5
aF101.5
aF101.5
aF89.5
aa(lp2
F94.0
aF94.0
aF94.0
aF94.0
aF94.0
aa(lp3
F101.25
aF101.25
aF101.25
aF101.25
aF80.0
aa(lp4
F101.25
aF101.25
aF101.25
aF101.25
aF80.0
aa(lp5
F102.0
aF102.0
aF102.0
aF102.0
aF80.5
aa(lp6
F97.25
aF97.25
aF97.25
aF97.25
aF87.5
aa(lp7
F100.5
aF100.5
aF100.5
aF100.5
aF80.0
aa(lp8
F97.75
aF97.75
aF97.75
aF97.75
aF80.25
aa(lp9
F91.25
aF91.25
aF91.25
aF91.25
aF80.0
aa(lp10
F100.75
aF96.25
aF96.25
aF96.25
aF96.25
aa(lp11
F100.5
aF100.5
aF100.5
aF100.5
aF80.75
aa(lp12
F99.5
aF99.5
aF99.5
aF99.5
aF99.5
aa(lp13
F97.5
aF97.5
aF97.5
aF97.5
aF97.5
aa(lp14
F94.75
aF94.75
aF94.75
aF94.75
aF94.75
aa(lp15
F99.75
aF99.75
aF99.75
aF99.75
aF80.25
aa(lp16
F88.75
aF88.75
aF88.75
aF88.75
aF80.0
aa(lp17
F99.5
aF99.5
aF99.5
aF99.5
aF80.0
aa(lp18
F90.25
aF90.25
aF90.25
aF90.25
aF80.5
aa(lp19
F94.5
aF94.5
aF94.5
aF94.5
aF94.5
aa(lp20
F89.5
aF89.5
aF89.5
aF89.5
aF89.5
aa(lp21
F99.75
aF99.75
aF99.75
aF99.75
aF80.5
aa(lp22
F100.25
aF100.25
aF100.25
aF100.25
aF80.75
aa(lp23
F99.5
aF99.5
aF99.5
aF99.5
aF80.0
aa(lp24
F101.5
aF101.5
aF101.5
aF101.5
aF101.5
aa(lp25
F98.75
aF98.75
aF98.75
aF98.75
aF80.0
aa(lp26
F98.5
aF98.5
aF98.5
aF98.5
aF80.75
aa(lp27
F92.0
aF92.0
aF92.0
aF92.0
aF92.0
aa(lp28
F95.0
aF95.0
aF95.0
aF95.0
aF80.5
aa(lp29
F99.25
aF99.25
aF99.25
aF99.25
aF99.25
aa(lp30
F96.0
aF96.0
aF96.0
aF96.0
aF96.0
aa(lp31
F99.75
aF99.75
aF99.75
aF99.75
aF80.0
aa(lp32
F102.0
aF102.0
aF102.0
aF102.0
aF102.0
aa(lp33
F100.0
aF100.0
aF100.0
aF100.0
aF80.0
aa(lp34
F93.25
aF93.25
aF93.25
aF93.25
aF80.0
aa(lp35
F101.0
aF101.0
aF101.0
aF101.0
aF80.5
aa(lp36
F102.0
aF102.0
aF91.75
aF102.0
aF80.25
aa(lp37
F94.5
aF94.5
aF94.5
aF94.5
aF94.5
aa(lp38
F99.75
aF99.75
aF99.75
aF99.75
aF99.75
aa(lp39
F98.25
aF98.25
aF98.25
aF98.25
aF80.0
aa(lp40
F100.75
aF100.75
aF100.75
aF100.75
aF80.0
aa(lp41
F98.75
aF98.75
aF98.75
aF98.75
aF81.75
aa(lp42
F100.75
aF100.75
aF100.75
aF100.75
aF80.25
aa(lp43
F99.0
aF99.0
aF99.0
aF99.0
aF99.0
aa(lp44
F92.0
aF92.0
aF92.0
aF92.0
aF92.0
aa(lp45
F100.5
aF100.5
aF100.5
aF100.5
aF80.25
aa(lp46
F101.75
aF101.75
aF101.75
aF101.75
aF80.25
aa(lp47
F101.0
aF101.0
aF101.0
aF101.0
aF80.0
aa(lp48
F102.0
aF102.0
aF102.0
aF102.0
aF80.0
aa(lp49
F101.75
aF101.75
aF101.75
aF101.75
aF80.0
aa(lp50
F93.25
aF93.25
aF93.25
aF93.25
aF80.0
aa(lp51
F101.0
aF101.0
aF101.0
aF101.0
aF94.25
aa(lp52
F102.0
aF102.0
aF102.0
aF102.0
aF80.25
aa(lp53
F99.5
aF99.5
aF99.5
aF99.5
aF80.0
aa(lp54
F93.25
aF100.0
aF100.0
aF100.0
aF81.75
aa(lp55
F96.25
aF96.25
aF96.25
aF96.25
aF80.75
aa(lp56
F98.75
aF98.75
aF98.75
aF98.75
aF80.25
aa(lp57
F98.0
aF98.0
aF98.0
aF98.0
aF82.0
aa(lp58
F102.0
aF102.0
aF102.0
aF102.0
aF80.25
aa(lp59
F102.0
aF102.0
aF102.0
aF102.0
aF80.25
aa(lp60
F99.75
aF99.75
aF99.75
aF99.75
aF80.0
aa(lp61
F100.25
aF100.25
aF100.25
aF100.25
aF80.0
aa(lp62
F102.0
aF102.0
aF102.0
aF102.0
aF88.0
aa(lp63
F100.25
aF100.25
aF100.25
aF100.25
aF100.25
aa(lp64
F99.25
aF99.25
aF99.25
aF99.25
aF80.25
aa(lp65
F97.25
aF97.25
aF97.25
aF97.25
aF80.75
aa(lp66
F96.5
aF96.5
aF96.5
aF96.5
aF96.5
aa(lp67
F98.5
aF98.5
aF98.5
aF98.5
aF83.75
aa(lp68
F100.25
aF100.25
aF100.25
aF100.25
aF80.0
aa(lp69
F101.75
aF101.75
aF101.75
aF101.75
aF80.0
aa(lp70
F101.25
aF101.25
aF101.25
aF101.25
aF80.25
aa(lp71
F102.0
aF102.0
aF102.0
aF102.0
aF80.0
aa(lp72
F99.75
aF99.75
aF99.75
aF99.75
aF80.5
aa(lp73
F96.0
aF96.0
aF96.0
aF96.0
aF96.0
aa(lp74
F98.5
aF98.5
aF98.5
aF98.5
aF80.0
aa(lp75
F99.25
aF99.25
aF99.25
aF99.25
aF80.0
aa(lp76
F101.0
aF101.0
aF101.0
aF101.0
aF80.0
aa(lp77
F100.0
aF100.0
aF100.0
aF100.0
aF80.25
aa(lp78
F100.0
aF100.0
aF100.0
aF100.0
aF80.25
aa(lp79
F100.75
aF100.75
aF100.75
aF100.75
aF80.0
aa(lp80
F100.5
aF100.5
aF100.5
aF100.5
aF80.0
aa(lp81
F98.75
aF98.75
aF98.75
aF98.75
aF80.25
aa(lp82
F101.25
aF101.25
aF101.25
aF101.25
aF101.25
aa(lp83
F101.25
aF101.25
aF101.25
aF101.25
aF80.5
aa(lp84
F101.0
aF101.0
aF101.0
aF101.0
aF84.75
aa(lp85
F96.0
aF96.0
aF96.0
aF96.0
aF80.25
aa(lp86
F101.5
aF101.5
aF101.5
aF101.5
aF80.25
aa(lp87
F101.0
aF101.0
aF101.0
aF101.0
aF101.0
aa(lp88
F102.0
aF102.0
aF102.0
aF102.0
aF80.0
aa(lp89
F101.0
aF101.0
aF101.0
aF101.0
aF80.25
aa(lp90
F100.0
aF100.0
aF100.0
aF100.0
aF100.0
aa(lp91
F99.5
aF99.5
aF99.5
aF99.5
aF80.0
aa(lp92
F101.5
aF101.5
aF101.5
aF101.5
aF81.5
aa(lp93
F101.0
aF101.0
aF101.0
aF101.0
aF80.0
aa(lp94
F99.5
aF99.5
aF99.5
aF99.5
aF80.5
aa(lp95
F100.0
aF100.0
aF100.0
aF82.75
aF100.0
aa(lp96
F91.75
aF91.75
aF91.75
aF91.75
aF91.75
aa(lp97
F100.0
aF100.0
aF100.0
aF100.0
aF80.0
aa(lp98
F96.75
aF96.75
aF96.75
aF96.75
aF96.75
aa(lp99
F99.5
aF99.5
aF99.5
aF99.5
aF82.5
aa(lp100
F101.0
aF101.0
aF101.0
aF101.0
aF80.0
aa(lp101
F100.25
aF100.25
aF100.25
aF100.25
aF81.0
aa(lp102
F101.5
aF101.5
aF101.5
aF101.5
aF80.25
aa(lp103
F100.5
aF100.5
aF100.5
aF100.5
aF80.25
aa(lp104
F102.0
aF102.0
aF102.0
aF102.0
aF80.25
aa(lp105
F100.75
aF100.75
aF100.75
aF100.75
aF80.0
aa(lp106
F87.25
aF87.25
aF87.25
aF87.25
aF81.5
aa(lp107
F99.0
aF99.0
aF99.0
aF99.0
aF80.0
aa(lp108
F101.0
aF101.0
aF101.0
aF101.0
aF80.25
aa(lp109
F102.0
aF102.0
aF102.0
aF102.0
aF80.5
aa(lp110
F101.0
aF101.0
aF101.0
aF101.0
aF80.25
aa(lp111
F100.75
aF100.75
aF100.75
aF100.75
aF80.25
aa(lp112
F97.0
aF97.0
aF97.0
aF97.0
aF80.0
aa(lp113
F99.25
aF99.25
aF99.25
aF99.25
aF80.0
aa(lp114
F96.5
aF96.5
aF96.5
aF96.5
aF96.5
aa(lp115
F99.0
aF99.0
aF99.0
aF99.0
aF80.0
aa(lp116
F94.25
aF94.25
aF94.25
aF94.25
aF80.0
aa(lp117
F94.5
aF94.5
aF94.5
aF94.5
aF94.5
aa(lp118
F102.0
aF102.0
aF102.0
aF102.0
aF80.5
aa(lp119
F99.25
aF99.25
aF99.25
aF99.25
aF80.0
aa(lp120
F101.0
aF101.0
aF101.0
aF101.0
aF80.0
aa(lp121
F101.25
aF101.25
aF101.25
aF101.25
aF80.5
aa(lp122
F102.0
aF102.0
aF102.0
aF102.0
aF80.25
aa(lp123
F94.25
aF94.25
aF80.75
aF94.25
aF80.75
aa(lp124
F100.25
aF100.25
aF100.25
aF100.25
aF94.5
aa(lp125
F100.75
aF100.75
aF100.75
aF100.75
aF80.0
aa(lp126
F100.75
aF100.75
aF100.75
aF100.75
aF80.25
aa(lp127
F101.5
aF101.5
aF101.5
aF101.5
aF81.0
aa(lp128
F102.0
aF102.0
aF102.0
aF102.0
aF80.5
aa(lp129
F101.75
aF101.75
aF101.75
aF101.75
aF80.25
aa(lp130
F88.5
aF88.5
aF88.5
aF88.5
aF88.5
aa(lp131
F101.75
aF101.75
aF101.75
aF101.75
aF80.0
aa(lp132
F99.75
aF99.75
aF99.75
aF99.75
aF99.75
aa(lp133
F100.25
aF100.25
aF100.25
aF100.25
aF80.0
aa(lp134
F102.0
aF102.0
aF102.0
aF102.0
aF102.0
aa(lp135
F101.75
aF101.75
aF101.75
aF101.75
aF80.75
aa(lp136
F99.0
aF99.0
aF99.0
aF99.0
aF80.25
aa(lp137
F98.75
aF98.75
aF98.75
aF98.75
aF80.25
aa(lp138
F99.0
aF99.0
aF99.0
aF99.0
aF80.0
aa(lp139
F101.5
aF101.5
aF101.5
aF101.5
aF81.25
aa(lp140
F100.75
aF100.75
aF100.75
aF100.75
aF80.0
aa(lp141
F101.75
aF101.75
aF101.75
aF101.75
aF80.25
aa(lp142
F101.75
aF101.75
aF101.75
aF101.75
aF80.0
aa(lp143
F100.25
aF100.25
aF100.25
aF100.25
aF81.5
aa(lp144
F102.0
aF102.0
aF102.0
aF102.0
aF102.0
aa(lp145
F97.25
aF97.25
aF97.25
aF97.25
aF80.5
aa(lp146
F98.25
aF98.25
aF98.25
aF98.25
aF80.25
aa(lp147
F100.75
aF100.75
aF100.75
aF100.75
aF80.0
aa(lp148
F95.5
aF95.5
aF95.5
aF95.5
aF95.5
aa(lp149
F90.0
aF90.0
aF90.0
aF90.0
aF90.0
aa(lp150
F97.75
aF97.75
aF97.75
aF97.75
aF95.25
aa(lp151
F101.0
aF101.0
aF101.0
aF101.0
aF80.25
aa(lp152
F99.75
aF99.75
aF99.75
aF99.75
aF80.0
aa(lp153
F97.5
aF97.5
aF97.5
aF97.5
aF80.25
aa(lp154
F99.5
aF99.5
aF99.5
aF99.5
aF80.0
aa(lp155
F101.5
aF101.5
aF101.5
aF101.5
aF80.0
aa(lp156
F99.5
aF99.5
aF99.5
aF99.5
aF97.5
aa(lp157
F101.0
aF101.0
aF101.0
aF101.0
aF80.0
aa(lp158
F98.5
aF98.5
aF98.5
aF98.5
aF80.0
aa(lp159
F95.75
aF95.75
aF95.75
aF95.75
aF80.25
aa(lp160
F101.0
aF101.0
aF101.0
aF101.0
aF101.0
aa(lp161
F99.25
aF99.25
aF99.25
aF99.25
aF80.0
aa(lp162
F100.25
aF100.25
aF100.25
aF100.25
aF80.0
aa(lp163
F101.5
aF101.5
aF101.5
aF101.5
aF80.0
aa(lp164
F97.75
aF97.75
aF97.75
aF97.75
aF80.75
aa(lp165
F99.5
aF99.5
aF99.5
aF99.5
aF80.0
aa(lp166
F94.5
aF94.5
aF94.5
aF94.5
aF80.0
aa(lp167
F98.5
aF98.5
aF98.5
aF98.5
aF80.0
aa(lp168
F101.25
aF101.25
aF100.25
aF101.25
aF80.5
aa(lp169
F99.5
aF99.5
aF99.5
aF99.5
aF80.0
aa(lp170
F99.0
aF99.0
aF99.0
aF99.0
aF80.0
aa(lp171
F99.25
aF99.25
aF99.25
aF99.25
aF80.25
aa(lp172
F91.5
aF91.5
aF91.5
aF91.5
aF80.25
aa(lp173
F102.0
aF102.0
aF102.0
aF102.0
aF80.25
aa(lp174
F99.5
aF99.5
aF99.5
aF99.5
aF80.5
aa(lp175
F102.0
aF102.0
aF102.0
aF102.0
aF102.0
aa(lp176
F95.25
aF95.25
aF95.25
aF95.25
aF90.0
aa(lp177
F97.0
aF97.0
aF97.0
aF97.0
aF97.0
aa(lp178
F98.5
aF98.5
aF98.5
aF98.5
aF85.25
aa(lp179
F100.5
aF100.5
aF100.5
aF100.5
aF100.5
aa(lp180
F101.5
aF101.5
aF101.5
aF101.5
aF101.5
aa(lp181
F96.75
aF96.75
aF96.75
aF96.75
aF80.5
aa(lp182
F95.75
aF95.75
aF95.75
aF95.75
aF80.25
aa(lp183
F99.25
aF93.75
aF99.25
aF99.25
aF80.25
aa(lp184
F100.25
aF100.25
aF100.25
aF100.25
aF80.25
aa(lp185
F99.25
aF99.25
aF99.25
aF99.25
aF80.0
aa(lp186
F101.5
aF101.5
aF101.5
aF101.5
aF80.0
aa(lp187
F98.75
aF98.75
aF98.75
aF98.75
aF98.75
aa(lp188
F101.0
aF101.0
aF101.0
aF101.0
aF80.0
aa(lp189
F102.0
aF102.0
aF102.0
aF102.0
aF102.0
aa(lp190
F100.25
aF100.25
aF100.25
aF100.25
aF80.0
aa(lp191
F100.25
aF100.25
aF100.25
aF100.25
aF100.25
aa(lp192
F102.0
aF102.0
aF102.0
aF102.0
aF80.0
aa(lp193
F101.25
aF101.25
aF101.25
aF101.25
aF80.25
aa(lp194
F99.0
aF99.0
aF99.0
aF99.0
aF80.0
aa(lp195
F101.75
aF101.75
aF101.75
aF101.75
aF80.25
aa(lp196
F100.0
aF100.0
aF100.0
aF100.0
aF83.0
aa(lp197
F92.5
aF92.5
aF92.5
aF92.5
aF82.5
aa(lp198
F100.75
aF100.75
aF100.75
aF100.75
aF80.0
aa(lp199
F101.0
aF101.0
aF101.0
aF101.0
aF80.5
aa(lp200
F100.0
aF100.0
aF100.0
aF100.0
aF100.0
aa(lp201
F100.0
aF100.0
aF100.0
aF100.0
aF100.0
aa(lp202
F90.75
aF90.75
aF90.75
aF90.75
aF82.5
aa(lp203
F99.75
aF99.75
aF99.75
aF99.75
aF80.0
aa(lp204
F99.25
aF99.25
aF99.25
aF99.25
aF80.25
aa(lp205
F96.25
aF96.25
aF96.25
aF96.25
aF80.5
aa(lp206
F101.5
aF101.5
aF101.5
aF101.5
aF80.0
aa(lp207
F99.5
aF99.5
aF99.5
aF99.5
aF80.0
aa(lp208
F99.75
aF99.75
aF99.75
aF99.75
aF80.25
aa(lp209
F100.25
aF100.25
aF100.25
aF100.25
aF80.0
aa(lp210
F101.75
aF101.75
aF101.75
aF101.75
aF80.0
aa(lp211
F101.25
aF101.25
aF101.25
aF101.25
aF81.25
aa(lp212
F95.0
aF95.0
aF95.0
aF95.0
aF95.0
aa(lp213
F98.25
aF98.25
aF98.25
aF98.25
aF98.25
aa(lp214
F102.0
aF102.0
aF102.0
aF102.0
aF91.25
aa(lp215
F101.5
aF101.5
aF101.5
aF101.5
aF80.25
aa(lp216
F101.5
aF101.5
aF101.5
aF101.5
aF80.0
aa(lp217
F102.0
aF102.0
aF102.0
aF102.0
aF80.25
aa(lp218
F101.75
aF101.75
aF101.75
aF101.75
aF80.0
aa(lp219
F101.75
aF101.75
aF101.75
aF101.75
aF81.0
aa(lp220
F99.75
aF99.75
aF99.75
aF99.75
aF99.75
aa(lp221
F101.5
aF101.5
aF101.5
aF101.5
aF90.25
aa(lp222
F100.5
aF100.5
aF100.5
aF100.5
aF100.5
aa(lp223
F98.75
aF98.75
aF98.75
aF98.75
aF98.75
aa(lp224
F98.75
aF98.75
aF98.75
aF98.75
aF80.0
aa(lp225
F100.75
aF100.75
aF100.75
aF100.75
aF80.0
aa(lp226
F98.75
aF98.75
aF98.75
aF98.75
aF80.25
aa(lp227
F100.0
aF100.0
aF100.0
aF100.0
aF100.0
aa(lp228
F99.0
aF99.0
aF99.0
aF99.0
aF80.25
aa(lp229
F100.5
aF100.5
aF100.5
aF100.5
aF100.5
aa(lp230
F101.0
aF101.0
aF101.0
aF101.0
aF80.0
aa(lp231
F101.25
aF101.25
aF101.25
aF101.25
aF80.0
aa(lp232
F98.0
aF98.0
aF98.0
aF98.0
aF98.0
aa(lp233
F99.25
aF99.25
aF99.25
aF99.25
aF80.0
aa(lp234
F99.5
aF99.5
aF99.5
aF99.5
aF99.5
aa(lp235
F100.5
aF100.5
aF100.5
aF100.5
aF100.5
aa(lp236
F98.5
aF98.5
aF98.5
aF98.5
aF80.0
aa(lp237
F98.5
aF98.5
aF98.5
aF98.5
aF80.25
aa(lp238
F101.5
aF101.5
aF101.5
aF101.5
aF80.75
aa(lp239
F95.75
aF95.75
aF95.75
aF95.75
aF80.25
aa(lp240
F102.0
aF102.0
aF102.0
aF102.0
aF81.25
aa(lp241
F100.25
aF100.25
aF100.25
aF100.25
aF80.0
aa(lp242
F102.0
aF102.0
aF102.0
aF102.0
aF80.0
aa(lp243
F97.0
aF97.0
aF97.0
aF97.0
aF85.5
aa(lp244
F101.0
aF101.0
aF101.0
aF101.0
aF80.25
aa(lp245
F101.0
aF101.0
aF101.0
aF93.75
aF80.25
aa(lp246
F92.25
aF92.25
aF92.25
aF92.25
aF80.5
aa(lp247
F99.75
aF99.75
aF99.75
aF99.75
aF80.0
aa(lp248
F95.0
aF95.0
aF95.0
aF95.0
aF80.0
aa(lp249
F101.25
aF101.25
aF101.25
aF101.25
aF80.0
aa(lp250
F97.0
aF97.0
aF97.0
aF97.0
aF97.0
aa(lp251
F95.25
aF95.25
aF95.25
aF95.25
aF80.25
aa(lp252
F90.5
aF90.5
aF90.5
aF90.5
aF81.0
aa(lp253
F99.5
aF99.5
aF99.5
aF99.5
aF80.5
aa(lp254
F99.75
aF99.75
aF99.75
aF99.75
aF80.0
aa(lp255
F101.75
aF101.75
aF101.75
aF101.75
aF80.0
aa(lp256
F97.0
aF97.0
aF97.0
aF97.0
aF97.0
aa(lp257
F102.0
aF102.0
aF102.0
aF102.0
aF80.0
aa(lp258
F100.75
aF100.75
aF100.75
aF100.75
aF80.25
aa(lp259
F98.5
aF98.5
aF98.5
aF98.5
aF98.5
aa(lp260
F100.5
aF100.5
aF100.5
aF100.5
aF81.0
aa(lp261
F99.25
aF99.25
aF99.25
aF99.25
aF80.75
aa(lp262
F101.5
aF101.5
aF101.5
aF101.5
aF80.75
aa(lp263
F97.25
aF97.25
aF97.25
aF97.25
aF80.0
aa(lp264
F101.0
aF101.0
aF101.0
aF101.0
aF80.0
aa(lp265
F97.75
aF97.75
aF97.75
aF97.75
aF80.0
aa(lp266
F99.25
aF99.25
aF99.25
aF99.25
aF80.0
aa(lp267
F101.0
aF101.0
aF101.0
aF101.0
aF81.75
aa(lp268
F101.0
aF101.0
aF101.0
aF101.0
aF80.0
aa(lp269
F88.75
aF88.75
aF88.75
aF88.75
aF88.75
aa(lp270
F100.5
aF100.5
aF100.5
aF100.5
aF100.5
aa(lp271
F101.5
aF101.5
aF101.5
aF101.5
aF80.0
aa(lp272
F100.0
aF100.0
aF100.0
aF100.0
aF80.0
aa(lp273
F96.5
aF96.5
aF96.5
aF96.5
aF80.0
aa(lp274
F100.25
aF100.25
aF100.25
aF100.25
aF84.5
aa(lp275
F100.5
aF100.5
aF100.5
aF100.5
aF81.5
aa(lp276
F99.0
aF99.0
aF99.0
aF99.0
aF80.0
aa(lp277
F100.5
aF100.5
aF100.5
aF100.5
aF97.25
aa(lp278
F98.0
aF98.0
aF98.0
aF98.0
aF84.0
aa(lp279
F100.5
aF100.5
aF100.5
aF100.5
aF80.0
aa(lp280
F99.25
aF99.25
aF99.25
aF99.25
aF99.25
aa(lp281
F99.0
aF99.0
aF99.0
aF99.0
aF87.5
aa(lp282
F100.5
aF100.5
aF100.5
aF100.5
aF80.0
aa(lp283
F96.75
aF96.75
aF96.75
aF96.75
aF80.0
aa(lp284
F100.0
aF100.0
aF100.0
aF100.0
aF80.0
aa(lp285
F99.25
aF99.25
aF99.25
aF99.25
aF80.0
aa(lp286
F96.75
aF96.75
aF96.75
aF96.75
aF96.75
aa(lp287
F101.0
aF101.0
aF101.0
aF101.0
aF80.0
aa(lp288
F99.75
aF99.75
aF99.75
aF99.75
aF99.75
aa(lp289
F97.5
aF97.5
aF97.5
aF97.5
aF80.0
aa(lp290
F100.25
aF100.25
aF100.25
aF100.25
aF81.0
aa(lp291
F101.75
aF101.75
aF101.75
aF101.75
aF80.25
aa(lp292
F99.75
aF99.75
aF99.75
aF99.75
aF80.25
aa(lp293
F100.5
aF100.5
aF98.0
aF100.5
aF83.25
aa(lp294
F101.25
aF101.25
aF101.25
aF101.25
aF80.0
aa(lp295
F100.5
aF100.5
aF100.5
aF100.5
aF80.0
aa(lp296
F98.25
aF98.25
aF98.25
aF98.25
aF80.75
aa(lp297
F98.75
aF98.75
aF98.75
aF98.75
aF80.0
aa(lp298
F99.75
aF99.75
aF99.75
aF99.75
aF99.75
aa(lp299
F99.5
aF99.5
aF99.5
aF99.5
aF80.0
aa(lp300
F99.5
aF99.5
aF99.5
aF99.5
aF80.0
aa(lp301
F100.75
aF100.75
aF100.75
aF100.75
aF80.0
aa(lp302
F99.75
aF99.75
aF99.75
aF99.75
aF80.0
aa(lp303
F100.5
aF100.5
aF100.5
aF100.5
aF80.0
aa(lp304
F100.25
aF100.25
aF100.25
aF100.25
aF80.0
aa(lp305
F99.25
aF99.25
aF99.25
aF99.25
aF80.0
aa(lp306
F94.0
aF94.0
aF94.0
aF94.0
aF94.0
aa(lp307
F101.25
aF101.25
aF101.25
aF101.25
aF101.25
aa(lp308
F102.0
aF102.0
aF102.0
aF102.0
aF82.0
aa(lp309
F99.5
aF99.5
aF99.5
aF99.5
aF80.0
aa(lp310
F97.75
aF97.75
aF97.75
aF97.75
aF80.0
aa(lp311
F99.5
aF99.5
aF99.5
aF99.5
aF80.0
aa(lp312
F101.25
aF101.25
aF101.25
aF101.25
aF80.0
aa(lp313
F100.25
aF100.25
aF100.25
aF100.25
aF100.25
aa(lp314
F102.0
aF102.0
aF102.0
aF102.0
aF82.25
aa(lp315
F101.75
aF101.75
aF101.75
aF101.75
aF81.25
aa(lp316
F101.0
aF101.0
aF101.0
aF101.0
aF80.25
aa(lp317
F99.75
aF99.75
aF99.75
aF99.75
aF82.25
aa(lp318
F97.0
aF97.0
aF97.0
aF98.75
aF97.0
aa(lp319
F101.5
aF101.5
aF101.5
aF101.5
aF80.0
aa(lp320
F100.75
aF100.75
aF100.75
aF100.75
aF80.0
aa(lp321
F101.75
aF101.75
aF101.75
aF101.75
aF80.0
aa(lp322
F101.75
aF101.75
aF101.75
aF101.75
aF80.5
aa(lp323
F93.0
aF93.0
aF96.75
aF93.0
aF80.75
aa(lp324
F99.5
aF99.5
aF99.5
aF99.5
aF80.5
aa(lp325
F100.5
aF100.5
aF100.5
aF100.5
aF80.25
aa(lp326
F98.0
aF98.0
aF98.0
aF98.0
aF80.0
aa(lp327
F99.5
aF99.5
aF99.5
aF99.5
aF99.5
aa(lp328
F97.0
aF97.0
aF97.0
aF97.0
aF80.0
aa(lp329
F102.0
aF102.0
aF102.0
aF102.0
aF80.0
aa(lp330
F98.75
aF98.75
aF98.75
aF98.75
aF98.75
aa(lp331
F97.75
aF97.75
aF97.75
aF97.75
aF81.25
aa(lp332
F100.0
aF100.0
aF100.0
aF100.0
aF82.25
aa(lp333
F101.0
aF101.0
aF101.0
aF101.0
aF101.0
aa(lp334
F98.5
aF98.5
aF98.5
aF98.5
aF80.0
aa(lp335
F99.75
aF99.75
aF99.75
aF99.75
aF80.0
aa(lp336
F93.75
aF101.0
aF101.0
aF101.0
aF101.0
aa(lp337
F97.75
aF97.75
aF97.75
aF97.75
aF81.5
aa(lp338
F97.25
aF97.25
aF97.25
aF97.25
aF97.25
aa(lp339
F100.25
aF100.25
aF100.25
aF100.25
aF80.25
aa(lp340
F101.75
aF101.75
aF101.75
aF101.75
aF101.75
aa(lp341
F101.5
aF101.5
aF101.5
aF101.5
aF80.5
aa(lp342
F102.0
aF102.0
aF102.0
aF102.0
aF80.0
aa(lp343
F99.0
aF99.0
aF99.0
aF99.0
aF80.75
aa(lp344
F97.25
aF97.25
aF97.25
aF97.25
aF80.25
aa(lp345
F101.25
aF101.25
aF101.25
aF101.25
aF101.25
aa(lp346
F96.0
aF96.0
aF96.0
aF96.0
aF96.0
aa(lp347
F98.5
aF98.5
aF98.5
aF98.5
aF98.5
aa(lp348
F101.0
aF101.0
aF101.0
aF101.0
aF80.75
aa(lp349
F101.75
aF101.75
aF101.75
aF101.75
aF80.5
aa(lp350
F91.25
aF91.25
aF91.25
aF91.25
aF80.0
aa(lp351
F101.75
aF101.75
aF101.75
aF101.75
aF101.75
aa(lp352
F100.5
aF100.5
aF100.5
aF100.5
aF100.5
aa(lp353
F99.5
aF99.5
aF96.75
aF99.5
aF80.0
aa(lp354
F92.0
aF100.75
aF100.75
aF100.75
aF80.0
aa(lp355
F101.5
aF101.5
aF101.5
aF101.5
aF101.5
aa(lp356
F101.0
aF101.0
aF101.0
aF101.0
aF81.0
aa(lp357
F99.25
aF99.25
aF99.25
aF99.25
aF82.0
aa(lp358
F96.25
aF96.25
aF96.25
aF96.25
aF96.25
aa(lp359
F99.5
aF99.5
aF99.5
aF99.5
aF80.0
aa(lp360
F98.75
aF98.75
aF98.75
aF98.75
aF80.0
aa(lp361
F97.25
aF97.25
aF97.25
aF97.25
aF80.0
aa(lp362
F101.25
aF101.25
aF101.25
aF101.25
aF101.25
aa(lp363
F101.75
aF101.75
aF101.75
aF101.75
aF101.75
aa(lp364
F101.5
aF101.5
aF101.5
aF101.5
aF80.0
aa(lp365
F90.5
aF90.5
aF90.5
aF90.5
aF90.5
aa(lp366
F100.0
aF100.0
aF100.0
aF100.0
aF100.0
aa(lp367
F100.0
aF100.0
aF100.0
aF100.0
aF93.75
aa(lp368
F96.5
aF96.5
aF96.5
aF96.5
aF96.5
aa(lp369
F100.75
aF100.75
aF100.75
aF100.75
aF80.75
aa(lp370
F97.0
aF97.0
aF97.0
aF97.0
aF80.0
aa(lp371
F101.25
aF101.25
aF101.25
aF101.25
aF101.25
aa(lp372
F96.0
aF96.0
aF96.0
aF96.0
aF80.0
aa(lp373
F98.5
aF98.5
aF98.5
aF98.5
aF80.0
aa(lp374
F101.0
aF101.0
aF101.0
aF101.0
aF80.75
aa(lp375
F100.0
aF100.0
aF100.0
aF100.0
aF81.5
aa(lp376
F100.5
aF100.5
aF100.5
aF100.5
aF80.25
aa(lp377
F101.25
aF101.25
aF101.25
aF101.25
aF80.5
aa(lp378
F99.5
aF99.5
aF99.5
aF99.5
aF99.5
aa(lp379
F100.5
aF100.5
aF100.5
aF100.5
aF80.5
aa(lp380
F101.75
aF101.75
aF101.75
aF101.75
aF80.0
aa(lp381
F94.25
aF94.25
aF94.25
aF94.25
aF80.25
aa(lp382
F95.5
aF95.5
aF95.5
aF95.5
aF80.0
aa(lp383
F96.5
aF96.5
aF96.5
aF96.5
aF96.5
aa(lp384
F102.0
aF102.0
aF102.0
aF102.0
aF102.0
aa(lp385
F99.25
aF99.25
aF99.25
aF99.25
aF80.0
aa(lp386
F101.75
aF101.75
aF101.75
aF101.75
aF101.75
aa(lp387
F95.75
aF95.75
aF95.75
aF95.75
aF95.75
aa(lp388
F100.0
aF100.0
aF100.0
aF100.0
aF80.75
aa(lp389
F91.5
aF91.5
aF91.5
aF91.5
aF91.5
aa(lp390
F101.5
aF101.5
aF101.5
aF101.5
aF81.5
aa(lp391
F101.5
aF101.5
aF101.5
aF101.5
aF101.5
aa(lp392
F100.5
aF100.5
aF100.5
aF100.5
aF80.0
aa(lp393
F100.0
aF87.0
aF100.0
aF100.0
aF80.75
aa(lp394
F98.75
aF98.75
aF98.75
aF98.75
aF80.0
aa(lp395
F99.25
aF99.25
aF99.25
aF99.25
aF80.25
aa(lp396
F101.5
aF101.5
aF101.5
aF101.5
aF80.0
aa(lp397
F101.25
aF101.25
aF101.25
aF101.25
aF80.0
aa(lp398
F100.0
aF100.0
aF100.0
aF100.0
aF80.0
aa(lp399
F102.0
aF102.0
aF102.0
aF102.0
aF80.0
aa(lp400
F101.25
aF101.25
aF101.25
aF101.25
aF101.25
aa(lp401
F96.0
aF96.0
aF96.0
aF96.0
aF83.0
aa(lp402
F101.5
aF83.25
aF101.5
aF101.5
aF80.25
aa(lp403
F100.5
aF100.5
aF100.5
aF100.5
aF80.0
aa(lp404
F102.0
aF102.0
aF102.0
aF102.0
aF80.5
aa(lp405
F101.75
aF101.75
aF101.75
aF101.75
aF101.75
aa(lp406
F101.25
aF101.25
aF101.25
aF101.25
aF80.0
aa(lp407
F99.25
aF99.25
aF99.25
aF99.25
aF99.25
aa(lp408
F99.5
aF99.5
aF99.5
aF99.5
aF80.25
aa(lp409
F100.25
aF100.25
aF100.25
aF100.25
aF80.0
aa(lp410
F100.5
aF100.5
aF100.5
aF100.5
aF80.0
aa(lp411
F100.0
aF100.0
aF100.0
aF100.0
aF80.25
aa(lp412
F101.5
aF101.5
aF101.5
aF101.5
aF80.0
aa(lp413
F102.0
aF102.0
aF102.0
aF102.0
aF102.0
aa(lp414
F100.5
aF100.5
aF100.75
aF100.5
aF80.0
aa(lp415
F102.0
aF102.0
aF102.0
aF102.0
aF81.75
aa(lp416
F101.0
aF101.0
aF101.0
aF101.0
aF96.0
aa(lp417
F101.5
aF101.5
aF101.5
aF101.5
aF80.0
aa(lp418
F101.5
aF101.5
aF101.5
aF101.5
aF80.25
aa(lp419
F101.25
aF101.25
aF101.25
aF101.25
aF101.25
aa(lp420
F97.75
aF97.75
aF97.75
aF97.75
aF80.0
aa(lp421
F91.5
aF91.5
aF91.5
aF91.5
aF91.5
aa(lp422
F101.5
aF101.5
aF101.5
aF101.5
aF101.5
aa(lp423
F100.25
aF100.25
aF100.25
aF100.25
aF100.25
aa(lp424
F100.25
aF100.25
aF100.25
aF100.25
aF82.25
aa(lp425
F101.0
aF101.0
aF101.0
aF101.0
aF101.0
aa(lp426
F101.5
aF101.5
aF101.5
aF101.5
aF80.75
aa(lp427
F100.75
aF100.75
aF100.75
aF100.75
aF80.25
aa(lp428
F101.5
aF101.5
aF101.5
aF101.5
aF101.5
aa(lp429
F99.75
aF99.75
aF99.75
aF99.75
aF87.5
aa(lp430
F95.75
aF95.75
aF95.75
aF95.75
aF92.75
aa(lp431
F98.75
aF98.75
aF98.75
aF98.75
aF80.0
aa(lp432
F99.0
aF99.0
aF99.0
aF99.0
aF99.0
aa(lp433
F92.0
aF92.0
aF92.0
aF92.0
aF92.0
aa(lp434
F98.75
aF98.75
aF98.75
aF98.75
aF80.0
aa(lp435
F100.5
aF100.5
aF100.5
aF100.5
aF80.25
aa(lp436
F97.5
aF97.5
aF97.5
aF97.5
aF80.0
aa(lp437
F102.0
aF102.0
aF102.0
aF102.0
aF80.25
aa(lp438
F98.75
aF98.75
aF98.75
aF98.75
aF83.75
aa(lp439
F101.25
aF101.25
aF101.25
aF101.25
aF84.0
aa(lp440
F101.5
aF101.5
aF101.5
aF101.5
aF80.0
aa(lp441
F99.0
aF99.0
aF99.0
aF99.0
aF99.0
aa(lp442
F100.75
aF100.75
aF100.75
aF100.75
aF80.0
aa(lp443
F97.75
aF97.75
aF97.75
aF97.75
aF80.5
aa(lp444
F99.25
aF99.25
aF99.25
aF99.25
aF80.0
aa(lp445
F96.5
aF96.5
aF87.0
aF96.5
aF96.5
aa(lp446
F97.25
aF97.25
aF97.25
aF97.25
aF80.0
aa(lp447
F101.75
aF101.75
aF101.75
aF101.75
aF80.25
aa(lp448
F97.25
aF97.25
aF97.25
aF97.25
aF80.0
aa(lp449
F99.0
aF99.0
aF99.0
aF99.0
aF80.0
aa(lp450
F97.75
aF97.75
aF97.75
aF97.75
aF81.5
aa(lp451
F100.25
aF100.25
aF100.25
aF100.25
aF80.0
aa(lp452
F101.5
aF101.5
aF101.5
aF101.5
aF80.0
aa(lp453
F100.25
aF100.25
aF100.25
aF100.25
aF80.25
aa(lp454
F98.25
aF98.25
aF98.25
aF98.25
aF98.25
aa(lp455
F99.25
aF99.25
aF99.25
aF99.25
aF80.0
aa(lp456
F101.5
aF101.5
aF101.5
aF101.5
aF80.75
aa(lp457
F98.0
aF98.0
aF98.0
aF98.0
aF80.0
aa(lp458
F100.75
aF100.75
aF100.75
aF100.75
aF80.75
aa(lp459
F98.75
aF98.75
aF98.75
aF98.75
aF80.0
aa(lp460
F101.75
aF101.75
aF101.75
aF101.75
aF84.75
aa(lp461
F99.25
aF99.25
aF99.25
aF99.25
aF80.25
aa(lp462
F99.25
aF99.25
aF99.25
aF99.25
aF99.25
aa(lp463
F101.0
aF101.0
aF101.0
aF101.0
aF80.25
aa(lp464
F101.25
aF89.25
aF101.25
aF101.25
aF80.0
aa(lp465
F100.75
aF100.75
aF100.75
aF100.75
aF80.25
aa(lp466
F99.5
aF99.5
aF99.5
aF99.5
aF83.75
aa(lp467
F96.0
aF96.0
aF96.0
aF96.0
aF80.0
aa(lp468
F100.5
aF100.5
aF100.5
aF100.5
aF80.0
aa(lp469
F96.5
aF96.5
aF96.5
aF96.5
aF96.5
aa(lp470
F94.0
aF94.0
aF94.0
aF94.0
aF81.75
aa(lp471
F99.5
aF99.5
aF99.5
aF99.5
aF80.0
aa(lp472
F89.25
aF89.25
aF89.25
aF89.25
aF89.25
aa(lp473
F100.5
aF100.5
aF90.25
aF100.5
aF80.0
aa(lp474
F99.25
aF99.25
aF99.25
aF99.25
aF80.25
aa(lp475
F99.0
aF99.0
aF99.0
aF99.0
aF80.0
aa(lp476
F97.25
aF97.25
aF97.25
aF97.25
aF80.0
aa(lp477
F98.0
aF98.0
aF98.0
aF98.0
aF80.0
aa(lp478
F99.5
aF99.5
aF99.5
aF99.5
aF80.0
aa(lp479
F100.75
aF100.75
aF100.75
aF100.75
aF81.75
aa(lp480
F99.0
aF99.0
aF99.0
aF99.0
aF80.0
aa(lp481
F101.5
aF101.5
aF101.5
aF101.5
aF80.25
aa(lp482
F100.25
aF100.25
aF100.25
aF100.25
aF82.0
aa(lp483
F101.75
aF101.75
aF101.75
aF101.75
aF80.25
aa(lp484
F100.75
aF100.75
aF100.75
aF100.75
aF80.75
aa(lp485
F101.75
aF101.75
aF101.75
aF101.75
aF80.0
aa(lp486
F99.5
aF99.5
aF99.5
aF99.5
aF80.0
aa(lp487
F101.25
aF101.25
aF101.25
aF101.25
aF101.25
aa(lp488
F100.5
aF100.5
aF100.5
aF100.5
aF80.0
aa(lp489
F100.75
aF100.75
aF100.75
aF100.75
aF80.0
aa(lp490
F97.75
aF97.75
aF97.75
aF97.75
aF80.0
aa(lp491
F100.0
aF100.0
aF98.75
aF100.0
aF80.25
aa(lp492
F100.75
aF100.75
aF100.75
aF100.75
aF80.5
aa(lp493
F94.5
aF94.5
aF94.5
aF94.5
aF80.25
aa(lp494
F100.5
aF100.5
aF100.5
aF100.5
aF80.0
aa(lp495
F101.25
aF101.25
aF101.25
aF101.25
aF81.25
aa(lp496
F97.0
aF97.0
aF97.0
aF97.0
aF97.0
aa(lp497
F100.75
aF100.75
aF100.75
aF100.75
aF100.75
aa(lp498
F101.75
aF101.75
aF101.75
aF101.75
aF80.75
aa(lp499
F96.5
aF96.5
aF96.5
aF96.5
aF80.0
aa(lp500
F99.25
aF99.25
aF99.25
aF99.25
aF80.0
aa(lp501
F81.5
aF99.0
aF99.0
aF99.0
aF80.0
aa(lp502
F99.75
aF97.5
aF99.75
aF99.75
aF81.0
aa(lp503
F99.0
aF99.0
aF99.0
aF99.0
aF80.0
aa(lp504
F101.5
aF101.5
aF101.5
aF101.5
aF101.5
aa(lp505
F101.75
aF101.75
aF101.75
aF101.75
aF101.75
aa(lp506
F101.25
aF101.25
aF101.25
aF101.25
aF80.0
aa(lp507
F102.0
aF102.0
aF102.0
aF102.0
aF80.0
aa(lp508
F100.75
aF100.75
aF100.75
aF100.75
aF80.0
aa(lp509
F100.25
aF100.25
aF100.25
aF100.25
aF80.0
aa(lp510
F98.75
aF98.75
aF98.75
aF98.75
aF80.25
aa(lp511
F92.0
aF92.0
aF92.0
aF92.0
aF80.0
aa(lp512
F97.25
aF97.25
aF97.25
aF97.25
aF97.25
aa(lp513
F101.0
aF101.0
aF101.0
aF101.0
aF81.5
aa(lp514
F100.5
aF100.5
aF100.5
aF100.5
aF100.5
aa(lp515
F99.0
aF99.0
aF99.0
aF99.0
aF80.0
aa(lp516
F91.5
aF91.5
aF91.5
aF91.5
aF80.0
aa(lp517
F100.5
aF100.5
aF100.5
aF100.5
aF80.0
aa(lp518
F100.5
aF100.5
aF100.5
aF100.5
aF82.0
aa(lp519
F99.75
aF99.75
aF99.75
aF99.75
aF80.75
aa(lp520
F89.5
aF89.5
aF89.5
aF89.5
aF80.0
aa(lp521
F97.25
aF97.25
aF97.25
aF97.25
aF80.0
aa(lp522
F98.75
aF98.75
aF98.75
aF98.75
aF98.75
aa(lp523
F100.5
aF100.5
aF100.5
aF100.5
aF82.0
aa(lp524
F100.0
aF100.0
aF100.0
aF100.0
aF80.5
aa(lp525
F98.75
aF98.75
aF98.75
aF98.75
aF83.0
aa(lp526
F100.0
aF100.0
aF100.0
aF100.0
aF80.25
aa(lp527
F90.75
aF90.75
aF90.75
aF90.75
aF80.0
aa(lp528
F102.0
aF102.0
aF102.0
aF102.0
aF80.0
aa(lp529
F93.75
aF93.75
aF93.75
aF93.75
aF80.25
aa(lp530
F100.75
aF100.75
aF100.75
aF100.75
aF99.75
aa(lp531
F100.0
aF100.0
aF100.0
aF100.0
aF80.0
aa(lp532
F100.75
aF100.75
aF100.75
aF100.75
aF80.75
aa(lp533
F102.0
aF102.0
aF85.0
aF102.0
aF80.0
aa(lp534
F102.0
aF102.0
aF80.75
aF102.0
aF80.0
aa(lp535
F101.75
aF101.75
aF101.75
aF101.75
aF80.0
aa(lp536
F97.5
aF95.5
aF97.5
aF97.5
aF82.25
aa(lp537
F99.75
aF99.75
aF99.75
aF99.75
aF80.25
aa(lp538
F100.75
aF100.75
aF100.75
aF100.75
aF89.75
aa(lp539
F102.0
aF102.0
aF102.0
aF102.0
aF80.0
aa(lp540
F98.0
aF98.0
aF98.0
aF98.0
aF80.25
aa(lp541
F89.0
aF89.0
aF89.0
aF89.0
aF89.0
aa(lp542
F91.75
aF91.75
aF91.75
aF91.75
aF91.75
aa(lp543
F98.5
aF98.5
aF98.5
aF98.5
aF82.5
aa(lp544
F100.75
aF100.75
aF100.75
aF100.75
aF80.0
aa(lp545
F98.5
aF98.5
aF98.5
aF98.5
aF80.0
aa(lp546
F97.75
aF97.75
aF97.75
aF90.75
aF97.75
aa(lp547
F97.75
aF97.75
aF97.75
aF97.75
aF80.25
aa(lp548
F100.0
aF100.0
aF100.0
aF100.0
aF80.5
aa(lp549
F97.25
aF97.25
aF97.25
aF97.25
aF80.0
aa(lp550
F99.5
aF99.5
aF99.5
aF99.5
aF80.0
aa(lp551
F98.75
aF98.75
aF98.75
aF98.75
aF98.75
aa(lp552
F100.0
aF100.0
aF100.0
aF100.0
aF80.0
aa(lp553
F102.0
aF102.0
aF102.0
aF102.0
aF92.5
aa(lp554
F101.0
aF101.0
aF101.0
aF101.0
aF80.0
aa(lp555
F102.0
aF102.0
aF102.0
aF102.0
aF102.0
aa(lp556
F99.75
aF99.75
aF99.75
aF99.75
aF80.0
aa(lp557
F95.5
aF95.5
aF95.5
aF95.5
aF95.5
aa(lp558
F102.0
aF102.0
aF102.0
aF102.0
aF80.0
aa(lp559
F99.0
aF99.0
aF99.0
aF99.0
aF80.0
aa(lp560
F100.75
aF100.75
aF100.75
aF100.75
aF83.25
aa(lp561
F100.25
aF100.25
aF100.25
aF100.25
aF80.0
aa(lp562
F102.0
aF102.0
aF102.0
aF102.0
aF80.25
aa(lp563
F100.75
aF100.75
aF100.75
aF100.75
aF80.0
aa(lp564
F102.0
aF102.0
aF102.0
aF102.0
aF80.0
aa(lp565
F101.25
aF101.25
aF101.25
aF101.25
aF80.25
aa(lp566
F101.75
aF101.75
aF101.75
aF101.75
aF80.75
aa(lp567
F102.0
aF102.0
aF102.0
aF102.0
aF80.0
aa(lp568
F95.0
aF95.0
aF95.0
aF95.0
aF95.0
aa(lp569
F100.0
aF100.0
aF100.0
aF100.0
aF96.25
aa(lp570
F83.25
aF98.5
aF98.5
aF98.5
aF80.0
aa(lp571
F100.25
aF100.25
aF100.25
aF100.25
aF100.25
aa(lp572
F98.5
aF98.5
aF98.5
aF98.5
aF80.5
aa(lp573
F100.25
aF100.25
aF100.25
aF100.25
aF80.25
aa(lp574
F99.25
aF99.25
aF99.25
aF99.25
aF95.75
aa(lp575
F100.5
aF100.5
aF100.5
aF100.5
aF80.75
aa(lp576
F100.25
aF100.25
aF100.25
aF100.25
aF80.0
aa(lp577
F97.25
aF97.25
aF97.25
aF97.25
aF80.0
aa(lp578
F101.25
aF101.25
aF101.25
aF101.25
aF101.25
aa(lp579
F100.75
aF100.75
aF100.75
aF100.75
aF100.75
aa(lp580
F101.75
aF101.75
aF101.75
aF101.75
aF80.0
aa(lp581
F99.25
aF99.25
aF99.25
aF99.25
aF99.25
aa(lp582
F100.25
aF100.25
aF100.25
aF100.25
aF80.0
aa(lp583
F98.0
aF98.0
aF98.0
aF98.0
aF80.5
aa(lp584
F102.0
aF102.0
aF102.0
aF102.0
aF102.0
aa(lp585
F100.5
aF100.5
aF100.5
aF100.5
aF100.5
aa(lp586
F98.5
aF98.5
aF98.5
aF98.5
aF80.0
aa(lp587
F96.75
aF96.75
aF96.75
aF96.75
aF96.75
aa(lp588
F100.5
aF100.5
aF100.5
aF100.5
aF80.5
aa(lp589
F102.0
aF102.0
aF102.0
aF102.0
aF80.0
aa(lp590
F100.5
aF100.5
aF100.5
aF100.5
aF93.75
aa(lp591
F100.0
aF100.0
aF100.0
aF92.5
aF80.0
aa(lp592
F101.25
aF101.25
aF101.25
aF101.25
aF80.0
aa(lp593
F99.5
aF99.5
aF99.5
aF99.5
aF80.25
aa(lp594
F98.25
aF98.25
aF98.25
aF98.25
aF98.25
aa(lp595
F100.5
aF100.5
aF100.5
aF100.5
aF82.5
aa(lp596
F101.5
aF101.5
aF101.5
aF101.5
aF80.0
aa(lp597
F102.0
aF102.0
aF102.0
aF102.0
aF80.25
aa(lp598
F100.0
aF100.0
aF100.0
aF100.0
aF80.0
aa(lp599
F93.5
aF93.5
aF93.5
aF93.5
aF80.5
aa(lp600
F97.5
aF97.5
aF97.5
aF97.5
aF80.25
aa(lp601
F100.75
aF100.75
aF100.75
aF100.75
aF80.75
aa(lp602
F101.5
aF101.5
aF101.5
aF101.5
aF80.0
aa(lp603
F101.75
aF101.75
aF101.75
aF101.75
aF80.5
aa(lp604
F100.5
aF100.5
aF100.5
aF100.5
aF80.0
aa(lp605
F102.0
aF102.0
aF102.0
aF102.0
aF102.0
aa(lp606
F101.5
aF101.5
aF101.5
aF90.5
aF101.5
aa(lp607
F99.5
aF99.5
aF99.5
aF99.5
aF97.75
aa(lp608
F102.0
aF102.0
aF102.0
aF102.0
aF80.25
aa(lp609
F99.25
aF99.25
aF99.25
aF99.25
aF80.0
aa(lp610
F98.0
aF98.0
aF98.0
aF98.0
aF80.0
aa(lp611
F100.25
aF100.25
aF100.25
aF100.25
aF80.0
aa(lp612
F99.0
aF99.0
aF99.0
aF99.0
aF80.25
aa(lp613
F99.5
aF99.5
aF99.5
aF99.5
aF80.0
aa(lp614
F98.75
aF98.75
aF98.75
aF98.75
aF98.75
aa(lp615
F100.5
aF100.5
aF100.5
aF100.5
aF81.0
aa(lp616
F101.75
aF101.75
aF101.75
aF101.75
aF80.0
aa(lp617
F99.0
aF99.0
aF99.0
aF99.0
aF80.75
aa(lp618
F101.75
aF101.75
aF101.75
aF101.75
aF101.75
aa(lp619
F97.5
aF97.5
aF97.5
aF97.5
aF97.5
aa(lp620
F101.25
aF101.25
aF101.25
aF101.25
aF93.0
aa(lp621
F101.0
aF101.0
aF101.0
aF101.0
aF81.0
aa(lp622
F98.25
aF98.25
aF98.25
aF98.25
aF81.0
aa(lp623
F98.5
aF98.5
aF98.5
aF98.5
aF80.25
aa(lp624
F95.0
aF95.0
aF95.0
aF95.0
aF80.75
aa(lp625
F93.5
aF93.5
aF93.5
aF93.5
aF88.75
aa(lp626
F101.25
aF101.25
aF101.25
aF101.25
aF80.5
aa(lp627
F91.25
aF91.25
aF91.25
aF91.25
aF80.5
aa(lp628
F101.75
aF101.75
aF101.75
aF101.75
aF80.0
aa(lp629
F99.5
aF99.5
aF99.5
aF99.5
aF80.75
aa(lp630
F98.0
aF98.0
aF98.0
aF98.0
aF82.0
aa(lp631
F101.75
aF101.75
aF101.75
aF101.75
aF80.0
aa(lp632
F100.0
aF81.75
aF100.0
aF100.0
aF80.0
aa(lp633
F98.0
aF98.0
aF98.0
aF98.0
aF80.0
aa(lp634
F100.75
aF100.75
aF100.75
aF100.75
aF80.0
aa(lp635
F100.5
aF100.5
aF100.5
aF100.5
aF80.0
aa(lp636
F97.0
aF97.0
aF97.0
aF97.0
aF80.25
aa(lp637
F101.0
aF101.0
aF101.0
aF101.0
aF80.0
aa(lp638
F101.75
aF101.75
aF101.75
aF101.75
aF81.0
aa(lp639
F99.75
aF99.75
aF99.75
aF99.75
aF80.0
aa(lp640
F100.75
aF100.75
aF100.75
aF100.75
aF80.5
aa(lp641
F99.75
aF99.75
aF99.75
aF99.75
aF99.75
aa(lp642
F102.0
aF102.0
aF102.0
aF102.0
aF80.0
aa(lp643
F98.5
aF98.5
aF98.5
aF98.5
aF81.5
aa(lp644
F100.5
aF100.5
aF100.5
aF100.5
aF81.0
aa(lp645
F101.75
aF101.75
aF101.75
aF101.75
aF80.5
aa(lp646
F100.25
aF100.25
aF100.25
aF100.25
aF80.0
aa(lp647
F100.0
aF100.0
aF100.0
aF100.0
aF80.0
aa(lp648
F99.75
aF99.75
aF99.75
aF99.75
aF80.25
aa(lp649
F99.25
aF99.25
aF99.25
aF99.25
aF96.5
aa(lp650
F100.5
aF100.5
aF100.5
aF100.5
aF80.0
aa(lp651
F96.75
aF96.75
aF96.75
aF96.75
aF80.25
aa(lp652
F99.75
aF99.75
aF99.75
aF99.75
aF81.5
aa(lp653
F101.25
aF101.25
aF101.25
aF101.25
aF101.25
aa(lp654
F98.0
aF98.0
aF98.0
aF98.0
aF98.0
aa(lp655
F101.75
aF101.75
aF101.75
aF101.75
aF80.0
aa(lp656
F98.0
aF98.0
aF98.0
aF98.0
aF80.5
aa(lp657
F101.0
aF101.0
aF101.0
aF101.0
aF101.0
aa(lp658
F97.0
aF97.0
aF97.0
aF97.0
aF97.0
aa(lp659
F100.5
aF100.5
aF100.5
aF100.5
aF80.0
aa(lp660
F101.75
aF101.75
aF101.75
aF101.75
aF101.75
aa(lp661
F97.0
aF97.0
aF97.0
aF97.0
aF80.0
aa(lp662
F100.75
aF100.75
aF100.75
aF100.75
aF81.0
aa(lp663
F100.25
aF100.25
aF100.25
aF100.25
aF80.25
aa(lp664
F99.5
aF99.5
aF99.5
aF99.5
aF80.0
aa(lp665
F94.75
aF94.75
aF94.75
aF94.75
aF94.75
aa(lp666
F99.0
aF99.0
aF99.0
aF99.0
aF80.0
aa(lp667
F101.5
aF101.5
aF101.5
aF101.5
aF80.25
aa(lp668
F99.0
aF99.0
aF99.0
aF99.0
aF80.0
aa(lp669
F101.25
aF101.25
aF101.25
aF101.25
aF80.0
aa(lp670
F100.5
aF100.5
aF100.5
aF100.5
aF80.25
aa(lp671
F99.5
aF99.5
aF99.5
aF99.5
aF80.25
aa(lp672
F101.5
aF101.5
aF101.5
aF101.5
aF80.5
aa(lp673
F101.0
aF101.0
aF101.0
aF101.0
aF80.25
aa(lp674
F98.75
aF98.75
aF98.75
aF98.75
aF81.0
aa(lp675
F99.5
aF99.5
aF99.5
aF99.5
aF80.0
aa(lp676
F95.75
aF95.75
aF95.75
aF95.75
aF80.75
aa(lp677
F97.25
aF97.25
aF97.25
aF97.25
aF97.25
aa(lp678
F98.75
aF98.75
aF98.75
aF98.75
aF80.0
aa(lp679
F98.0
aF98.0
aF98.0
aF98.0
aF80.0
aa(lp680
F101.75
aF101.75
aF101.75
aF101.75
aF80.0
aa(lp681
F101.5
aF101.5
aF101.5
aF101.5
aF101.5
aa(lp682
F101.75
aF101.75
aF101.75
aF101.75
aF81.25
aa(lp683
F101.0
aF101.0
aF101.0
aF101.0
aF80.0
aa(lp684
F98.0
aF98.0
aF98.0
aF98.0
aF80.25
aa(lp685
F100.5
aF100.5
aF100.5
aF100.5
aF80.75
aa(lp686
F101.0
aF101.0
aF101.0
aF101.0
aF101.0
aa(lp687
F98.25
aF98.25
aF98.25
aF98.25
aF80.5
aa(lp688
F97.25
aF97.25
aF97.25
aF97.25
aF80.0
aa(lp689
F98.75
aF98.75
aF98.75
aF98.75
aF80.25
aa(lp690
F100.0
aF100.0
aF100.0
aF100.0
aF80.0
aa(lp691
F101.75
aF101.75
aF85.25
aF101.75
aF80.5
aa(lp692
F96.5
aF96.5
aF96.5
aF96.5
aF96.5
aa(lp693
F99.0
aF99.0
aF99.0
aF99.0
aF80.0
aa(lp694
F99.75
aF99.75
aF99.75
aF99.75
aF80.0
aa(lp695
F99.75
aF99.75
aF99.75
aF99.75
aF80.0
aa(lp696
F99.0
aF99.0
aF99.0
aF99.0
aF80.25
aa(lp697
F101.0
aF101.0
aF101.0
aF101.0
aF80.25
aa(lp698
F100.5
aF100.5
aF100.5
aF100.5
aF80.0
aa(lp699
F102.0
aF102.0
aF102.0
aF102.0
aF80.25
aa(lp700
F101.25
aF101.25
aF101.25
aF101.25
aF80.0
aa(lp701
F99.0
aF99.0
aF99.0
aF99.0
aF80.0
aa(lp702
F100.25
aF100.25
aF100.25
aF100.25
aF80.0
aa(lp703
F100.25
aF100.25
aF100.25
aF100.25
aF80.0
aa(lp704
F99.25
aF99.25
aF99.25
aF99.25
aF80.0
aa(lp705
F98.5
aF98.5
aF98.5
aF98.5
aF85.0
aa(lp706
F100.25
aF100.25
aF100.25
aF100.25
aF100.25
aa(lp707
F100.5
aF100.5
aF100.5
aF100.5
aF80.0
aa(lp708
F100.5
aF100.5
aF100.5
aF100.5
aF100.5
aa(lp709
F100.25
aF100.25
aF100.25
aF100.25
aF80.0
aa(lp710
F90.0
aF90.0
aF90.0
aF90.0
aF81.25
aa(lp711
F90.5
aF90.5
aF90.5
aF90.5
aF80.5
aa(lp712
F100.5
aF100.5
aF100.5
aF100.5
aF100.5
aa(lp713
F96.0
aF96.0
aF96.0
aF96.0
aF80.0
aa(lp714
F102.0
aF102.0
aF102.0
aF102.0
aF80.5
aa(lp715
F98.0
aF98.0
aF98.0
aF98.0
aF83.25
aa(lp716
F98.5
aF98.5
aF98.5
aF98.5
aF80.0
aa(lp717
F93.75
aF93.75
aF93.75
aF93.75
aF93.75
aa(lp718
F98.75
aF98.75
aF98.75
aF98.75
aF80.0
aa(lp719
F99.25
aF99.25
aF99.25
aF99.25
aF80.0
aa(lp720
F101.75
aF101.75
aF101.75
aF101.75
aF80.0
aa(lp721
F99.0
aF99.0
aF99.0
aF99.0
aF99.0
aa(lp722
F100.5
aF100.5
aF100.5
aF100.5
aF80.5
aa(lp723
F100.0
aF100.0
aF100.0
aF100.0
aF80.0
aa(lp724
F101.75
aF101.75
aF101.75
aF101.75
aF80.75
aa(lp725
F99.25
aF99.25
aF99.25
aF99.25
aF99.25
aa(lp726
F100.5
aF100.5
aF100.5
aF100.5
aF80.25
aa(lp727
F98.75
aF98.75
aF98.75
aF98.75
aF98.75
aa(lp728
F100.75
aF100.75
aF100.75
aF100.75
aF100.75
aa(lp729
F93.0
aF93.0
aF93.0
aF93.0
aF80.0
aa(lp730
F98.5
aF98.5
aF98.5
aF98.5
aF80.0
aa(lp731
F100.25
aF100.25
aF100.25
aF100.25
aF80.5
aa(lp732
F99.0
aF99.0
aF99.0
aF99.0
aF80.0
aa(lp733
F100.5
aF100.5
aF100.5
aF100.5
aF80.25
aa(lp734
F101.5
aF101.5
aF101.5
aF101.5
aF81.5
aa(lp735
F101.75
aF101.75
aF101.75
aF101.75
aF80.25
aa(lp736
F100.5
aF100.5
aF100.5
aF100.5
aF80.75
aa(lp737
F99.25
aF99.25
aF99.25
aF99.25
aF99.25
aa(lp738
F100.75
aF100.75
aF100.75
aF100.75
aF80.75
aa(lp739
F99.5
aF99.5
aF99.5
aF99.5
aF80.5
aa(lp740
F100.75
aF100.75
aF100.75
aF100.75
aF80.0
aa(lp741
F100.75
aF100.75
aF100.75
aF100.75
aF80.25
aa(lp742
F101.25
aF101.25
aF101.25
aF101.25
aF80.0
aa(lp743
F97.75
aF97.75
aF97.75
aF97.75
aF80.75
aa(lp744
F99.5
aF99.5
aF99.5
aF99.5
aF99.5
aa(lp745
F99.0
aF99.0
aF99.0
aF99.0
aF80.5
aa(lp746
F96.75
aF96.75
aF96.75
aF96.75
aF80.75
aa(lp747
F97.75
aF97.75
aF97.75
aF97.75
aF80.0
aa(lp748
F100.25
aF100.25
aF99.25
aF100.25
aF80.0
aa(lp749
F90.25
aF90.25
aF90.25
aF90.25
aF90.25
aa(lp750
F101.25
aF101.25
aF101.25
aF101.25
aF101.25
aa(lp751
F98.75
aF98.75
aF98.75
aF98.75
aF80.75
aa(lp752
F97.75
aF97.75
aF97.75
aF97.75
aF80.0
aa(lp753
F95.5
aF95.5
aF95.5
aF95.5
aF80.0
aa(lp754
F100.0
aF100.0
aF100.0
aF100.0
aF80.25
aa(lp755
F98.25
aF98.25
aF98.25
aF98.25
aF80.5
aa(lp756
F101.0
aF101.0
aF101.0
aF101.0
aF81.25
aa(lp757
F98.75
aF98.75
aF98.75
aF98.75
aF80.0
aa(lp758
F101.25
aF101.25
aF101.25
aF101.25
aF101.25
aa(lp759
F99.75
aF99.75
aF99.75
aF99.75
aF80.0
aa(lp760
F100.5
aF100.5
aF100.5
aF100.5
aF100.5
aa(lp761
F101.75
aF101.75
aF101.75
aF101.75
aF80.0
aa(lp762
F98.5
aF98.5
aF98.5
aF98.5
aF80.0
aa(lp763
F100.75
aF100.75
aF100.75
aF89.25
aF80.25
aa(lp764
F101.5
aF101.5
aF101.5
aF101.5
aF80.0
aa(lp765
F98.0
aF98.0
aF98.0
aF98.0
aF98.0
aa(lp766
F97.5
aF97.5
aF97.5
aF97.5
aF97.5
aa(lp767
F100.75
aF100.75
aF100.75
aF100.75
aF100.75
aa(lp768
F100.75
aF100.75
aF100.75
aF100.75
aF80.75
aa(lp769
F100.25
aF100.25
aF100.25
aF100.25
aF80.0
aa(lp770
F101.25
aF101.25
aF101.25
aF101.25
aF80.0
aa(lp771
F97.5
aF97.5
aF97.5
aF97.5
aF80.25
aa(lp772
F101.75
aF101.75
aF101.75
aF101.75
aF80.0
aa(lp773
F101.5
aF101.5
aF101.5
aF101.5
aF101.5
aa(lp774
F100.25
aF100.25
aF100.25
aF100.25
aF80.0
aa(lp775
F101.5
aF99.5
aF101.5
aF101.5
aF80.5
aa(lp776
F101.0
aF101.0
aF101.0
aF101.0
aF101.0
aa(lp777
F99.5
aF99.5
aF99.5
aF99.5
aF80.0
aa(lp778
F100.75
aF100.75
aF100.75
aF100.75
aF100.75
aa(lp779
F101.75
aF101.75
aF101.75
aF101.75
aF80.0
aa(lp780
F100.5
aF100.5
aF100.5
aF100.5
aF80.0
aa(lp781
F102.0
aF102.0
aF102.0
aF102.0
aF80.0
aa(lp782
F101.5
aF101.5
aF101.5
aF101.5
aF80.25
aa(lp783
F101.25
aF101.25
aF101.25
aF101.25
aF80.0
aa(lp784
F99.5
aF99.5
aF99.5
aF99.5
aF80.0
aa(lp785
F99.5
aF99.5
aF99.5
aF99.5
aF80.0
aa(lp786
F99.5
aF99.5
aF99.5
aF99.5
aF80.5
aa(lp787
F102.0
aF102.0
aF102.0
aF102.0
aF80.0
aa(lp788
F101.5
aF101.5
aF101.5
aF101.5
aF86.5
aa(lp789
F96.75
aF96.75
aF96.75
aF96.75
aF80.0
aa(lp790
F100.0
aF100.0
aF100.0
aF100.0
aF80.0
aa(lp791
F99.5
aF99.5
aF99.5
aF99.5
aF80.0
aa(lp792
F102.0
aF102.0
aF102.0
aF102.0
aF102.0
aa(lp793
F99.0
aF99.0
aF99.0
aF99.0
aF80.5
aa(lp794
F99.25
aF99.25
aF99.25
aF99.25
aF82.0
aa(lp795
F100.25
aF100.25
aF100.25
aF100.25
aF80.0
aa(lp796
F89.0
aF89.0
aF89.0
aF89.0
aF89.0
aa(lp797
F97.75
aF97.75
aF97.75
aF97.75
aF97.75
aa(lp798
F100.75
aF100.75
aF100.75
aF100.75
aF100.75
aa(lp799
F100.5
aF100.5
aF100.5
aF100.5
aF91.75
aa(lp800
F94.5
aF94.5
aF94.5
aF94.5
aF81.5
aa(lp801
F101.75
aF101.75
aF101.75
aF101.75
aF80.25
aa(lp802
F95.5
aF95.5
aF95.5
aF95.5
aF80.0
aa(lp803
F98.25
aF98.25
aF98.25
aF98.25
aF80.5
aa(lp804
F89.75
aF89.75
aF89.75
aF89.75
aF83.5
aa(lp805
F99.75
aF99.75
aF99.75
aF99.75
aF81.25
aa(lp806
F99.75
aF99.75
aF99.75
aF87.0
aF80.0
aa(lp807
F99.25
aF99.25
aF99.25
aF99.25
aF99.25
aa(lp808
F97.5
aF97.5
aF97.5
aF97.5
aF81.0
aa(lp809
F100.0
aF100.0
aF100.0
aF100.0
aF80.0
aa(lp810
F101.25
aF101.25
aF101.25
aF101.25
aF80.25
aa(lp811
F101.75
aF101.75
aF101.75
aF101.75
aF80.25
aa(lp812
F101.0
aF101.0
aF101.0
aF101.0
aF101.0
aa(lp813
F101.25
aF101.25
aF101.25
aF101.25
aF80.0
aa(lp814
F99.5
aF99.5
aF99.5
aF99.5
aF80.5
aa(lp815
F101.5
aF101.5
aF101.5
aF101.5
aF80.25
aa(lp816
F100.5
aF100.5
aF100.5
aF100.5
aF80.75
aa(lp817
F101.0
aF101.0
aF101.0
aF101.0
aF80.0
aa(lp818
F100.0
aF100.0
aF100.0
aF100.0
aF80.0
aa(lp819
F97.75
aF97.75
aF97.75
aF97.75
aF80.0
aa(lp820
F101.25
aF101.25
aF101.25
aF101.25
aF101.25
aa(lp821
F99.75
aF99.75
aF99.75
aF99.75
aF80.25
aa(lp822
F100.25
aF100.25
aF100.25
aF100.25
aF100.25
aa(lp823
F101.5
aF101.5
aF101.5
aF101.5
aF101.5
aa(lp824
F100.0
aF100.0
aF100.0
aF100.0
aF80.0
aa(lp825
F102.0
aF102.0
aF102.0
aF102.0
aF80.0
aa(lp826
F100.75
aF100.75
aF100.75
aF100.75
aF80.0
aa(lp827
F101.5
aF101.5
aF101.5
aF101.5
aF81.75
aa(lp828
F93.5
aF93.5
aF93.5
aF93.5
aF80.5
aa(lp829
F100.25
aF100.25
aF100.25
aF100.25
aF80.0
aa(lp830
F96.5
aF96.5
aF96.5
aF96.5
aF80.5
aa(lp831
F100.5
aF100.5
aF100.5
aF100.5
aF80.0
aa(lp832
F101.75
aF101.75
aF101.75
aF101.75
aF80.0
aa(lp833
F101.5
aF101.5
aF101.5
aF101.5
aF81.0
aa(lp834
F99.0
aF99.0
aF99.0
aF99.0
aF80.75
aa(lp835
F97.25
aF97.25
aF97.25
aF97.25
aF97.25
aa(lp836
F99.75
aF99.75
aF99.75
aF99.75
aF80.0
aa(lp837
F101.5
aF101.5
aF101.5
aF101.5
aF80.25
aa(lp838
F98.75
aF98.75
aF98.75
aF98.75
aF80.25
aa(lp839
F101.5
aF101.5
aF101.5
aF101.5
aF81.0
aa(lp840
F101.75
aF101.75
aF101.75
aF101.75
aF85.0
aa(lp841
F101.0
aF101.0
aF101.0
aF101.0
aF80.0
aa(lp842
F94.75
aF94.75
aF94.75
aF94.75
aF84.0
aa(lp843
F94.25
aF94.25
aF94.25
aF94.25
aF80.25
aa(lp844
F101.25
aF101.25
aF101.25
aF101.25
aF81.0
aa(lp845
F100.25
aF100.25
aF100.25
aF100.25
aF100.25
aa(lp846
F101.5
aF101.5
aF101.5
aF101.5
aF80.0
aa(lp847
F101.5
aF101.5
aF101.5
aF101.5
aF80.0
aa(lp848
F99.0
aF99.0
aF99.0
aF99.0
aF80.0
aa(lp849
F97.5
aF97.5
aF97.5
aF97.5
aF97.5
aa(lp850
F101.25
aF101.25
aF101.25
aF101.25
aF82.5
aa(lp851
F100.75
aF100.75
aF100.75
aF100.75
aF80.5
aa(lp852
F101.5
aF101.5
aF101.5
aF101.5
aF80.0
aa(lp853
F100.0
aF100.0
aF100.0
aF100.0
aF100.0
aa(lp854
F101.75
aF101.75
aF101.75
aF101.75
aF80.25
aa(lp855
F89.75
aF89.75
aF89.75
aF89.75
aF81.0
aa(lp856
F101.25
aF101.25
aF101.25
aF101.25
aF82.75
aa(lp857
F101.25
aF101.25
aF101.25
aF101.25
aF80.75
aa(lp858
F99.5
aF99.5
aF99.5
aF99.5
aF80.25
aa(lp859
F97.5
aF97.5
aF97.5
aF97.5
aF80.0
aa(lp860
F95.5
aF95.5
aF95.5
aF95.5
aF95.5
aa(lp861
F101.0
aF101.0
aF101.0
aF101.0
aF80.25
aa(lp862
F101.75
aF101.75
aF101.75
aF101.75
aF80.0
aa(lp863
F101.25
aF101.25
aF101.25
aF101.25
aF101.25
aa(lp864
F102.0
aF102.0
aF102.0
aF102.0
aF80.0
aa(lp865
F100.25
aF100.25
aF100.25
aF100.25
aF80.0
aa(lp866
F99.75
aF99.75
aF99.75
aF99.75
aF99.75
aa(lp867
F98.75
aF98.75
aF98.75
aF81.0
aF80.25
aa(lp868
F101.0
aF101.0
aF101.0
aF101.0
aF80.25
aa(lp869
F99.5
aF99.5
aF99.5
aF99.5
aF80.0
aa(lp870
F97.75
aF97.75
aF97.75
aF97.75
aF80.25
aa(lp871
F101.5
aF101.5
aF101.5
aF101.5
aF80.0
aa(lp872
F97.75
aF97.75
aF97.75
aF97.75
aF80.0
aa(lp873
F91.5
aF91.5
aF91.5
aF91.5
aF80.0
aa(lp874
F100.5
aF100.5
aF100.5
aF100.5
aF81.75
aa(lp875
F88.25
aF88.25
aF88.25
aF88.25
aF88.25
aa(lp876
F96.75
aF96.75
aF96.75
aF96.75
aF80.75
aa(lp877
F98.0
aF98.0
aF98.0
aF98.0
aF80.0
aa(lp878
F101.0
aF101.0
aF101.0
aF101.0
aF80.5
aa(lp879
F99.75
aF99.75
aF99.75
aF99.75
aF99.75
aa(lp880
F101.0
aF101.0
aF101.0
aF101.0
aF80.0
aa(lp881
F101.25
aF101.25
aF101.25
aF101.25
aF80.5
aa(lp882
F98.75
aF98.75
aF98.75
aF98.75
aF80.75
aa(lp883
F100.5
aF100.5
aF100.5
aF100.5
aF80.0
aa(lp884
F99.0
aF99.0
aF99.0
aF99.0
aF80.0
aa(lp885
F98.25
aF98.25
aF98.25
aF98.25
aF98.25
aa(lp886
F100.5
aF100.5
aF81.75
aF100.5
aF80.0
aa(lp887
F99.75
aF99.75
aF99.75
aF99.75
aF82.5
aa(lp888
F95.0
aF95.0
aF95.0
aF95.0
aF80.25
aa(lp889
F100.25
aF100.25
aF100.25
aF100.25
aF82.75
aa(lp890
F97.25
aF97.25
aF97.25
aF97.25
aF97.25
aa(lp891
F100.25
aF100.25
aF100.25
aF100.25
aF80.75
aa(lp892
F101.5
aF101.5
aF101.5
aF101.5
aF81.75
aa(lp893
F102.0
aF102.0
aF102.0
aF102.0
aF80.0
aa(lp894
F100.0
aF100.0
aF100.0
aF100.0
aF80.0
aa(lp895
F99.5
aF99.5
aF99.5
aF99.5
aF80.0
aa(lp896
F101.75
aF101.75
aF101.75
aF101.75
aF80.25
aa(lp897
F98.75
aF98.75
aF98.75
aF98.75
aF80.0
aa(lp898
F95.25
aF95.25
aF95.25
aF95.25
aF81.75
aa(lp899
F99.0
aF99.0
aF99.0
aF99.0
aF80.0
aa(lp900
F98.5
aF98.5
aF98.5
aF98.5
aF80.0
aa(lp901
F101.0
aF101.0
aF101.0
aF101.0
aF80.5
aa(lp902
F100.0
aF100.0
aF100.0
aF100.0
aF80.0
aa(lp903
F95.0
aF95.0
aF95.0
aF95.0
aF80.0
aa(lp904
F102.0
aF102.0
aF102.0
aF102.0
aF80.0
aa(lp905
F99.75
aF99.75
aF99.75
aF99.75
aF99.75
aa(lp906
F101.5
aF101.5
aF101.5
aF101.5
aF80.25
aa(lp907
F101.5
aF101.5
aF101.5
aF101.5
aF101.5
aa(lp908
F96.5
aF96.5
aF96.5
aF96.5
aF80.0
aa(lp909
F101.25
aF101.25
aF101.25
aF101.25
aF80.0
aa(lp910
F98.75
aF98.75
aF98.75
aF98.75
aF80.0
aa(lp911
F93.0
aF93.0
aF93.0
aF93.0
aF93.0
aa(lp912
F100.75
aF100.75
aF100.75
aF100.75
aF100.75
aa(lp913
F99.25
aF99.25
aF99.25
aF99.25
aF80.0
aa(lp914
F102.0
aF102.0
aF102.0
aF102.0
aF88.5
aa(lp915
F101.75
aF101.75
aF101.75
aF101.75
aF80.0
aa(lp916
F99.0
aF99.0
aF99.0
aF99.0
aF99.0
aa(lp917
F97.75
aF97.75
aF97.75
aF97.75
aF80.0
aa(lp918
F99.0
aF99.0
aF99.0
aF99.0
aF99.0
aa(lp919
F102.0
aF102.0
aF102.0
aF102.0
aF80.0
aa(lp920
F101.5
aF101.5
aF101.5
aF101.5
aF81.0
aa(lp921
F100.75
aF100.75
aF100.75
aF100.75
aF100.75
aa(lp922
F95.0
aF95.0
aF95.0
aF95.0
aF91.5
aa(lp923
F101.75
aF101.75
aF101.75
aF101.75
aF80.0
aa(lp924
F99.5
aF99.5
aF99.5
aF99.5
aF80.0
aa(lp925
F99.25
aF99.25
aF87.25
aF99.25
aF99.25
aa(lp926
F99.25
aF99.25
aF99.25
aF99.25
aF82.5
aa(lp927
F101.0
aF101.0
aF101.0
aF101.0
aF80.0
aa(lp928
F100.0
aF100.0
aF100.0
aF100.0
aF82.5
aa(lp929
F101.0
aF101.0
aF101.0
aF101.0
aF80.0
aa(lp930
F101.75
aF101.75
aF101.75
aF101.75
aF80.0
aa(lp931
F100.25
aF100.25
aF100.25
aF100.25
aF80.0
aa(lp932
F102.0
aF102.0
aF102.0
aF102.0
aF102.0
aa(lp933
F98.75
aF98.75
aF98.75
aF98.75
aF80.0
aa(lp934
F101.5
aF101.5
aF101.5
aF101.5
aF80.0
aa(lp935
F102.0
aF102.0
aF102.0
aF102.0
aF102.0
aa(lp936
F88.25
aF99.5
aF88.25
aF88.25
aF88.25
aa(lp937
F97.25
aF97.25
aF97.25
aF97.25
aF86.0
aa(lp938
F96.5
aF96.5
aF96.5
aF96.5
aF80.75
aa(lp939
F98.75
aF98.75
aF98.75
aF98.75
aF80.0
aa(lp940
F98.5
aF98.5
aF98.5
aF98.5
aF98.5
aa(lp941
F94.75
aF94.75
aF94.75
aF87.75
aF80.75
aa(lp942
F100.75
aF100.75
aF100.75
aF100.75
aF80.5
aa(lp943
F100.75
aF100.75
aF100.75
aF100.75
aF80.0
aa(lp944
F96.25
aF96.25
aF96.25
aF96.25
aF96.25
aa(lp945
F102.0
aF102.0
aF102.0
aF102.0
aF80.25
aa(lp946
F101.25
aF101.25
aF101.25
aF101.25
aF80.0
aa(lp947
F96.0
aF96.0
aF96.0
aF96.0
aF96.0
aa(lp948
F101.0
aF101.0
aF101.0
aF101.0
aF80.0
aa(lp949
F100.25
aF100.25
aF100.25
aF100.25
aF80.0
aa(lp950
F100.25
aF100.25
aF100.25
aF100.25
aF81.75
aa(lp951
F98.0
aF98.0
aF98.0
aF98.0
aF80.0
aa(lp952
F100.5
aF100.5
aF100.5
aF100.5
aF80.5
aa(lp953
F98.5
aF98.5
aF98.5
aF98.5
aF80.75
aa(lp954
F99.25
aF99.25
aF99.25
aF99.25
aF80.0
aa(lp955
F100.0
aF100.0
aF100.0
aF100.0
aF80.0
aa(lp956
F99.5
aF99.5
aF99.5
aF99.5
aF99.5
aa(lp957
F101.25
aF101.25
aF101.25
aF83.25
aF80.0
aa(lp958
F102.0
aF102.0
aF102.0
aF102.0
aF80.25
aa(lp959
F99.5
aF99.5
aF99.5
aF99.5
aF99.5
aa(lp960
F98.5
aF98.5
aF98.5
aF98.5
aF80.0
aa(lp961
F100.5
aF100.5
aF100.5
aF100.5
aF100.5
aa(lp962
F100.0
aF98.0
aF100.0
aF100.0
aF85.0
aa(lp963
F100.5
aF100.5
aF100.5
aF100.5
aF80.25
aa(lp964
F100.75
aF100.75
aF100.75
aF100.75
aF80.25
aa(lp965
F93.5
aF93.5
aF93.5
aF93.5
aF93.5
aa(lp966
F102.0
aF102.0
aF102.0
aF102.0
aF80.0
aa(lp967
F100.75
aF100.75
aF100.75
aF100.75
aF100.75
aa(lp968
F95.5
aF95.5
aF95.5
aF95.5
aF80.0
aa(lp969
F98.75
aF98.75
aF98.75
aF98.75
aF81.5
aa(lp970
F101.25
aF101.25
aF101.25
aF101.25
aF80.75
aa(lp971
F99.75
aF99.75
aF99.75
aF99.75
aF80.0
aa(lp972
F101.5
aF101.5
aF101.5
aF101.5
aF101.5
aa(lp973
F101.75
aF101.75
aF101.75
aF101.75
aF81.25
aa(lp974
F101.25
aF101.25
aF101.25
aF101.25
aF80.25
aa(lp975
F96.75
aF96.75
aF96.75
aF96.75
aF96.75
aa(lp976
F99.5
aF99.5
aF99.5
aF99.5
aF80.5
aa(lp977
F100.0
aF100.0
aF100.0
aF100.0
aF100.0
aa(lp978
F95.25
aF95.25
aF95.25
aF95.25
aF82.25
aa(lp979
F101.5
aF101.5
aF101.5
aF101.5
aF80.25
aa(lp980
F101.75
aF101.75
aF101.75
aF101.75
aF101.75
aa(lp981
F100.25
aF100.25
aF100.25
aF100.25
aF100.25
aa(lp982
F102.0
aF102.0
aF102.0
aF102.0
aF80.0
aa(lp983
F96.0
aF96.0
aF96.0
aF96.0
aF96.0
aa(lp984
F101.25
aF101.25
aF101.25
aF101.25
aF80.25
aa(lp985
F100.75
aF100.75
aF100.75
aF100.75
aF80.0
aa(lp986
F100.25
aF100.25
aF100.25
aF100.25
aF80.0
aa(lp987
F100.25
aF100.25
aF100.25
aF86.75
aF80.5
aa(lp988
F101.5
aF101.5
aF101.5
aF101.5
aF80.75
aa(lp989
F101.75
aF101.75
aF101.75
aF101.75
aF80.0
aa(lp990
F99.5
aF99.5
aF99.5
aF99.5
aF80.25
aa(lp991
F100.5
aF100.5
aF100.5
aF100.5
aF80.25
aa(lp992
F82.75
aF97.0
aF97.0
aF97.0
aF97.0
aa(lp993
F98.0
aF98.0
aF98.0
aF98.0
aF80.25
aa(lp994
F99.0
aF99.0
aF99.0
aF99.0
aF99.0
aa(lp995
F92.25
aF92.25
aF92.25
aF92.25
aF80.0
aa(lp996
F101.25
aF101.25
aF101.25
aF101.25
aF101.25
aa(lp997
F101.0
aF101.0
aF101.0
aF101.0
aF80.0
aa(lp998
F102.0
aF102.0
aF102.0
aF102.0
aF80.0
aa(lp999
F93.0
aF93.0
aF93.0
aF93.0
aF80.0
aa(lp1000
F100.25
aF100.25
aF100.25
aF100.25
aF80.0
aa.