4512.4,3862.8,3862.8,3862.8,4176.0
6098.55,5232.0,5232.0,5232.0,5232.0
6037.15,5280.45,5280.45,5280.45,5280.45
5742.75,4602.75,4602.75,4602.75,4602.75
5973.0,5313.0,5313.0,5313.0,5313.0
-402.0,-402.0,-402.0,-402.0,-402.0
6093.75,5200.0,5200.0,5200.0,5200.0
5760.0,4860.0,4860.0,4860.0,4860.0
6009.8,4832.0,4832.0,4832.0,4832.0
6000.0,4800.0,4800.0,4800.0,4800.0
1790.75,1790.75,1790.75,1790.75,1790.75
5905.55,5313.35,5313.35,5313.35,5313.35
5986.75,4991.55,4991.55,4991.55,4991.55
1337.0,1337.0,1337.0,1337.0,1337.0
4176.0,4176.0,4176.0,4176.0,4176.0
6000.0,4800.0,4800.0,4800.0,4800.0
5562.2,4452.5,4452.5,4452.5,4452.5
5865.6,5038.8,5038.8,5038.8,5038.8
5405.4,4704.7,4704.7,4704.7,4704.7
5765.55,5248.75,5248.75,5248.75,5248.75
5160.6,4695.3,4695.3,4695.3,4695.3
4854.6,4228.2,4228.2,4893.75,4228.2
5705.0,5705.0,5705.0,5705.0,5705.0
5901.75,4910.5,4910.5,4910.5,4910.5
5824.35,4861.15,4861.15,4861.15,4861.15
1029.55,1159.35,1159.35,1159.35,1159.35
-404.0,-404.0,-404.0,-404.0,-404.0
197.0,197.0,197.0,197.0,197.0
5513.75,4482.5,4482.5,4482.5,4482.5
5611.0,5068.5,5068.5,5068.5,5068.5
5956.8,4672.0,4672.0,4672.0,4672.0
5984.55,4752.0,4752.0,4752.0,4752.0
-400.0,-400.0,-400.0,-400.0,-400.0
5683.2,4810.0,4810.0,4810.0,4810.0
5984.55,5490.1,5490.1,5490.1,5490.1
6013.15,5119.95,5119.95,5119.95,5119.95
5402.95,4966.5,4966.5,4966.5,4966.5
4544.75,4544.75,4544.75,4544.75,4544.75
5862.35,5022.65,5022.65,5022.65,5022.65
6019.2,4864.0,4864.0,4864.0,4864.0
4508.55,3961.0,3961.0,3961.0,3961.0
3004.6,3012.9,3012.9,3012.9,3012.9
5994.95,4784.0,4784.0,4784.0,4784.0
6123.75,5520.0,5520.0,5520.0,5520.0
6013.15,5119.95,5119.95,5119.95,5119.95
5193.75,4598.2,4598.2,4598.2,4598.2
5870.6,4797.8,4797.8,4797.8,4797.8
6085.8,5152.0,5152.0,5152.0,5152.0
5881.15,4638.45,4638.45,4638.45,4638.45
2994.75,2994.75,2994.75,2994.75,2994.75
6053.95,5505.15,5505.15,5505.15,5505.15
4977.6,4050.4,4050.4,4050.4,4050.4
3717.0,3717.0,3717.0,3717.0,3717.0
4668.75,4220.55,4220.55,4220.55,4220.55
0.0,0.0,0.0,0.0,0.0
5440.0,4447.2,4447.2,4447.2,4447.2
6013.15,5119.95,5119.95,5119.95,5119.95
5989.8,4768.0,4768.0,4768.0,4768.0
6004.95,4816.0,4816.0,4816.0,4816.0
6052.75,5473.05,5473.05,5473.05,5473.05
5984.55,4752.0,4752.0,4752.0,4752.0
3320.75,3320.75,3320.75,3320.75,3320.75
-401.0,-401.0,-401.0,-401.0,-401.0
5781.6,4715.8,4715.8,4715.8,4715.8
4804.8,4461.6,4461.6,4461.6,4461.6
6096.2,5216.0,5216.0,5216.0,5216.0
6009.8,4832.0,4832.0,4832.0,4832.0
5984.55,4752.0,4752.0,4752.0,4752.0
5577.0,4661.8,4661.8,4661.8,4661.8
6052.75,5473.05,5473.05,5473.05,5473.05
5805.8,4604.6,4604.6,4604.6,4604.6
5958.4,4879.2,4879.2,4879.2,4879.2
5796.75,4764.25,4764.25,4764.25,4764.25
5481.0,4756.0,4756.0,4756.0,4756.0
6039.0,5296.5,5296.5,5296.5,5296.5
585.0,585.0,585.0,585.0,585.0
5786.75,4731.95,4731.95,4731.95,4731.95
6082.95,5136.0,5136.0,5136.0,5136.0
5848.0,5572.8,5572.8,5572.8,5572.8
6108.8,5312.0,5312.0,5312.0,5312.0
6070.55,5072.0,5072.0,5072.0,5072.0
5346.6,4362.4,4362.4,4362.4,4362.4
4852.35,4431.55,4431.55,4431.55,4431.55
5529.75,4969.2,4969.2,4969.2,4969.2
5259.15,4293.45,4293.45,4293.45,4293.45
5510.75,5510.75,5510.75,5510.75,5510.75
6113.75,5360.0,5360.0,5360.0,5360.0
5220.55,4339.5,4339.5,4339.5,4339.5
5821.75,5167.8,5167.8,5167.8,5167.8
-398.0,-404.0,-404.0,-404.0,-404.0
6102.95,5936.0,5936.0,5936.0,5936.0
6098.55,5232.0,5232.0,5232.0,5232.0
4069.75,3880.2,3880.2,3880.2,3880.2
5605.95,4566.25,4566.25,4566.25,4566.25
3638.75,3638.75,3638.75,3638.75,3638.75
5722.2,4972.5,4972.5,4972.5,4972.5
5961.6,5216.4,5216.4,5216.4,5216.4
5678.4,5085.6,5085.6,5085.6,5085.6
-407.0,-407.0,-407.0,-407.0,-407.0
6045.0,4960.0,4960.0,4960.0,4960.0
197.0,197.0,197.0,197.0,197.0
6055.15,5569.35,5569.35,5569.35,5569.35
6052.0,5713.8,5713.8,5713.8,5713.8
5975.2,4943.4,4943.4,4943.4,4943.4
5259.15,4293.45,4293.45,4293.45,4293.45
3077.0,3077.0,3077.0,3077.0,3077.0
0.0,0.0,0.0,0.0,0.0
5206.95,4306.5,4306.5,4306.5,4306.5
5796.75,4764.25,4764.25,4764.25,4764.25
4752.0,4032.0,4032.0,4032.0,4032.0
5427.0,4414.5,4414.5,4414.5,4414.5
-402.0,-402.0,-402.0,-402.0,-402.0
6120.95,5456.0,5456.0,5456.0,5456.0
5718.15,4714.2,4714.2,4714.2,4714.2
6039.0,5296.5,5296.5,5296.5,5296.5
5779.95,5508.75,5508.75,5508.75,5508.75
5909.4,4718.7,4718.7,4718.7,4718.7
5860.8,4765.6,4765.6,4765.6,4765.6
6112.2,5344.0,5344.0,5344.0,5344.0
5212.6,4864.2,4288.0,4288.0,4288.0
3401.0,3401.0,3401.0,3401.0,3401.0
5776.35,4699.65,4699.65,4699.65,4699.65
5299.2,4766.4,4766.4,4766.4,4766.4
488.75,488.75,488.75,488.75,488.75
5439.0,4836.3,4836.3,4836.3,4836.3
5696.95,4649.4,4649.4,4649.4,4649.4
2144.75,2144.75,2144.75,2144.75,2144.75
5963.75,5908.7,5908.7,5908.7,5908.7
5445.0,5445.0,5445.0,5445.0,5445.0
-403.0,-403.0,-403.0,-403.0,-403.0
5678.4,5085.6,5085.6,5085.6,5085.6
5619.75,4808.5,4808.5,4808.5,4808.5
2324.6,2165.3,2165.3,2165.3,2165.3
5535.75,5002.0,5002.0,5002.0,5002.0
3158.75,3158.75,3158.75,3158.75,3158.75
5880.0,4830.0,4830.0,4830.0,4830.0
5742.75,4602.75,4602.75,4602.75,4602.75
4804.15,4149.6,4149.6,4149.6,4149.6
4977.6,4050.4,4050.4,4050.4,4050.4
5644.0,5428.2,5428.2,5428.2,5428.2
2994.75,2994.75,2994.75,2994.75,2994.75
4904.35,4012.65,4012.65,4012.65,4012.65
4180.0,3795.0,3795.0,3795.0,3795.0
5675.75,5069.3,5069.3,5069.3,5069.3
5695.95,4858.75,4858.75,4858.75,4858.75
5538.15,4547.7,4547.7,4547.7,4547.7
6106.95,5904.0,5904.0,5904.0,5904.0
1520.0,1520.0,1520.0,1520.0,1520.0
-401.0,-401.0,-401.0,-401.0,-401.0
4978.6,4978.6,4978.6,4978.6,4730.4
5557.8,5149.6,5149.6,5149.6,5149.6
5222.4,4211.2,4211.2,4211.2,4211.2
5118.75,4545.45,4545.45,4545.45,4545.45
6039.0,5296.5,5296.5,5296.5,5296.5
5848.35,4958.05,4958.05,4958.05,4958.05
5441.8,5313.0,5313.0,5313.0,5313.0
6031.0,5232.3,5232.3,5232.3,5232.3
5984.55,4752.0,4752.0,4752.0,4752.0
5957.0,5957.0,5957.0,5957.0,5957.0
6036.8,4928.0,4928.0,4928.0,4928.0
5954.55,5168.1,5168.1,5168.1,5168.1
6045.4,5810.1,5810.1,5810.1,5810.1
5975.2,4943.4,4943.4,4943.4,4943.4
5276.8,4488.0,4488.0,4488.0,4488.0
5952.0,5152.0,5152.0,5152.0,5152.0
5244.75,5244.75,5244.75,5244.75,5244.75
5907.0,5329.5,5329.5,5329.5,5329.5
1428.75,1428.75,1428.75,1428.75,1428.75
5661.0,4987.8,4987.8,4987.8,4987.8
6124.8,5632.0,5632.0,5632.0,5632.0
3872.0,3872.0,3872.0,3872.0,3872.0
5957.0,5184.2,5184.2,5184.2,5184.2
5702.4,4665.6,4665.6,4665.6,4665.6
5776.0,4924.8,4924.8,4924.8,4924.8
4857.6,4664.4,4664.4,4664.4,4664.4
5956.8,4672.0,4672.0,4672.0,4672.0
4544.75,4544.75,4544.75,4544.75,4544.75
5898.4,4686.6,4686.6,4686.6,4686.6
5917.35,4974.9,4974.9,4974.9,4974.9
5695.95,4858.75,4858.75,4858.75,4858.75
4716.0,3864.0,4572.0,3864.0,3864.0
4966.4,4275.2,4275.2,4275.2,4275.2
6037.15,5280.45,5280.45,5280.45,5280.45
5980.8,5409.6,5409.6,5409.6,5409.6
5096.0,4316.0,4316.0,4316.0,4316.0
5760.0,5200.0,5200.0,5200.0,5200.0
5845.35,4717.3,4717.3,4717.3,4717.3
1058.75,1058.75,1058.75,1058.75,1058.75
5940.0,4815.0,4815.0,4815.0,4815.0
5397.8,4493.6,4493.6,4493.6,4493.6
5823.35,4652.9,4652.9,4652.9,4652.9
6037.15,5280.45,5280.45,5280.45,5280.45
6007.15,5087.85,5087.85,5087.85,5087.85
5935.15,4798.95,4798.95,4798.95,4798.95
1968.75,1968.75,1968.75,1968.75,1968.75
5852.0,4974.2,4974.2,4974.2,4974.2
6048.95,4976.0,4976.0,4976.0,4976.0
5673.0,5053.0,5053.0,5053.0,5053.0
5885.55,5151.85,5151.85,5151.85,5151.85
6121.8,5472.0,5472.0,5472.0,5472.0
5946.6,5119.8,5119.8,5119.8,5119.8
1880.0,1880.0,1880.0,1880.0,1880.0
-99.25,-99.25,-99.25,-99.25,-99.25
5221.35,4697.8,4697.8,4697.8,4697.8
5319.0,4441.5,4441.5,4441.5,4441.5
5038.4,4475.6,4475.6,4475.6,4475.6
3794.75,3794.75,3794.75,3794.75,3794.75
2490.75,2490.75,2490.75,2490.75,2490.75
5940.0,4815.0,4815.0,4815.0,4815.0
6091.2,5184.0,5184.0,5184.0,5184.0
4422.6,4001.4,4001.4,4001.4,4001.4
5768.75,5768.75,5768.75,5768.75,5768.75
3045.0,2670.0,2670.0,2670.0,2670.0
5949.35,5135.9,5135.9,5135.9,5135.9
3948.75,3948.75,3948.75,3948.75,3948.75
5432.0,4592.0,4592.0,4592.0,4592.0
1174.9,1174.9,1174.9,1174.9,1246.2
6048.95,4976.0,4976.0,4976.0,4976.0
5310.75,4816.05,4816.05,4816.05,4816.05
5816.95,5135.4,5135.4,5135.4,5135.4
5974.55,5329.1,5329.1,5329.1,5329.1
5965.8,5248.6,5248.6,5248.6,5248.6
4253.15,3563.45,3563.45,3563.45,3563.45
6105.0,5920.0,5920.0,5920.0,5920.0
6060.2,5024.0,5024.0,5024.0,5024.0
6056.55,5008.0,5008.0,5008.0,5008.0
5905.8,4926.6,4926.6,4926.6,4926.6
5790.4,4989.6,4989.6,4989.6,4989.6
6070.55,5072.0,5072.0,5072.0,5072.0
5967.0,4911.3,4911.3,4911.3,4911.3
5772.15,4908.6,4908.6,4908.6,4908.6
5244.0,4567.8,4567.8,4567.8,4567.8
294.75,294.75,294.75,294.75,294.75
6052.8,4992.0,4992.0,4992.0,4992.0
-401.0,-401.0,-401.0,-401.0,-401.0
6023.95,5986.65,5986.65,5986.65,5986.65
5829.0,4669.0,4669.0,4669.0,4669.0
6052.8,4992.0,4992.0,4992.0,4992.0
5391.75,4477.2,4477.2,4477.2,4477.2
5458.75,4496.25,4496.25,4496.25,4496.25
5233.75,4372.5,4372.5,4372.5,4372.5
5082.6,4282.8,4282.8,4282.8,4282.8
-408.0,-408.0,-408.0,-408.0,-408.0
5376.0,4606.0,4606.0,4606.0,4606.0
5816.95,5135.4,5135.4,5135.4,5135.4
5587.2,4694.4,4694.4,4694.4,4694.4
-299.25,-299.25,-299.25,-299.25,-299.25
5956.8,4672.0,4672.0,4672.0,4672.0
6098.55,5232.0,5232.0,5232.0,5232.0
5582.15,4678.1,4678.1,4678.1,4678.1
6082.95,5136.0,5136.0,5136.0,5136.0
-402.0,-402.0,-402.0,-402.0,-402.0
5185.8,4257.0,4257.0,4257.0,4257.0
6036.8,4928.0,4928.0,4928.0,4928.0
5949.4,4847.1,4847.1,4847.1,4847.1
4331.25,4677.75,3730.65,3730.65,3730.65
5707.2,5346.4,5346.4,5346.4,5346.4
5185.8,4257.0,4257.0,4257.0,4257.0
5575.2,4485.0,4485.0,4485.0,4485.0
6105.0,5280.0,5280.0,5280.0,5280.0
5640.75,5640.75,5640.75,5640.75,5640.75
5821.75,5167.8,5167.8,5167.8,5167.8
5997.4,5039.7,5039.7,5039.7,5039.7
3077.0,3077.0,3077.0,3077.0,3077.0
5974.55,5812.1,5812.1,5812.1,5812.1
5865.75,4781.7,4781.7,4781.7,4781.7
4688.75,4688.75,4688.75,4688.75,4688.75
5733.0,4762.8,4762.8,4762.8,4762.8
4176.0,4176.0,4176.0,4176.0,4176.0
6121.8,5472.0,5472.0,5472.0,5472.0
5097.95,4187.15,4187.15,4187.15,4187.15
5274.6,4946.8,4946.8,4946.8,4946.8
293.25,300.75,293.25,293.25,293.25
6060.2,5024.0,5024.0,5024.0,5024.0
2232.0,2232.0,2232.0,2232.0,2232.0
4617.75,3971.5,3971.5,3971.5,3971.5
5911.8,5394.1,5394.1,5394.1,5394.1
5971.35,5296.9,5296.9,5296.9,5296.9
2490.75,2490.75,2490.75,2490.75,2490.75
6045.0,4960.0,4960.0,4960.0,4960.0
6085.8,5152.0,5152.0,5152.0,5152.0
5628.15,4841.1,4841.1,4841.1,4841.1
-400.0,-400.0,-400.0,-400.0,-400.0
2994.75,2994.75,2994.75,2994.75,2994.75
6036.8,4928.0,4928.0,4928.0,4928.0
6049.15,5408.85,5408.85,5408.85,5408.85
5688.0,5150.8,5150.8,5150.8,5150.8
680.75,680.75,680.75,680.75,680.75
5199.2,4435.4,4435.4,4435.4,4435.4
5348.2,4719.0,4719.0,4719.0,4719.0
5875.2,4622.4,4622.4,4622.4,4622.4
1152.0,1152.0,1152.0,1152.0,1152.0
6088.55,5168.0,5168.0,5168.0,5168.0
5222.4,4211.2,4211.2,4211.2,4211.2
5852.0,4974.2,4974.2,4974.2,4974.2
5731.95,5021.25,5021.25,5021.25,5021.25
5845.0,5670.0,5670.0,5670.0,5670.0
776.0,776.0,776.0,776.0,776.0
-402.0,-402.0,-402.0,-402.0,-402.0
5962.55,4688.0,4688.0,4688.0,4688.0
2405.0,2405.0,2405.0,2405.0,2405.0
4253.2,3493.7,3493.7,4394.25,3493.7
5909.6,5361.8,5361.8,5361.8,5361.8
5244.75,5244.75,5244.75,5244.75,5244.75
1880.0,1880.0,1880.0,1880.0,1880.0
965.0,965.0,965.0,965.0,965.0
5753.55,5151.25,5151.25,5151.25,5151.25
6045.0,4960.0,4960.0,4960.0,4960.0
6123.75,5680.0,5680.0,5680.0,5680.0
5887.0,4654.5,4654.5,4654.5,4654.5
5949.35,5135.9,5135.9,5135.9,5135.9
5400.75,4688.25,4688.25,4688.25,4688.25
1880.0,1880.0,1880.0,1880.0,1880.0
5639.55,4663.75,4663.75,4663.75,4663.75
5980.8,5409.6,5409.6,5409.6,5409.6
5902.35,5281.05,5281.05,5281.05,5281.05
5712.0,4522.0,4522.0,4522.0,4522.0
4736.2,3998.4,3998.4,3998.4,3998.4
6009.8,4832.0,4832.0,4832.0,4832.0
4542.6,3819.4,3819.4,3819.4,3819.4
5249.15,4445.85,4445.85,4999.85,4445.85
5421.0,4559.2,4559.2,4559.2,4559.2
5772.15,4908.6,4908.6,4908.6,4908.6
5472.0,5000.8,5000.8,5000.8,5000.8
5529.75,4969.2,4969.2,4969.2,4969.2
2405.0,2405.0,2405.0,2405.0,2405.0
5839.75,5329.8,5329.8,5329.8,5329.8
1316.55,1273.0,1273.0,1273.0,1273.0
6076.95,5104.0,5104.0,5104.0,5104.0
5148.0,4303.0,4303.0,4303.0,4303.0
5903.95,4702.65,4702.65,4702.65,4702.65
5534.35,4725.15,4725.15,4725.15,4725.15
5605.95,4566.25,4566.25,4566.25,4566.25
1880.0,1880.0,1880.0,1880.0,1880.0
5832.0,5832.0,5832.0,5832.0,5832.0
-407.0,-407.0,-407.0,-407.0,-407.0
4834.5,4717.3,4717.3,5728.15,4717.3
488.75,488.75,488.75,488.75,488.75
-408.0,-408.0,-408.0,-408.0,-408.0
2745.0,2745.0,2745.0,2745.0,2745.0
6096.2,5216.0,5216.0,5216.0,5216.0
5801.6,4780.4,4780.4,4780.4,4780.4
5985.0,5635.0,5635.0,5635.0,5635.0
5718.35,4538.15,4538.15,4538.15,4538.15
5962.75,4895.25,4895.25,4895.25,4895.25
-404.0,-404.0,-404.0,-404.0,-404.0
5161.4,4336.1,4336.1,4336.1,4336.1
5909.4,4718.7,4718.7,4718.7,4718.7
4664.75,3959.75,3959.75,3959.75,3959.75
-199.0,-199.0,-199.0,-199.0,-199.0
3017.8,2844.0,2844.0,2844.0,2844.0
4830.75,4830.75,4830.75,4830.75,4830.75
4848.0,4008.0,4008.0,4008.0,4008.0
5793.6,4572.4,4572.4,4572.4,4572.4
1701.0,1701.0,1701.0,1701.0,1701.0
5636.15,4873.7,4873.7,4873.7,4873.7
2232.0,2232.0,2232.0,2232.0,2232.0
5649.75,4519.8,4519.8,4519.8,4519.8
5742.0,5183.75,5183.75,5199.7,5183.75
5811.75,4620.7,4620.7,4620.7,4620.7
5529.75,4969.2,4969.2,4969.2,4969.2
1337.0,1337.0,1337.0,1337.0,1337.0
2828.75,2828.75,2828.75,2828.75,2828.75
4998.0,3932.25,3932.25,4459.0,3932.25
6110.55,5328.0,5328.0,5328.0,5328.0
6013.15,5119.95,5119.95,5119.95,5119.95
4989.6,4195.8,4195.8,4195.8,4195.8
5487.75,4417.3,4417.3,4417.3,4417.3
5935.15,4798.95,4798.95,4798.95,4798.95
1058.75,1058.75,1058.75,1058.75,1058.75
5840.75,4925.75,4925.75,4925.75,4925.75
5817.6,4636.8,4636.8,4636.8,4636.8
5712.0,4522.0,4522.0,4522.0,4522.0
-400.0,-400.0,-400.0,-400.0,-400.0
-399.0,-402.0,-402.0,-402.0,-402.0
5888.0,5168.0,5168.0,5168.0,5168.0
5452.8,4657.6,4657.6,4657.6,4657.6
5967.0,4911.3,4911.3,4911.3,4911.3
4845.75,4613.7,4613.7,4613.7,4613.7
4648.35,3926.05,3926.05,3926.05,3926.05
4760.0,4760.0,4760.0,4760.0,4760.0
5791.8,4748.1,4748.1,4748.1,4748.1
-405.0,-405.0,-405.0,-405.0,-405.0
5718.15,4714.2,4714.2,4714.2,4714.2
2146.35,2318.55,2318.55,2318.55,2318.55
5493.75,4805.2,4805.2,4805.2,4805.2
6096.2,5216.0,5216.0,5216.0,5216.0
5865.75,4781.7,4781.7,4781.7,4781.7
-408.0,-408.0,-408.0,-408.0,-408.0
5986.75,4991.55,4991.55,4991.55,4991.55
1582.6,1549.8,1549.8,1549.8,1549.8
5819.4,5151.6,5151.6,5151.6,5151.6
5549.0,5084.0,5084.0,5084.0,5084.0
5835.4,5281.2,5281.2,5281.2,5281.2
4950.0,4303.2,4303.2,4303.2,4791.6
6050.2,5745.9,5745.9,5745.9,5745.9
5979.2,4736.0,4736.0,4736.0,4736.0
5615.4,4792.2,4792.2,4792.2,4792.2
-406.0,-406.0,-406.0,-406.0,-406.0
5839.75,5329.8,5329.8,5329.8,5329.8
-400.0,-400.0,-400.0,-400.0,-400.0
5953.95,4863.15,4863.15,4863.15,4863.15
4454.05,3824.3,3824.3,4122.0,3824.3
5227.95,4518.15,4518.15,4518.15,4518.15
5644.0,5559.0,5559.0,5559.0,5559.0
4788.0,4246.2,4246.2,4246.2,4246.2
5365.0,4785.0,4785.0,4785.0,4785.0
4483.35,4155.3,4155.3,4155.3,4155.3
5650.95,4938.9,4938.9,4938.9,4938.9
5611.8,4582.5,4582.5,4582.5,4582.5
4489.6,4172.4,4172.4,4172.4,4172.4
488.75,488.75,488.75,488.75,488.75
3528.0,3528.0,3371.2,3528.0,3528.0
4642.75,4152.75,4152.75,4152.75,4152.75
5723.2,4730.4,4730.4,4730.4,4730.4
6054.4,5521.2,5521.2,5521.2,5521.2
5464.8,4512.6,4512.6,4512.6,4512.6
5299.2,4554.0,4554.0,4554.0,4554.0
5776.0,4924.8,4924.8,4924.8,4924.8
1520.0,1520.0,1520.0,1520.0,1520.0
5824.35,4861.15,4861.15,4861.15,4861.15
6048.0,5392.8,5392.8,5392.8,5392.8
6105.0,5920.0,5920.0,5920.0,5920.0
5952.0,5152.0,5152.0,5152.0,5152.0
3323.4,3097.2,3097.2,3097.2,3097.2
6098.55,5232.0,5232.0,5232.0,5232.0
5605.95,4566.25,4566.25,4566.25,4566.25
5801.6,4780.4,4780.4,4780.4,4780.4
6108.8,5312.0,5312.0,5312.0,5312.0
5647.4,4922.6,4922.6,4922.6,4922.6
5082.75,4154.05,4154.05,4154.05,4154.05
6076.95,5104.0,5104.0,5104.0,5104.0
5994.95,4784.0,4784.0,4784.0,4784.0
5902.35,5281.05,5281.05,5281.05,5281.05
5373.0,4428.0,4428.0,4428.0,4428.0
4928.8,4062.6,4062.6,4062.6,4062.6
5768.2,4892.4,4892.4,4892.4,4892.4
5900.6,5264.9,5264.9,5264.9,5264.9
5953.95,4863.15,4863.15,4863.15,4863.15
4830.75,4830.75,4830.75,4830.75,4830.75
98.75,98.75,98.75,98.75,98.75
5040.0,5040.0,5040.0,5040.0,5040.0
5880.35,5119.55,5119.55,5119.55,5119.55
4899.4,4401.6,4401.6,4401.6,4401.6
5656.0,4536.0,4536.0,4536.0,4536.0
5452.8,4657.6,4657.6,4657.6,4657.6
6102.95,5264.0,5264.0,5264.0,5264.0
4472.0,4472.0,4472.0,4472.0,4472.0
6055.0,5617.5,5617.5,5617.5,5617.5
5969.6,5280.8,5280.8,5280.8,5280.8
-404.0,-404.0,-404.0,-404.0,-404.0
6082.95,5136.0,5136.0,5136.0,5136.0
5836.8,4909.6,4909.6,4909.6,4909.6
5392.75,4332.75,4332.75,4332.75,4332.75
965.0,965.0,965.0,965.0,965.0
6014.55,4848.0,4848.0,4848.0,4848.0
3240.0,3240.0,3240.0,3240.0,3240.0
5174.4,4369.2,4369.2,4369.2,4369.2
4596.75,3824.95,3824.95,3824.95,3824.95
5914.75,4734.75,4734.75,4734.75,4734.75
585.0,585.0,585.0,585.0,585.0
5662.15,4552.2,4552.2,4552.2,4552.2
6054.75,5633.55,5633.55,5633.55,5633.55
5870.6,4797.8,4797.8,4797.8,4797.8
1428.75,1428.75,1428.75,1428.75,1428.75
5924.55,5007.1,5007.1,5007.1,5007.1
4663.35,4072.9,4072.9,4072.9,4072.9
6018.75,5152.05,5152.05,5152.05,5152.05
4781.55,4229.35,4229.35,4229.35,4229.35
6010.2,5103.9,5103.9,5103.9,5103.9
5817.6,4636.8,4636.8,4636.8,4636.8
-404.0,-404.0,-404.0,-404.0,-404.0
5639.55,4663.75,4663.75,4663.75,4663.75
6102.95,5264.0,5264.0,5264.0,5264.0
5282.4,4700.2,4700.2,4700.2,4700.2
5427.15,4786.95,4786.95,4786.95,4786.95
5814.4,5119.2,5119.2,5119.2,5119.2
4472.0,4472.0,4472.0,4472.0,4472.0
5442.75,4852.75,4852.75,4852.75,4852.75
585.0,585.0,585.0,585.0,585.0
4444.0,3729.0,3729.0,3729.0,3729.0
5868.75,5054.95,5054.95,5054.95,5054.95
6048.0,5392.8,5392.8,5392.8,5392.8
-199.0,-199.0,-199.0,-199.0,-199.0
4544.75,4544.75,4544.75,4544.75,4544.75
4176.0,4176.0,4176.0,4176.0,4176.0
5286.3,4273.75,4273.75,4273.75,4471.0
4970.75,4970.75,4970.75,4970.75,4970.75
5685.75,5134.5,5134.5,5134.5,5134.5
4953.0,4241.8,4241.8,4241.8,4241.8
5913.6,4958.8,4958.8,4958.8,4958.8
5520.0,4920.0,4920.0,4920.0,4920.0
5560.95,4612.9,4612.9,4612.9,4612.9
5566.4,4629.2,4629.2,4629.2,4629.2
5965.8,5892.6,5892.6,5892.6,5892.6
5003.8,4229.1,4229.1,4229.1,4229.1
776.0,776.0,776.0,776.0,776.0
6028.2,4896.0,4896.0,4896.0,4896.0
1337.0,1337.0,1337.0,1337.0,1337.0
5775.0,5687.5,5687.5,5687.5,5687.5
5319.0,4441.5,4441.5,4441.5,4441.5
-408.0,-408.0,-408.0,-408.0,-408.0
5668.2,4568.4,4568.4,4568.4,4568.4
6085.8,5152.0,5152.0,5152.0,5152.0
6050.2,5424.9,5424.9,5424.9,5424.9
5940.0,4815.0,4815.0,4815.0,4815.0
5427.15,4786.95,4786.95,4786.95,4786.95
4760.0,4760.0,4760.0,4760.0,4760.0
5845.75,5427.0,5427.0,5427.0,5427.0
5587.0,4937.7,4937.7,4937.7,4937.7
5006.1,4477.2,3948.3,3948.3,3948.3
5707.75,4681.8,4681.8,4681.8,4681.8
6076.95,5104.0,5104.0,5104.0,5104.0
6098.55,5968.0,5968.0,5968.0,5968.0
6105.0,5280.0,5280.0,5280.0,5280.0
4025.0,4025.0,4025.0,4025.0,4025.0
5172.75,4745.25,4745.25,4745.25,4745.25
5580.0,4905.0,4905.0,4905.0,4905.0
5817.6,4636.8,4636.8,4636.8,4636.8
5590.2,4943.4,4943.4,5328.4,4943.4
5325.15,4457.95,4457.95,4457.95,4457.95
6040.75,5312.55,5312.55,5312.55,5312.55
5751.4,4827.6,4827.6,4827.6,4827.6
6048.95,4976.0,4976.0,4976.0,4976.0
5937.75,5071.5,5071.5,5071.5,5071.5
5630.4,4471.2,4471.2,4471.2,4471.2
5467.35,4706.8,4706.8,4706.8,4706.8
5320.0,4620.0,4620.0,4620.0,4620.0
5944.75,4831.05,4831.05,4831.05,4831.05
585.0,585.0,585.0,585.0,585.0
6043.95,5344.65,5344.65,5344.65,5344.65
5265.0,4455.0,4455.0,4455.0,4455.0
5887.0,4654.5,4654.5,4654.5,4654.5
4408.95,3757.0,3757.0,3757.0,3757.0
5105.4,4203.7,4203.7,4203.7,4203.7
965.0,965.0,965.0,965.0,965.0
3320.75,3320.75,3320.75,3320.75,3320.75
5321.4,4865.7,4865.7,4865.7,4865.7
5433.55,4430.85,4430.85,4430.85,4430.85
5177.0,5177.0,5177.0,5177.0,5177.0
2831.4,2901.6,2831.4,2831.4,2831.4
5148.0,4303.0,4303.0,4303.0,4303.0
5983.35,5457.9,5457.9,5457.9,5457.9
5909.4,4718.7,4718.7,4718.7,4718.7
6045.0,4960.0,4960.0,4960.0,4960.0
5643.75,4906.3,4906.3,4906.3,4906.3
4472.0,4472.0,4472.0,4472.0,4472.0
-199.0,-199.0,-199.0,-199.0,-199.0
5047.8,4723.5,4723.5,4723.5,4723.5
6123.2,5696.0,5696.0,5696.0,5696.0
5832.75,4893.45,4893.45,4893.45,4893.45
5599.8,5003.1,5003.1,5003.1,5003.1
5233.4,4534.7,4534.7,4534.7,4534.7
680.75,680.75,680.75,680.75,680.75
5167.95,4352.65,4352.65,4352.65,4352.65
4989.6,4195.8,4195.8,4195.8,4195.8
5859.0,5006.5,5006.5,5006.5,5006.5
6116.55,5392.0,5392.0,5392.0,5392.0
5415.35,4542.8,4542.8,4542.8,4542.8
5748.75,5118.75,5118.75,5118.75,5118.75
3515.4,3292.2,3292.2,3292.2,3292.2
4267.75,3676.5,3676.5,3676.5,3676.5
3560.0,3560.0,3560.0,3560.0,3560.0
6048.95,4976.0,4976.0,4976.0,4976.0
5916.75,5571.75,5571.75,5571.75,5571.75
5771.0,4683.5,4683.5,4683.5,4683.5
5027.4,4442.2,4442.2,4442.2,4442.2
6100.8,5248.0,5248.0,5248.0,5248.0
776.0,776.0,776.0,776.0,776.0
4857.6,4448.4,4448.4,4448.4,4448.4
5989.8,4768.0,4768.0,4768.0,4768.0
6046.75,5376.75,5376.75,5376.75,5376.75
5828.2,5216.4,5216.4,5216.4,5216.4
6113.75,5360.0,5360.0,5360.0,5360.0
-407.0,-407.0,-407.0,-407.0,-407.0
6116.55,5392.0,5392.0,5392.0,5392.0
6054.4,5521.2,5521.2,5521.2,5521.2
3794.75,3794.75,3794.75,3794.75,3794.75
3077.0,3077.0,3077.0,3077.0,3077.0
5643.4,4503.6,4503.6,4503.6,4503.6
2912.0,2912.0,2912.0,2912.0,2912.0
5909.4,4718.7,4718.7,4718.7,4718.7
5560.95,4612.9,4612.9,4612.9,4612.9
6124.55,5648.0,5648.0,5648.0,5648.0
5755.8,5167.5,5167.5,5167.5,5167.5
5156.35,4678.65,4678.65,4678.65,4678.65
5482.35,4561.65,4561.65,4561.65,4561.65
5539.0,4741.5,4741.5,4741.5,4741.5
4250.75,4250.75,4250.75,4250.75,4250.75
5868.75,5054.95,5054.95,5054.95,5054.95
5587.0,4937.7,4937.7,4937.7,4937.7
6120.95,5456.0,5456.0,5456.0,5456.0
5440.0,4447.2,4447.2,4447.2,4447.2
5912.75,5410.25,5410.25,5410.25,5410.25
2660.75,2660.75,2660.75,2660.75,2660.75
5816.95,5135.4,5135.4,5135.4,5135.4
5921.0,4991.0,4991.0,4991.0,4991.0
-405.0,-405.0,-405.0,-405.0,-405.0
5982.6,5699.4,5699.4,5699.4,5699.4
5949.4,4847.1,4847.1,4847.1,4847.1
5828.6,4877.3,4877.3,4877.3,4877.3
2013.0,2068.0,2068.0,2068.0,2068.0
5696.0,5216.0,5216.0,5216.0,5216.0
6050.2,5424.9,5424.9,5424.9,5424.9
4325.0,4325.0,4325.0,4325.0,4325.0
-408.0,-408.0,-408.0,-381.0,-408.0
6018.75,5152.05,5152.05,5152.05,5152.05
1610.75,1610.75,1610.75,1610.75,1610.75
3560.0,3560.0,3560.0,3560.0,3560.0
2576.0,2576.0,2576.0,2576.0,2576.0
5875.2,4622.4,4622.4,4622.4,4622.4
6124.95,5584.0,5584.0,5584.0,5584.0
4848.0,4008.0,4008.0,4008.0,4008.0
1058.75,1058.75,1058.75,1058.75,1058.75
4760.1,4428.0,4046.7,4046.7,4046.7
-99.25,-99.25,-99.25,-99.25,-99.25
-407.0,-407.0,-407.0,-407.0,-407.0
5993.95,5023.65,5023.65,5023.65,5023.65
2745.0,2745.0,2745.0,2745.0,2745.0
5268.75,4650.55,4650.55,4650.55,4650.55
2660.75,2660.75,2660.75,2660.75,2660.75
4325.0,4325.0,4325.0,4325.0,4325.0
6055.0,5553.3,5553.3,5553.3,5553.3
5347.95,5014.65,5014.65,5014.65,5014.65
5337.15,4948.45,4948.45,4948.45,4948.45
5901.75,4910.5,4910.5,4910.5,4910.5
5524.75,4692.45,4692.45,4692.45,4692.45
6019.2,4864.0,4864.0,4864.0,4864.0
5959.35,5200.3,5200.3,5200.3,5200.3
5842.15,5362.2,5362.2,5362.2,5362.2
5815.55,4828.85,4828.85,4828.85,4828.85
5233.75,4372.5,4372.5,4372.5,4372.5
5916.6,5587.9,5587.9,5587.9,5587.9
5154.75,4319.55,4319.55,4319.55,4319.55
-402.0,-402.0,-402.0,-402.0,-402.0
5975.2,4943.4,4943.4,4943.4,4943.4
3179.0,3051.5,3051.5,3051.5,3051.5
5168.0,4515.2,4515.2,4515.2,4515.2
4250.75,4250.75,4250.75,4250.75,4250.75
294.75,294.75,294.75,294.75,294.75
5776.8,5395.0,5395.0,5395.0,5395.0
5674.15,4584.6,4584.6,4584.6,4584.6
5956.8,4672.0,4672.0,4672.0,4672.0
5309.8,4587.0,4587.0,4587.0,4587.0
4566.95,4097.0,4097.0,4097.0,4097.0
1520.0,1520.0,1520.0,1520.0,1520.0
4025.0,4025.0,4025.0,4025.0,4025.0
5244.75,5244.75,5244.75,5244.75,5244.75
3585.4,3194.1,3194.1,3194.1,3194.1
6100.8,5248.0,5248.0,5248.0,5248.0
5630.4,4471.2,4471.2,4471.2,4471.2
1828.1,1959.4,1959.4,1959.4,1782.65
5809.0,5086.8,5086.8,5086.8,5086.8
5054.15,4525.7,4525.7,4525.7,4525.7
870.75,870.75,870.75,870.75,870.75
5771.0,4683.5,4683.5,4683.5,4683.5
4794.6,4427.8,4427.8,4427.8,4427.8
5989.8,4768.0,4768.0,4768.0,4768.0
5847.4,5605.2,5605.2,5605.2,5605.2
6080.0,6080.0,6080.0,6080.0,6080.0
5662.15,4552.2,4552.2,4552.2,4552.2
6054.75,5537.25,5537.25,5537.25,5537.25
4050.15,3457.2,3457.2,3457.2,3457.2
5935.15,4798.95,4798.95,4798.95,4798.95
5576.0,5576.0,5576.0,5576.0,5576.0
4783.8,3986.5,3986.5,3986.5,3986.5
6021.4,5168.1,5168.1,5168.1,5168.1
4977.6,4050.4,4050.4,4050.4,4050.4
2380.8,2252.8,2406.4,2406.4,2406.4
3560.0,3560.0,3560.0,3560.0,3560.0
5993.95,5023.65,5023.65,5023.65,5023.65
5847.4,5605.2,5605.2,5605.2,5605.2
5713.0,4698.0,4698.0,4698.0,4698.0
4276.35,3790.15,3790.15,3790.15,3790.15
5105.4,4203.7,4203.7,4203.7,4203.7
5814.4,5119.2,5119.2,5119.2,5119.2
5786.95,4973.4,4973.4,4973.4,4973.4
4100.75,4100.75,4100.75,4100.75,4100.75
5811.75,5103.0,5103.0,5103.0,5103.0
5018.75,4606.25,4606.25,4606.25,4606.25
6102.95,5264.0,5264.0,5264.0,5264.0
4176.0,4176.0,4176.0,4176.0,4176.0
4830.75,4830.75,4830.75,4830.75,4830.75
5893.35,4878.3,4878.3,4878.3,4878.3
5973.75,4720.0,4720.0,4720.0,4720.0
6056.55,5008.0,5008.0,5008.0,5008.0
4488.0,3718.0,3718.0,3718.0,3718.0
5352.55,4735.5,4735.5,4735.5,4735.5
6105.0,5280.0,5280.0,5280.0,5280.0
5193.75,4598.2,4598.2,4598.2,4598.2
-401.0,-401.0,-401.0,-401.0,-401.0
6080.0,5120.0,5120.0,5120.0,5120.0
5386.2,4638.9,4638.9,4638.9,4638.9
2057.0,2057.0,2057.0,2057.0,2057.0
680.75,680.75,680.75,680.75,680.75
-402.0,-402.0,-402.0,-402.0,-402.0
4325.0,4325.0,4325.0,4325.0,4325.0
-404.0,-404.0,-404.0,-404.0,-404.0
6056.55,5008.0,5008.0,5008.0,5008.0
5850.6,4733.4,4733.4,4733.4,4733.4
5602.75,5019.45,5019.45,5019.45,5019.45
5776.35,4699.65,4699.65,4699.65,4699.65
965.0,965.0,965.0,965.0,965.0
5206.95,4306.5,4306.5,4306.5,4306.5
5233.75,4372.5,4372.5,4372.5,4372.5
5811.75,5103.0,5103.0,5103.0,5103.0
6102.95,5264.0,5264.0,5264.0,5264.0
5040.0,5040.0,5040.0,5040.0,5040.0
5691.8,4842.5,4842.5,4842.5,4842.5
5997.4,5039.7,5039.7,5039.7,5039.7
3546.4,2956.8,2956.8,2956.8,3458.4
4550.0,4550.0,4550.0,4550.0,4160.0
6048.95,4976.0,4976.0,4976.0,4976.0
-199.0,-199.0,-199.0,-199.0,-199.0
5244.75,4260.55,4260.55,4260.55,4260.55
5206.95,4306.5,4306.5,4306.5,4306.5
5620.6,5133.9,5133.9,5133.9,5133.9
5743.55,5086.25,5086.25,5086.25,5086.25
3553.0,3876.0,3192.0,3192.0,3192.0
6052.8,4992.0,4992.0,4992.0,4992.0
6098.55,5232.0,5232.0,5232.0,5232.0
6035.2,5264.4,5264.4,5264.4,5264.4
6056.55,5008.0,5008.0,5008.0,5008.0
5890.35,5184.15,5184.15,5184.15,5184.15
5730.75,4570.45,4570.45,4570.45,4570.45
5433.55,4430.85,4430.85,4430.85,4430.85
5222.4,4211.2,4211.2,4211.2,4211.2
5399.8,4349.1,4349.1,4349.1,4349.1
2912.0,2912.0,2912.0,2912.0,2912.0
5707.8,4907.5,4907.5,4907.5,4907.5
1520.0,1520.0,1520.0,1520.0,1520.0
-402.0,-402.0,-402.0,-402.0,-402.0
5445.0,5445.0,5445.0,5445.0,5445.0
5937.75,5071.5,5071.5,5071.5,5071.5
392.0,392.0,392.0,392.0,392.0
2613.6,2395.8,2395.8,2395.8,2395.8
1428.75,1428.75,1428.75,1428.75,1428.75
-99.25,-99.25,-99.25,-99.25,-99.25
5786.75,4731.95,4731.95,4731.95,4731.95
6115.2,5376.0,5376.0,5376.0,5376.0
1244.75,1244.75,1244.75,1244.75,1244.75
5544.0,4564.0,4564.0,4564.0,4564.0
5805.8,4604.6,4604.6,4604.6,4604.6
4176.0,4176.0,4176.0,4176.0,4176.0
5668.2,4568.4,4568.4,4568.4,4568.4
1610.75,1610.75,1610.75,1610.75,1610.75
5870.6,4797.8,4797.8,4797.8,4797.8
5916.75,5539.45,5539.45,5539.45,5539.45
4977.6,4050.4,4050.4,4050.4,4050.4
965.0,965.0,965.0,965.0,965.0
5983.0,4975.5,4975.5,4975.5,4975.5
5054.6,4216.4,4216.4,4216.4,4216.4
5373.0,4428.0,4428.0,4428.0,4428.0
5915.55,5636.35,5636.35,5636.35,5636.35
2047.95,2047.95,2047.95,2047.95,2181.15
5989.8,4768.0,4768.0,4768.0,4768.0
5977.35,5361.3,5361.3,5361.3,5361.3
0.0,0.0,0.0,0.0,0.0
5871.8,5071.1,5071.1,5071.1,5071.1
5957.0,5957.0,5957.0,5957.0,5957.0
5852.0,4974.2,4974.2,4974.2,4974.2
3948.75,3948.75,3948.75,3948.75,3948.75
2745.0,2745.0,2745.0,2745.0,2745.0
6120.95,5456.0,5456.0,5456.0,5456.0
4928.8,4062.6,4062.6,4062.6,4062.6
6040.95,4944.0,4944.0,4944.0,4944.0
6051.15,5440.95,5440.95,5440.95,5440.95
6116.55,5392.0,5392.0,5392.0,5392.0
4325.0,4325.0,4325.0,4325.0,4325.0
5983.0,4975.5,4975.5,4975.5,4975.5
5748.6,4618.9,4618.9,4618.9,4618.9
6124.95,5584.0,5584.0,5584.0,5584.0
5696.95,4649.4,4649.4,4649.4,4649.4
5832.0,5832.0,5832.0,5832.0,5832.0
5850.6,4733.4,4733.4,4733.4,4733.4
6113.75,5360.0,5360.0,5360.0,5360.0
-407.0,-407.0,-407.0,-407.0,-407.0
6067.2,5056.0,5056.0,5056.0,5056.0
5983.0,4975.5,4975.5,4975.5,4975.5
4804.15,4149.6,4149.6,4149.6,4149.6
5969.6,5280.8,5280.8,5280.8,5280.8
776.0,776.0,776.0,776.0,776.0
4655.95,4186.65,4186.65,4186.65,4186.65
4605.6,3841.8,3841.8,3841.8,3841.8
5725.55,4988.75,4988.75,4988.75,4988.75
4760.0,4760.0,4760.0,4760.0,4760.0
6122.55,5712.0,5712.0,5712.0,5712.0
4614.35,3858.65,3858.65,3858.65,3858.65
5840.75,4925.75,4925.75,4925.75,4925.75
6000.75,5055.75,5055.75,5055.75,5055.75
5252.0,4277.0,4277.0,4277.0,4277.0
5668.2,4568.4,4568.4,4568.4,4568.4
6082.95,5136.0,5136.0,5136.0,5136.0
5735.0,5037.5,5037.5,5037.5,5037.5
4851.4,4267.2,4267.2,4267.2,4267.2
6118.95,5424.0,5424.0,5424.0,5424.0
5821.75,5167.8,5167.8,5167.8,5167.8
4963.05,4344.35,5016.85,4344.35,4344.35
2328.75,2098.75,2098.75,2098.75,2098.75
6049.15,5408.85,5408.85,5408.85,5408.85
5466.2,4967.9,4967.9,4967.9,4967.9
392.0,392.0,392.0,392.0,392.0
-199.0,-199.0,-199.0,-199.0,-199.0
6070.55,5072.0,5072.0,5072.0,5072.0
5868.75,5054.95,5054.95,5054.95,5054.95
5852.0,4974.2,4974.2,4974.2,4974.2
5865.75,4781.7,4781.7,4781.7,4781.7
2405.0,2405.0,2405.0,2405.0,2405.0
5984.55,5651.1,5651.1,5651.1,5651.1
5897.6,4894.4,4894.4,4894.4,4894.4
5913.6,4958.8,4958.8,4958.8,4958.8
5924.55,5007.1,5007.1,5007.1,5007.1
5669.55,4761.25,4761.25,4761.25,4761.25
4809.4,4712.1,4712.1,4712.1,4712.1
6037.15,5280.45,5280.45,5280.45,5280.45
2535.0,2372.5,2372.5,2372.5,2372.5
6080.0,6080.0,6080.0,6080.0,6080.0
5293.8,5079.6,5079.6,5079.6,5079.6
6055.0,5553.3,5553.3,5553.3,5553.3
5061.75,4233.0,4233.0,4233.0,4233.0
2151.8,1945.1,1945.1,1945.1,1945.1
5400.75,4688.25,4688.25,4688.25,4688.25
4642.75,4152.75,4152.75,4152.75,4152.75
5570.6,5280.8,5280.8,5280.8,5280.8
4882.4,5290.4,4352.0,4352.0,4352.0
5668.2,4568.4,4568.4,4568.4,4568.4
5885.55,5151.85,5151.85,5151.85,5151.85
6014.55,4848.0,4848.0,4848.0,4848.0
4936.75,4079.25,4079.25,4079.25,4079.25
5779.95,5508.75,5508.75,5508.75,5508.75
5500.95,4449.9,4449.9,4449.9,4449.9
6113.75,5360.0,5360.0,5360.0,5360.0
4970.75,4970.75,4970.75,4970.75,4970.75
2490.75,2490.75,2490.75,2490.75,2490.75
5482.4,5066.6,5066.6,5066.6,5066.6
5870.6,4797.8,4797.8,4797.8,4797.8
6031.0,5232.3,5232.3,5232.3,5232.3
4989.95,4505.75,4505.75,4505.75,4505.75
5985.6,5538.4,5538.4,5538.4,5538.4
5845.35,4717.3,4717.3,4717.3,4717.3
5985.0,5635.0,5635.0,5635.0,5635.0
5841.0,5346.0,5346.0,5346.0,5346.0
6019.2,4864.0,4864.0,4864.0,4864.0
6016.0,5136.0,5136.0,5136.0,5136.0
1880.0,1880.0,1880.0,1880.0,1880.0
3473.75,3080.0,3080.0,3080.0,3080.0
5984.55,4752.0,4752.0,4752.0,4752.0
5829.0,4669.0,4669.0,4669.0,4669.0
5669.55,4761.25,4761.25,4761.25,4761.25
5668.2,4568.4,4568.4,4568.4,4568.4
4795.0,4644.3,4644.3,4644.3,4644.3
5511.2,5461.4,5461.4,5461.4,5461.4
-400.0,-400.0,-400.0,-400.0,-400.0
4875.6,3871.8,3871.8,4313.95,3871.8
5780.0,5525.0,5525.0,5525.0,5525.0
6055.0,5553.3,5553.3,5553.3,5553.3
5760.0,4651.2,4651.2,4651.2,4651.2
1903.8,2183.1,2183.1,2183.1,2183.1
5915.0,5652.5,5652.5,5652.5,5652.5
5074.75,4412.25,4412.25,4412.25,4412.25
2291.4,2519.2,2519.2,2519.2,2519.2
3401.0,3401.0,3401.0,3401.0,3401.0
5152.0,4662.0,4662.0,4662.0,4662.0
5914.75,4734.75,4734.75,4734.75,4734.75
4830.75,4830.75,4830.75,4830.75,4830.75
3872.0,3872.0,3872.0,3872.0,3872.0
5087.4,4642.6,4642.6,4642.6,4642.6
5894.75,5894.75,5894.75,5894.75,5894.75
-99.25,-99.25,-99.25,-99.25,-99.25
4590.0,4156.5,4934.25,4156.5,4156.5
5692.2,5183.4,5183.4,5183.4,5183.4
5943.75,5103.7,5103.7,5103.7,5103.7
5050.05,4124.85,4124.85,4715.95,4124.85
5360.95,4768.5,4768.5,4768.5,4768.5
6120.95,5744.0,5744.0,5744.0,5744.0
5757.95,5183.75,5183.75,5183.75,5183.75
3274.5,3274.5,3274.5,2858.55,3274.5
6040.95,4944.0,4944.0,4944.0,4944.0
5907.0,5329.5,5329.5,5329.5,5329.5
3872.0,3872.0,3872.0,3872.0,3872.0
2331.0,2331.0,2331.0,2331.0,2356.2
5185.8,4257.0,4257.0,4257.0,4257.0
3865.95,3738.15,3738.15,3738.15,3738.15
5913.6,5684.8,5684.8,5684.8,5684.8
4824.0,4529.2,4529.2,4529.2,4529.2
6016.0,5136.0,5136.0,5136.0,5136.0
6048.95,4976.0,4976.0,4976.0,4976.0
6023.95,5184.15,5184.15,5184.15,5184.15
4670.6,4089.8,4089.8,4089.8,4089.8
5985.6,5538.4,5538.4,5538.4,5538.4
5985.35,5618.9,5618.9,5618.9,5618.9
1968.75,1968.75,1968.75,1968.75,1968.75
6037.15,5280.45,5280.45,5280.45,5280.45
4325.0,4325.0,4325.0,4325.0,4325.0
6088.55,5168.0,5168.0,5168.0,5168.0
5462.6,4690.4,4690.4,4690.4,4690.4
5912.75,5410.25,5410.25,5410.25,5410.25
6080.0,5120.0,5120.0,5120.0,5120.0
1058.75,1058.75,1058.75,1058.75,1058.75
5576.0,5576.0,5576.0,5576.0,5576.0
5832.75,4893.45,4893.45,4893.45,4893.45
5957.0,5184.2,5184.2,5184.2,5184.2
6124.2,5536.0,5536.0,5536.0,5536.0
5985.0,5635.0,5635.0,5635.0,5635.0
3872.0,3872.0,3872.0,3872.0,3872.0
5880.0,4830.0,4830.0,4830.0,4830.0
5973.75,4720.0,4720.0,4720.0,4720.0
5768.75,5281.25,5281.25,5281.25,5281.25
5712.0,5542.0,5542.0,5542.0,5542.0
5484.75,5083.05,5083.05,5083.05,5083.05
5772.15,4908.6,4908.6,4908.6,4908.6
5994.95,4784.0,4784.0,4784.0,4784.0
5989.8,4768.0,4768.0,4768.0,4768.0
5760.0,5200.0,5200.0,5200.0,5200.0
1058.75,1058.75,1058.75,1058.75,1058.75
6118.95,5424.0,5424.0,5424.0,5424.0
6009.8,4832.0,4832.0,4832.0,4832.0
6045.0,4960.0,4960.0,4960.0,4960.0
5206.95,4306.5,4306.5,4306.5,4306.5
6123.75,5680.0,5680.0,5680.0,5680.0
5791.8,4748.1,4748.1,4748.1,4748.1
5674.2,4777.5,4777.5,4777.5,4777.5
6054.4,5521.2,5521.2,5521.2,5521.2
5983.0,4975.5,4975.5,4975.5,4975.5
5937.75,5071.5,5071.5,5071.5,5071.5
4791.95,4003.25,4003.25,4003.25,4003.25
5469.15,4984.35,4984.35,4984.35,4984.35
5688.0,5150.8,5150.8,5150.8,5150.8
5888.0,5168.0,5168.0,5168.0,5168.0
4686.4,3897.6,3897.6,3897.6,3897.6
5325.75,4313.2,4313.2,4313.2,4313.2
6125.0,5600.0,5600.0,5600.0,5600.0
5748.6,4618.9,4618.9,4618.9,4618.9
5736.8,4586.6,4586.6,4586.6,4586.6
965.0,965.0,965.0,965.0,965.0
5427.0,4414.5,4414.5,4414.5,4414.5
5141.15,4286.45,4286.45,4286.45,4286.45
5229.95,4227.65,4227.65,4227.65,4227.65
3638.75,3638.75,3638.75,3638.75,3638.75
5610.95,4775.9,4775.9,4775.9,4775.9
2496.9,2300.1,2300.1,2300.1,2023.35
5040.0,5040.0,5040.0,5040.0,5040.0
5160.6,4695.3,4695.3,4695.3,4695.3
195.5,203.0,195.5,195.5,195.5
5957.0,5184.2,5184.2,5184.2,5184.2
5884.55,4846.1,4846.1,4846.1,4846.1
5940.0,4815.0,4815.0,4815.0,4815.0
5582.15,4678.1,4678.1,4678.1,4678.1
5976.0,5345.2,5345.2,5345.2,5345.2
5433.55,4430.85,4430.85,4430.85,4430.85
5233.75,4372.5,4372.5,4372.5,4372.5
5805.8,4604.6,4604.6,4604.6,4604.6
5639.55,4663.75,4663.75,4663.75,4663.75
5668.2,4568.4,4568.4,4568.4,4568.4
6123.2,5504.0,5504.0,5504.0,5504.0
6085.8,5152.0,5152.0,5152.0,5152.0
4245.6,4233.4,4233.4,4233.4,4233.4
4915.2,4288.0,4288.0,4288.0,4288.0
5616.0,5101.2,5101.2,5101.2,5101.2
6091.2,5184.0,5184.0,5184.0,5184.0
6063.75,5040.0,5040.0,5040.0,5040.0
2482.0,2482.0,2482.0,2482.0,2611.2
1058.75,1058.75,1058.75,1058.75,1058.75
965.0,965.0,965.0,965.0,965.0
5004.2,4375.4,4375.4,4375.4,4375.4
3077.0,3077.0,3077.0,3077.0,3077.0
6052.75,5697.75,5697.75,5697.75,5697.75
5930.2,4782.9,4782.9,4782.9,4782.9
3240.0,3240.0,3240.0,3240.0,3240.0
4733.6,4111.4,4111.4,4111.4,4111.4
5796.75,4764.25,4764.25,4764.25,4764.25
5628.75,4631.25,4631.25,4631.25,4631.25
6049.15,5408.85,5408.85,5408.85,5408.85
6063.75,5040.0,5040.0,5040.0,5040.0
1244.75,1244.75,1244.75,1244.75,1244.75
5855.75,4749.5,4749.5,4749.5,4749.5
6124.95,5584.0,5584.0,5584.0,5584.0
5548.0,4774.2,4774.2,4774.2,4774.2
5828.2,5216.4,5216.4,5216.4,5216.4
3240.0,3240.0,3240.0,3240.0,3240.0
2318.75,2318.75,2318.75,2318.75,2318.75
2660.75,2660.75,2660.75,2660.75,2660.75
5850.6,4733.4,4733.4,4733.4,4733.4
6082.95,5136.0,5136.0,5136.0,5136.0
5476.6,4545.3,4545.3,4545.3,4545.3
6076.95,5104.0,5104.0,5104.0,5104.0
5962.55,4688.0,4688.0,4688.0,4688.0
2057.0,2057.0,2057.0,2057.0,2057.0
5353.35,4378.8,4378.8,4378.8,4378.8
6076.95,5104.0,5104.0,5104.0,5104.0
5820.0,4845.0,4845.0,4845.0,4845.0
5705.0,5705.0,5705.0,5705.0,5705.0
5464.8,4512.6,4512.6,4512.6,4512.6
5325.15,4457.95,4457.95,4457.95,4457.95
4755.75,4309.5,4309.5,4309.5,4309.5
5874.75,5087.25,5087.25,5087.25,5087.25
4540.8,4527.6,4527.6,4527.6,4527.6
5909.75,4942.7,4942.7,4942.7,4942.7
6096.2,5216.0,5216.0,5216.0,5216.0
-404.0,-404.0,-404.0,-404.0,-404.0
