N = 5
epsilon = 0.01
s = 1-4 (according to file name)
nSim = 1000
T = 10000

no break rule
Keeps track of how many allsame and s/N-s states there are at the end of the outfile file

Running times
s = 1: 3072s
s = 2: 2890s
s = 3: 2608s
s = 4: 2636s