(lp0
(lp1
F101.75
aF101.75
aF101.75
aF101.75
aF101.75
aa(lp2
F101.0
aF101.0
aF101.0
aF80.5
aF80.5
aa(lp3
F101.0
aF101.0
aF101.0
aF80.25
aF80.25
aa(lp4
F95.25
aF95.25
aF95.25
aF80.0
aF80.0
aa(lp5
F102.0
aF102.0
aF102.0
aF80.0
aF80.0
aa(lp6
F96.0
aF96.0
aF96.0
aF80.0
aF80.0
aa(lp7
F91.5
aF91.5
aF91.5
aF91.5
aF91.5
aa(lp8
F93.0
aF93.0
aF93.0
aF80.0
aF80.0
aa(lp9
F100.5
aF100.5
aF100.5
aF100.5
aF100.5
aa(lp10
F101.75
aF101.75
aF101.75
aF80.5
aF80.5
aa(lp11
F101.75
aF101.75
aF101.75
aF101.75
aF101.75
aa(lp12
F98.75
aF98.75
aF98.75
aF80.0
aF80.0
aa(lp13
F101.25
aF81.75
aF101.25
aF80.25
aF80.25
aa(lp14
F101.0
aF101.0
aF101.0
aF101.0
aF101.0
aa(lp15
F99.0
aF99.0
aF99.0
aF80.0
aF80.0
aa(lp16
F99.0
aF99.0
aF99.0
aF99.0
aF99.0
aa(lp17
F101.25
aF101.25
aF101.25
aF80.0
aF80.0
aa(lp18
F99.0
aF99.0
aF99.0
aF80.0
aF80.0
aa(lp19
F99.0
aF99.0
aF99.0
aF80.5
aF80.5
aa(lp20
F101.25
aF94.0
aF101.25
aF101.25
aF101.25
aa(lp21
F101.75
aF101.75
aF101.75
aF80.0
aF80.0
aa(lp22
F100.0
aF100.0
aF100.0
aF80.75
aF80.75
aa(lp23
F95.0
aF95.0
aF95.0
aF80.0
aF80.0
aa(lp24
F101.0
aF101.0
aF101.0
aF80.25
aF80.25
aa(lp25
F101.25
aF101.25
aF101.25
aF80.0
aF80.0
aa(lp26
F100.5
aF100.5
aF100.5
aF80.75
aF80.75
aa(lp27
F99.75
aF99.75
aF99.75
aF80.0
aF80.0
aa(lp28
F100.25
aF100.25
aF100.25
aF81.5
aF81.5
aa(lp29
F100.5
aF100.5
aF100.5
aF81.0
aF81.0
aa(lp30
F95.5
aF95.5
aF95.5
aF80.75
aF80.75
aa(lp31
F99.75
aF99.75
aF99.75
aF99.75
aF99.75
aa(lp32
F99.0
aF99.0
aF99.0
aF80.25
aF80.25
aa(lp33
F99.0
aF99.0
aF99.0
aF80.75
aF80.75
aa(lp34
F100.5
aF100.5
aF100.5
aF100.5
aF100.5
aa(lp35
F99.75
aF99.75
aF99.75
aF80.5
aF80.5
aa(lp36
F100.75
aF100.75
aF100.75
aF80.0
aF80.0
aa(lp37
F99.5
aF99.5
aF99.5
aF80.5
aF80.5
aa(lp38
F101.75
aF101.75
aF101.75
aF80.0
aF80.0
aa(lp39
F100.25
aF100.25
aF100.25
aF100.25
aF100.25
aa(lp40
F102.0
aF102.0
aF102.0
aF80.75
aF80.75
aa(lp41
F100.25
aF100.25
aF100.25
aF80.25
aF80.25
aa(lp42
F100.5
aF100.5
aF100.5
aF83.25
aF83.25
aa(lp43
F99.0
aF99.0
aF99.0
aF99.0
aF99.0
aa(lp44
F101.75
aF101.75
aF101.75
aF80.25
aF80.25
aa(lp45
F101.5
aF101.5
aF101.5
aF101.5
aF101.5
aa(lp46
F101.75
aF101.75
aF101.75
aF101.75
aF101.75
aa(lp47
F96.0
aF99.5
aF96.0
aF80.5
aF80.5
aa(lp48
F99.5
aF99.5
aF99.5
aF80.25
aF80.25
aa(lp49
F101.0
aF101.0
aF101.0
aF80.0
aF80.0
aa(lp50
F100.5
aF100.5
aF100.5
aF82.5
aF82.5
aa(lp51
F101.0
aF101.0
aF101.0
aF80.25
aF80.25
aa(lp52
F100.5
aF100.5
aF100.5
aF80.75
aF80.75
aa(lp53
F100.75
aF100.75
aF100.75
aF80.0
aF80.0
aa(lp54
F101.5
aF101.5
aF101.5
aF80.0
aF80.0
aa(lp55
F100.25
aF100.25
aF100.25
aF80.0
aF80.0
aa(lp56
F101.5
aF101.5
aF101.5
aF80.5
aF80.5
aa(lp57
F101.5
aF101.5
aF101.5
aF81.0
aF81.0
aa(lp58
F102.0
aF102.0
aF102.0
aF102.0
aF102.0
aa(lp59
F100.75
aF100.75
aF100.75
aF80.25
aF80.25
aa(lp60
F99.75
aF99.75
aF99.75
aF80.0
aF80.0
aa(lp61
F101.5
aF101.5
aF101.5
aF80.5
aF80.5
aa(lp62
F99.5
aF99.5
aF99.5
aF80.25
aF80.25
aa(lp63
F100.0
aF100.0
aF100.0
aF100.0
aF100.0
aa(lp64
F100.5
aF100.5
aF100.5
aF80.25
aF80.25
aa(lp65
F98.5
aF98.5
aF98.5
aF80.25
aF80.25
aa(lp66
F97.25
aF97.25
aF97.25
aF80.5
aF80.5
aa(lp67
F101.0
aF101.0
aF101.0
aF80.5
aF80.5
aa(lp68
F98.75
aF98.75
aF98.75
aF81.75
aF81.75
aa(lp69
F100.5
aF100.5
aF100.5
aF80.25
aF80.25
aa(lp70
F101.25
aF101.25
aF101.25
aF80.25
aF80.25
aa(lp71
F99.5
aF99.5
aF99.5
aF80.25
aF80.25
aa(lp72
F99.75
aF99.75
aF99.75
aF80.0
aF80.0
aa(lp73
F98.5
aF98.5
aF98.5
aF92.25
aF92.25
aa(lp74
F98.25
aF98.25
aF98.25
aF80.0
aF80.0
aa(lp75
F90.5
aF90.5
aF90.5
aF80.0
aF80.0
aa(lp76
F101.0
aF101.0
aF101.0
aF101.0
aF101.0
aa(lp77
F97.25
aF97.25
aF97.25
aF80.0
aF80.0
aa(lp78
F99.75
aF99.75
aF99.75
aF91.0
aF91.0
aa(lp79
F102.0
aF102.0
aF102.0
aF80.0
aF80.0
aa(lp80
F98.25
aF98.25
aF98.25
aF80.25
aF80.25
aa(lp81
F101.75
aF101.75
aF101.75
aF81.5
aF81.5
aa(lp82
F99.25
aF99.25
aF99.25
aF81.25
aF81.25
aa(lp83
F99.5
aF99.5
aF99.5
aF81.0
aF81.0
aa(lp84
F101.75
aF101.75
aF101.75
aF80.25
aF80.25
aa(lp85
F101.5
aF101.5
aF101.5
aF80.75
aF80.75
aa(lp86
F93.5
aF93.5
aF93.5
aF82.0
aF82.0
aa(lp87
F96.5
aF96.5
aF96.5
aF96.5
aF96.5
aa(lp88
F101.5
aF101.5
aF101.5
aF80.25
aF80.25
aa(lp89
F97.25
aF97.25
aF97.25
aF80.25
aF80.25
aa(lp90
F102.0
aF102.0
aF102.0
aF81.25
aF81.25
aa(lp91
F99.25
aF99.25
aF99.25
aF86.5
aF86.5
aa(lp92
F99.5
aF99.5
aF99.5
aF80.0
aF80.0
aa(lp93
F99.0
aF99.0
aF99.0
aF81.0
aF81.0
aa(lp94
F101.25
aF101.25
aF101.25
aF80.0
aF80.0
aa(lp95
F100.25
aF100.25
aF100.25
aF80.5
aF80.5
aa(lp96
F100.75
aF100.75
aF100.75
aF80.0
aF80.0
aa(lp97
F100.5
aF100.5
aF100.5
aF80.75
aF80.75
aa(lp98
F99.0
aF99.0
aF99.0
aF80.0
aF80.0
aa(lp99
F99.25
aF99.25
aF99.25
aF80.0
aF80.0
aa(lp100
F101.0
aF101.0
aF101.0
aF80.0
aF80.0
aa(lp101
F101.25
aF101.25
aF101.25
aF85.25
aF85.25
aa(lp102
F101.75
aF101.75
aF101.75
aF80.0
aF80.0
aa(lp103
F97.75
aF97.75
aF97.75
aF97.75
aF97.75
aa(lp104
F99.25
aF99.25
aF99.25
aF80.0
aF80.0
aa(lp105
F101.5
aF101.5
aF101.5
aF80.25
aF80.25
aa(lp106
F97.5
aF97.5
aF97.5
aF80.0
aF80.0
aa(lp107
F99.75
aF99.75
aF99.75
aF80.0
aF80.0
aa(lp108
F97.75
aF97.75
aF97.75
aF97.75
aF97.75
aa(lp109
F101.5
aF101.5
aF101.5
aF80.0
aF80.0
aa(lp110
F100.0
aF100.0
aF100.0
aF100.0
aF100.0
aa(lp111
F100.75
aF100.75
aF100.75
aF80.25
aF80.25
aa(lp112
F101.75
aF101.75
aF101.75
aF83.0
aF83.0
aa(lp113
F99.0
aF99.0
aF99.0
aF81.25
aF81.25
aa(lp114
F99.0
aF99.0
aF99.0
aF81.0
aF96.5
aa(lp115
F101.25
aF101.25
aF101.25
aF101.25
aF101.25
aa(lp116
F101.0
aF101.0
aF101.0
aF80.25
aF80.25
aa(lp117
F97.75
aF97.75
aF97.75
aF82.25
aF82.25
aa(lp118
F96.0
aF96.0
aF96.0
aF80.25
aF80.25
aa(lp119
F98.25
aF98.25
aF98.25
aF81.25
aF81.25
aa(lp120
F95.75
aF95.75
aF95.75
aF80.25
aF80.25
aa(lp121
F98.75
aF98.75
aF98.75
aF98.75
aF98.75
aa(lp122
F101.5
aF101.5
aF101.5
aF80.0
aF80.0
aa(lp123
F101.0
aF101.0
aF101.0
aF80.0
aF80.0
aa(lp124
F97.5
aF97.5
aF97.5
aF80.0
aF80.0
aa(lp125
F98.75
aF98.75
aF98.75
aF80.25
aF80.25
aa(lp126
F100.25
aF100.25
aF100.25
aF81.25
aF81.25
aa(lp127
F100.75
aF100.75
aF100.75
aF80.0
aF80.0
aa(lp128
F100.75
aF100.75
aF100.75
aF100.75
aF100.75
aa(lp129
F91.5
aF91.5
aF91.5
aF91.5
aF91.5
aa(lp130
F94.5
aF94.5
aF94.5
aF80.0
aF80.0
aa(lp131
F101.5
aF101.5
aF101.5
aF101.5
aF101.5
aa(lp132
F95.5
aF95.5
aF95.5
aF95.5
aF95.5
aa(lp133
F99.25
aF99.25
aF99.25
aF80.5
aF80.5
aa(lp134
F99.5
aF99.5
aF99.5
aF80.0
aF80.0
aa(lp135
F102.0
aF102.0
aF102.0
aF82.0
aF82.0
aa(lp136
F100.0
aF100.0
aF100.0
aF80.0
aF80.0
aa(lp137
F100.0
aF100.0
aF100.0
aF100.0
aF100.0
aa(lp138
F100.25
aF100.25
aF100.25
aF80.25
aF80.25
aa(lp139
F101.5
aF101.5
aF101.5
aF80.0
aF80.0
aa(lp140
F102.0
aF102.0
aF102.0
aF80.0
aF80.0
aa(lp141
F99.0
aF99.0
aF99.0
aF80.0
aF80.0
aa(lp142
F100.25
aF100.25
aF100.25
aF100.25
aF100.25
aa(lp143
F101.0
aF101.0
aF101.0
aF80.0
aF80.0
aa(lp144
F97.0
aF97.0
aF97.0
aF80.0
aF80.0
aa(lp145
F101.5
aF101.5
aF101.5
aF80.0
aF80.0
aa(lp146
F101.75
aF101.75
aF101.75
aF80.0
aF80.0
aa(lp147
F99.75
aF99.75
aF99.75
aF80.0
aF80.0
aa(lp148
F94.25
aF94.25
aF94.25
aF80.0
aF80.0
aa(lp149
F101.75
aF101.75
aF101.75
aF101.75
aF101.75
aa(lp150
F101.5
aF101.5
aF101.5
aF99.5
aF99.5
aa(lp151
F99.25
aF99.25
aF99.25
aF80.25
aF80.25
aa(lp152
F101.0
aF101.0
aF101.0
aF101.0
aF101.0
aa(lp153
F98.75
aF98.75
aF98.75
aF98.75
aF98.75
aa(lp154
F95.75
aF95.75
aF95.75
aF84.5
aF84.5
aa(lp155
F94.0
aF94.0
aF94.0
aF80.0
aF80.0
aa(lp156
F99.25
aF99.25
aF99.25
aF80.0
aF80.0
aa(lp157
F97.25
aF97.25
aF97.25
aF97.25
aF97.25
aa(lp158
F102.0
aF102.0
aF102.0
aF80.0
aF80.0
aa(lp159
F102.0
aF102.0
aF102.0
aF80.0
aF80.0
aa(lp160
F100.25
aF100.25
aF100.25
aF80.0
aF80.0
aa(lp161
F99.25
aF99.25
aF99.25
aF80.25
aF80.25
aa(lp162
F101.25
aF101.25
aF101.25
aF80.0
aF80.0
aa(lp163
F98.25
aF98.25
aF98.25
aF81.0
aF81.0
aa(lp164
F100.75
aF100.75
aF100.75
aF100.75
aF100.75
aa(lp165
F100.75
aF100.75
aF100.75
aF80.0
aF80.0
aa(lp166
F100.5
aF100.5
aF100.5
aF80.25
aF80.25
aa(lp167
F99.75
aF99.75
aF99.75
aF80.25
aF80.25
aa(lp168
F100.25
aF100.25
aF100.25
aF80.0
aF80.0
aa(lp169
F100.5
aF100.5
aF100.5
aF80.25
aF80.25
aa(lp170
F98.0
aF98.0
aF98.0
aF98.0
aF98.0
aa(lp171
F92.0
aF92.0
aF92.0
aF84.25
aF84.25
aa(lp172
F100.0
aF100.0
aF100.0
aF80.25
aF80.25
aa(lp173
F101.0
aF101.0
aF101.0
aF81.25
aF81.25
aa(lp174
F100.75
aF100.75
aF100.75
aF82.25
aF82.25
aa(lp175
F101.75
aF101.75
aF101.75
aF80.0
aF80.0
aa(lp176
F99.0
aF99.0
aF99.0
aF80.0
aF96.0
aa(lp177
F100.25
aF100.25
aF100.25
aF81.25
aF81.25
aa(lp178
F98.5
aF98.5
aF98.5
aF80.0
aF80.0
aa(lp179
F94.5
aF94.5
aF94.5
aF80.25
aF80.25
aa(lp180
F101.0
aF101.0
aF101.0
aF80.25
aF80.25
aa(lp181
F100.5
aF100.5
aF100.5
aF86.25
aF86.25
aa(lp182
F99.5
aF99.5
aF99.5
aF81.25
aF81.25
aa(lp183
F98.75
aF98.75
aF98.75
aF81.75
aF81.75
aa(lp184
F95.0
aF95.0
aF95.0
aF95.0
aF95.0
aa(lp185
F98.5
aF98.5
aF98.5
aF98.5
aF98.5
aa(lp186
F98.75
aF98.75
aF98.75
aF82.5
aF82.5
aa(lp187
F99.0
aF99.0
aF99.0
aF80.0
aF80.0
aa(lp188
F98.75
aF98.75
aF98.75
aF85.5
aF85.5
aa(lp189
F99.25
aF99.25
aF99.25
aF80.0
aF80.0
aa(lp190
F99.75
aF99.75
aF99.75
aF81.75
aF81.75
aa(lp191
F100.5
aF100.5
aF100.5
aF80.25
aF80.25
aa(lp192
F99.5
aF99.5
aF99.5
aF99.5
aF99.5
aa(lp193
F99.0
aF99.0
aF99.0
aF80.75
aF80.75
aa(lp194
F99.0
aF99.0
aF99.0
aF81.5
aF81.5
aa(lp195
F98.0
aF98.0
aF98.0
aF98.0
aF98.0
aa(lp196
F100.0
aF100.0
aF100.0
aF82.25
aF82.25
aa(lp197
F96.75
aF96.75
aF96.75
aF80.25
aF80.25
aa(lp198
F100.25
aF100.25
aF100.25
aF81.25
aF81.25
aa(lp199
F101.5
aF101.5
aF101.5
aF80.25
aF80.25
aa(lp200
F101.5
aF101.5
aF101.5
aF80.75
aF80.75
aa(lp201
F102.0
aF102.0
aF102.0
aF85.25
aF85.25
aa(lp202
F101.25
aF101.25
aF101.25
aF80.75
aF80.75
aa(lp203
F99.0
aF99.0
aF99.0
aF80.25
aF80.25
aa(lp204
F96.0
aF96.0
aF96.0
aF96.0
aF96.0
aa(lp205
F101.25
aF101.25
aF101.25
aF80.0
aF80.0
aa(lp206
F100.5
aF100.5
aF100.5
aF81.5
aF81.5
aa(lp207
F98.5
aF98.5
aF98.5
aF98.5
aF98.5
aa(lp208
F101.75
aF101.75
aF101.75
aF80.0
aF80.0
aa(lp209
F98.5
aF98.5
aF98.5
aF80.5
aF80.5
aa(lp210
F97.0
aF97.0
aF97.0
aF80.0
aF80.0
aa(lp211
F99.5
aF99.5
aF99.5
aF84.0
aF84.0
aa(lp212
F101.75
aF101.75
aF101.75
aF101.75
aF101.75
aa(lp213
F90.5
aF90.5
aF90.5
aF90.5
aF90.5
aa(lp214
F100.5
aF100.5
aF100.5
aF80.0
aF80.0
aa(lp215
F99.5
aF99.5
aF99.5
aF99.5
aF99.5
aa(lp216
F96.25
aF96.25
aF96.25
aF80.0
aF80.0
aa(lp217
F99.0
aF99.0
aF99.0
aF80.0
aF80.0
aa(lp218
F94.75
aF94.75
aF94.75
aF94.75
aF94.75
aa(lp219
F100.75
aF100.75
aF100.75
aF80.5
aF80.5
aa(lp220
F94.75
aF94.75
aF94.75
aF94.75
aF94.75
aa(lp221
F100.0
aF100.0
aF100.0
aF80.25
aF80.25
aa(lp222
F98.25
aF98.25
aF98.25
aF80.75
aF80.75
aa(lp223
F101.75
aF101.75
aF101.75
aF80.0
aF80.0
aa(lp224
F92.5
aF92.5
aF92.5
aF92.5
aF92.5
aa(lp225
F101.25
aF101.25
aF101.25
aF80.0
aF80.0
aa(lp226
F99.0
aF99.0
aF99.0
aF80.25
aF80.25
aa(lp227
F101.25
aF101.25
aF101.25
aF80.0
aF80.0
aa(lp228
F100.0
aF100.0
aF100.0
aF81.5
aF81.5
aa(lp229
F101.25
aF101.25
aF101.25
aF80.0
aF80.0
aa(lp230
F101.75
aF101.75
aF101.75
aF101.75
aF101.75
aa(lp231
F100.5
aF100.5
aF100.5
aF80.0
aF80.0
aa(lp232
F101.5
aF101.5
aF101.5
aF81.75
aF81.75
aa(lp233
F89.25
aF89.25
aF89.25
aF89.25
aF89.25
aa(lp234
F100.0
aF85.5
aF100.0
aF80.0
aF80.0
aa(lp235
F99.0
aF99.0
aF99.0
aF80.75
aF80.75
aa(lp236
F98.75
aF98.75
aF98.75
aF80.0
aF80.0
aa(lp237
F101.75
aF101.75
aF101.75
aF80.0
aF80.0
aa(lp238
F98.75
aF81.25
aF98.75
aF80.0
aF80.0
aa(lp239
F99.25
aF99.25
aF99.25
aF99.25
aF99.25
aa(lp240
F100.0
aF100.0
aF100.0
aF80.0
aF80.0
aa(lp241
F100.75
aF100.75
aF100.75
aF80.75
aF80.75
aa(lp242
F99.0
aF99.0
aF99.0
aF80.25
aF80.25
aa(lp243
F101.25
aF101.25
aF101.25
aF80.25
aF80.25
aa(lp244
F100.0
aF100.0
aF100.0
aF80.0
aF80.0
aa(lp245
F101.0
aF101.0
aF101.0
aF80.0
aF80.0
aa(lp246
F99.0
aF99.0
aF99.0
aF80.5
aF80.5
aa(lp247
F100.0
aF100.0
aF100.0
aF81.0
aF81.0
aa(lp248
F99.25
aF99.25
aF99.25
aF87.0
aF87.0
aa(lp249
F101.0
aF101.0
aF101.0
aF80.0
aF80.0
aa(lp250
F98.25
aF98.25
aF98.25
aF80.0
aF80.0
aa(lp251
F100.25
aF100.25
aF100.25
aF100.25
aF100.25
aa(lp252
F99.5
aF99.5
aF99.5
aF81.0
aF81.0
aa(lp253
F100.0
aF100.0
aF100.0
aF80.25
aF80.25
aa(lp254
F101.75
aF101.75
aF101.75
aF80.0
aF80.0
aa(lp255
F102.0
aF102.0
aF102.0
aF102.0
aF102.0
aa(lp256
F102.0
aF102.0
aF102.0
aF102.0
aF102.0
aa(lp257
F101.25
aF101.25
aF101.25
aF81.25
aF81.25
aa(lp258
F100.75
aF100.75
aF100.75
aF80.0
aF80.0
aa(lp259
F100.25
aF100.25
aF100.25
aF80.25
aF80.25
aa(lp260
F102.0
aF102.0
aF102.0
aF80.0
aF80.0
aa(lp261
F93.5
aF93.5
aF93.5
aF80.0
aF80.0
aa(lp262
F93.5
aF93.5
aF93.5
aF80.5
aF80.5
aa(lp263
F97.0
aF97.0
aF97.0
aF97.0
aF97.0
aa(lp264
F99.5
aF99.5
aF99.5
aF99.5
aF99.5
aa(lp265
F99.0
aF99.0
aF99.0
aF80.0
aF80.0
aa(lp266
F100.25
aF100.25
aF100.25
aF80.5
aF80.5
aa(lp267
F101.5
aF101.5
aF101.5
aF101.5
aF101.5
aa(lp268
F101.25
aF101.25
aF101.25
aF80.5
aF80.5
aa(lp269
F91.75
aF94.25
aF94.25
aF80.0
aF80.0
aa(lp270
F99.75
aF99.75
aF99.75
aF80.75
aF80.75
aa(lp271
F100.25
aF100.25
aF100.25
aF80.25
aF80.25
aa(lp272
F90.75
aF90.75
aF90.75
aF80.0
aF80.0
aa(lp273
F95.75
aF95.75
aF95.75
aF80.25
aF80.25
aa(lp274
F101.25
aF101.25
aF101.25
aF80.0
aF80.0
aa(lp275
F97.75
aF97.75
aF97.75
aF81.0
aF81.0
aa(lp276
F100.0
aF100.0
aF100.0
aF80.0
aF80.0
aa(lp277
F101.25
aF101.25
aF101.25
aF101.25
aF101.25
aa(lp278
F101.5
aF101.5
aF101.5
aF80.0
aF80.0
aa(lp279
F102.0
aF102.0
aF102.0
aF80.25
aF80.25
aa(lp280
F101.5
aF101.5
aF101.5
aF80.0
aF80.0
aa(lp281
F94.0
aF94.0
aF94.0
aF80.0
aF80.0
aa(lp282
F97.75
aF97.75
aF97.75
aF80.0
aF80.0
aa(lp283
F102.0
aF102.0
aF102.0
aF98.0
aF80.0
aa(lp284
F99.5
aF99.5
aF99.5
aF80.25
aF80.25
aa(lp285
F96.25
aF96.25
aF96.25
aF80.25
aF80.25
aa(lp286
F101.0
aF101.0
aF101.0
aF80.0
aF80.0
aa(lp287
F99.0
aF99.0
aF88.25
aF80.25
aF80.25
aa(lp288
F99.75
aF82.5
aF99.75
aF80.25
aF80.25
aa(lp289
F98.5
aF98.5
aF98.5
aF80.0
aF80.0
aa(lp290
F100.75
aF100.75
aF100.75
aF80.25
aF80.25
aa(lp291
F98.75
aF98.75
aF98.75
aF83.5
aF83.5
aa(lp292
F100.5
aF100.5
aF100.5
aF100.5
aF100.5
aa(lp293
F99.25
aF99.25
aF99.25
aF99.25
aF99.25
aa(lp294
F99.0
aF99.0
aF99.0
aF82.25
aF82.25
aa(lp295
F96.25
aF96.25
aF96.25
aF80.0
aF80.0
aa(lp296
F101.25
aF101.25
aF101.25
aF101.25
aF101.25
aa(lp297
F92.0
aF92.0
aF92.0
aF92.0
aF92.0
aa(lp298
F101.0
aF101.0
aF101.0
aF84.5
aF84.5
aa(lp299
F100.25
aF100.25
aF100.25
aF80.0
aF80.0
aa(lp300
F100.75
aF100.75
aF100.75
aF80.0
aF80.0
aa(lp301
F100.25
aF100.25
aF100.25
aF89.25
aF89.25
aa(lp302
F96.0
aF96.0
aF96.0
aF80.0
aF80.0
aa(lp303
F98.5
aF98.5
aF98.5
aF86.0
aF86.0
aa(lp304
F100.0
aF100.0
aF100.0
aF80.0
aF80.0
aa(lp305
F101.25
aF101.25
aF101.25
aF101.25
aF101.25
aa(lp306
F97.5
aF97.5
aF97.5
aF80.0
aF80.0
aa(lp307
F101.75
aF101.75
aF101.75
aF80.0
aF80.0
aa(lp308
F98.75
aF98.75
aF98.75
aF80.0
aF80.0
aa(lp309
F99.25
aF99.25
aF99.25
aF80.5
aF80.5
aa(lp310
F102.0
aF102.0
aF102.0
aF80.25
aF80.25
aa(lp311
F101.5
aF101.5
aF101.5
aF101.5
aF101.5
aa(lp312
F98.25
aF98.25
aF98.25
aF80.25
aF80.25
aa(lp313
F99.5
aF99.5
aF99.5
aF99.5
aF99.5
aa(lp314
F101.0
aF101.0
aF101.0
aF81.5
aF81.5
aa(lp315
F94.25
aF94.25
aF94.25
aF80.0
aF80.0
aa(lp316
F95.0
aF95.0
aF95.0
aF95.0
aF95.0
aa(lp317
F100.75
aF100.75
aF100.75
aF80.25
aF80.25
aa(lp318
F94.75
aF94.75
aF94.75
aF80.0
aF80.0
aa(lp319
F102.0
aF102.0
aF102.0
aF102.0
aF102.0
aa(lp320
F100.75
aF100.75
aF100.75
aF82.75
aF82.75
aa(lp321
F100.0
aF100.0
aF100.0
aF80.0
aF80.0
aa(lp322
F100.25
aF100.25
aF100.25
aF80.5
aF80.5
aa(lp323
F98.25
aF98.25
aF98.25
aF81.0
aF81.0
aa(lp324
F98.75
aF98.75
aF98.75
aF80.0
aF80.0
aa(lp325
F102.0
aF102.0
aF102.0
aF80.25
aF80.25
aa(lp326
F99.5
aF99.5
aF99.5
aF80.25
aF80.25
aa(lp327
F96.75
aF96.75
aF96.75
aF90.5
aF90.5
aa(lp328
F99.25
aF99.25
aF99.25
aF80.5
aF80.5
aa(lp329
F101.25
aF101.25
aF101.25
aF81.0
aF81.0
aa(lp330
F100.0
aF100.0
aF100.0
aF80.25
aF80.25
aa(lp331
F100.25
aF100.0
aF100.25
aF100.25
aF100.25
aa(lp332
F97.25
aF97.25
aF97.25
aF80.25
aF80.25
aa(lp333
F95.0
aF95.0
aF95.0
aF95.0
aF95.0
aa(lp334
F91.75
aF91.75
aF91.75
aF91.75
aF91.75
aa(lp335
F101.5
aF101.5
aF101.5
aF80.0
aF80.0
aa(lp336
F97.5
aF97.5
aF97.5
aF80.5
aF80.5
aa(lp337
F95.25
aF95.25
aF95.25
aF80.0
aF80.0
aa(lp338
F100.0
aF100.0
aF100.0
aF80.0
aF80.0
aa(lp339
F99.75
aF80.75
aF99.75
aF80.0
aF80.0
aa(lp340
F100.25
aF100.25
aF100.25
aF80.25
aF80.25
aa(lp341
F97.75
aF97.75
aF97.75
aF80.0
aF80.0
aa(lp342
F101.5
aF101.5
aF101.5
aF81.0
aF81.0
aa(lp343
F101.0
aF101.0
aF101.0
aF80.0
aF80.0
aa(lp344
F99.25
aF99.25
aF99.25
aF99.25
aF99.25
aa(lp345
F102.0
aF97.75
aF102.0
aF80.75
aF80.75
aa(lp346
F100.5
aF100.5
aF100.5
aF80.0
aF80.0
aa(lp347
F101.5
aF101.5
aF101.5
aF80.0
aF80.0
aa(lp348
F100.25
aF100.25
aF100.25
aF80.0
aF80.0
aa(lp349
F101.0
aF101.0
aF101.0
aF80.0
aF80.0
aa(lp350
F100.75
aF100.75
aF100.75
aF90.5
aF90.5
aa(lp351
F100.75
aF100.75
aF100.75
aF100.75
aF100.75
aa(lp352
F97.0
aF97.0
aF97.0
aF80.0
aF80.0
aa(lp353
F97.0
aF97.0
aF97.0
aF97.0
aF97.0
aa(lp354
F99.25
aF99.25
aF99.25
aF99.25
aF99.25
aa(lp355
F99.5
aF99.5
aF99.5
aF83.5
aF83.5
aa(lp356
F100.5
aF100.5
aF100.5
aF82.5
aF82.5
aa(lp357
F102.0
aF102.0
aF102.0
aF80.75
aF80.75
aa(lp358
F101.25
aF101.25
aF101.25
aF80.0
aF80.0
aa(lp359
F102.0
aF102.0
aF102.0
aF84.75
aF84.75
aa(lp360
F102.0
aF102.0
aF102.0
aF102.0
aF102.0
aa(lp361
F98.5
aF96.25
aF96.25
aF80.25
aF80.25
aa(lp362
F100.5
aF100.5
aF100.5
aF81.25
aF81.25
aa(lp363
F99.75
aF99.75
aF99.75
aF80.75
aF80.75
aa(lp364
F102.0
aF102.0
aF102.0
aF80.0
aF80.0
aa(lp365
F97.75
aF97.75
aF97.75
aF80.25
aF80.25
aa(lp366
F96.5
aF96.5
aF96.5
aF80.25
aF80.25
aa(lp367
F100.5
aF100.5
aF100.5
aF80.25
aF80.25
aa(lp368
F101.25
aF101.25
aF101.25
aF80.0
aF80.0
aa(lp369
F99.25
aF99.25
aF99.25
aF80.25
aF80.25
aa(lp370
F101.25
aF101.25
aF101.25
aF80.25
aF80.25
aa(lp371
F100.5
aF100.5
aF100.5
aF100.5
aF100.5
aa(lp372
F102.0
aF102.0
aF102.0
aF82.25
aF82.25
aa(lp373
F101.75
aF101.75
aF101.75
aF80.0
aF80.0
aa(lp374
F97.75
aF97.75
aF97.75
aF97.75
aF97.75
aa(lp375
F101.0
aF101.0
aF101.0
aF80.0
aF80.0
aa(lp376
F99.75
aF99.75
aF99.75
aF80.0
aF80.0
aa(lp377
F100.5
aF100.5
aF100.5
aF100.5
aF100.5
aa(lp378
F98.5
aF98.5
aF98.5
aF80.25
aF80.25
aa(lp379
F99.0
aF99.0
aF99.0
aF80.0
aF80.0
aa(lp380
F101.0
aF101.0
aF101.0
aF80.25
aF80.25
aa(lp381
F100.5
aF100.5
aF100.5
aF100.5
aF100.5
aa(lp382
F102.0
aF102.0
aF100.0
aF80.0
aF80.0
aa(lp383
F100.25
aF100.25
aF100.25
aF82.0
aF82.0
aa(lp384
F102.0
aF102.0
aF102.0
aF80.25
aF80.25
aa(lp385
F100.75
aF100.75
aF100.75
aF80.5
aF80.5
aa(lp386
F100.0
aF100.0
aF100.0
aF80.25
aF80.25
aa(lp387
F99.5
aF99.5
aF99.5
aF84.75
aF84.75
aa(lp388
F100.0
aF100.0
aF100.0
aF80.0
aF80.0
aa(lp389
F99.0
aF99.0
aF99.0
aF99.0
aF99.0
aa(lp390
F99.25
aF99.25
aF99.25
aF80.0
aF80.0
aa(lp391
F101.75
aF101.75
aF101.75
aF93.0
aF93.0
aa(lp392
F94.25
aF94.25
aF94.25
aF80.0
aF80.0
aa(lp393
F100.5
aF100.5
aF100.5
aF80.25
aF80.25
aa(lp394
F101.25
aF101.25
aF101.25
aF80.75
aF80.75
aa(lp395
F101.75
aF101.75
aF101.75
aF82.5
aF82.5
aa(lp396
F100.25
aF100.25
aF100.25
aF100.25
aF100.25
aa(lp397
F100.25
aF100.25
aF100.25
aF100.25
aF100.25
aa(lp398
F98.25
aF98.25
aF98.25
aF80.0
aF80.0
aa(lp399
F97.5
aF97.5
aF97.5
aF81.0
aF81.0
aa(lp400
F101.5
aF101.5
aF101.5
aF80.0
aF80.0
aa(lp401
F101.75
aF101.75
aF101.75
aF80.0
aF80.0
aa(lp402
F101.25
aF101.25
aF101.25
aF80.25
aF80.25
aa(lp403
F100.5
aF100.5
aF100.5
aF80.5
aF80.5
aa(lp404
F97.5
aF97.5
aF97.5
aF81.25
aF81.25
aa(lp405
F98.5
aF98.5
aF98.5
aF80.0
aF80.0
aa(lp406
F100.5
aF100.5
aF100.5
aF82.25
aF82.25
aa(lp407
F101.0
aF101.0
aF101.0
aF80.0
aF80.0
aa(lp408
F101.5
aF101.5
aF101.5
aF80.25
aF80.25
aa(lp409
F99.5
aF99.5
aF99.5
aF81.0
aF81.0
aa(lp410
F98.75
aF98.75
aF98.75
aF80.0
aF80.0
aa(lp411
F99.5
aF99.5
aF99.5
aF80.0
aF80.0
aa(lp412
F99.25
aF99.25
aF99.25
aF80.0
aF80.0
aa(lp413
F101.0
aF101.0
aF101.0
aF80.0
aF80.0
aa(lp414
F85.75
aF100.5
aF100.5
aF80.0
aF80.0
aa(lp415
F99.25
aF99.25
aF99.25
aF99.25
aF99.25
aa(lp416
F99.5
aF99.5
aF99.5
aF80.25
aF80.25
aa(lp417
F101.25
aF101.25
aF101.25
aF80.5
aF80.5
aa(lp418
F99.25
aF99.25
aF99.25
aF80.0
aF80.0
aa(lp419
F101.25
aF101.25
aF101.25
aF80.5
aF80.5
aa(lp420
F97.0
aF97.0
aF97.0
aF80.0
aF80.0
aa(lp421
F97.75
aF97.75
aF97.75
aF80.5
aF80.5
aa(lp422
F101.0
aF101.0
aF101.0
aF80.25
aF80.25
aa(lp423
F101.5
aF101.5
aF101.5
aF81.75
aF81.75
aa(lp424
F101.25
aF101.25
aF101.25
aF80.0
aF80.0
aa(lp425
F97.0
aF97.0
aF97.0
aF81.0
aF81.0
aa(lp426
F92.75
aF92.75
aF92.75
aF80.0
aF80.0
aa(lp427
F102.0
aF102.0
aF102.0
aF80.75
aF80.75
aa(lp428
F97.25
aF97.25
aF97.25
aF97.25
aF97.25
aa(lp429
F101.0
aF101.0
aF101.0
aF83.5
aF99.0
aa(lp430
F101.5
aF101.5
aF101.5
aF80.0
aF80.0
aa(lp431
F100.5
aF100.5
aF100.5
aF80.25
aF80.25
aa(lp432
F101.75
aF101.75
aF101.75
aF80.0
aF80.0
aa(lp433
F100.75
aF100.75
aF100.75
aF80.25
aF80.25
aa(lp434
F98.75
aF98.75
aF98.75
aF80.5
aF80.5
aa(lp435
F101.25
aF101.25
aF101.25
aF80.25
aF80.25
aa(lp436
F99.75
aF99.75
aF99.75
aF80.0
aF80.0
aa(lp437
F99.5
aF99.5
aF99.5
aF80.0
aF80.0
aa(lp438
F99.0
aF99.0
aF99.0
aF99.0
aF99.0
aa(lp439
F100.5
aF100.5
aF100.5
aF80.0
aF80.0
aa(lp440
F98.5
aF98.5
aF98.5
aF98.5
aF98.5
aa(lp441
F97.5
aF97.5
aF97.5
aF80.0
aF80.0
aa(lp442
F99.75
aF99.75
aF99.75
aF80.0
aF80.0
aa(lp443
F100.25
aF100.25
aF100.25
aF85.25
aF85.25
aa(lp444
F95.75
aF95.75
aF95.75
aF80.0
aF80.0
aa(lp445
F101.75
aF101.75
aF101.75
aF101.75
aF101.75
aa(lp446
F97.25
aF97.25
aF97.25
aF80.0
aF80.0
aa(lp447
F100.5
aF100.5
aF100.5
aF80.0
aF80.0
aa(lp448
F99.5
aF99.5
aF99.5
aF80.0
aF80.0
aa(lp449
F99.75
aF99.75
aF99.75
aF80.25
aF80.25
aa(lp450
F99.75
aF99.75
aF99.75
aF99.75
aF99.75
aa(lp451
F99.25
aF99.25
aF99.25
aF80.75
aF80.75
aa(lp452
F100.25
aF100.25
aF100.25
aF80.25
aF80.25
aa(lp453
F99.25
aF99.25
aF99.25
aF83.0
aF83.0
aa(lp454
F100.0
aF100.0
aF100.0
aF96.25
aF96.25
aa(lp455
F97.25
aF97.25
aF97.25
aF82.5
aF82.5
aa(lp456
F101.0
aF101.0
aF101.0
aF83.25
aF83.25
aa(lp457
F101.0
aF101.0
aF101.0
aF80.75
aF80.75
aa(lp458
F97.0
aF97.0
aF97.0
aF97.0
aF97.0
aa(lp459
F100.75
aF100.75
aF100.75
aF80.0
aF80.0
aa(lp460
F99.5
aF99.5
aF99.5
aF80.25
aF80.25
aa(lp461
F101.0
aF101.0
aF101.0
aF84.75
aF84.75
aa(lp462
F101.5
aF101.5
aF101.5
aF101.5
aF101.5
aa(lp463
F95.75
aF95.75
aF95.75
aF80.0
aF80.0
aa(lp464
F101.75
aF101.75
aF101.75
aF81.0
aF81.0
aa(lp465
F98.75
aF98.75
aF98.75
aF82.75
aF80.0
aa(lp466
F98.5
aF98.5
aF98.5
aF80.75
aF80.75
aa(lp467
F98.75
aF98.75
aF98.75
aF80.25
aF80.25
aa(lp468
F101.5
aF101.5
aF101.5
aF80.0
aF80.0
aa(lp469
F98.75
aF98.75
aF98.75
aF80.0
aF80.0
aa(lp470
F100.5
aF100.5
aF100.5
aF80.5
aF80.5
aa(lp471
F99.25
aF99.25
aF99.25
aF80.0
aF80.0
aa(lp472
F100.5
aF100.5
aF100.5
aF83.25
aF83.25
aa(lp473
F101.5
aF101.5
aF101.5
aF80.0
aF80.0
aa(lp474
F102.0
aF102.0
aF102.0
aF82.5
aF82.5
aa(lp475
F99.25
aF99.25
aF99.25
aF80.0
aF80.0
aa(lp476
F96.5
aF96.5
aF96.5
aF96.5
aF96.5
aa(lp477
F93.75
aF93.75
aF93.75
aF80.0
aF80.0
aa(lp478
F101.25
aF101.25
aF101.25
aF84.5
aF84.5
aa(lp479
F101.5
aF101.5
aF101.5
aF101.5
aF101.5
aa(lp480
F96.25
aF96.25
aF96.25
aF80.25
aF80.25
aa(lp481
F97.25
aF97.25
aF97.25
aF80.0
aF80.0
aa(lp482
F98.0
aF98.0
aF98.0
aF80.0
aF80.0
aa(lp483
F101.5
aF101.5
aF101.5
aF94.5
aF94.5
aa(lp484
F102.0
aF102.0
aF102.0
aF80.25
aF80.25
aa(lp485
F98.75
aF98.75
aF98.75
aF80.0
aF80.0
aa(lp486
F100.0
aF100.0
aF100.0
aF80.0
aF80.0
aa(lp487
F101.0
aF101.0
aF101.0
aF80.5
aF80.5
aa(lp488
F101.75
aF101.75
aF101.75
aF101.75
aF101.75
aa(lp489
F99.5
aF88.75
aF99.5
aF99.5
aF99.5
aa(lp490
F100.75
aF100.75
aF100.75
aF80.25
aF80.25
aa(lp491
F90.25
aF90.25
aF90.25
aF90.25
aF90.25
aa(lp492
F101.0
aF101.0
aF101.0
aF80.25
aF80.25
aa(lp493
F101.5
aF101.5
aF101.5
aF81.25
aF81.25
aa(lp494
F100.75
aF100.75
aF100.75
aF82.5
aF82.5
aa(lp495
F99.25
aF99.25
aF99.25
aF80.0
aF80.0
aa(lp496
F101.5
aF101.5
aF101.5
aF101.5
aF101.5
aa(lp497
F100.25
aF100.25
aF100.25
aF100.25
aF100.25
aa(lp498
F100.5
aF100.5
aF85.0
aF80.25
aF80.25
aa(lp499
F100.75
aF100.75
aF100.75
aF80.25
aF80.25
aa(lp500
F99.75
aF99.75
aF99.75
aF80.0
aF80.0
aa(lp501
F99.0
aF99.0
aF99.0
aF80.75
aF80.75
aa(lp502
F99.75
aF99.75
aF99.75
aF80.0
aF80.0
aa(lp503
F102.0
aF102.0
aF102.0
aF83.5
aF83.5
aa(lp504
F99.25
aF99.25
aF99.25
aF80.0
aF80.0
aa(lp505
F100.75
aF100.75
aF100.75
aF82.25
aF82.25
aa(lp506
F99.75
aF99.75
aF99.75
aF80.75
aF80.75
aa(lp507
F99.5
aF99.5
aF99.5
aF80.0
aF80.0
aa(lp508
F100.5
aF100.5
aF100.5
aF80.75
aF80.75
aa(lp509
F100.75
aF100.75
aF100.75
aF80.0
aF80.0
aa(lp510
F101.75
aF101.75
aF101.75
aF101.75
aF101.75
aa(lp511
F102.0
aF102.0
aF102.0
aF80.0
aF80.0
aa(lp512
F101.0
aF101.0
aF101.0
aF80.25
aF80.25
aa(lp513
F98.75
aF98.75
aF98.75
aF80.25
aF80.25
aa(lp514
F93.5
aF93.5
aF93.5
aF80.5
aF80.5
aa(lp515
F96.25
aF96.25
aF96.25
aF80.25
aF80.25
aa(lp516
F100.0
aF100.0
aF100.0
aF80.5
aF80.5
aa(lp517
F100.25
aF100.25
aF100.25
aF80.0
aF80.0
aa(lp518
F100.5
aF100.5
aF100.5
aF80.0
aF80.0
aa(lp519
F101.5
aF101.5
aF101.5
aF80.25
aF80.25
aa(lp520
F99.0
aF99.0
aF99.0
aF80.0
aF80.0
aa(lp521
F93.5
aF93.5
aF93.5
aF80.0
aF80.0
aa(lp522
F102.0
aF102.0
aF102.0
aF80.0
aF80.0
aa(lp523
F98.5
aF98.5
aF98.5
aF98.5
aF98.5
aa(lp524
F100.75
aF100.75
aF100.75
aF80.25
aF80.25
aa(lp525
F99.5
aF99.5
aF99.5
aF99.25
aF99.25
aa(lp526
F98.75
aF98.75
aF98.75
aF80.25
aF80.25
aa(lp527
F100.0
aF100.0
aF100.0
aF80.0
aF80.0
aa(lp528
F99.5
aF99.5
aF99.5
aF80.25
aF80.25
aa(lp529
F101.0
aF101.0
aF101.0
aF80.25
aF80.25
aa(lp530
F97.5
aF97.5
aF97.5
aF97.5
aF97.5
aa(lp531
F99.75
aF99.75
aF99.75
aF99.75
aF99.75
aa(lp532
F99.5
aF99.5
aF99.5
aF80.25
aF80.25
aa(lp533
F101.75
aF101.75
aF101.75
aF80.0
aF80.0
aa(lp534
F100.25
aF100.25
aF100.25
aF80.25
aF80.25
aa(lp535
F91.75
aF91.75
aF91.75
aF91.75
aF91.75
aa(lp536
F101.25
aF101.25
aF101.25
aF101.25
aF101.25
aa(lp537
F101.0
aF101.0
aF101.0
aF80.5
aF80.5
aa(lp538
F99.0
aF99.0
aF99.0
aF80.25
aF80.25
aa(lp539
F97.5
aF97.5
aF97.5
aF80.0
aF80.0
aa(lp540
F100.75
aF100.75
aF100.75
aF80.5
aF80.5
aa(lp541
F96.25
aF96.25
aF96.25
aF80.5
aF80.5
aa(lp542
F102.0
aF102.0
aF102.0
aF102.0
aF102.0
aa(lp543
F102.0
aF102.0
aF102.0
aF82.25
aF82.25
aa(lp544
F99.75
aF99.75
aF99.75
aF80.0
aF80.0
aa(lp545
F101.25
aF101.25
aF101.25
aF80.0
aF80.0
aa(lp546
F94.25
aF100.5
aF100.5
aF81.0
aF81.0
aa(lp547
F98.5
aF98.5
aF98.5
aF98.5
aF98.5
aa(lp548
F92.25
aF92.25
aF92.25
aF92.25
aF92.25
aa(lp549
F100.0
aF100.0
aF100.0
aF80.5
aF80.5
aa(lp550
F98.25
aF98.25
aF98.25
aF80.0
aF80.0
aa(lp551
F97.5
aF97.5
aF97.5
aF80.5
aF80.5
aa(lp552
F99.5
aF99.5
aF99.5
aF80.0
aF80.0
aa(lp553
F100.75
aF100.75
aF100.75
aF80.25
aF80.25
aa(lp554
F101.25
aF101.25
aF101.25
aF80.25
aF80.25
aa(lp555
F101.5
aF101.5
aF101.5
aF83.75
aF83.75
aa(lp556
F101.75
aF101.75
aF101.75
aF80.75
aF80.75
aa(lp557
F96.25
aF96.25
aF96.25
aF80.0
aF80.0
aa(lp558
F99.25
aF99.25
aF99.25
aF80.0
aF80.0
aa(lp559
F101.75
aF101.75
aF101.75
aF101.75
aF101.75
aa(lp560
F98.75
aF98.75
aF98.75
aF98.75
aF98.75
aa(lp561
F99.75
aF99.75
aF99.75
aF82.0
aF82.0
aa(lp562
F96.75
aF96.75
aF96.75
aF80.25
aF80.25
aa(lp563
F97.75
aF97.75
aF97.75
aF80.0
aF80.0
aa(lp564
F101.25
aF101.25
aF101.25
aF80.0
aF80.0
aa(lp565
F96.25
aF96.25
aF96.25
aF81.0
aF81.0
aa(lp566
F100.75
aF100.75
aF100.75
aF80.0
aF80.0
aa(lp567
F95.5
aF95.5
aF95.5
aF80.75
aF80.75
aa(lp568
F99.25
aF99.25
aF99.25
aF80.0
aF80.0
aa(lp569
F101.0
aF101.0
aF101.0
aF80.0
aF80.0
aa(lp570
F99.5
aF99.5
aF99.5
aF80.5
aF80.5
aa(lp571
F99.5
aF93.25
aF93.25
aF82.5
aF82.5
aa(lp572
F99.25
aF99.25
aF99.25
aF83.75
aF83.75
aa(lp573
F101.0
aF101.0
aF101.0
aF81.0
aF81.0
aa(lp574
F99.0
aF99.0
aF99.0
aF80.0
aF80.0
aa(lp575
F101.75
aF101.75
aF101.75
aF81.5
aF81.5
aa(lp576
F97.25
aF97.25
aF97.25
aF80.5
aF80.5
aa(lp577
F100.75
aF100.75
aF100.75
aF83.25
aF83.25
aa(lp578
F97.25
aF101.0
aF101.0
aF80.25
aF80.25
aa(lp579
F100.5
aF100.5
aF100.5
aF100.5
aF100.5
aa(lp580
F101.75
aF101.75
aF101.75
aF101.75
aF101.75
aa(lp581
F96.0
aF96.0
aF96.0
aF80.25
aF80.25
aa(lp582
F101.5
aF101.5
aF101.5
aF80.75
aF80.75
aa(lp583
F98.75
aF98.75
aF98.75
aF98.75
aF98.75
aa(lp584
F102.0
aF102.0
aF102.0
aF80.5
aF80.5
aa(lp585
F100.75
aF100.75
aF100.75
aF81.25
aF81.25
aa(lp586
F99.25
aF99.25
aF99.25
aF80.25
aF80.25
aa(lp587
F101.75
aF101.75
aF101.75
aF82.0
aF82.0
aa(lp588
F98.75
aF98.75
aF98.75
aF98.75
aF98.75
aa(lp589
F101.0
aF101.0
aF101.0
aF80.0
aF80.0
aa(lp590
F93.75
aF93.75
aF93.75
aF83.0
aF83.0
aa(lp591
F99.0
aF99.0
aF99.0
aF80.0
aF80.0
aa(lp592
F100.0
aF100.0
aF100.0
aF80.0
aF80.0
aa(lp593
F100.0
aF100.0
aF100.0
aF100.0
aF100.0
aa(lp594
F84.0
aF97.25
aF97.25
aF81.5
aF81.5
aa(lp595
F101.25
aF101.25
aF101.25
aF80.0
aF80.0
aa(lp596
F101.75
aF101.75
aF101.75
aF80.0
aF80.0
aa(lp597
F101.25
aF101.25
aF101.25
aF80.0
aF80.0
aa(lp598
F99.0
aF99.0
aF99.0
aF80.0
aF80.0
aa(lp599
F101.75
aF101.75
aF101.75
aF80.25
aF80.25
aa(lp600
F101.75
aF101.75
aF101.75
aF101.75
aF101.75
aa(lp601
F100.5
aF100.5
aF100.5
aF80.0
aF80.0
aa(lp602
F91.25
aF91.25
aF91.25
aF84.25
aF84.25
aa(lp603
F99.5
aF99.5
aF99.5
aF80.0
aF80.0
aa(lp604
F101.25
aF101.25
aF101.25
aF80.0
aF80.0
aa(lp605
F101.75
aF101.75
aF101.75
aF80.0
aF80.0
aa(lp606
F93.75
aF93.75
aF93.75
aF80.0
aF80.0
aa(lp607
F100.5
aF100.5
aF100.5
aF100.5
aF100.5
aa(lp608
F100.25
aF100.25
aF100.25
aF80.0
aF80.0
aa(lp609
F101.25
aF101.25
aF101.25
aF80.0
aF80.0
aa(lp610
F101.0
aF101.0
aF101.0
aF82.0
aF82.0
aa(lp611
F99.5
aF99.5
aF99.5
aF80.0
aF80.0
aa(lp612
F98.5
aF98.5
aF98.5
aF80.0
aF80.0
aa(lp613
F100.75
aF100.75
aF100.75
aF81.75
aF81.75
aa(lp614
F100.5
aF100.5
aF100.5
aF80.0
aF80.0
aa(lp615
F98.5
aF98.5
aF98.5
aF98.5
aF98.5
aa(lp616
F100.5
aF100.5
aF100.5
aF80.25
aF80.25
aa(lp617
F101.25
aF101.25
aF101.25
aF80.25
aF80.25
aa(lp618
F100.75
aF100.75
aF100.75
aF80.0
aF80.0
aa(lp619
F101.25
aF101.25
aF101.25
aF101.25
aF101.25
aa(lp620
F100.25
aF100.25
aF100.25
aF81.25
aF81.25
aa(lp621
F99.75
aF99.75
aF99.75
aF99.75
aF99.75
aa(lp622
F97.25
aF97.25
aF97.25
aF97.25
aF97.25
aa(lp623
F101.25
aF101.25
aF101.25
aF80.75
aF80.75
aa(lp624
F91.75
aF91.75
aF91.75
aF91.75
aF91.75
aa(lp625
F98.0
aF98.0
aF98.0
aF81.5
aF81.5
aa(lp626
F99.75
aF99.75
aF99.75
aF80.0
aF80.0
aa(lp627
F100.0
aF100.0
aF100.0
aF80.25
aF80.25
aa(lp628
F100.0
aF100.0
aF100.0
aF80.0
aF80.0
aa(lp629
F95.25
aF95.25
aF95.25
aF80.5
aF80.5
aa(lp630
F100.75
aF100.75
aF100.75
aF100.75
aF100.75
aa(lp631
F98.25
aF98.25
aF98.25
aF81.0
aF81.0
aa(lp632
F100.25
aF100.25
aF100.25
aF80.25
aF80.25
aa(lp633
F94.75
aF94.75
aF94.75
aF94.75
aF94.75
aa(lp634
F101.0
aF101.0
aF101.0
aF80.0
aF80.0
aa(lp635
F99.5
aF99.5
aF99.5
aF80.0
aF80.0
aa(lp636
F99.75
aF99.75
aF99.75
aF80.25
aF80.25
aa(lp637
F98.75
aF98.75
aF98.75
aF80.25
aF80.25
aa(lp638
F99.0
aF99.0
aF99.0
aF80.0
aF80.0
aa(lp639
F99.25
aF99.25
aF99.25
aF80.0
aF80.0
aa(lp640
F99.75
aF99.75
aF99.75
aF80.75
aF80.75
aa(lp641
F97.0
aF97.0
aF97.0
aF82.75
aF82.75
aa(lp642
F98.5
aF98.5
aF98.5
aF98.5
aF98.5
aa(lp643
F100.75
aF100.75
aF100.75
aF80.0
aF80.0
aa(lp644
F102.0
aF102.0
aF102.0
aF80.0
aF80.0
aa(lp645
F93.75
aF93.75
aF93.75
aF80.25
aF80.25
aa(lp646
F94.5
aF94.5
aF94.5
aF80.0
aF80.0
aa(lp647
F101.5
aF101.5
aF101.5
aF80.0
aF80.0
aa(lp648
F101.75
aF101.75
aF101.75
aF101.75
aF101.75
aa(lp649
F90.75
aF90.75
aF90.75
aF90.75
aF90.75
aa(lp650
F101.0
aF101.0
aF101.0
aF101.0
aF101.0
aa(lp651
F98.75
aF98.75
aF98.75
aF80.0
aF80.0
aa(lp652
F100.75
aF100.75
aF100.75
aF81.25
aF81.25
aa(lp653
F101.75
aF101.75
aF101.75
aF91.5
aF91.5
aa(lp654
F101.5
aF101.5
aF101.5
aF80.5
aF80.5
aa(lp655
F100.5
aF100.5
aF100.5
aF97.25
aF80.25
aa(lp656
F101.75
aF101.75
aF101.75
aF89.0
aF89.0
aa(lp657
F101.25
aF101.25
aF101.25
aF101.25
aF101.25
aa(lp658
F90.25
aF90.25
aF90.25
aF90.0
aF90.0
aa(lp659
F98.5
aF98.5
aF98.5
aF80.25
aF80.25
aa(lp660
F99.25
aF99.25
aF99.25
aF81.25
aF81.25
aa(lp661
F100.5
aF100.5
aF100.5
aF100.5
aF100.5
aa(lp662
F98.75
aF98.75
aF98.75
aF98.75
aF98.75
aa(lp663
F100.25
aF100.25
aF100.25
aF100.25
aF100.25
aa(lp664
F99.75
aF99.75
aF99.75
aF99.75
aF99.75
aa(lp665
F98.0
aF98.0
aF98.0
aF98.0
aF98.0
aa(lp666
F101.75
aF101.75
aF101.75
aF80.75
aF80.75
aa(lp667
F101.25
aF101.25
aF101.25
aF101.25
aF101.25
aa(lp668
F100.75
aF100.75
aF100.75
aF80.0
aF80.0
aa(lp669
F102.0
aF102.0
aF102.0
aF102.0
aF102.0
aa(lp670
F100.75
aF100.75
aF100.75
aF81.25
aF81.25
aa(lp671
F98.0
aF98.0
aF98.0
aF86.0
aF86.0
aa(lp672
F101.0
aF101.0
aF101.0
aF80.75
aF80.75
aa(lp673
F100.5
aF100.5
aF100.5
aF85.0
aF85.0
aa(lp674
F98.5
aF98.5
aF98.5
aF80.25
aF80.25
aa(lp675
F100.5
aF100.5
aF100.5
aF80.25
aF80.25
aa(lp676
F101.75
aF101.75
aF101.75
aF81.75
aF81.75
aa(lp677
F100.25
aF100.25
aF100.25
aF80.0
aF80.0
aa(lp678
F82.75
aF101.25
aF101.25
aF81.75
aF81.75
aa(lp679
F97.0
aF97.0
aF97.0
aF81.5
aF81.5
aa(lp680
F91.5
aF99.75
aF99.75
aF80.5
aF80.0
aa(lp681
F99.75
aF99.75
aF99.75
aF99.75
aF99.75
aa(lp682
F94.0
aF94.0
aF94.0
aF81.0
aF81.0
aa(lp683
F97.75
aF97.75
aF97.75
aF80.0
aF80.0
aa(lp684
F100.0
aF100.0
aF100.0
aF80.25
aF80.25
aa(lp685
F101.0
aF101.0
aF101.0
aF80.0
aF80.0
aa(lp686
F101.75
aF101.75
aF101.75
aF82.25
aF82.25
aa(lp687
F99.0
aF99.0
aF99.0
aF80.0
aF80.0
aa(lp688
F94.75
aF94.75
aF94.75
aF81.75
aF81.75
aa(lp689
F98.5
aF98.5
aF98.5
aF80.0
aF80.0
aa(lp690
F90.25
aF90.25
aF90.25
aF90.25
aF90.25
aa(lp691
F100.0
aF100.0
aF100.0
aF100.0
aF100.0
aa(lp692
F101.0
aF101.0
aF101.0
aF80.25
aF80.25
aa(lp693
F99.0
aF99.0
aF99.0
aF99.0
aF99.0
aa(lp694
F93.25
aF93.25
aF93.25
aF80.25
aF80.25
aa(lp695
F101.75
aF101.75
aF101.75
aF80.0
aF80.0
aa(lp696
F99.75
aF99.75
aF99.75
aF99.75
aF99.75
aa(lp697
F101.75
aF101.75
aF101.75
aF81.75
aF81.75
aa(lp698
F100.0
aF100.0
aF100.0
aF80.25
aF80.25
aa(lp699
F93.5
aF93.5
aF93.5
aF80.25
aF80.25
aa(lp700
F100.75
aF100.75
aF100.75
aF80.0
aF80.0
aa(lp701
F101.25
aF101.25
aF101.25
aF80.0
aF80.0
aa(lp702
F98.75
aF98.75
aF98.75
aF98.75
aF98.75
aa(lp703
F100.5
aF100.5
aF100.5
aF82.0
aF82.0
aa(lp704
F101.0
aF101.0
aF101.0
aF80.25
aF80.25
aa(lp705
F96.0
aF96.0
aF96.0
aF80.0
aF80.0
aa(lp706
F99.5
aF99.5
aF99.5
aF80.0
aF80.0
aa(lp707
F93.75
aF93.75
aF93.75
aF93.75
aF93.75
aa(lp708
F100.0
aF100.0
aF100.0
aF80.0
aF80.0
aa(lp709
F100.25
aF98.25
aF100.25
aF80.0
aF80.0
aa(lp710
F102.0
aF102.0
aF102.0
aF87.75
aF87.75
aa(lp711
F93.5
aF93.5
aF93.5
aF80.0
aF80.0
aa(lp712
F97.25
aF97.25
aF97.25
aF97.25
aF97.25
aa(lp713
F101.75
aF101.75
aF101.75
aF80.5
aF80.5
aa(lp714
F98.0
aF98.0
aF98.0
aF80.5
aF80.5
aa(lp715
F98.5
aF98.5
aF98.5
aF98.5
aF98.5
aa(lp716
F99.25
aF99.25
aF99.25
aF80.5
aF80.5
aa(lp717
F100.5
aF100.5
aF100.5
aF80.0
aF80.0
aa(lp718
F102.0
aF102.0
aF102.0
aF89.25
aF89.25
aa(lp719
F102.0
aF102.0
aF102.0
aF81.0
aF81.0
aa(lp720
F101.75
aF101.75
aF101.75
aF101.75
aF101.75
aa(lp721
F101.75
aF101.75
aF101.75
aF82.0
aF82.0
aa(lp722
F99.25
aF99.25
aF99.25
aF82.75
aF82.75
aa(lp723
F95.5
aF95.5
aF95.5
aF95.5
aF95.5
aa(lp724
F96.25
aF96.25
aF96.25
aF80.0
aF80.0
aa(lp725
F98.25
aF98.25
aF98.25
aF98.25
aF98.25
aa(lp726
F99.75
aF99.75
aF99.75
aF82.25
aF82.25
aa(lp727
F99.75
aF99.75
aF99.75
aF80.0
aF80.0
aa(lp728
F102.0
aF102.0
aF102.0
aF80.25
aF80.25
aa(lp729
F98.0
aF98.0
aF98.0
aF98.0
aF98.0
aa(lp730
F100.0
aF100.0
aF100.0
aF80.0
aF80.0
aa(lp731
F101.5
aF101.5
aF101.5
aF101.5
aF101.5
aa(lp732
F100.75
aF100.75
aF100.75
aF80.0
aF80.0
aa(lp733
F95.25
aF95.25
aF95.25
aF95.25
aF95.25
aa(lp734
F101.5
aF101.5
aF101.5
aF95.75
aF95.75
aa(lp735
F99.75
aF99.75
aF99.75
aF80.25
aF80.25
aa(lp736
F100.5
aF100.5
aF100.5
aF100.5
aF100.5
aa(lp737
F100.25
aF100.25
aF100.25
aF100.25
aF100.25
aa(lp738
F94.5
aF94.5
aF94.5
aF80.5
aF80.5
aa(lp739
F102.0
aF102.0
aF102.0
aF80.5
aF80.5
aa(lp740
F96.75
aF96.75
aF96.75
aF81.25
aF81.25
aa(lp741
F98.25
aF98.25
aF98.25
aF80.25
aF80.25
aa(lp742
F100.5
aF100.5
aF100.5
aF80.0
aF80.0
aa(lp743
F92.5
aF92.5
aF92.5
aF80.25
aF80.25
aa(lp744
F101.5
aF101.5
aF101.5
aF80.0
aF80.0
aa(lp745
F102.0
aF102.0
aF102.0
aF80.0
aF80.0
aa(lp746
F100.5
aF100.5
aF98.75
aF80.5
aF80.5
aa(lp747
F100.75
aF100.75
aF100.75
aF80.0
aF80.0
aa(lp748
F96.0
aF96.0
aF96.0
aF80.75
aF80.75
aa(lp749
F100.0
aF100.0
aF100.0
aF80.0
aF80.0
aa(lp750
F97.0
aF97.0
aF97.0
aF84.5
aF84.5
aa(lp751
F100.0
aF100.0
aF100.0
aF81.5
aF81.5
aa(lp752
F98.5
aF98.5
aF98.5
aF85.75
aF85.75
aa(lp753
F96.0
aF96.0
aF96.0
aF96.0
aF96.0
aa(lp754
F101.25
aF101.25
aF101.25
aF80.0
aF80.0
aa(lp755
F97.25
aF97.25
aF97.25
aF80.0
aF80.0
aa(lp756
F96.75
aF96.75
aF96.75
aF96.75
aF96.75
aa(lp757
F101.25
aF101.25
aF101.25
aF80.0
aF80.0
aa(lp758
F97.25
aF97.25
aF97.25
aF80.0
aF80.0
aa(lp759
F101.5
aF101.5
aF101.5
aF101.5
aF101.5
aa(lp760
F101.25
aF101.25
aF101.25
aF80.0
aF80.0
aa(lp761
F102.0
aF102.0
aF102.0
aF80.75
aF80.75
aa(lp762
F97.5
aF97.5
aF97.5
aF80.0
aF80.0
aa(lp763
F100.75
aF100.75
aF100.75
aF100.75
aF100.75
aa(lp764
F100.5
aF100.5
aF100.5
aF100.5
aF100.5
aa(lp765
F100.5
aF100.5
aF100.5
aF100.5
aF100.5
aa(lp766
F97.5
aF97.5
aF97.5
aF81.25
aF81.25
aa(lp767
F97.25
aF97.25
aF97.25
aF80.25
aF80.25
aa(lp768
F99.5
aF99.5
aF99.5
aF80.0
aF80.0
aa(lp769
F96.0
aF96.0
aF96.0
aF81.0
aF81.0
aa(lp770
F101.5
aF101.5
aF101.5
aF80.75
aF80.75
aa(lp771
F101.25
aF101.25
aF101.25
aF80.0
aF80.0
aa(lp772
F100.0
aF100.0
aF100.0
aF80.5
aF80.5
aa(lp773
F97.0
aF97.0
aF97.0
aF97.0
aF97.0
aa(lp774
F88.75
aF88.75
aF88.75
aF88.75
aF88.75
aa(lp775
F98.5
aF98.5
aF98.5
aF98.5
aF98.5
aa(lp776
F98.0
aF98.0
aF98.0
aF81.5
aF81.5
aa(lp777
F95.5
aF95.5
aF95.5
aF95.5
aF95.5
aa(lp778
F100.75
aF100.75
aF100.75
aF81.0
aF81.0
aa(lp779
F98.25
aF98.25
aF98.25
aF93.0
aF93.0
aa(lp780
F99.75
aF99.75
aF99.75
aF80.0
aF80.0
aa(lp781
F102.0
aF102.0
aF102.0
aF80.5
aF80.5
aa(lp782
F101.25
aF100.25
aF101.25
aF80.0
aF80.0
aa(lp783
F97.0
aF97.0
aF97.0
aF80.0
aF80.0
aa(lp784
F101.25
aF101.25
aF101.25
aF80.25
aF80.25
aa(lp785
F97.25
aF97.25
aF97.25
aF80.25
aF80.25
aa(lp786
F100.0
aF100.0
aF100.0
aF100.0
aF100.0
aa(lp787
F102.0
aF102.0
aF102.0
aF89.5
aF102.0
aa(lp788
F101.25
aF101.25
aF101.25
aF80.0
aF80.0
aa(lp789
F101.75
aF101.75
aF101.75
aF80.0
aF80.0
aa(lp790
F101.5
aF101.5
aF101.5
aF80.0
aF80.0
aa(lp791
F101.25
aF101.25
aF101.25
aF80.25
aF80.25
aa(lp792
F100.25
aF100.25
aF100.25
aF80.0
aF80.0
aa(lp793
F93.25
aF93.25
aF93.25
aF93.25
aF93.25
aa(lp794
F101.75
aF101.75
aF101.75
aF80.0
aF80.0
aa(lp795
F99.5
aF99.5
aF99.5
aF83.25
aF83.25
aa(lp796
F99.0
aF99.0
aF99.0
aF81.0
aF81.0
aa(lp797
F101.75
aF101.75
aF101.75
aF80.0
aF80.0
aa(lp798
F101.25
aF101.25
aF101.25
aF101.25
aF101.25
aa(lp799
F100.5
aF100.5
aF100.5
aF81.5
aF81.5
aa(lp800
F101.75
aF101.75
aF101.75
aF80.25
aF80.25
aa(lp801
F101.25
aF101.25
aF101.25
aF101.25
aF101.25
aa(lp802
F101.5
aF101.5
aF101.5
aF80.5
aF80.5
aa(lp803
F102.0
aF102.0
aF102.0
aF80.0
aF80.0
aa(lp804
F99.75
aF99.75
aF99.75
aF99.75
aF99.75
aa(lp805
F102.0
aF99.75
aF99.75
aF80.0
aF80.0
aa(lp806
F98.75
aF98.75
aF98.75
aF98.75
aF98.75
aa(lp807
F98.75
aF98.75
aF98.75
aF80.0
aF80.0
aa(lp808
F97.75
aF97.75
aF97.75
aF80.0
aF80.0
aa(lp809
F101.5
aF101.5
aF101.5
aF80.0
aF80.0
aa(lp810
F98.75
aF98.75
aF98.75
aF98.75
aF98.75
aa(lp811
F98.75
aF98.75
aF98.75
aF80.0
aF80.0
aa(lp812
F101.75
aF101.75
aF101.75
aF80.0
aF80.0
aa(lp813
F100.5
aF100.5
aF100.5
aF80.75
aF80.75
aa(lp814
F95.5
aF95.5
aF95.5
aF95.5
aF95.5
aa(lp815
F92.0
aF100.75
aF100.75
aF80.5
aF80.5
aa(lp816
F99.25
aF99.25
aF99.25
aF80.75
aF80.75
aa(lp817
F95.5
aF95.5
aF95.5
aF80.25
aF80.25
aa(lp818
F99.0
aF99.0
aF99.0
aF80.0
aF80.0
aa(lp819
F97.25
aF97.25
aF97.25
aF80.0
aF80.0
aa(lp820
F95.0
aF95.0
aF95.0
aF80.0
aF80.0
aa(lp821
F98.75
aF98.75
aF98.75
aF81.5
aF81.5
aa(lp822
F100.0
aF100.0
aF100.0
aF80.25
aF80.25
aa(lp823
F99.25
aF99.25
aF99.25
aF80.25
aF80.25
aa(lp824
F88.5
aF88.5
aF88.5
aF88.5
aF88.5
aa(lp825
F96.5
aF96.5
aF96.5
aF81.0
aF81.0
aa(lp826
F100.5
aF100.5
aF100.5
aF80.0
aF80.0
aa(lp827
F100.0
aF100.0
aF100.0
aF80.0
aF80.0
aa(lp828
F100.0
aF100.0
aF100.0
aF100.0
aF100.0
aa(lp829
F97.0
aF97.0
aF97.0
aF80.25
aF80.25
aa(lp830
F98.75
aF98.75
aF98.75
aF94.25
aF101.5
aa(lp831
F99.0
aF99.0
aF99.0
aF80.0
aF80.0
aa(lp832
F101.75
aF101.75
aF101.75
aF81.75
aF81.75
aa(lp833
F102.0
aF102.0
aF102.0
aF84.0
aF84.0
aa(lp834
F101.0
aF101.0
aF101.0
aF101.0
aF101.0
aa(lp835
F92.75
aF92.75
aF92.75
aF92.75
aF92.75
aa(lp836
F99.5
aF99.5
aF99.5
aF80.0
aF80.0
aa(lp837
F96.75
aF96.75
aF96.75
aF80.0
aF80.0
aa(lp838
F101.0
aF101.0
aF101.0
aF80.0
aF80.0
aa(lp839
F101.0
aF101.0
aF101.0
aF101.0
aF101.0
aa(lp840
F100.75
aF100.75
aF100.75
aF100.75
aF100.75
aa(lp841
F101.75
aF101.75
aF101.75
aF80.0
aF80.0
aa(lp842
F100.5
aF100.5
aF100.5
aF96.25
aF96.25
aa(lp843
F100.25
aF100.25
aF100.25
aF80.25
aF80.25
aa(lp844
F100.75
aF100.75
aF100.75
aF100.75
aF100.75
aa(lp845
F99.5
aF99.5
aF99.5
aF80.25
aF80.25
aa(lp846
F102.0
aF102.0
aF102.0
aF80.25
aF80.25
aa(lp847
F101.75
aF101.75
aF101.75
aF80.0
aF80.0
aa(lp848
F100.25
aF100.25
aF100.25
aF81.25
aF81.25
aa(lp849
F99.0
aF99.0
aF99.0
aF80.0
aF80.0
aa(lp850
F100.5
aF100.5
aF100.5
aF80.25
aF80.25
aa(lp851
F100.25
aF100.25
aF100.25
aF100.25
aF100.25
aa(lp852
F99.5
aF99.5
aF99.5
aF80.25
aF80.25
aa(lp853
F101.5
aF101.5
aF101.5
aF101.5
aF101.5
aa(lp854
F99.25
aF99.25
aF99.25
aF99.25
aF99.25
aa(lp855
F100.0
aF100.0
aF100.0
aF80.0
aF80.0
aa(lp856
F101.25
aF101.25
aF101.25
aF80.0
aF80.0
aa(lp857
F101.5
aF101.5
aF101.5
aF80.75
aF80.75
aa(lp858
F92.25
aF92.25
aF92.25
aF80.0
aF80.0
aa(lp859
F101.5
aF101.5
aF101.5
aF101.5
aF101.5
aa(lp860
F102.0
aF102.0
aF102.0
aF81.0
aF81.0
aa(lp861
F102.0
aF102.0
aF102.0
aF81.25
aF81.25
aa(lp862
F100.5
aF100.5
aF100.5
aF80.25
aF80.25
aa(lp863
F97.25
aF97.25
aF97.25
aF86.0
aF81.25
aa(lp864
F96.75
aF96.75
aF96.75
aF82.25
aF82.25
aa(lp865
F100.5
aF100.5
aF100.5
aF80.0
aF80.0
aa(lp866
F100.0
aF100.0
aF100.0
aF80.0
aF80.0
aa(lp867
F100.0
aF100.0
aF100.0
aF80.25
aF80.25
aa(lp868
F101.0
aF101.0
aF101.0
aF80.5
aF80.5
aa(lp869
F100.0
aF100.0
aF100.0
aF80.25
aF80.25
aa(lp870
F101.75
aF101.75
aF101.75
aF82.5
aF82.5
aa(lp871
F99.25
aF99.25
aF99.25
aF80.0
aF80.0
aa(lp872
F99.75
aF99.75
aF99.75
aF80.25
aF80.25
aa(lp873
F98.75
aF98.75
aF98.75
aF98.75
aF98.75
aa(lp874
F99.5
aF99.5
aF99.5
aF80.25
aF80.25
aa(lp875
F101.5
aF101.5
aF101.5
aF101.5
aF101.5
aa(lp876
F101.0
aF101.0
aF101.0
aF80.25
aF80.25
aa(lp877
F98.0
aF98.0
aF98.0
aF80.25
aF80.25
aa(lp878
F100.25
aF100.25
aF100.25
aF80.25
aF80.25
aa(lp879
F101.0
aF101.0
aF101.0
aF80.0
aF80.0
aa(lp880
F100.0
aF100.0
aF100.0
aF81.75
aF81.75
aa(lp881
F101.0
aF101.0
aF101.0
aF80.0
aF80.0
aa(lp882
F97.75
aF97.75
aF97.75
aF80.0
aF80.0
aa(lp883
F97.5
aF97.5
aF97.5
aF97.5
aF97.5
aa(lp884
F99.5
aF99.5
aF99.5
aF80.25
aF80.25
aa(lp885
F100.5
aF100.5
aF100.5
aF100.5
aF100.5
aa(lp886
F97.75
aF97.75
aF97.75
aF80.0
aF80.0
aa(lp887
F101.0
aF101.0
aF101.0
aF101.0
aF101.0
aa(lp888
F99.75
aF99.75
aF99.75
aF82.0
aF82.0
aa(lp889
F99.5
aF99.5
aF99.5
aF80.25
aF80.25
aa(lp890
F100.75
aF100.75
aF100.75
aF100.75
aF100.75
aa(lp891
F101.25
aF101.25
aF101.25
aF80.0
aF80.0
aa(lp892
F93.75
aF93.75
aF93.75
aF84.75
aF84.75
aa(lp893
F100.25
aF100.25
aF100.25
aF80.0
aF80.0
aa(lp894
F97.75
aF97.75
aF97.75
aF97.75
aF97.75
aa(lp895
F99.0
aF99.0
aF99.0
aF80.0
aF80.0
aa(lp896
F100.75
aF100.75
aF100.75
aF81.75
aF81.75
aa(lp897
F99.0
aF99.0
aF99.0
aF80.5
aF80.5
aa(lp898
F100.25
aF100.25
aF100.25
aF80.0
aF80.0
aa(lp899
F101.75
aF101.75
aF101.75
aF80.25
aF80.25
aa(lp900
F96.5
aF96.5
aF96.5
aF80.0
aF80.0
aa(lp901
F97.75
aF97.75
aF97.75
aF80.0
aF80.0
aa(lp902
F100.0
aF100.0
aF100.0
aF80.5
aF80.5
aa(lp903
F101.25
aF101.25
aF101.25
aF80.0
aF80.0
aa(lp904
F100.75
aF100.75
aF100.75
aF80.0
aF80.0
aa(lp905
F100.0
aF100.0
aF100.0
aF100.0
aF100.0
aa(lp906
F101.75
aF101.75
aF101.75
aF80.0
aF80.0
aa(lp907
F89.25
aF89.25
aF89.25
aF89.25
aF89.25
aa(lp908
F101.0
aF101.0
aF101.0
aF80.0
aF80.0
aa(lp909
F95.0
aF95.0
aF95.0
aF95.0
aF95.0
aa(lp910
F97.75
aF97.75
aF97.75
aF80.5
aF80.5
aa(lp911
F100.5
aF100.5
aF100.5
aF100.5
aF100.5
aa(lp912
F102.0
aF102.0
aF102.0
aF80.0
aF80.0
aa(lp913
F100.0
aF100.0
aF100.0
aF80.0
aF80.0
aa(lp914
F86.75
aF100.75
aF100.75
aF80.0
aF80.0
aa(lp915
F99.0
aF99.0
aF99.0
aF99.0
aF99.0
aa(lp916
F100.0
aF100.0
aF100.0
aF100.0
aF100.0
aa(lp917
F101.0
aF101.0
aF101.0
aF101.0
aF101.0
aa(lp918
F99.5
aF99.5
aF99.5
aF86.25
aF86.25
aa(lp919
F97.25
aF97.25
aF97.25
aF81.0
aF81.0
aa(lp920
F99.0
aF99.0
aF99.0
aF80.75
aF80.75
aa(lp921
F100.25
aF100.25
aF100.25
aF84.0
aF84.0
aa(lp922
F100.75
aF100.75
aF100.75
aF80.0
aF80.0
aa(lp923
F101.5
aF101.5
aF101.5
aF80.25
aF80.25
aa(lp924
F99.0
aF99.0
aF99.0
aF80.0
aF80.0
aa(lp925
F95.5
aF95.5
aF95.5
aF82.75
aF82.75
aa(lp926
F101.75
aF101.75
aF101.75
aF81.5
aF81.5
aa(lp927
F100.25
aF100.25
aF100.25
aF80.5
aF80.5
aa(lp928
F98.25
aF98.25
aF98.25
aF80.0
aF80.0
aa(lp929
F96.0
aF96.0
aF96.0
aF82.0
aF82.0
aa(lp930
F99.0
aF99.0
aF99.0
aF99.0
aF99.0
aa(lp931
F101.25
aF101.25
aF101.25
aF80.0
aF80.0
aa(lp932
F100.75
aF100.75
aF100.75
aF80.5
aF80.5
aa(lp933
F97.0
aF97.0
aF97.0
aF80.25
aF80.25
aa(lp934
F101.25
aF101.25
aF101.25
aF101.25
aF101.25
aa(lp935
F102.0
aF102.0
aF102.0
aF102.0
aF102.0
aa(lp936
F101.5
aF101.5
aF101.5
aF81.0
aF81.0
aa(lp937
F100.25
aF100.25
aF100.25
aF100.25
aF100.25
aa(lp938
F100.75
aF100.75
aF100.75
aF100.75
aF100.75
aa(lp939
F101.5
aF101.5
aF101.5
aF80.0
aF80.0
aa(lp940
F101.75
aF101.75
aF101.75
aF101.75
aF101.75
aa(lp941
F100.0
aF100.0
aF100.0
aF81.0
aF81.0
aa(lp942
F101.25
aF101.25
aF101.25
aF80.0
aF80.0
aa(lp943
F95.5
aF95.5
aF95.5
aF80.75
aF80.75
aa(lp944
F100.5
aF100.5
aF100.5
aF81.75
aF81.75
aa(lp945
F95.75
aF95.75
aF95.75
aF80.0
aF80.0
aa(lp946
F102.0
aF102.0
aF102.0
aF102.0
aF102.0
aa(lp947
F102.0
aF102.0
aF102.0
aF80.0
aF80.0
aa(lp948
F100.5
aF100.5
aF100.5
aF80.0
aF80.0
aa(lp949
F95.25
aF95.25
aF95.25
aF95.25
aF95.25
aa(lp950
F99.75
aF99.75
aF99.75
aF99.75
aF99.75
aa(lp951
F100.0
aF100.0
aF100.0
aF80.25
aF80.25
aa(lp952
F100.5
aF100.5
aF100.5
aF87.0
aF87.0
aa(lp953
F98.0
aF98.0
aF98.0
aF98.0
aF98.0
aa(lp954
F98.5
aF98.5
aF98.5
aF80.5
aF80.5
aa(lp955
F99.25
aF99.25
aF99.25
aF80.25
aF80.25
aa(lp956
F100.5
aF100.5
aF100.5
aF80.25
aF80.25
aa(lp957
F99.25
aF99.25
aF99.25
aF81.5
aF81.5
aa(lp958
F98.0
aF98.0
aF98.0
aF80.25
aF80.25
aa(lp959
F96.5
aF96.5
aF96.5
aF81.75
aF81.75
aa(lp960
F95.75
aF95.75
aF95.75
aF83.5
aF86.5
aa(lp961
F97.75
aF97.75
aF97.75
aF97.75
aF97.75
aa(lp962
F100.25
aF100.25
aF100.25
aF80.0
aF80.0
aa(lp963
F101.25
aF101.25
aF101.25
aF101.25
aF101.25
aa(lp964
F91.5
aF91.5
aF91.5
aF91.5
aF91.5
aa(lp965
F102.0
aF102.0
aF102.0
aF80.0
aF80.0
aa(lp966
F101.5
aF101.5
aF101.5
aF101.5
aF101.5
aa(lp967
F100.75
aF100.75
aF100.75
aF80.75
aF80.75
aa(lp968
F101.5
aF101.5
aF101.5
aF80.0
aF80.0
aa(lp969
F102.0
aF102.0
aF102.0
aF80.0
aF80.0
aa(lp970
F97.25
aF97.25
aF97.25
aF97.25
aF97.25
aa(lp971
F99.5
aF99.5
aF99.5
aF99.5
aF99.5
aa(lp972
F99.75
aF99.75
aF99.75
aF80.0
aF80.0
aa(lp973
F100.25
aF100.25
aF100.25
aF80.25
aF80.25
aa(lp974
F102.0
aF102.0
aF102.0
aF85.75
aF85.75
aa(lp975
F98.75
aF98.75
aF98.75
aF80.0
aF80.0
aa(lp976
F99.75
aF99.75
aF99.75
aF99.75
aF99.75
aa(lp977
F102.0
aF102.0
aF102.0
aF80.0
aF80.0
aa(lp978
F101.0
aF101.0
aF101.0
aF80.0
aF80.0
aa(lp979
F100.0
aF100.0
aF100.0
aF80.0
aF80.0
aa(lp980
F99.5
aF99.5
aF99.5
aF80.0
aF80.0
aa(lp981
F100.75
aF100.75
aF100.75
aF80.25
aF80.25
aa(lp982
F100.25
aF100.25
aF100.25
aF80.5
aF80.5
aa(lp983
F92.75
aF92.75
aF92.75
aF92.75
aF92.75
aa(lp984
F97.0
aF97.0
aF97.0
aF97.0
aF97.0
aa(lp985
F100.75
aF100.75
aF100.75
aF80.0
aF80.0
aa(lp986
F101.75
aF101.75
aF101.75
aF80.0
aF80.0
aa(lp987
F101.5
aF101.5
aF101.5
aF84.5
aF84.5
aa(lp988
F100.25
aF80.0
aF100.25
aF80.0
aF80.0
aa(lp989
F98.25
aF98.25
aF98.25
aF82.75
aF82.75
aa(lp990
F100.5
aF100.5
aF100.5
aF80.0
aF101.75
aa(lp991
F102.0
aF102.0
aF102.0
aF80.0
aF80.0
aa(lp992
F100.5
aF100.5
aF100.5
aF80.0
aF80.0
aa(lp993
F99.25
aF99.25
aF99.25
aF80.25
aF80.25
aa(lp994
F95.0
aF95.0
aF95.0
aF82.0
aF82.0
aa(lp995
F100.75
aF100.75
aF100.75
aF80.5
aF80.5
aa(lp996
F91.25
aF91.25
aF91.5
aF80.5
aF80.5
aa(lp997
F101.0
aF101.0
aF101.0
aF101.0
aF101.0
aa(lp998
F100.5
aF100.5
aF100.5
aF80.0
aF80.0
aa(lp999
F100.75
aF100.75
aF100.75
aF80.0
aF80.0
aa(lp1000
F101.0
aF101.0
aF101.0
aF80.25
aF80.25
aa.