4761.4,4761.4,4761.4,4256.0,4256.0
2490.75,2490.75,2490.75,1974.15,1974.15
2136.75,2136.75,2136.75,1716.75,1716.75
2177.45,2177.45,2177.45,1744.1,1744.1
2177.45,2177.45,2177.45,1744.1,1744.1
2666.65,2666.65,2666.65,2141.3,2141.3
392.0,392.0,392.0,392.0,392.0
2639.65,2639.65,2639.65,2096.0,2096.0
2720.0,2720.0,2720.0,2189.6,2189.6
585.0,585.0,585.0,585.0,585.0
2531.25,2531.25,2531.25,2000.0,2000.0
1797.8,1797.8,1797.8,1424.0,1597.55
2800.0,2800.0,2800.0,2240.0,2240.0
2693.4,2693.4,2693.4,2144.0,2144.0
1973.95,1973.95,1973.95,1605.35,1605.35
3175.2,3175.2,3175.2,2600.1,2600.1
2532.6,2532.6,2532.6,2041.2,2041.2
-408.0,-408.0,-408.0,-408.0,-408.0
2232.0,2232.0,2232.0,2232.0,2232.0
2773.05,2773.05,2773.05,2237.9,2237.9
2366.4,2366.4,2366.4,1856.0,1856.0
2170.8,2170.8,2170.8,1798.2,1798.2
3088.85,3251.85,3251.85,2608.0,2608.0
2693.4,2693.4,2693.4,2144.0,2144.0
2366.4,2366.4,2366.4,1856.0,1856.0
2380.95,2380.95,2380.95,1877.85,1877.85
1520.0,1520.0,1520.0,1520.0,1520.0
2800.0,2800.0,2800.0,2240.0,2240.0
2480.0,2480.0,2480.0,2033.6,2033.6
2957.65,2957.65,2957.65,2384.0,2384.0
2586.45,2586.45,2586.45,2089.8,2089.8
3061.25,3061.25,3061.25,2480.0,2480.0
2325.6,2325.6,2325.6,1829.7,1829.7
2639.65,2639.65,2639.65,2096.0,2096.0
-405.0,-405.0,-405.0,-405.0,-405.0
2746.85,2746.85,2746.85,2192.0,2192.0
2531.25,2531.25,2531.25,2000.0,2000.0
2653.2,2653.2,2653.2,2118.6,2118.6
1809.0,1809.0,1809.0,1539.0,1539.0
3325.95,3325.95,3325.95,2744.55,2744.55
2746.85,2746.85,2746.85,2192.0,2192.0
2852.85,2852.85,2852.85,2288.0,2288.0
3414.4,3414.4,3414.4,2816.0,2816.0
3085.05,3085.05,3085.05,2527.7,2527.7
-407.0,-407.0,-407.0,-407.0,-407.0
2436.0,2436.0,2436.0,1926.0,1926.0
2421.65,2421.65,2421.65,1904.0,1904.0
2957.65,2957.65,2957.65,2384.0,2384.0
2653.2,2653.2,2653.2,2118.6,2118.6
2905.4,2905.4,2905.4,2336.0,2336.0
3472.25,4300.0,4300.0,3450.75,3450.75
3225.75,3225.75,3225.75,2648.25,2648.25
-404.0,-404.0,-404.0,-404.0,-404.0
2666.65,2666.65,2666.65,2141.3,2141.3
2905.4,2905.4,2905.4,2336.0,2336.0
1346.4,1346.4,1346.4,1138.5,1138.5
3009.6,3009.6,3009.6,2432.0,2432.0
1203.6,1203.6,1203.6,1091.5,964.65
4098.6,4098.6,3487.95,3332.7,3332.7
4519.35,4519.35,4519.35,3996.45,3996.45
2106.0,2106.0,2106.0,1674.4,1762.8
2800.0,2800.0,2800.0,2240.0,2240.0
2559.05,2559.05,2559.05,2044.7,2044.7
3112.6,3112.6,3112.6,2528.0,2528.0
-401.0,-401.0,-401.0,-401.0,-401.0
3052.5,3052.5,3052.5,2871.0,2945.25
3364.85,3364.85,3364.85,2768.0,2768.0
2395.4,2395.4,2395.4,1899.8,1899.8
-400.0,-400.0,-400.0,-400.0,-400.0
3112.6,3112.6,3112.6,2528.0,2528.0
2380.95,2380.95,2380.95,1877.85,1877.85
197.0,197.0,197.0,197.0,197.0
2852.85,2852.85,2852.85,2288.0,2288.0
3474.0,3474.0,3474.0,2889.0,2889.0
2838.55,2838.55,2838.55,2309.45,2309.45
2366.4,2366.4,2366.4,1856.0,1856.0
3407.25,3407.25,3407.25,2867.4,2867.4
2531.25,2531.25,2531.25,2000.0,2000.0
897.6,897.6,897.6,783.2,783.2
2982.25,2982.25,2982.25,2431.1,2431.1
2852.85,2852.85,2852.85,2288.0,2288.0
392.0,392.0,392.0,392.0,392.0
2825.8,2825.8,2825.8,2286.2,2286.2
2318.75,2318.75,2318.75,2318.75,2318.75
2441.55,2441.55,2441.55,2047.95,2047.95
392.0,392.0,392.0,392.0,392.0
2436.0,2436.0,2436.0,1926.0,1926.0
2957.65,2957.65,2957.65,2384.0,2384.0
2760.0,2760.0,2760.0,2214.9,2214.9
1337.0,1337.0,1337.0,1337.0,1337.0
3752.85,3752.85,3752.85,3152.0,3152.0
2380.95,2380.95,2380.95,1877.85,1877.85
3061.25,3061.25,3061.25,2480.0,2480.0
2720.0,2720.0,2720.0,2189.6,2189.6
98.75,98.75,98.75,98.75,98.75
2746.85,2746.85,2746.85,2192.0,2192.0
3073.2,3073.2,3073.2,2503.8,2503.8
2366.4,2366.4,2366.4,1856.0,1856.0
2720.0,2720.0,2720.0,2189.6,2189.6
3474.0,3474.0,3474.0,2889.0,2889.0
2585.6,2585.6,2585.6,2048.0,2048.0
2424.0,2424.0,2424.0,1944.0,1944.0
-406.0,-406.0,-406.0,-406.0,-406.0
2693.4,2693.4,2693.4,2144.0,2144.0
2476.6,2476.6,2476.6,1952.0,1952.0
1441.75,1441.75,1416.2,1485.55,1175.3
2380.95,2380.95,2380.95,1877.85,1877.85
3018.4,3018.4,3018.4,2502.5,2502.5
-406.0,-406.0,-406.0,-406.0,-406.0
2314.2,2314.2,2314.2,1846.8,1846.8
2244.0,2244.0,2244.0,1776.5,1776.5
3562.35,3562.35,3562.35,3038.75,3038.75
3264.85,3264.85,3264.85,2672.0,2672.0
2531.25,2531.25,2531.25,2000.0,2000.0
2800.0,2800.0,2800.0,2240.0,2240.0
3315.0,3315.0,3315.0,2720.0,2720.0
-403.0,-403.0,-403.0,-403.0,-403.0
3009.6,3009.6,3009.6,2432.0,2432.0
4062.6,4062.6,4062.6,3663.0,3663.0
2325.6,2325.6,2325.6,1829.7,1829.7
-405.0,-405.0,-405.0,-405.0,-405.0
2291.4,2291.4,2291.4,1881.0,1881.0
2572.8,2572.8,2572.8,2067.2,2067.2
2284.8,2284.8,2284.8,1803.2,1803.2
1664.15,1664.15,1664.15,1332.15,1547.95
2585.6,2585.6,2585.6,2048.0,2048.0
2314.2,2314.2,2314.2,1846.8,1846.8
-406.0,-406.0,-406.0,-406.0,-406.0
2325.6,2325.6,2325.6,1829.7,1829.7
2440.0,2440.0,2440.0,2006.9,2006.9
2733.15,2733.15,2733.15,2212.55,2212.55
2366.4,2366.4,2366.4,1856.0,1856.0
-401.0,-401.0,-401.0,-401.0,-401.0
3073.2,3073.2,3073.2,2503.8,2503.8
2640.0,2640.0,2640.0,2138.4,2138.4
2421.65,2421.65,2421.65,1904.0,1904.0
-400.0,-400.0,-400.0,-400.0,-400.0
2746.85,2746.85,2746.85,2192.0,2192.0
2852.85,2852.85,2852.85,2288.0,2288.0
1766.65,1766.65,1766.65,1441.8,1673.2
2746.85,2746.85,2746.85,2192.0,2192.0
3276.0,3276.0,3276.0,2696.4,2696.4
2706.75,2706.75,2706.75,2166.75,2166.75
3237.0,3237.0,3237.0,2672.6,2672.6
2325.6,2325.6,2325.6,1829.7,1829.7
870.75,870.75,870.75,870.75,870.75
2490.75,2490.75,2490.75,1974.15,1974.15
4597.4,4597.4,4597.4,4064.0,4064.0
2613.45,2613.45,2613.45,2221.1,2221.1
2706.4,2706.4,2706.4,2210.0,2210.0
2720.0,2720.0,2720.0,2189.6,2189.6
2613.0,2613.0,2613.0,2093.0,2093.0
2258.85,2258.85,2258.85,1798.2,1798.2
3141.45,3597.9,3597.9,2890.85,2890.85
3869.65,3869.65,3271.35,3116.95,3116.95
2825.8,2825.8,2825.8,2286.2,2286.2
2545.2,2545.2,2545.2,2022.3,2022.3
1203.6,1203.6,1203.6,946.95,1109.2
2421.65,2421.65,2421.65,1904.0,1904.0
2421.65,2421.65,2421.65,1904.0,1904.0
2706.75,2706.75,2706.75,2166.75,2166.75
2852.85,2852.85,2852.85,2288.0,2288.0
3163.65,3163.65,3163.65,2576.0,2576.0
2380.95,2380.95,2380.95,1877.85,1877.85
1989.4,1989.4,1989.4,1626.8,1626.8
-405.0,-405.0,-405.0,-405.0,-405.0
2905.4,2905.4,2905.4,2336.0,2336.0
2546.35,2546.35,2546.35,2063.75,2063.75
3561.25,3561.25,3561.25,2960.0,2960.0
2366.4,2366.4,2366.4,1856.0,1856.0
1929.6,1929.6,1929.6,1627.2,1627.2
2531.25,2531.25,2531.25,2000.0,2000.0
2357.55,2357.55,2357.55,1912.95,1912.95
1809.0,1809.0,1809.0,1539.0,1539.0
339.15,339.15,339.15,325.55,325.55
2585.6,2585.6,2585.6,2048.0,2048.0
2917.95,2917.95,2917.95,2359.35,2359.35
776.0,776.0,776.0,776.0,776.0
2294.25,2294.25,2294.25,1920.5,1920.5
2383.6,2383.6,2383.6,1917.5,1917.5
2436.0,2436.0,2436.0,1926.0,1926.0
2957.65,2957.65,2957.65,2384.0,2384.0
2531.25,2531.25,2531.25,2000.0,2000.0
2760.0,2760.0,2760.0,2214.9,2214.9
2426.05,2426.05,2426.05,1984.4,1984.4
2957.65,2957.65,2957.65,2384.0,2384.0
2395.4,2395.4,2395.4,1899.8,1899.8
2284.8,2284.8,2284.8,1803.2,1803.2
2478.45,2478.45,2478.45,1992.6,1992.6
-404.0,-404.0,-404.0,-404.0,-404.0
-404.0,-404.0,-404.0,-404.0,-404.0
4025.0,4025.0,4025.0,4025.0,4025.0
2905.4,2905.4,2905.4,2336.0,2336.0
2366.4,2366.4,2366.4,1856.0,1856.0
2600.0,2600.0,2600.0,2112.5,2112.5
3386.25,3386.25,3386.25,2817.5,2817.5
2531.25,2531.25,2531.25,2000.0,2000.0
2572.8,2572.8,2572.8,2067.2,2067.2
392.0,392.0,392.0,392.0,392.0
2851.2,2851.2,2851.2,2332.8,2332.8
-199.0,-199.0,-199.0,-199.0,-199.0
2585.6,2585.6,2585.6,2048.0,2048.0
-99.25,-99.25,-99.25,-99.25,-99.25
-404.0,-404.0,-404.0,-404.0,-404.0
2585.6,2585.6,2585.6,2048.0,2048.0
2438.15,2438.15,2438.15,1966.25,1966.25
2970.0,2970.0,2970.0,2407.5,2407.5
2812.95,2812.95,2812.95,2263.05,2263.05
3136.0,3136.0,3136.0,2576.0,2576.0
2653.2,2653.2,2653.2,2118.6,2118.6
2464.4,2464.4,2464.4,1970.3,1970.3
3414.4,3414.4,3414.4,2816.0,2816.0
3081.15,3081.15,3081.15,2947.55,2947.55
4765.95,4765.95,4765.95,4285.35,4285.35
2653.2,2653.2,2653.2,2118.6,2118.6
2412.0,2412.0,2412.0,1962.0,1962.0
2366.4,2366.4,2366.4,1856.0,1856.0
2957.65,2957.65,2957.65,2384.0,2384.0
3112.6,3112.6,3112.6,2528.0,2528.0
3424.95,3424.95,3424.95,2840.85,2840.85
-406.0,-406.0,-406.0,-406.0,-406.0
2852.85,2852.85,2852.85,2288.0,2288.0
2320.0,2320.0,2320.0,1925.6,1925.6
2752.75,2752.75,2752.75,2438.15,2438.15
2369.25,2369.25,2369.25,1895.4,1895.4
1968.75,1968.75,1968.75,1968.75,1968.75
2905.4,2905.4,2905.4,2336.0,2336.0
2932.65,2917.95,2917.95,2352.0,2352.0
2865.6,2865.6,2865.6,2311.2,2311.2
1591.85,1591.85,1591.85,1366.7,1366.7
2640.0,2640.0,2640.0,2138.4,2138.4
-408.0,-408.0,-408.0,-408.0,-408.0
2706.75,2706.75,2706.75,2166.75,2166.75
2878.25,2878.25,2878.25,2334.5,2334.5
2693.25,2693.25,2693.25,2187.0,2187.0
392.0,392.0,392.0,392.0,392.0
2343.2,2343.2,2343.2,1890.8,1890.8
2421.65,2421.65,2421.65,1904.0,1904.0
488.75,488.75,488.75,488.75,488.75
-401.0,-401.0,-401.0,-401.0,-401.0
2957.65,2957.65,2957.65,2384.0,2384.0
2639.65,2639.65,2639.65,2096.0,2096.0
2905.4,2905.4,2905.4,2336.0,2336.0
3096.8,3096.8,3096.8,2551.7,2551.7
1664.6,1664.6,1664.6,1394.0,1394.0
2746.85,2746.85,2746.85,2192.0,2192.0
2421.65,2421.65,2421.65,1904.0,1904.0
2800.0,2800.0,2800.0,2240.0,2240.0
1366.8,1366.8,1366.8,1088.0,1312.4
3864.0,3864.0,3864.0,3496.5,3496.5
2436.0,2436.0,2436.0,1926.0,1926.0
-99.25,-99.25,-99.25,-99.25,-99.25
2693.4,2693.4,2693.4,2144.0,2144.0
2421.65,2421.65,2421.65,1904.0,1904.0
1548.3,1548.3,1548.3,1248.0,1524.9
2991.15,2991.15,2991.15,2501.55,2501.55
2369.25,2369.25,2369.25,1895.4,1895.4
2905.4,2905.4,2905.4,2336.0,2336.0
2759.15,2759.15,2759.15,2258.75,2258.75
4255.0,4255.0,4255.0,3680.0,3680.0
2218.15,2218.15,2218.15,1771.25,1771.25
2030.0,2030.0,2030.0,1655.0,1655.0
2421.65,2421.65,2421.65,1904.0,1904.0
3061.25,3061.25,3061.25,2480.0,2480.0
1278.9,1278.9,1278.9,1187.55,1014.3
2948.8,2948.8,2948.8,2523.2,2523.2
2531.25,2531.25,2531.25,2000.0,2000.0
2421.65,2421.65,2421.65,1904.0,1904.0
-407.0,-407.0,-407.0,-407.0,-407.0
2421.65,2421.65,2421.65,1904.0,1904.0
2518.75,2518.75,2518.75,2018.75,2018.75
2784.75,2784.75,2784.75,2305.35,2305.35
-407.0,-407.0,-407.0,-407.0,-407.0
2852.85,2852.85,2852.85,2288.0,2288.0
2450.25,2450.25,2450.25,1948.1,1948.1
2720.0,2720.0,2720.0,2189.6,2189.6
3752.85,3752.85,3752.85,3152.0,3152.0
-407.0,-407.0,-407.0,-407.0,-407.0
1520.0,1520.0,1520.0,1520.0,1520.0
197.0,197.0,197.0,197.0,197.0
3275.2,3670.8,3670.8,2953.2,2953.2
2746.85,2746.85,2746.85,2192.0,2192.0
2994.4,2994.4,2994.4,2454.8,2454.8
-408.0,-408.0,-408.0,-408.0,-408.0
3061.25,3061.25,3061.25,2480.0,2480.0
4761.4,4761.4,4761.4,4256.0,4256.0
2507.4,2507.4,2507.4,2079.0,2079.0
2288.25,2288.25,2288.25,1841.9,1841.9
2865.6,2865.6,2865.6,2311.2,2311.2
2957.65,2957.65,2957.65,2384.0,2384.0
2905.4,2905.4,2905.4,2336.0,2336.0
-403.0,-403.0,-403.0,-403.0,-403.0
2258.85,2258.85,2258.85,1798.2,1798.2
2585.6,2585.6,2585.6,2048.0,2048.0
3327.6,3731.8,3731.8,3026.8,3026.8
2760.0,2760.0,2760.0,2214.9,2214.9
2800.0,2800.0,2800.0,2240.0,2240.0
2490.75,2490.75,2490.75,1974.15,1974.15
-199.0,-199.0,-199.0,-199.0,-199.0
3910.4,3910.4,3910.4,3348.8,3348.8
1148.55,1148.55,1148.55,1114.35,920.55
2812.95,2812.95,2812.95,2263.05,2263.05
3571.2,3571.2,3571.2,2985.3,2985.3
2746.85,2746.85,2746.85,2192.0,2192.0
2639.65,2639.65,2639.65,2096.0,2096.0
1838.2,1838.2,1838.2,1456.0,1624.35
-404.0,-404.0,-404.0,-404.0,-404.0
3860.55,3860.55,3860.55,3384.45,3384.45
776.0,776.0,776.0,776.0,776.0
2639.65,2639.65,2639.65,2096.0,2096.0
-199.0,-199.0,-199.0,-199.0,-199.0
2640.05,2640.05,2640.05,2181.2,2181.2
2773.05,2773.05,2773.05,2237.9,2237.9
-40.5,-36.2,-40.5,-40.5,-40.5
1101.6,1101.6,1101.6,947.7,947.7
-406.0,-406.0,-406.0,-406.0,-406.0
-406.0,-406.0,-406.0,-406.0,-406.0
2421.65,2421.65,2421.65,1904.0,1904.0
3136.0,3136.0,3136.0,2576.0,2576.0
-401.0,-401.0,-401.0,-401.0,-401.0
2130.6,2130.6,2130.6,1770.2,1770.2
2476.6,2476.6,2476.6,1952.0,1952.0
1244.75,1244.75,1244.75,1244.75,1244.75
2693.4,2693.4,2693.4,2144.0,2144.0
2531.25,2531.25,2531.25,2000.0,2000.0
2706.75,2706.75,2706.75,2166.75,2166.75
2545.2,2545.2,2545.2,2022.3,2022.3
294.75,294.75,294.75,294.75,294.75
3085.05,3085.05,3085.05,2527.7,2527.7
2325.6,2325.6,2325.6,1829.7,1829.7
3225.75,3225.75,3225.75,2648.25,2648.25
2666.65,2666.65,2666.65,2141.3,2141.3
2957.65,2957.65,2957.65,2384.0,2384.0
2121.6,2121.6,2121.6,1695.2,1695.2
680.75,680.75,680.75,680.75,680.75
2852.85,2852.85,2852.85,2288.0,2288.0
2680.0,2680.0,2680.0,2164.1,2164.1
2812.95,2812.95,2812.95,2263.05,2263.05
4268.8,4268.8,4268.8,3735.2,3735.2
2759.4,2978.4,2978.4,2336.0,2336.0
2421.65,2421.65,2421.65,1904.0,1904.0
2957.65,2957.65,2957.65,2384.0,2384.0
2746.85,2746.85,2746.85,2192.0,2192.0
2476.6,2476.6,2476.6,1952.0,1952.0
3364.85,3364.85,3364.85,2768.0,2768.0
2746.85,2746.85,2746.85,2192.0,2192.0
98.75,98.75,98.75,98.75,98.75
-406.0,-406.0,-406.0,-406.0,-406.0
2746.85,2746.85,2746.85,2192.0,2192.0
-405.0,-405.0,-405.0,-405.0,-405.0
3338.35,3472.6,3472.6,2917.7,2917.7
2599.35,2599.35,2599.35,2070.45,2070.45
-199.0,-199.0,-199.0,-199.0,-199.0
3609.6,3609.6,3609.6,3008.0,3008.0
2653.2,2653.2,2653.2,2118.6,2118.6
2945.2,2871.2,2945.2,2397.6,2397.6
-403.0,-403.0,-403.0,-403.0,-403.0
3474.0,3474.0,3474.0,2889.0,2889.0
2367.15,2367.15,2367.15,2418.75,2418.75
2852.85,2852.85,2852.85,2288.0,2288.0
3686.0,3686.0,3686.0,3133.1,3133.1
3108.45,3108.45,3108.45,2575.8,2575.8
2560.0,2560.0,2560.0,2086.4,2086.4
3657.65,3657.65,3657.65,3056.0,3056.0
2905.4,2905.4,2905.4,2336.0,2336.0
-403.0,-403.0,-403.0,-402.0,-402.0
2626.55,2626.55,2626.55,2115.65,2115.65
2800.0,2800.0,2800.0,2240.0,2240.0
2366.4,2366.4,2366.4,1856.0,1856.0
2532.6,2532.6,2532.6,2041.2,2041.2
2828.75,2828.75,2828.75,2828.75,2828.75
2520.0,2520.0,2520.0,2060.1,2060.1
2421.65,2421.65,2421.65,1904.0,1904.0
2244.0,2244.0,2244.0,1776.5,1776.5
2666.65,2666.65,2666.65,2141.3,2141.3
2545.2,2545.2,2545.2,2022.3,2022.3
2464.4,2464.4,2464.4,1970.3,1970.3
2476.6,2476.6,2476.6,1952.0,1952.0
2476.6,2476.6,2476.6,1952.0,1952.0
2800.0,2800.0,2800.0,2240.0,2240.0
2706.75,2706.75,2706.75,2166.75,2166.75
3463.65,3463.65,3463.65,2864.0,2864.0
1958.4,1958.4,1958.4,1584.0,1584.0
-99.25,-99.25,-99.25,-99.25,-99.25
2476.6,2476.6,2476.6,1952.0,1952.0
2746.2,2746.2,2746.2,2235.6,2235.6
2852.85,2852.85,2852.85,2288.0,2288.0
2865.6,2865.6,2865.6,2311.2,2311.2
2760.0,2760.0,2760.0,2214.9,2214.9
4668.25,4668.25,4668.25,4286.9,4286.9
3163.65,3163.65,3163.65,2576.0,2576.0
-403.0,-403.0,-403.0,-403.0,-403.0
2852.85,2852.85,2852.85,2288.0,2288.0
4215.75,4215.75,4215.75,3776.85,3776.85
2111.2,2111.2,2111.2,1710.8,1710.8
2730.0,2730.0,2730.0,2345.0,2345.0
-400.0,-400.0,-400.0,-400.0,-400.0
2706.75,2706.75,2706.75,2166.75,2166.75
2336.4,2336.4,2336.4,1988.3,1988.3
2639.65,2639.65,2639.65,2096.0,2096.0
2531.25,2531.25,2531.25,2000.0,2000.0
2490.75,2490.75,2490.75,1974.15,1974.15
2478.45,2478.45,2478.45,1992.6,1992.6
2626.55,2626.55,2626.55,2115.65,2115.65
2476.6,2476.6,2476.6,1952.0,1952.0
-400.0,-400.0,-400.0,-400.0,-400.0
488.75,488.75,488.75,488.75,488.75
2852.85,2852.85,2852.85,2288.0,2288.0
2222.0,2222.0,2222.0,1809.5,1809.5
2040.0,2040.0,2040.0,1640.0,1640.0
2769.0,2868.4,2868.4,2272.0,2272.0
98.75,98.75,98.75,98.75,98.75
2366.4,2366.4,2366.4,1856.0,1856.0
2666.65,2666.65,2666.65,2141.3,2141.3
2930.4,2930.4,2930.4,2382.8,2382.8
2905.4,2905.4,2905.4,2336.0,2336.0
2639.65,2639.65,2639.65,2096.0,2096.0
3487.95,4119.3,4119.3,3312.0,3312.0
2693.4,2693.4,2693.4,2144.0,2144.0
2412.0,2412.0,2412.0,1962.0,1962.0
-406.0,-406.0,-406.0,-406.0,-406.0
2476.6,2476.6,2476.6,1952.0,1952.0
2421.65,2421.65,2421.65,1904.0,1904.0
2693.4,2693.4,2693.4,2144.0,2144.0
2490.75,2490.75,2490.75,1974.15,1974.15
2653.2,2653.2,2653.2,2118.6,2118.6
3057.6,3057.6,3057.6,2527.2,2527.2
2746.85,2746.85,2746.85,2192.0,2192.0
1940.4,1940.4,1940.4,1700.3,1700.3
2680.0,2680.0,2680.0,2164.1,2164.1
2574.0,2574.0,2574.0,2151.5,2151.5
-404.0,-404.0,-404.0,-404.0,-404.0
2812.95,2812.95,2812.95,2263.05,2263.05
1610.75,1610.75,1610.75,1610.75,1610.75
2476.6,2476.6,2476.6,1952.0,1952.0
2380.95,2380.95,2380.95,1877.85,1877.85
-405.0,-405.0,-405.0,-405.0,-405.0
2942.75,2942.75,2942.75,2406.35,2406.35
-408.0,-408.0,-408.0,-408.0,-408.0
2493.75,2493.75,2493.75,2056.25,2056.25
2438.15,2438.15,2438.15,1966.25,1966.25
2746.85,2746.85,2746.85,2192.0,2192.0
2366.4,2366.4,2366.4,1856.0,1856.0
3169.65,3786.75,3786.75,3010.7,3010.7
2760.0,2760.0,2760.0,2214.9,2214.9
-401.0,-401.0,-401.0,-401.0,-401.0
-403.0,-403.0,-403.0,-403.0,-403.0
3561.25,3561.25,3561.25,2960.0,2960.0
1058.75,1058.75,1058.75,1058.75,1058.75
1984.95,1984.95,1984.95,1678.05,1678.05
2366.4,2366.4,2366.4,1856.0,1856.0
-403.0,-403.0,-403.0,-403.0,-403.0
2706.8,2304.8,2706.8,2324.9,2324.9
2476.6,2476.6,2476.6,1952.0,1952.0
2366.4,2366.4,2366.4,1856.0,1856.0
2599.35,2599.35,2599.35,2070.45,2070.45
3009.6,3009.6,3009.6,2432.0,2432.0
4084.8,4084.8,4084.8,3629.7,3629.7
2905.4,2905.4,2905.4,2336.0,2336.0
2693.4,2693.4,2693.4,2144.0,2144.0
3021.75,3021.75,3021.75,2455.65,2455.65
-408.0,-408.0,-408.0,-408.0,-408.0
-99.25,-99.25,-99.25,-99.25,-99.25
2247.75,2247.75,2247.75,1814.85,1814.85
2852.85,2852.85,2852.85,2288.0,2288.0
4892.8,4892.8,4892.8,4489.7,4489.7
2653.2,2653.2,2653.2,2118.6,2118.6
2970.0,2970.0,2970.0,2407.5,2407.5
1428.75,1428.75,1428.75,1428.75,1428.75
2800.0,2800.0,2800.0,2240.0,2240.0
1058.75,1058.75,1058.75,1058.75,1058.75
2585.6,2585.6,2585.6,2048.0,2048.0
3347.55,3347.55,3347.55,2793.95,2793.95
392.0,392.0,392.0,392.0,392.0
2720.0,2720.0,2720.0,2189.6,2189.6
2773.05,2773.05,2773.05,2237.9,2237.9
2917.95,2917.95,2917.95,2359.35,2359.35
2957.65,2957.65,2957.65,2384.0,2384.0
2421.65,2421.65,2421.65,1904.0,1904.0
2151.8,2151.8,2151.8,1738.4,1738.4
2450.25,2450.25,2450.25,1948.1,1948.1
3124.35,3124.35,3124.35,2551.95,2551.95
3364.85,3364.85,3364.85,2768.0,2768.0
3347.55,3347.55,3347.55,2793.95,2793.95
-407.0,-407.0,-407.0,-407.0,-407.0
-199.0,-199.0,-199.0,-199.0,-199.0
-400.0,-400.0,-400.0,-400.0,-400.0
3561.25,3561.25,3561.25,2960.0,2960.0
488.75,488.75,488.75,488.75,488.75
2476.6,2476.6,2476.6,1952.0,1952.0
1215.0,1215.0,1215.0,960.0,1155.0
2490.75,2490.75,2490.75,1974.15,1974.15
2852.85,2852.85,2852.85,2288.0,2288.0
3463.65,3463.65,3463.65,2864.0,2864.0
3609.6,3609.6,3609.6,3008.0,3008.0
1701.0,1701.0,1701.0,1701.0,1701.0
2421.65,2421.65,2421.65,1904.0,1904.0
2639.65,2639.65,2639.65,2096.0,2096.0
2719.45,2719.45,2719.45,2233.1,2233.1
4210.85,4210.85,4210.85,3632.0,3632.0
2436.0,2436.0,2436.0,1926.0,1926.0
2653.2,2653.2,2653.2,2118.6,2118.6
2693.4,2693.4,2693.4,2144.0,2144.0
2162.4,2162.4,2162.4,1722.5,1722.5
3033.8,3033.8,3033.8,2479.4,2479.4
2395.4,2395.4,2395.4,1899.8,1899.8
2424.0,2424.0,2424.0,1944.0,1944.0
3021.75,3021.75,3021.75,2455.65,2455.65
2380.95,2380.95,2380.95,1877.85,1877.85
2440.0,2440.0,2440.0,2006.9,2006.9
2812.95,2812.95,2812.95,2263.05,2263.05
-402.0,-402.0,-402.0,-402.0,-402.0
2706.75,2706.75,2706.75,2166.75,2166.75
2080.8,2080.8,2080.8,1667.7,1667.7
2719.45,2719.45,2719.45,2233.1,2233.1
3146.4,3744.4,3744.4,2944.0,2944.0
2639.65,2639.65,2639.65,2096.0,2096.0
2677.2,2677.2,2677.2,2339.1,2339.1
2354.8,2354.8,2354.8,1873.4,1873.4
2800.0,2800.0,2800.0,2240.0,2240.0
3424.95,3424.95,3424.95,2840.85,2840.85
2366.4,2366.4,2366.4,1856.0,1856.0
2366.4,2366.4,2366.4,1856.0,1856.0
3315.0,3315.0,3315.0,2720.0,2720.0
2746.85,2746.85,2746.85,2192.0,2192.0
2865.6,2865.6,2865.6,2311.2,2311.2
2136.75,2136.75,2136.75,1716.75,1716.75
-401.0,-401.0,-401.0,-401.0,-401.0
2838.55,2838.55,2838.55,2309.45,2309.45
2366.4,2366.4,2366.4,1856.0,1856.0
2547.2,2547.2,2547.2,2105.6,2105.6
2421.65,2421.65,2421.65,1904.0,1904.0
2878.25,2878.25,2878.25,2334.5,2334.5
3061.25,3061.25,3061.25,2480.0,2480.0
3417.6,3417.6,3417.6,2892.5,2892.5
488.75,488.75,488.75,488.75,488.75
3657.65,3657.65,3657.65,3056.0,3056.0
3198.05,3198.05,3198.05,2772.2,2772.2
2518.75,2518.75,2518.75,2018.75,2018.75
2865.6,2865.6,2865.6,2311.2,2311.2
2518.75,2518.75,2518.75,2018.75,2018.75
3463.65,3463.65,3463.65,2864.0,2864.0
3136.0,3136.0,3136.0,2576.0,2576.0
2421.65,2421.65,2421.65,1904.0,1904.0
-406.0,-406.0,-406.0,-406.0,-406.0
2693.4,2693.4,2693.4,2144.0,2144.0
-299.25,-299.25,-299.25,-299.25,-299.25
2917.95,2917.95,2917.95,2359.35,2359.35
-407.0,-407.0,-407.0,-407.0,-407.0
2520.0,2520.0,2520.0,2060.1,2060.1
-408.0,-408.0,-408.0,-408.0,-408.0
3414.4,3414.4,3414.4,2816.0,2816.0
392.0,392.0,392.0,392.0,392.0
-199.0,-199.0,-199.0,-199.0,-199.0
2218.15,2218.15,2218.15,1771.25,1771.25
2284.8,2284.8,2284.8,1803.2,1803.2
2218.15,2218.15,2218.15,1771.25,1771.25
2812.95,2812.95,2812.95,2263.05,2263.05
2905.4,2905.4,2905.4,2336.0,2336.0
4161.6,4161.6,3264.0,3264.0,3264.0
-404.0,-404.0,-404.0,-404.0,-404.0
2325.6,2325.6,2325.6,1829.7,1829.7
2905.4,2905.4,2905.4,2336.0,2336.0
2852.85,2852.85,2852.85,2288.0,2288.0
-403.0,-403.0,-403.0,-403.0,-403.0
3163.65,3163.65,3163.65,2576.0,2576.0
2852.85,2852.85,2852.85,2288.0,2288.0
2273.6,2273.6,2273.6,1820.0,1820.0
2200.0,2200.0,2200.0,1842.5,1842.5
2490.75,2490.75,2490.75,1974.15,1974.15
2680.0,2680.0,2680.0,2164.1,2164.1
2639.65,2639.65,2639.65,2096.0,2096.0
2280.0,2280.0,2280.0,1898.1,1898.1
2800.0,2800.0,2800.0,2240.0,2240.0
2706.75,2706.75,2706.75,2166.75,2166.75
-402.0,-402.0,-402.0,-402.0,-402.0
3061.25,3061.25,3061.25,2480.0,2480.0
2760.0,2760.0,2760.0,2214.9,2214.9
-406.0,-406.0,-406.0,-406.0,-406.0
3424.95,3424.95,3424.95,2840.85,2840.85
2745.25,2745.25,2745.25,2279.6,2279.6
2136.75,2136.75,2136.75,1716.75,1716.75
2693.4,2693.4,2693.4,2144.0,2144.0
3163.65,3163.65,3163.65,2576.0,2576.0
2366.4,2366.4,2366.4,1856.0,1856.0
2504.8,2504.8,2504.8,1996.4,1996.4
3021.75,3021.75,3021.75,2455.65,2455.65
3542.75,3542.75,3542.75,2987.75,2987.75
-403.0,-403.0,-403.0,-403.0,-403.0
197.0,197.0,197.0,197.0,197.0
-402.0,-402.0,-402.0,-402.0,-402.0
3163.65,3163.65,3163.65,2576.0,2576.0
2296.8,2296.8,2296.8,1960.4,1960.4
2395.4,2395.4,2395.4,1899.8,1899.8
3009.6,3009.6,3009.6,2432.0,2432.0
2366.4,2366.4,2366.4,1856.0,1856.0
2733.15,2733.15,2733.15,2212.55,2212.55
3714.75,3714.75,3714.75,3129.75,3129.75
-405.0,-405.0,-405.0,-405.0,-405.0
2639.65,2639.65,2639.65,2096.0,2096.0
2366.4,2366.4,2366.4,1856.0,1856.0
2639.65,2639.65,2639.65,2096.0,2096.0
2366.4,2366.4,2366.4,1856.0,1856.0
2640.0,2640.0,2640.0,2138.4,2138.4
2545.2,2545.2,2545.2,2022.3,2022.3
-402.0,-402.0,-402.0,-402.0,-402.0
-404.0,-404.0,-404.0,-404.0,-404.0
-403.0,-403.0,-403.0,-403.0,-403.0
2490.75,2490.75,2490.75,1974.15,1974.15
2852.85,2852.85,2852.85,2288.0,2288.0
2380.95,2380.95,2380.95,1877.85,1877.85
2436.0,2436.0,2436.0,1926.0,1926.0
2746.85,2746.85,2746.85,2192.0,2192.0
2531.25,2531.25,2531.25,2000.0,2000.0
2825.8,2825.8,2825.8,2286.2,2286.2
2957.65,2957.65,2957.65,2384.0,2384.0
-79.6,-79.6,-79.6,-79.0,-79.0
2693.25,2693.25,2693.25,2187.0,2187.0
2693.4,2693.4,2693.4,2144.0,2144.0
2325.6,2325.6,2325.6,1829.7,1829.7
3112.6,3112.6,3112.6,2528.0,2528.0
2366.4,2366.4,2366.4,1856.0,1856.0
2851.2,2851.2,2851.2,2332.8,2332.8
2450.25,2450.25,2450.25,1948.1,1948.1
2504.8,2504.8,2504.8,1996.4,1996.4
3287.05,3287.05,3287.05,2720.9,2720.9
3264.85,3264.85,3264.85,2672.0,2672.0
2357.55,2357.55,2357.55,1912.95,1912.95
3021.75,3021.75,3021.75,2455.65,2455.65
3112.6,3112.6,3112.6,2528.0,2528.0
2800.0,2800.0,2800.0,2240.0,2240.0
3124.35,3124.35,3124.35,2551.95,2551.95
2852.85,2852.85,2852.85,2288.0,2288.0
2421.65,2421.65,2421.65,1904.0,1904.0
-408.0,-408.0,-408.0,-408.0,-408.0
3419.1,3201.6,3419.1,2836.2,2836.2
2409.75,2409.75,2409.75,1921.85,1921.85
3225.75,3225.75,3225.75,2648.25,2648.25
2979.2,2979.2,2979.2,2477.6,2477.6
2531.25,2531.25,2531.25,2000.0,2000.0
2905.4,2905.4,2905.4,2336.0,2336.0
2760.0,2760.0,2760.0,2214.9,2214.9
98.75,98.75,98.75,98.75,98.75
3315.0,3315.0,3315.0,2720.0,2720.0
3386.25,3386.25,3386.25,2817.5,2817.5
3431.25,3431.25,3431.25,3074.4,3074.4
2639.65,2639.65,2639.65,2096.0,2096.0
2325.6,2325.6,2325.6,1829.7,1829.7
2905.4,2905.4,2905.4,2336.0,2336.0
3364.85,3364.85,3364.85,2768.0,2768.0
2745.25,2745.25,2745.25,2279.6,2279.6
2579.2,2598.4,2579.2,2048.0,2048.0
2653.2,2653.2,2653.2,2118.6,2118.6
2366.4,2366.4,2366.4,1856.0,1856.0
2653.2,2653.2,2653.2,2118.6,2118.6
2340.25,2340.25,2340.25,1851.5,1851.5
2531.25,2531.25,2531.25,2000.0,2000.0
2476.6,2476.6,2476.6,1952.0,1952.0
2800.0,2800.0,2800.0,2240.0,2240.0
2490.75,2490.75,2490.75,1974.15,1974.15
-408.0,-408.0,-408.0,-408.0,-408.0
680.75,680.75,680.75,680.75,680.75
2587.0,2587.0,2587.0,2132.0,2132.0
2982.25,2982.25,2982.25,2431.1,2431.1
140.35,140.35,140.35,134.75,134.75
-404.0,-404.0,-404.0,-404.0,-404.0
-400.0,-400.0,-400.0,-400.0,-400.0
3073.2,3073.2,3073.2,2503.8,2503.8
2450.25,2450.25,2450.25,1948.1,1948.1
-408.0,-408.0,-408.0,-408.0,-408.0
3657.65,3657.65,3657.65,3056.0,3056.0
2362.15,2362.15,2362.15,1993.25,1993.25
2905.4,2905.4,2905.4,2336.0,2336.0
2640.0,2640.0,2640.0,2138.4,2138.4
2917.95,2917.95,2917.95,2359.35,2359.35
2355.45,2355.45,2355.45,2177.1,2177.1
2746.85,2746.85,2746.85,2192.0,2192.0
2693.4,2693.4,2693.4,2144.0,2144.0
2585.6,2585.6,2585.6,2048.0,2048.0
1964.25,1964.25,1964.25,1619.9,1619.9
2865.6,2865.6,2865.6,2311.2,2311.2
-407.0,-403.0,-407.0,-407.0,-407.0
-402.0,-402.0,-402.0,-402.0,-402.0
1701.0,1701.0,1701.0,1701.0,1701.0
2366.4,2366.4,2366.4,1856.0,1856.0
2811.6,2811.6,2811.6,2307.5,2307.5
2244.0,2244.0,2244.0,1776.5,1776.5
2450.25,2450.25,2450.25,1948.1,1948.1
-400.0,-400.0,-400.0,-400.0,-400.0
2741.55,2741.55,2741.55,2623.95,2623.95
2693.4,2693.4,2693.4,2144.0,2144.0
-199.0,-199.0,-199.0,-199.0,-199.0
2970.0,2970.0,2970.0,2407.5,2407.5
98.75,98.75,98.75,98.75,98.75
3789.45,3789.45,3298.05,3024.0,3024.0
2331.6,2331.6,2331.6,1908.2,1908.2
392.0,392.0,392.0,392.0,392.0
2325.6,2325.6,2325.6,1829.7,1829.7
2672.4,2574.15,2672.4,2096.0,2096.0
1571.7,1571.7,1571.7,1259.7,1443.0
2852.85,2852.85,2852.85,2288.0,2288.0
2653.2,2653.2,2653.2,2118.6,2118.6
3993.75,3993.75,3993.75,3418.65,3418.65
2476.6,2476.6,2476.6,1952.0,1952.0
3512.6,3512.6,3512.6,2912.0,2912.0
98.75,98.75,98.75,98.75,98.75
2340.25,2340.25,2340.25,1845.75,1857.25
2436.0,2436.0,2436.0,1926.0,1926.0
2476.6,2476.6,2476.6,1952.0,1952.0
2970.0,2970.0,2970.0,2407.5,2407.5
2786.0,2786.0,2786.0,2261.0,2261.0
2585.6,2585.6,2585.6,2048.0,2048.0
2833.6,3581.6,3581.6,2939.2,2939.2
-402.0,-402.0,-402.0,-402.0,-402.0
1610.75,1610.75,1610.75,1610.75,1610.75
2585.6,2585.6,2585.6,2048.0,2048.0
2476.6,2476.6,2476.6,1952.0,1952.0
3407.25,3407.25,3407.25,2867.4,2867.4
2952.05,2952.05,2952.05,2476.4,2476.4
-406.0,-406.0,-406.0,-406.0,-406.0
2852.85,2852.85,2852.85,2288.0,2288.0
3839.85,3839.85,3839.85,3415.5,3415.5
2380.95,2380.95,2380.95,1877.85,1877.85
2476.6,2476.6,2476.6,1952.0,1952.0
2380.95,2380.95,2380.95,1877.85,1877.85
2800.0,2800.0,2800.0,2240.0,2240.0
2244.0,2244.0,2244.0,1776.5,1776.5
2490.75,2490.75,2490.75,1974.15,1974.15
2865.6,2865.6,2865.6,2311.2,2311.2
3108.45,3108.45,3108.45,2575.8,2575.8
2395.4,2395.4,2395.4,1899.8,1899.8
3069.35,3069.35,3069.35,2551.25,2551.25
2773.05,2773.05,2773.05,2237.9,2237.9
-405.0,-405.0,-405.0,-405.0,-405.0
98.75,98.75,98.75,98.75,98.75
1080.0,1080.0,1080.0,980.1,980.1
2424.0,2424.0,2424.0,1944.0,1944.0
-408.0,-408.0,-408.0,-402.0,-402.0
1152.0,1152.0,1152.0,1152.0,1152.0
2366.4,2366.4,2366.4,1856.0,1856.0
3463.65,3463.65,3463.65,2864.0,2864.0
2746.85,2746.85,2746.85,2192.0,2192.0
2639.65,2639.65,2639.65,2096.0,2096.0
2436.0,2436.0,2436.0,1926.0,1926.0
2345.85,2345.85,2345.85,1930.5,1930.5
2760.0,2760.0,2760.0,2214.9,2214.9
-406.0,-406.0,-406.0,-406.0,-406.0
2545.2,2545.2,2545.2,2022.3,2022.3
2653.2,2653.2,2653.2,2118.6,2118.6
3657.65,3657.65,3657.65,3056.0,3056.0
-404.0,-404.0,-404.0,-404.0,-404.0
2284.8,2284.8,2284.8,1803.2,1803.2
2421.65,2421.65,2421.65,1904.0,1904.0
2666.6,2666.6,2666.6,2184.2,2184.2
1990.0,1990.0,1990.0,1715.0,1715.0
2600.0,2600.0,2600.0,2112.5,2112.5
2380.95,2380.95,2380.95,1877.85,1877.85
2905.4,2905.4,2905.4,2336.0,2336.0
2800.0,2800.0,2800.0,2240.0,2240.0
-299.25,-299.25,-299.25,-299.25,-299.25
2917.95,2917.95,2917.95,2359.35,2359.35
-403.0,-403.0,-403.0,-403.0,-403.0
2340.25,2340.25,2340.25,1851.5,1851.5
2421.65,2421.65,2421.65,1904.0,1904.0
3609.6,3609.6,3609.6,3008.0,3008.0
3590.8,3590.8,3590.8,3036.2,3036.2
3561.25,3561.25,3561.25,2960.0,2960.0
2395.4,2395.4,2395.4,1899.8,1899.8
2599.35,2599.35,2599.35,2070.45,2070.45
2585.6,2585.6,2585.6,2048.0,2048.0
2746.85,2746.85,2746.85,2192.0,2192.0
2057.0,2057.0,2057.0,2057.0,2057.0
2905.4,2905.4,2905.4,2336.0,2336.0
1319.5,1319.5,1319.5,1225.25,1040.0
2970.0,2970.0,2970.0,2407.5,2407.5
2865.6,2865.6,2865.6,2311.2,2311.2
2366.4,2366.4,2366.4,1856.0,1856.0
1428.75,1428.75,1428.75,1428.75,1428.75
2851.2,2851.2,2851.2,2332.8,2332.8
2100.0,2100.0,2100.0,2060.8,2100.0
2284.8,2284.8,2284.8,1803.2,1803.2
2450.25,2450.25,2450.25,1948.1,1948.1
2905.4,2905.4,2905.4,2336.0,2336.0
-99.25,-99.25,-99.25,-99.25,-99.25
4218.0,4218.0,4218.0,3659.4,3659.4
2532.6,2532.6,2532.6,2041.2,2041.2
-406.0,-406.0,-406.0,-406.0,-406.0
2653.2,2653.2,2653.2,2118.6,2118.6
-406.0,-406.0,-406.0,-406.0,-406.0
2572.8,2572.8,2572.8,2067.2,2067.2
2970.0,2970.0,2970.0,2407.5,2407.5
2545.2,2545.2,2545.2,2022.3,2022.3
2436.0,2436.0,2436.0,1926.0,1926.0
3120.0,3120.0,3120.0,2600.0,2600.0
197.0,197.0,197.0,197.0,197.0
-99.25,-99.25,-99.25,-99.25,-99.25
1200.0,1200.0,1200.0,1080.0,1080.0
2476.6,2476.6,2476.6,1952.0,1952.0
2639.65,2639.65,2639.65,2096.0,2096.0
776.0,776.0,776.0,776.0,776.0
-400.0,-400.0,-400.0,-400.0,-400.0
3112.6,3112.6,3112.6,2528.0,2528.0
1933.25,1933.25,1933.25,1577.0,1577.0
2773.05,2773.05,2773.05,2237.9,2237.9
3264.85,3264.85,3264.85,2672.0,2672.0
2957.65,2957.65,2957.65,2384.0,2384.0
3287.05,3287.05,3287.05,2720.9,2720.9
2719.45,2719.45,2719.45,2233.1,2233.1
2302.8,2302.8,2302.8,1863.9,1863.9
2967.15,2967.15,2967.15,2453.75,2453.75
2421.65,2421.65,2421.65,1904.0,1904.0
2600.4,2600.4,2600.4,2197.8,2197.8
1383.45,1383.45,1383.45,1221.3,1221.3
2786.0,2786.0,2786.0,2261.0,2261.0
3414.4,3414.4,3414.4,2816.0,2816.0
-407.0,-407.0,-407.0,-407.0,-407.0
2366.4,2366.4,2366.4,1856.0,1856.0
1701.0,1701.0,1701.0,1701.0,1701.0
1380.4,1380.4,1380.4,1179.8,1179.8
2030.0,2030.0,2030.0,1655.0,1655.0
2957.65,2957.65,2957.65,2384.0,2384.0
2733.15,2733.15,2733.15,2212.55,2212.55
2800.0,2800.0,2800.0,2240.0,2240.0
3061.25,3061.25,3061.25,2480.0,2480.0
3512.6,3512.6,3512.6,2912.0,2912.0
3652.4,3652.4,3330.4,2944.0,2944.0
2531.25,2531.25,2531.25,2000.0,2000.0
2366.4,2366.4,2366.4,1856.0,1856.0
3417.6,3417.6,3417.6,2892.5,2892.5
2825.8,2825.8,2825.8,2286.2,2286.2
1516.2,1516.2,1516.2,1470.6,1216.0
2141.2,2141.2,2141.2,1754.3,1754.3
3846.85,3846.85,3846.85,3248.0,3248.0
2325.6,2325.6,2325.6,1829.7,1829.7
2812.95,2812.95,2812.95,2263.05,2263.05
2504.8,2504.8,2504.8,1996.4,1996.4
2812.95,2812.95,2812.95,2263.05,2263.05
-299.25,-299.25,-299.25,-299.25,-299.25
3021.75,3021.75,3021.75,2455.65,2455.65
1058.75,1058.75,1058.75,1058.75,1058.75
488.75,488.75,488.75,488.75,488.75
2380.95,2380.95,2380.95,1877.85,1877.85
-402.0,-402.0,-402.0,-402.0,-402.0
-404.0,-404.0,-404.0,-404.0,-404.0
2693.4,2693.4,2693.4,2144.0,2144.0
2476.6,2476.6,2476.6,1952.0,1952.0
1965.15,1965.15,1965.15,1707.75,1707.75
2531.25,2531.25,2531.25,2000.0,2000.0
2490.75,2490.75,2490.75,1974.15,1974.15
3561.25,3561.25,3561.25,2960.0,2960.0
2693.4,2693.4,2693.4,2144.0,2144.0
2957.65,2957.65,2957.65,2384.0,2384.0
2348.2,2348.2,2348.2,1970.6,1970.6
2693.4,2693.4,2693.4,2144.0,2144.0
2746.85,2746.85,2746.85,2192.0,2192.0
2258.85,2258.85,2258.85,1798.2,1798.2
2413.95,2413.95,2413.95,2002.55,2002.55
2121.6,2121.6,2121.6,1695.2,1695.2
2450.25,2450.25,2450.25,1948.1,1948.1
2421.65,2421.65,2421.65,1904.0,1904.0
2639.65,2639.65,2639.65,2096.0,2096.0
2925.0,2925.0,2925.0,2475.0,2475.0
3752.85,3752.85,3752.85,3152.0,3152.0
3009.6,3009.6,3009.6,2432.0,2432.0
2746.85,2746.85,2746.85,2192.0,2192.0
3061.25,3061.25,3061.25,2480.0,2480.0
1958.4,1958.4,1958.4,1584.0,1584.0
2587.2,2587.2,2587.2,2217.6,2217.6
3186.65,3186.65,3186.65,2624.3,2624.3
2824.25,2824.25,2824.25,2330.9,2330.9
2545.2,2545.2,2545.2,2022.3,2022.3
-402.0,-402.0,-402.0,-402.0,-402.0
1688.4,1688.4,1688.4,1449.0,1449.0
680.75,680.75,680.75,680.75,680.75
2666.65,2666.65,2666.65,2141.3,2141.3
2733.15,2733.15,2733.15,2212.55,2212.55
-406.0,-406.0,-406.0,-406.0,-406.0
2366.4,2366.4,2366.4,1856.0,1856.0
-299.25,-299.25,-299.25,-299.25,-299.25
3808.95,3808.95,3808.95,3226.05,3226.05
680.75,680.75,680.75,680.75,680.75
3108.45,3108.45,3108.45,2575.8,2575.8
3543.65,3543.65,3543.65,3066.8,3066.8
2599.35,2599.35,2599.35,2070.45,2070.45
3045.75,3045.75,3045.75,2503.25,2503.25
3484.25,3484.25,3484.25,2914.1,2914.1
2244.0,2244.0,2244.0,1776.5,1776.5
870.75,870.75,870.75,870.75,870.75
2421.65,2421.65,2421.65,1904.0,1904.0
840.65,840.65,840.65,821.3,821.3
2912.0,2912.0,2912.0,2912.0,2912.0
1969.8,1969.8,1969.8,1656.2,1656.2
2493.75,2493.75,2493.75,2056.25,2056.25
2905.4,2905.4,2905.4,2336.0,2336.0
3463.65,3463.65,3463.65,2864.0,2864.0
2759.4,2978.4,2978.4,2336.0,2336.0
2421.65,2421.65,2421.65,1904.0,1904.0
2852.85,2852.85,2852.85,2288.0,2288.0
4121.65,4121.65,4121.65,3536.0,3536.0
2518.75,2518.75,2518.75,2018.75,2018.75
2666.65,2666.65,2666.65,2141.3,2141.3
2362.15,2362.15,2362.15,1993.25,1993.25
2531.25,2531.25,2531.25,2000.0,2000.0
-406.0,-406.0,-406.0,-406.0,-406.0
2905.4,2905.4,2905.4,2336.0,2336.0
2518.75,2518.75,2518.75,2018.75,2018.75
3045.75,3045.75,3045.75,2503.25,2503.25
3040.0,3040.0,3040.0,2720.0,2720.0
-406.0,-406.0,-406.0,-406.0,-406.0
2314.2,2314.2,2314.2,1846.8,1846.8
2251.2,2251.2,2251.2,1853.6,1853.6
2492.4,2492.4,2492.4,2015.0,2015.0
3112.6,3112.6,3112.6,2528.0,2528.0
2917.95,2917.95,2917.95,2359.35,2359.35
0.0,0.0,0.0,0.0,0.0
2476.6,2476.6,2476.6,1952.0,1952.0
2905.4,2905.4,2905.4,2336.0,2336.0
-406.0,-406.0,-406.0,-406.0,-406.0
2395.4,2395.4,2395.4,1899.8,1899.8
2450.25,2450.25,2450.25,1948.1,1948.1
3375.6,3375.6,3375.6,2792.7,2792.7
3085.05,3085.05,3085.05,2527.7,2527.7
965.0,965.0,965.0,965.0,965.0
2531.25,2531.25,2531.25,2000.0,2000.0
2380.95,2380.95,2380.95,1877.85,1877.85
-403.0,-403.0,-403.0,-403.0,-403.0
2970.0,2970.0,2970.0,2407.5,2407.5
2531.25,2531.25,2531.25,2000.0,2000.0
2800.0,2800.0,2800.0,2240.0,2240.0
3364.85,3364.85,3364.85,2768.0,2768.0
2800.0,2800.0,2800.0,2240.0,2240.0
3417.6,3417.6,3417.6,2892.5,2892.5
1337.0,1337.0,1337.0,1337.0,1337.0
3124.35,3124.35,3124.35,2551.95,2551.95
2366.4,2366.4,2366.4,1856.0,1856.0
4268.8,4268.8,4268.8,3735.2,3735.2
2905.4,2905.4,2905.4,2336.0,2336.0
-402.0,-402.0,-402.0,-402.0,-402.0
965.0,965.0,965.0,965.0,965.0
2653.2,2653.2,2653.2,2118.6,2118.6
392.0,392.0,392.0,392.0,392.0
2531.25,2531.25,2531.25,2000.0,2000.0
2746.85,2746.85,2746.85,2192.0,2192.0
2970.0,2970.0,2970.0,2407.5,2407.5
-99.25,-99.25,-99.25,-99.25,-99.25
-401.0,-401.0,-401.0,-401.0,-401.0
-406.0,-406.0,-406.0,-391.0,-391.0
2421.65,2421.65,2421.65,1904.0,1904.0
2653.2,2653.2,2653.2,2204.3,2204.3
2825.8,2825.8,2825.8,2286.2,2286.2
2436.0,2436.0,2436.0,1926.0,1926.0
-199.0,-199.0,-199.0,-199.0,-199.0
2421.65,2421.65,2421.65,1904.0,1904.0
2852.85,2852.85,2852.85,2288.0,2288.0
2745.25,2745.25,2745.25,2279.6,2279.6
-405.0,-405.0,-405.0,-405.0,-405.0
3112.6,3112.6,3112.6,2528.0,2528.0
2660.75,2660.75,2660.75,2660.75,2660.75
2863.75,2863.75,2863.75,2356.25,2356.25
3657.65,3657.65,3657.65,3056.0,3056.0
3315.0,3315.0,3315.0,2720.0,2720.0
2936.25,2791.25,2936.25,2320.0,2320.0
-401.0,-401.0,-401.0,-401.0,-401.0
-405.0,-405.0,-405.0,-405.0,-405.0
-401.0,-401.0,-401.0,-401.0,-401.0
2585.6,2585.6,2585.6,2048.0,2048.0
2262.4,2262.4,2262.4,1836.8,1836.8
680.75,680.75,680.75,680.75,680.75
3989.85,3989.85,3346.65,3276.3,3276.3
2366.4,2366.4,2366.4,1856.0,1856.0
2232.0,2232.0,2232.0,2232.0,2232.0
2518.75,2518.75,2518.75,2018.75,2018.75
-405.0,-405.0,-405.0,-405.0,-405.0
2075.45,2075.45,2075.45,1720.1,1720.1
-406.0,-406.0,-406.0,-406.0,-406.0
2203.2,2203.2,2203.2,1749.6,1749.6
2760.0,2760.0,2760.0,2214.9,2214.9
-345.95,-345.95,-345.95,-329.8,-329.8
2915.6,2915.6,2915.6,2405.0,2405.0
-99.25,-99.25,-99.25,-99.25,-99.25
2156.05,2156.05,2156.05,1776.2,1776.2
2800.0,2800.0,2800.0,2240.0,2240.0
2746.85,2746.85,2746.85,2192.0,2192.0
2786.0,2786.0,2786.0,2261.0,2261.0
2436.0,2436.0,2436.0,1926.0,1926.0
2800.0,2800.0,2800.0,2240.0,2240.0
3186.65,3186.65,3186.65,2624.3,2624.3
2366.4,2366.4,2366.4,1856.0,1856.0
2476.6,2476.6,2476.6,1952.0,1952.0
2366.4,2366.4,2366.4,1856.0,1856.0
3112.6,3112.6,3112.6,2528.0,2528.0
1610.75,1610.75,1610.75,1610.75,1610.75
3714.75,3714.75,3714.75,3129.75,3129.75
2531.25,2531.25,2531.25,2000.0,2000.0
2057.0,2057.0,2057.0,2057.0,2057.0
2075.45,2075.45,2075.45,1720.1,1720.1
294.75,294.75,294.75,294.75,294.75
2436.0,2436.0,2436.0,1926.0,1926.0
3463.65,3463.65,3463.65,2864.0,2864.0
1610.75,1610.75,1610.75,1610.75,1610.75
