99.5,99.5,99.5,80.5,80.5
94.25,102.0,102.0,102.0,102.0
100.0,100.0,100.0,80.5,80.5
96.0,96.0,96.0,82.25,82.25
98.5,98.5,98.5,98.5,98.5
102.0,102.0,102.0,82.25,82.25
101.75,101.75,101.75,83.5,83.5
101.0,101.0,101.0,80.75,97.75
97.25,97.25,97.25,80.0,80.0
102.0,102.0,102.0,80.0,80.0
99.0,99.0,99.0,80.0,80.0
100.0,100.0,100.0,100.0,100.0
94.75,94.75,94.75,86.5,86.5
101.0,101.0,101.0,80.0,80.0
101.5,101.5,101.5,80.0,80.0
102.0,102.0,102.0,84.0,84.0
98.0,98.0,98.0,80.0,80.0
99.5,99.5,99.5,80.25,80.25
99.25,99.25,99.25,80.0,80.0
98.0,98.0,98.0,98.0,98.0
98.0,98.0,98.0,98.0,98.0
100.5,100.5,100.5,80.0,80.0
99.5,99.5,99.5,81.75,81.75
100.5,100.5,100.5,100.5,100.5
101.25,101.25,101.25,80.0,80.0
101.25,101.25,101.25,80.0,80.0
95.75,95.75,95.75,80.25,80.25
100.75,100.75,100.75,80.5,80.5
97.25,97.25,97.25,81.0,81.0
99.0,87.0,99.0,80.25,80.25
99.25,99.25,99.25,99.25,99.25
101.0,101.0,101.0,82.75,82.75
92.25,92.25,92.25,80.5,80.5
97.0,97.0,97.0,82.0,82.0
99.25,99.25,99.25,80.75,80.75
100.5,100.5,100.5,84.0,84.0
101.75,101.75,101.75,101.75,101.75
99.75,99.75,99.75,80.0,80.0
95.75,95.75,95.75,82.75,82.75
94.5,94.5,94.5,82.5,82.5
101.0,101.0,101.0,80.75,80.75
100.25,100.25,100.25,80.0,80.0
92.5,92.5,92.5,80.0,80.0
97.75,97.75,97.75,80.0,80.0
101.5,101.5,101.5,81.0,81.0
100.5,100.5,100.5,80.25,80.25
100.0,100.0,100.0,93.0,93.0
98.5,98.5,98.5,80.0,80.0
99.75,99.75,99.75,84.25,84.25
97.5,97.5,97.5,80.0,80.0
100.0,100.0,100.0,80.0,80.0
101.75,101.75,101.75,80.0,80.0
101.5,99.5,101.5,80.75,80.75
99.0,99.0,99.0,81.25,81.25
95.25,95.25,95.25,95.25,95.25
98.0,98.0,98.0,80.25,80.25
100.75,100.75,100.75,80.25,80.25
97.5,97.5,97.5,97.5,97.5
98.5,98.5,98.5,80.0,80.0
97.75,97.75,97.75,80.0,80.0
95.75,95.75,95.75,81.0,81.0
95.25,95.25,95.25,95.25,95.25
101.75,101.75,101.75,80.0,80.0
99.75,99.75,99.75,80.5,80.5
100.25,100.25,100.25,100.25,100.25
97.0,97.0,97.0,80.0,80.0
100.75,100.75,100.75,80.0,80.0
96.75,96.75,96.75,80.0,80.0
99.5,99.5,99.5,80.0,80.0
101.0,101.0,101.0,91.75,91.75
97.5,97.5,97.5,80.75,80.75
100.5,100.5,100.5,80.0,80.0
101.5,101.5,101.5,80.25,80.25
99.75,99.75,99.75,80.0,80.0
102.0,102.0,102.0,80.25,80.25
95.25,95.25,95.25,81.25,81.25
94.75,94.75,94.75,94.75,94.75
92.0,92.0,92.0,83.75,83.75
101.75,101.75,101.75,80.25,80.25
99.0,99.0,99.0,80.0,80.0
98.75,98.75,98.75,80.0,80.0
97.0,97.0,97.0,80.5,80.5
99.25,99.25,99.25,99.25,99.25
98.25,98.25,98.25,84.0,84.0
99.5,99.5,99.5,80.0,80.0
101.75,101.75,101.75,81.75,81.75
100.5,100.5,100.5,80.0,80.0
97.5,97.5,97.5,80.0,80.0
100.5,100.5,100.5,80.5,80.5
98.25,98.25,98.25,98.25,98.25
101.5,101.5,101.5,81.25,81.25
100.75,100.75,100.75,80.0,80.0
95.0,95.0,95.0,80.0,80.0
100.25,100.25,100.25,80.0,80.0
100.75,100.75,100.75,80.0,80.0
101.5,101.5,101.5,100.75,100.75
99.0,99.0,99.0,80.25,80.25
102.0,102.0,102.0,81.0,81.0
101.75,101.75,101.75,80.0,80.0
101.0,101.0,101.0,80.0,80.0
95.75,95.75,95.75,95.75,95.75
96.25,96.25,96.25,81.5,81.5
100.25,100.25,100.25,100.25,100.25
101.25,101.25,101.25,80.5,80.5
97.5,97.5,97.5,81.5,81.5
96.25,96.25,96.25,80.0,80.0
101.75,101.75,101.75,80.5,80.5
98.25,98.25,98.25,80.0,80.0
100.0,100.0,100.0,80.25,80.25
99.0,99.0,99.0,99.0,99.0
101.5,101.5,101.5,86.75,86.75
101.75,101.75,101.75,101.75,101.75
101.0,101.0,101.0,80.0,80.0
97.25,97.25,97.25,81.5,81.5
98.25,98.25,98.25,98.25,98.25
100.5,100.5,100.5,80.0,80.0
100.75,100.75,100.75,80.0,80.0
95.75,95.75,95.75,80.0,80.0
100.25,100.25,100.25,80.0,80.0
98.75,98.75,98.75,98.75,98.75
100.5,100.5,100.5,81.75,81.75
98.25,98.25,98.25,98.25,98.25
97.75,97.75,97.75,81.0,81.0
98.0,98.0,98.0,92.25,92.25
97.5,97.5,97.5,81.0,81.0
102.0,102.0,102.0,80.0,80.0
99.0,99.0,99.0,80.5,80.5
101.0,101.0,101.0,81.0,81.0
99.75,99.75,99.75,99.75,99.75
99.25,99.25,99.25,80.0,80.0
89.5,89.5,89.5,89.5,89.5
102.0,102.0,102.0,80.25,80.25
98.0,98.0,98.0,80.75,80.75
100.75,100.75,100.75,100.75,100.75
101.5,101.5,101.5,101.5,101.5
102.0,102.0,102.0,80.5,80.5
100.75,100.75,100.75,100.75,100.75
98.5,98.5,98.5,80.0,80.0
101.75,101.75,101.75,101.75,101.75
101.25,101.25,101.25,80.0,80.0
99.0,99.0,99.0,80.25,80.25
101.75,101.75,101.75,80.75,80.75
101.25,101.25,101.25,80.25,80.25
100.5,100.5,100.5,80.0,80.0
95.0,95.0,95.0,95.0,95.0
99.0,99.0,99.0,99.0,99.0
97.75,97.75,97.75,80.0,80.0
100.75,100.75,100.75,80.25,80.25
99.0,99.0,99.0,99.0,99.0
101.5,101.5,101.5,80.25,80.25
101.25,101.25,101.25,80.0,80.0
101.0,101.0,101.0,80.25,80.25
101.0,101.0,101.0,80.25,80.25
101.75,101.75,101.75,101.75,101.75
100.0,100.0,100.0,80.0,80.0
100.5,100.5,100.5,81.0,81.0
101.75,101.75,101.75,101.75,101.75
90.5,90.5,90.5,83.0,83.0
98.5,98.5,98.5,80.0,80.0
101.25,101.25,101.25,101.25,101.25
100.5,100.5,100.5,80.25,80.25
99.5,99.5,99.5,80.0,80.0
99.75,99.75,99.75,80.0,80.0
99.0,99.0,99.0,80.0,80.0
99.5,99.5,99.5,80.25,80.25
98.0,98.0,98.0,80.75,80.75
100.25,100.25,100.25,80.75,80.75
101.25,101.25,101.25,81.5,81.5
99.0,99.0,99.0,80.0,80.0
96.25,96.25,96.25,80.0,80.0
98.0,98.0,98.0,95.75,98.0
96.75,96.75,96.75,80.0,80.0
98.5,98.5,98.5,80.0,80.0
99.25,99.25,99.25,99.25,99.25
100.5,100.5,100.5,86.25,86.25
101.75,101.75,101.75,101.75,101.75
99.25,99.25,99.25,99.25,99.25
101.5,101.5,101.5,80.75,80.75
98.25,98.25,98.25,80.0,80.0
95.25,95.25,95.25,80.0,80.0
101.5,101.5,101.5,80.0,80.0
100.25,98.0,98.0,80.0,80.0
99.75,99.75,99.75,80.5,80.5
100.25,100.25,100.25,80.25,80.25
101.0,101.0,90.0,80.0,80.0
101.5,101.5,101.5,81.25,81.25
93.75,93.75,93.75,80.5,80.5
98.75,98.75,98.75,80.0,80.0
94.0,94.0,94.0,81.5,81.5
97.5,97.5,97.5,80.0,80.0
98.25,98.25,98.25,80.0,80.0
100.75,100.75,100.75,80.25,80.25
95.0,95.0,95.0,80.0,80.0
101.75,101.75,101.75,80.5,80.5
101.75,101.75,101.75,80.0,80.0
99.0,99.0,99.0,99.0,99.0
101.75,101.75,101.75,80.0,80.0
99.0,81.5,99.0,80.0,80.0
97.75,97.75,97.75,97.75,97.75
101.25,101.25,101.25,90.0,90.0
100.0,100.0,100.0,80.0,80.0
101.0,101.0,101.0,80.0,80.0
98.75,98.75,98.75,80.5,80.5
99.0,99.0,99.0,99.0,99.0
100.25,99.25,100.25,82.25,82.25
100.25,100.25,100.25,81.0,81.0
98.5,98.5,98.5,80.0,80.0
99.25,99.25,99.25,80.25,80.25
101.25,101.25,101.25,80.75,80.75
97.75,97.75,97.75,97.75,97.75
95.75,95.75,95.75,81.25,81.25
93.5,93.5,93.5,81.0,81.0
101.0,101.0,101.0,101.0,101.0
93.5,93.5,93.5,93.5,93.5
100.0,100.0,100.0,80.0,80.0
100.5,100.5,100.5,80.25,80.25
100.5,100.5,100.5,82.0,82.0
100.75,100.75,100.75,80.0,80.0
97.5,101.0,97.5,80.25,80.25
97.25,97.25,97.25,97.25,97.25
101.0,101.0,101.0,81.0,81.0
100.75,100.75,100.75,80.25,80.25
98.75,98.75,98.75,98.75,98.75
99.5,99.5,99.5,80.0,80.0
94.0,94.0,94.0,82.5,82.5
96.0,96.0,96.0,96.0,96.0
99.25,99.25,99.25,80.5,80.5
97.0,97.0,97.0,80.75,80.75
101.25,101.25,101.25,84.75,80.0
100.75,100.75,100.75,80.0,80.0
100.0,100.0,100.0,81.0,81.0
99.25,99.25,99.25,80.0,80.0
101.75,101.75,101.75,80.0,80.0
101.5,101.5,101.5,101.5,101.5
102.0,102.0,102.0,80.0,80.0
97.0,97.0,97.0,82.25,82.25
100.5,100.5,100.5,80.25,80.25
98.0,98.0,98.0,98.0,98.0
100.25,100.25,97.0,80.0,80.0
101.5,101.5,101.5,80.0,80.0
97.25,97.25,94.25,80.0,80.0
100.25,100.25,100.25,80.0,80.0
101.75,101.75,101.75,80.5,80.5
99.5,99.5,99.5,80.25,80.25
100.0,100.0,100.0,100.0,100.0
97.5,97.5,97.5,97.5,97.5
100.25,100.25,100.25,100.25,100.25
100.25,100.25,100.25,80.25,80.25
101.75,101.75,101.75,81.25,81.25
99.25,99.25,99.25,80.25,80.25
98.75,98.75,98.75,80.25,80.25
99.5,99.5,99.5,99.5,99.5
95.0,95.0,95.0,80.25,80.25
99.0,99.0,99.0,80.0,80.0
96.5,96.5,96.5,80.0,80.0
100.0,100.0,100.0,80.0,80.0
100.5,100.5,100.5,80.0,80.0
96.0,96.0,96.0,80.0,80.0
101.5,101.5,101.5,80.0,80.0
101.5,101.5,101.5,80.25,80.25
100.75,100.75,100.75,80.0,80.0
98.75,98.75,98.75,80.0,80.0
99.0,99.0,99.0,82.5,82.5
102.0,102.0,102.0,80.0,80.0
99.25,99.25,99.25,99.25,99.25
99.0,99.0,99.0,83.0,83.0
98.75,98.75,98.75,98.75,98.75
102.0,102.0,102.0,82.75,82.75
99.5,99.5,99.5,80.0,80.0
99.75,99.75,99.75,80.0,80.0
98.75,98.75,98.75,80.0,80.0
102.0,102.0,102.0,99.0,99.0
102.0,102.0,102.0,80.0,80.0
99.75,99.75,99.75,80.25,80.25
101.0,101.0,101.0,101.0,101.0
100.25,100.25,100.25,81.75,81.75
101.0,101.0,101.0,80.75,80.75
101.0,101.0,101.0,86.0,86.0
102.0,102.0,102.0,80.0,80.0
101.0,101.0,101.0,101.0,101.0
101.0,101.0,101.0,101.0,101.0
99.25,99.25,99.25,99.25,99.25
95.25,95.25,95.25,80.0,80.0
98.75,98.75,98.75,85.25,85.25
100.75,100.75,100.75,82.75,82.25
99.25,99.25,99.25,80.0,80.0
102.0,102.0,102.0,97.25,97.25
101.75,101.75,101.75,101.75,101.75
100.5,100.5,100.5,80.0,80.0
100.5,100.5,100.5,100.5,100.5
98.75,98.75,98.75,98.75,98.75
101.0,101.0,101.0,80.25,80.25
101.25,101.25,101.25,84.75,84.75
97.75,97.75,97.75,97.75,97.75
100.5,100.5,100.5,81.5,81.5
101.75,101.75,101.75,80.0,80.0
99.0,99.0,99.0,99.0,99.0
100.5,100.5,100.5,80.25,80.25
100.0,100.0,100.0,81.75,81.75
94.25,94.25,94.25,80.5,80.5
97.25,97.25,97.25,80.5,80.5
100.25,100.25,100.25,83.25,83.25
97.75,97.75,97.75,80.0,80.0
101.5,101.5,101.5,101.5,101.5
99.25,99.25,99.25,82.75,82.75
100.75,100.75,100.75,100.75,100.75
100.75,100.75,100.75,80.0,80.0
96.25,96.25,96.25,80.0,80.0
98.5,98.5,98.5,80.0,80.0
99.5,99.5,99.5,83.0,83.0
100.5,100.5,100.5,80.5,80.5
101.75,101.75,101.75,81.25,81.25
102.0,102.0,102.0,102.0,102.0
101.0,101.0,101.0,80.0,80.0
100.5,100.5,100.5,80.0,80.0
102.0,102.0,102.0,102.0,102.0
101.0,101.0,101.0,83.0,83.0
100.0,100.0,100.0,80.0,80.0
102.0,102.0,102.0,101.5,101.5
101.0,101.0,101.0,81.75,81.75
101.75,101.75,101.75,80.0,80.0
101.75,101.75,101.75,80.0,80.0
102.0,102.0,102.0,80.25,80.25
94.75,94.75,94.75,80.0,80.0
96.5,96.5,96.5,80.0,80.0
99.0,99.0,99.0,80.25,80.25
101.5,101.5,101.5,81.0,81.0
100.5,100.5,100.5,100.5,100.5
101.0,101.0,101.0,101.0,101.0
100.25,100.25,100.25,80.25,80.25
102.0,102.0,102.0,80.25,80.25
96.75,96.75,96.75,82.0,80.0
98.5,98.5,98.5,98.5,98.5
100.25,100.25,100.25,80.5,80.5
96.25,96.25,96.25,96.25,96.25
101.25,101.25,101.25,80.25,80.25
94.0,94.0,94.0,94.0,94.0
101.5,101.5,101.5,80.5,80.5
98.0,98.0,98.0,80.0,80.0
99.75,99.75,99.75,99.75,99.75
95.75,95.75,95.75,80.0,80.0
98.75,98.75,98.75,80.25,80.25
98.75,98.75,98.75,80.0,80.0
98.25,98.25,98.25,82.25,82.25
98.25,98.25,98.25,83.25,83.25
96.75,96.75,96.75,81.0,81.0
93.5,93.5,93.5,80.0,80.0
101.25,101.25,101.25,80.5,80.5
99.25,99.25,99.25,80.25,80.25
102.0,102.0,102.0,81.0,81.0
101.0,101.0,101.0,80.0,80.0
102.0,102.0,102.0,102.0,102.0
99.5,99.5,99.5,80.0,80.0
101.25,101.25,101.25,81.5,81.5
98.75,98.75,98.75,81.0,81.0
101.5,101.5,101.5,80.0,80.0
96.75,96.75,96.75,96.75,96.75
99.0,99.0,99.0,80.0,80.0
98.25,98.25,98.25,80.0,80.0
91.0,91.0,91.0,86.0,86.0
101.5,101.5,101.5,80.0,80.0
100.25,100.25,100.25,80.25,80.25
96.0,96.0,96.0,80.25,80.25
101.75,101.75,101.75,80.0,80.0
101.5,101.5,101.5,80.5,80.5
96.75,96.75,96.75,80.0,80.0
101.5,101.5,101.5,80.0,80.0
98.5,98.5,98.5,80.0,80.0
101.25,101.25,101.25,92.25,92.25
102.0,102.0,102.0,80.25,80.25
101.25,101.25,101.25,100.0,80.5
99.75,99.75,99.75,80.75,80.75
100.5,100.5,100.5,100.5,100.5
100.75,100.75,100.75,80.0,80.0
99.75,99.75,99.75,80.0,80.0
101.0,101.0,101.0,80.25,80.25
101.25,101.25,101.25,80.25,80.25
101.0,101.0,101.0,101.0,101.0
102.0,102.0,102.0,80.0,80.0
99.5,99.5,99.5,80.25,80.25
98.25,98.25,98.25,82.25,82.25
99.75,99.75,99.75,81.75,81.75
101.5,101.5,101.5,85.25,85.25
97.0,97.0,97.0,97.0,97.0
98.25,98.25,98.25,98.25,98.25
101.25,101.25,101.25,80.5,80.5
99.0,99.0,99.0,80.0,80.0
97.75,97.75,97.75,88.25,88.25
99.0,99.0,99.0,80.0,80.0
101.75,101.75,101.75,81.25,81.25
97.25,97.25,97.25,80.75,80.75
101.25,101.25,101.25,81.0,81.0
101.75,101.75,101.75,80.0,80.0
100.25,80.0,100.25,80.0,80.0
99.0,99.0,99.0,85.75,85.75
101.0,101.0,101.0,80.0,80.0
101.5,101.5,86.0,80.75,80.75
100.0,100.0,100.0,80.25,80.25
101.75,101.75,101.75,80.5,80.5
98.5,98.5,98.5,98.5,98.5
101.75,101.75,101.75,81.0,81.0
95.5,95.5,95.5,95.5,95.5
101.0,101.0,101.0,91.25,80.0
99.25,99.25,99.25,81.25,81.25
99.75,99.75,99.75,80.0,80.0
101.5,101.5,101.5,81.25,81.25
99.5,99.5,99.5,99.5,99.5
100.5,100.5,100.5,100.5,100.5
100.0,100.0,100.0,80.75,80.75
98.5,98.5,98.5,80.0,80.0
99.75,99.75,99.75,80.25,80.25
98.75,98.75,98.75,84.25,84.25
99.75,99.75,99.75,80.0,80.0
101.25,101.25,101.25,80.25,80.25
98.0,98.0,98.0,80.0,80.0
102.0,102.0,102.0,84.75,84.75
97.0,97.0,97.0,80.0,80.0
99.75,99.75,99.75,81.25,81.25
91.25,91.25,91.25,91.25,91.25
98.25,98.25,98.25,80.0,80.0
102.0,102.0,102.0,80.5,80.5
99.25,99.25,99.25,82.0,82.0
101.25,101.25,101.25,101.25,101.25
101.75,101.75,101.75,80.0,80.0
98.5,98.5,98.5,80.75,80.75
90.5,90.5,90.5,84.75,84.75
100.5,100.5,100.5,100.5,100.5
100.25,100.25,100.25,80.25,80.25
100.25,100.25,100.25,80.25,80.25
98.25,98.25,98.25,80.0,80.0
101.75,101.75,101.75,80.0,80.0
101.5,101.5,101.5,101.5,101.5
92.5,92.5,92.5,80.5,80.5
95.0,95.0,95.0,95.0,95.0
97.25,97.25,97.25,80.25,80.25
99.75,99.75,99.75,88.5,88.5
99.25,99.25,99.25,82.0,82.0
101.0,101.0,101.0,80.25,80.25
98.25,98.25,98.25,83.75,83.75
99.25,99.25,99.25,80.0,80.0
99.25,99.25,99.25,80.25,80.25
102.0,102.0,102.0,80.25,80.25
99.75,99.75,99.75,80.75,80.75
99.75,99.75,99.75,80.0,80.0
99.25,99.25,99.25,80.0,80.0
100.25,100.25,100.25,80.0,80.0
102.0,102.0,102.0,87.0,87.0
99.75,99.75,99.75,86.25,86.25
101.5,101.5,101.5,93.75,93.75
98.25,98.25,98.25,80.0,80.0
100.0,100.0,100.0,100.0,100.0
101.75,101.75,101.75,80.0,80.0
102.0,102.0,102.0,102.0,102.0
99.5,99.5,99.5,80.75,80.75
101.0,101.0,101.0,83.25,83.25
99.75,99.75,99.75,80.25,80.25
102.0,102.0,102.0,82.25,82.25
100.25,100.25,100.25,85.25,85.25
99.5,99.5,99.5,80.0,80.0
99.75,99.75,99.75,99.75,99.75
94.75,94.75,94.75,80.0,80.0
99.5,99.5,99.5,80.0,80.0
99.25,99.25,99.25,85.0,85.0
96.0,96.0,96.0,96.0,94.75
98.5,98.5,98.5,98.5,98.5
99.5,99.5,99.5,80.25,80.25
99.5,99.5,99.5,83.75,83.75
100.5,100.5,100.5,80.75,80.75
100.25,100.25,100.25,100.25,100.25
98.5,98.5,98.5,98.5,98.5
99.0,99.0,99.0,80.0,80.0
98.25,98.25,98.25,80.25,80.25
97.75,97.75,97.75,83.25,83.25
101.5,101.5,101.5,101.5,101.5
102.0,102.0,102.0,80.25,80.25
101.75,101.75,101.75,80.25,80.25
93.5,93.5,93.5,82.75,82.75
100.5,100.5,100.5,81.5,81.5
100.25,100.25,100.25,80.0,80.0
101.5,101.5,101.5,101.5,101.5
98.25,98.25,98.25,80.0,80.0
100.75,100.75,100.75,80.5,80.5
102.0,102.0,102.0,80.0,80.0
95.75,95.75,95.75,80.25,80.25
101.25,101.25,101.25,80.5,80.5
100.0,100.0,100.0,100.0,100.0
101.25,101.25,101.25,101.25,101.25
100.25,100.25,100.25,80.0,80.0
100.75,100.75,100.75,100.75,100.75
101.5,101.5,101.5,81.25,81.25
100.75,100.75,100.75,80.0,80.0
100.75,100.75,100.75,100.75,100.75
100.75,100.75,100.75,80.0,80.0
101.75,101.75,101.75,80.0,80.0
100.0,100.0,100.0,80.5,80.5
97.25,97.25,97.25,80.0,80.0
101.5,101.5,101.5,80.25,80.25
90.75,90.75,90.75,97.0,82.0
101.0,101.0,101.0,80.0,80.0
94.75,94.75,94.75,80.75,96.0
94.25,94.25,94.25,94.25,94.25
98.75,98.75,98.75,80.0,80.0
99.0,99.0,99.0,99.0,97.0
100.0,100.0,100.0,100.0,100.0
99.5,99.5,99.5,99.5,99.5
102.0,102.0,102.0,84.5,84.5
102.0,102.0,102.0,82.0,82.0
94.25,98.0,98.0,98.0,98.0
101.5,101.5,101.5,86.75,86.75
99.25,99.25,99.25,99.25,99.25
99.25,99.25,99.25,80.0,80.0
98.25,101.25,101.25,80.0,80.0
101.5,87.0,101.5,80.5,80.5
100.75,100.75,100.75,80.5,80.5
97.25,97.25,97.25,80.75,80.75
101.0,101.0,86.75,81.25,81.25
99.75,99.75,99.75,80.0,80.0
100.75,100.75,100.75,100.75,100.75
101.25,101.25,101.25,95.0,95.0
100.25,100.25,100.25,81.0,81.0
100.75,98.5,100.75,80.0,80.0
100.75,100.75,100.75,100.75,100.75
100.0,100.0,100.0,80.0,80.0
99.75,99.75,99.75,99.75,99.75
100.75,100.75,100.75,100.75,100.75
102.0,102.0,102.0,82.25,82.25
99.0,99.0,99.0,80.5,80.5
100.75,100.75,100.75,80.75,80.75
99.5,99.5,99.5,99.5,99.5
100.75,100.75,100.75,100.75,100.75
101.25,101.25,101.25,80.0,93.25
98.75,98.75,98.75,81.75,81.75
100.25,100.25,100.25,80.0,80.0
100.75,100.75,100.75,80.75,80.75
101.25,101.25,101.25,80.25,80.25
102.0,102.0,102.0,89.5,89.5
97.25,97.25,97.25,80.0,80.0
101.0,101.0,101.0,84.5,84.5
101.5,101.5,101.5,81.0,81.0
99.75,99.75,99.75,81.25,81.25
101.75,101.75,101.75,101.75,101.75
101.5,101.5,101.5,80.0,80.0
97.5,97.5,97.5,80.5,80.5
101.75,101.75,101.75,81.25,81.25
99.25,99.25,99.25,80.25,80.25
98.5,98.5,98.5,80.5,80.5
99.75,99.75,99.75,80.25,80.25
102.0,102.0,102.0,80.0,80.0
102.0,102.0,102.0,102.0,102.0
101.5,101.5,101.5,81.0,81.0
98.0,98.0,98.0,80.25,80.25
102.0,102.0,102.0,80.5,80.5
98.5,98.5,98.5,81.25,81.25
99.75,99.75,99.75,80.25,80.25
100.0,100.0,100.0,80.0,80.0
98.0,98.0,98.0,80.5,80.5
97.75,97.75,97.75,97.75,97.75
101.0,101.0,101.0,80.75,80.75
99.5,99.5,99.5,80.0,80.0
101.0,101.0,101.0,80.75,80.75
97.5,97.5,97.5,80.0,80.0
101.5,101.5,101.5,80.0,80.0
99.25,99.25,99.25,80.25,80.25
98.5,98.5,98.5,80.0,80.0
101.5,101.5,101.5,80.75,80.75
99.75,99.75,99.75,99.75,99.75
99.0,99.0,99.0,80.0,80.0
102.0,102.0,102.0,80.0,80.0
101.5,101.5,101.5,80.0,80.0
102.0,102.0,102.0,80.0,80.0
100.25,100.25,100.25,100.25,100.25
101.25,101.25,101.25,80.25,80.25
99.5,99.5,99.5,99.5,99.5
98.0,98.0,98.0,98.0,98.0
99.5,99.5,99.5,80.0,80.0
102.0,102.0,102.0,80.0,80.0
101.5,101.5,101.5,101.5,101.5
93.75,93.75,93.75,80.0,80.0
99.75,99.75,99.75,99.75,99.75
94.25,94.25,94.25,80.0,80.0
101.0,101.0,101.0,80.5,80.5
99.75,99.75,99.75,86.5,86.5
99.5,99.5,99.5,99.5,99.5
98.75,98.75,98.75,80.25,80.25
100.25,100.25,100.25,80.0,80.0
97.25,97.25,97.25,81.25,81.25
101.75,101.75,101.75,80.25,80.25
100.0,100.0,100.0,80.0,80.0
100.75,100.75,100.75,83.75,83.75
97.0,97.0,97.0,80.25,80.25
100.75,100.75,100.75,80.25,80.25
100.0,100.0,100.0,80.5,80.5
101.0,101.0,101.0,80.0,80.0
102.0,102.0,102.0,80.0,80.0
98.75,98.75,98.75,84.25,84.25
101.25,101.25,101.25,80.0,80.0
101.0,101.0,101.0,80.75,80.75
91.5,91.5,91.5,80.0,80.0
94.25,94.25,94.25,94.25,94.25
96.0,96.0,96.0,80.0,80.0
102.0,102.0,102.0,80.5,80.5
102.0,102.0,102.0,80.0,80.0
99.25,99.25,99.25,99.25,99.25
96.25,96.25,96.25,80.0,80.0
87.75,87.75,87.75,87.75,87.75
96.25,96.25,96.25,96.25,96.25
96.25,96.25,96.25,80.25,80.25
101.5,101.5,101.5,101.5,101.5
102.0,102.0,102.0,83.75,83.75
98.5,98.5,98.5,80.75,91.5
101.75,101.75,101.75,82.5,82.5
100.25,100.25,100.25,80.25,80.25
95.25,95.25,95.25,80.75,80.75
100.5,100.5,100.5,87.5,87.5
95.5,95.5,95.5,81.25,81.25
98.75,98.75,98.75,80.0,80.0
83.75,100.5,100.5,80.25,80.25
100.25,100.25,100.25,80.0,80.0
100.25,100.25,100.25,80.0,80.0
98.25,98.25,98.25,80.75,80.75
100.0,100.0,100.0,81.0,81.0
100.25,100.25,100.25,83.0,83.0
102.0,102.0,102.0,80.5,80.5
101.5,101.5,101.5,101.5,101.5
100.25,100.25,100.25,80.25,80.25
91.75,91.75,91.75,86.5,86.5
98.75,98.75,98.75,98.75,98.75
80.5,100.5,100.5,88.25,80.0
100.5,100.5,100.5,94.75,100.5
99.75,99.75,99.75,99.75,99.75
101.0,101.0,101.0,101.0,101.0
100.75,100.75,100.75,80.0,80.0
101.75,101.75,101.75,80.0,80.0
100.25,100.25,100.25,100.25,100.25
100.75,100.75,100.75,83.0,83.0
92.0,92.0,92.0,92.0,92.0
101.75,101.75,101.75,80.0,80.0
97.5,97.5,97.5,80.0,80.0
99.5,99.5,99.5,80.0,80.0
100.75,100.75,100.75,100.75,100.75
99.75,99.75,99.75,80.5,80.5
101.5,101.5,101.5,80.0,80.0
101.75,101.75,101.75,83.75,83.75
99.0,99.0,99.0,99.0,99.0
101.0,101.0,101.0,100.25,100.25
100.5,100.5,100.5,80.0,80.0
97.0,97.0,97.0,97.0,97.0
97.5,97.5,97.5,80.0,80.0
99.75,99.75,99.75,80.75,80.75
100.5,100.5,100.5,80.25,80.25
100.25,100.25,100.25,80.25,80.25
97.0,97.0,97.0,80.0,80.0
99.75,99.75,99.75,80.25,80.25
101.0,101.0,101.0,80.5,80.5
100.75,100.75,100.75,80.0,80.0
98.75,98.75,98.75,80.5,80.5
101.75,101.75,101.75,80.0,80.0
100.5,100.5,85.75,80.0,80.0
98.5,98.5,98.5,80.0,80.0
97.75,97.75,97.75,80.0,80.0
95.75,95.75,95.75,95.75,95.75
96.5,96.5,96.5,80.25,80.25
101.0,101.0,101.0,80.0,80.0
99.75,99.75,99.75,80.25,80.25
101.5,101.5,101.5,82.75,82.75
97.5,97.5,97.5,80.25,80.25
98.0,98.0,98.0,98.0,98.0
100.25,100.25,100.25,80.0,80.0
101.0,101.0,101.0,80.0,80.0
99.75,99.75,99.75,80.0,80.0
101.5,101.5,101.5,80.0,80.0
98.5,98.5,98.5,80.75,80.75
101.0,101.0,101.0,80.0,80.0
101.0,101.0,101.0,101.0,101.0
99.5,99.5,99.5,81.75,81.75
100.5,100.5,100.5,80.0,80.0
100.75,100.75,100.75,80.0,80.0
100.25,100.25,100.25,100.25,100.25
100.25,100.25,100.25,80.25,80.25
100.25,100.25,100.25,80.0,80.0
93.25,93.25,93.25,93.25,93.25
100.5,100.5,100.5,100.5,100.5
100.75,100.75,100.75,80.0,80.0
98.5,98.5,98.5,98.25,98.25
101.75,101.75,101.75,80.0,80.0
100.0,100.0,100.0,83.75,83.75
100.75,100.75,100.75,89.75,89.75
100.5,100.5,100.5,80.25,80.25
100.0,100.0,100.0,80.5,80.5
102.0,102.0,102.0,80.0,80.0
101.25,101.25,101.25,80.0,80.0
100.0,100.0,100.0,80.0,80.0
99.0,99.0,99.0,99.0,99.0
102.0,102.0,102.0,82.25,82.25
98.5,98.5,98.5,80.5,80.5
101.0,101.0,101.0,80.0,80.0
96.75,96.75,96.75,81.0,81.0
100.5,100.5,100.5,80.0,80.0
99.75,99.75,99.75,80.0,80.0
101.25,101.25,101.25,80.0,80.0
95.0,95.0,95.0,95.0,95.0
100.25,100.25,100.25,80.25,80.25
102.0,102.0,102.0,80.25,80.25
97.0,97.0,97.0,80.25,80.25
100.75,100.75,100.75,80.25,80.25
99.25,99.25,99.25,80.75,80.75
100.5,100.5,100.5,100.5,100.5
102.0,102.0,102.0,80.75,80.75
100.5,100.5,100.5,81.25,81.25
100.25,100.25,100.25,100.25,100.25
101.75,101.75,101.75,80.0,80.0
99.25,99.25,99.25,83.0,83.0
100.25,100.25,100.25,80.0,80.0
100.25,100.25,100.25,80.0,80.0
96.25,96.25,96.25,80.75,80.75
101.75,101.75,101.75,80.0,80.0
101.75,101.75,101.75,101.75,101.75
99.75,99.75,99.75,81.75,81.75
99.0,99.0,99.0,80.0,80.0
94.25,94.25,94.25,94.25,94.25
99.0,99.0,99.0,80.25,80.25
99.0,99.0,99.0,80.0,80.0
93.0,93.0,93.0,81.5,81.5
99.75,99.75,99.75,99.75,92.75
101.0,101.0,101.0,80.0,80.0
99.25,99.25,91.5,99.25,99.25
101.75,101.75,101.75,101.75,101.75
94.75,94.75,94.75,83.0,83.0
100.5,100.5,100.5,84.25,84.25
101.0,101.0,101.0,101.0,101.0
96.25,96.25,96.25,80.0,80.0
100.0,100.0,100.0,81.25,81.25
97.75,97.75,97.75,80.25,80.25
96.75,96.75,96.75,96.75,96.75
101.5,101.5,101.5,80.25,80.25
102.0,102.0,102.0,80.5,80.5
94.75,94.75,94.75,94.75,94.75
99.25,99.25,99.25,80.25,80.25
101.5,101.5,101.5,80.75,80.75
101.25,101.25,101.25,81.75,81.75
98.0,98.0,98.0,80.0,80.0
99.25,99.25,99.25,80.75,80.75
101.25,101.25,81.0,101.25,101.25
98.25,98.25,98.25,80.25,80.25
102.0,102.0,102.0,102.0,102.0
93.25,93.25,93.25,80.0,80.0
101.5,101.5,101.5,101.5,101.5
101.75,101.75,101.75,80.0,80.0
101.0,101.0,101.0,101.0,101.0
98.0,98.0,98.0,80.0,80.0
99.75,99.75,99.75,95.5,95.5
94.0,94.0,94.0,85.75,85.75
101.25,101.25,101.25,80.0,80.0
99.25,99.25,99.25,99.25,99.25
99.5,99.5,99.5,80.75,80.75
99.75,99.75,99.75,99.75,99.75
97.0,97.0,97.0,80.0,80.0
98.0,98.0,98.0,84.5,84.5
102.0,102.0,102.0,82.0,82.0
100.5,100.5,100.5,80.0,80.0
101.5,101.5,101.5,80.0,80.0
87.75,100.5,100.5,80.0,80.0
101.0,101.0,101.0,83.75,83.75
99.0,99.0,99.0,81.25,81.25
100.0,100.0,100.0,80.5,80.5
101.75,101.75,101.75,95.0,95.0
99.0,99.0,99.0,81.75,81.75
102.0,102.0,102.0,102.0,102.0
100.75,100.75,100.75,80.0,80.0
97.0,97.0,97.0,81.25,81.25
102.0,102.0,102.0,80.25,80.25
99.0,99.0,99.0,80.0,80.0
100.25,100.25,100.25,91.5,80.0
98.0,98.0,98.0,80.0,80.0
99.25,99.25,99.25,99.0,90.75
99.25,99.25,99.25,80.0,80.0
101.5,101.5,101.5,80.25,80.25
99.5,99.5,99.5,98.0,98.0
100.0,100.0,100.0,80.0,80.0
96.25,96.25,96.25,81.5,81.5
100.75,100.75,100.75,80.0,80.0
101.25,101.25,101.25,80.75,80.75
101.25,101.25,101.25,82.25,82.25
102.0,102.0,102.0,80.0,80.0
99.5,99.5,99.5,99.5,99.5
99.0,99.0,99.0,99.0,99.0
101.0,101.0,101.0,101.0,101.0
101.75,101.75,101.75,80.0,80.0
101.25,101.25,101.25,80.0,80.0
101.0,101.0,101.0,80.25,80.25
90.5,90.5,90.5,80.0,80.0
100.5,100.5,100.5,80.0,80.0
97.5,97.5,97.5,80.0,80.0
92.25,92.25,92.25,92.25,92.25
99.0,99.0,99.0,80.0,80.0
100.75,100.75,100.75,100.75,100.75
101.75,101.75,101.75,80.0,80.0
99.0,99.0,99.0,80.25,80.25
101.25,101.25,101.25,80.0,80.0
100.0,100.0,100.0,80.5,80.5
99.25,99.25,99.25,80.0,80.0
100.5,100.5,100.5,100.5,100.5
102.0,102.0,97.75,102.0,102.0
98.0,98.0,98.0,82.5,80.0
99.0,99.0,99.0,80.25,80.25
101.5,101.5,101.5,80.0,80.0
98.0,98.0,98.0,81.0,81.0
100.5,100.5,100.5,87.75,80.0
94.0,94.0,94.0,80.0,80.0
96.75,96.75,96.75,96.75,96.75
98.25,98.25,98.25,98.25,98.25
90.5,90.5,90.5,90.5,90.5
97.75,97.75,97.75,80.5,80.5
95.75,95.75,95.75,95.75,95.75
95.75,98.0,98.0,80.25,80.25
101.5,101.5,101.5,101.5,101.5
100.5,100.5,100.5,80.5,80.5
101.25,101.25,101.25,80.0,80.0
101.0,101.0,101.0,81.25,81.25
101.75,101.75,101.75,80.25,80.25
92.0,92.0,92.0,92.0,92.0
101.0,101.0,101.0,96.5,96.5
98.5,98.5,98.5,86.25,86.25
99.25,99.25,99.25,82.75,82.75
98.75,98.75,98.75,98.75,98.75
98.0,98.0,98.0,80.0,80.0
100.5,100.5,100.5,100.5,100.5
100.0,100.0,100.0,93.25,93.25
100.0,100.0,100.0,80.75,80.75
90.25,90.25,90.25,81.75,81.75
98.25,98.25,98.25,80.0,80.0
100.25,100.25,100.25,80.0,80.0
101.25,101.25,101.25,80.25,80.25
101.75,101.75,101.75,80.0,80.0
100.0,100.0,100.0,80.25,80.25
101.5,101.5,101.5,80.0,80.0
86.5,94.0,94.0,94.0,94.0
100.75,100.75,100.75,80.75,80.75
101.75,101.75,101.75,80.0,80.0
100.75,100.75,100.75,80.0,80.0
101.75,101.75,101.75,101.75,101.75
100.25,100.25,100.25,100.25,100.25
101.0,101.0,101.0,80.25,80.25
100.5,100.5,100.5,80.0,80.0
100.25,100.25,100.25,80.5,80.5
101.0,101.0,101.0,80.5,80.5
102.0,102.0,102.0,80.25,80.25
100.0,100.0,100.0,81.0,81.0
99.75,99.75,99.75,82.25,82.25
100.75,100.75,100.75,100.0,100.0
99.5,99.5,99.5,80.75,80.75
101.75,101.75,101.75,101.75,101.75
99.5,99.5,99.5,80.0,80.0
101.75,101.75,101.75,80.0,80.0
99.0,99.0,99.0,99.0,99.0
100.75,100.75,89.0,80.0,80.0
97.0,97.0,97.0,80.0,80.0
96.25,96.25,96.25,96.25,96.25
99.5,99.5,99.5,80.25,80.25
92.75,92.75,92.75,80.75,80.75
96.25,96.25,96.25,96.25,96.25
97.0,97.0,97.0,80.0,80.0
92.5,92.5,92.5,92.5,92.5
101.25,101.25,101.25,101.25,101.25
99.25,99.25,99.25,80.0,80.0
102.0,102.0,102.0,80.0,80.0
90.25,90.25,90.25,90.25,90.25
101.0,101.0,101.0,81.0,81.0
101.75,101.75,101.75,80.0,80.0
100.5,100.5,100.5,100.5,100.5
95.5,95.5,95.5,80.25,80.25
100.25,100.25,100.25,80.0,80.0
100.25,100.25,100.25,81.5,81.5
98.75,98.75,98.75,98.75,98.75
101.5,101.5,101.5,80.25,80.25
100.75,80.0,100.75,82.25,82.25
100.25,92.5,100.25,80.0,80.0
98.5,98.5,98.5,80.0,80.0
101.25,101.25,101.25,80.25,80.25
102.0,102.0,102.0,81.25,81.25
101.0,101.0,101.0,80.0,80.0
101.5,101.5,101.5,80.0,80.0
99.75,99.75,99.75,81.0,81.0
102.0,102.0,102.0,80.0,80.0
100.5,100.5,100.5,80.5,80.5
99.0,99.0,99.0,99.0,99.0
101.0,101.0,101.0,82.5,82.5
98.5,98.5,98.5,98.5,98.5
99.0,99.0,99.0,84.25,84.25
100.75,100.75,100.75,82.0,82.0
99.0,99.0,99.0,99.0,99.0
99.25,99.25,99.25,99.25,99.25
99.0,99.0,99.0,99.0,99.0
100.5,100.5,100.5,81.75,81.75
97.25,97.25,97.25,80.25,80.25
99.0,99.0,99.0,99.0,99.0
97.25,97.25,97.25,80.25,80.25
100.25,100.25,100.25,100.25,100.25
99.0,88.5,99.0,99.0,99.0
94.5,94.5,94.5,94.5,94.5
101.0,101.0,101.0,80.0,80.0
102.0,102.0,102.0,82.0,82.0
99.5,99.5,99.5,80.0,80.0
99.5,99.5,99.5,80.0,80.0
100.75,100.75,100.75,80.0,80.0
100.0,100.0,100.0,100.0,100.0
102.0,102.0,102.0,102.0,102.0
101.25,101.25,101.25,80.0,80.0
101.25,101.25,101.25,80.0,80.0
93.25,93.25,93.25,80.25,80.25
101.75,101.75,101.75,80.0,80.0
101.5,101.5,101.5,80.5,80.5
100.0,100.0,100.0,80.5,80.5
100.25,100.25,100.25,80.25,80.25
98.5,98.5,98.5,81.75,81.75
100.75,100.75,100.75,80.25,80.25
99.25,99.25,99.25,80.0,80.0
99.5,99.5,99.5,80.0,80.0
101.0,101.0,101.0,80.0,80.0
101.25,101.25,101.25,80.25,80.25
99.5,99.5,99.5,80.0,80.0
99.5,99.5,99.5,99.5,99.5
97.0,97.0,97.0,82.5,82.5
101.75,101.75,101.75,101.75,101.75
101.0,101.0,101.0,101.0,101.0
102.0,102.0,102.0,80.0,80.0
101.0,101.0,101.0,80.25,80.25
99.75,99.75,99.75,80.5,80.5
94.0,94.0,94.0,94.0,94.0
101.75,101.75,101.75,80.5,80.5
100.75,100.75,100.75,80.0,80.0
101.25,101.25,101.25,80.0,80.0
100.75,100.75,100.75,80.0,80.0
101.0,101.0,101.0,80.5,80.5
101.0,101.0,101.0,80.0,80.0
96.25,96.25,96.25,80.5,80.5
100.25,100.25,100.25,100.25,100.25
100.25,100.25,100.25,80.25,80.25
102.0,102.0,102.0,80.5,80.5
99.25,99.25,99.25,80.0,80.0
101.75,101.75,101.75,84.0,84.0
101.5,101.5,101.5,80.5,80.5
98.5,98.5,98.5,80.0,80.0
99.75,99.75,99.75,80.0,80.0
100.25,100.25,100.25,81.75,81.75
96.75,96.75,96.75,82.25,82.25
99.5,99.5,99.5,99.5,99.5
101.5,101.5,101.5,80.0,80.0
96.75,96.75,96.75,80.5,80.5
101.0,101.0,101.0,80.25,80.25
99.25,99.25,99.25,99.25,99.25
101.25,101.25,101.25,80.0,80.0
101.75,101.75,101.75,80.0,80.0
99.75,99.75,99.75,80.75,80.75
99.5,99.5,99.5,80.0,80.0
99.75,99.75,99.75,99.75,99.75
100.5,100.5,100.5,80.0,80.0
99.25,99.25,99.25,83.0,83.0
101.0,101.0,101.0,101.0,101.0
101.75,101.75,101.75,80.0,80.0
101.5,101.5,101.5,80.0,80.0
99.5,99.5,99.5,80.25,80.25
101.0,101.0,101.0,80.0,80.0
101.75,101.75,101.75,80.0,80.0
100.5,100.5,100.5,80.0,80.0
98.25,98.25,98.25,80.0,80.0
97.5,97.5,97.5,97.5,97.5
101.5,101.5,101.5,80.5,80.5
99.25,99.25,99.25,81.5,81.5
101.0,101.0,101.0,101.0,101.0
99.5,99.5,99.5,80.0,80.0
99.0,99.0,99.0,80.0,80.0
99.0,99.0,99.0,80.5,80.5
92.75,92.75,92.75,80.25,80.25
89.0,89.0,89.0,89.0,89.0
102.0,102.0,102.0,102.0,102.0
102.0,102.0,102.0,80.0,80.0
99.0,99.0,99.0,91.5,91.5
101.0,101.0,101.0,80.25,80.25
99.5,99.5,99.5,99.5,99.5
98.75,98.75,98.75,98.75,98.25
101.25,101.25,101.25,80.0,80.0
98.75,98.75,98.75,98.75,98.75
99.75,99.75,99.75,80.0,80.0
100.5,100.5,100.5,80.25,80.25
100.75,100.75,100.75,80.0,80.0
99.25,99.25,99.25,80.0,80.0
89.25,89.25,89.25,81.0,81.0
97.0,97.0,97.0,81.25,81.25
100.0,100.0,100.0,80.0,80.0
99.5,99.5,99.5,80.0,80.0
102.0,102.0,102.0,80.0,80.0
101.25,101.25,101.25,101.25,101.25
101.75,101.75,101.75,80.25,80.25
98.0,98.0,98.0,80.25,80.25
100.5,100.5,100.5,100.5,100.5
100.75,100.75,100.75,80.0,90.75
100.0,100.0,100.0,80.0,80.0
99.5,99.5,99.5,80.0,80.0
100.5,100.5,100.5,82.75,82.75
{
  "allsame": 207, 
  "s/N-s": 793
}