(lp0
(lp1
F95.25
aF80.25
aF80.25
aF80.25
aF80.25
aa(lp2
F101.25
aF80.5
aF80.5
aF80.5
aF80.5
aa(lp3
F96.0
aF96.0
aF96.0
aF96.0
aF96.0
aa(lp4
F93.5
aF81.0
aF81.0
aF81.0
aF81.0
aa(lp5
F90.5
aF81.25
aF81.25
aF81.25
aF81.25
aa(lp6
F96.5
aF81.75
aF81.75
aF81.75
aF81.75
aa(lp7
F100.0
aF80.75
aF80.75
aF80.75
aF80.75
aa(lp8
F93.25
aF81.0
aF81.0
aF81.0
aF81.0
aa(lp9
F87.5
aF93.75
aF93.75
aF93.75
aF93.75
aa(lp10
F94.75
aF80.0
aF80.0
aF80.0
aF80.0
aa(lp11
F92.0
aF81.25
aF81.25
aF81.25
aF81.25
aa(lp12
F84.0
aF84.0
aF84.0
aF84.0
aF84.0
aa(lp13
F95.5
aF95.5
aF95.5
aF95.5
aF95.5
aa(lp14
F99.75
aF81.75
aF81.75
aF81.75
aF81.75
aa(lp15
F91.5
aF91.5
aF91.5
aF91.5
aF91.5
aa(lp16
F88.75
aF81.0
aF81.0
aF81.0
aF81.0
aa(lp17
F98.0
aF80.25
aF80.25
aF80.25
aF80.25
aa(lp18
F93.75
aF93.75
aF93.75
aF93.75
aF93.75
aa(lp19
F101.0
aF84.25
aF84.25
aF84.25
aF84.25
aa(lp20
F93.75
aF84.5
aF84.5
aF84.5
aF84.5
aa(lp21
F99.75
aF92.5
aF92.5
aF92.5
aF92.5
aa(lp22
F97.25
aF82.75
aF82.75
aF82.75
aF82.75
aa(lp23
F89.5
aF82.75
aF82.75
aF82.75
aF82.75
aa(lp24
F95.0
aF80.25
aF80.25
aF80.25
aF80.25
aa(lp25
F90.25
aF80.5
aF80.5
aF80.5
aF80.5
aa(lp26
F91.5
aF80.0
aF80.0
aF80.0
aF80.0
aa(lp27
F94.25
aF80.25
aF80.25
aF80.25
aF80.25
aa(lp28
F102.0
aF102.0
aF102.0
aF102.0
aF102.0
aa(lp29
F99.5
aF86.75
aF86.75
aF86.75
aF86.75
aa(lp30
F94.0
aF82.75
aF82.75
aF82.75
aF82.75
aa(lp31
F93.0
aF80.75
aF80.75
aF80.75
aF80.75
aa(lp32
F97.75
aF97.75
aF97.75
aF97.75
aF97.75
aa(lp33
F84.75
aF84.75
aF84.75
aF84.75
aF84.75
aa(lp34
F91.5
aF84.75
aF84.75
aF84.75
aF84.75
aa(lp35
F98.25
aF80.0
aF80.0
aF80.0
aF80.0
aa(lp36
F97.0
aF83.0
aF83.0
aF83.0
aF83.0
aa(lp37
F102.0
aF84.5
aF84.5
aF84.5
aF84.5
aa(lp38
F95.75
aF85.5
aF85.5
aF85.5
aF85.5
aa(lp39
F98.75
aF80.75
aF80.75
aF80.75
aF80.75
aa(lp40
F90.0
aF90.0
aF90.0
aF87.5
aF90.0
aa(lp41
F100.25
aF80.25
aF80.25
aF80.25
aF80.25
aa(lp42
F92.25
aF80.0
aF80.0
aF80.0
aF80.0
aa(lp43
F93.25
aF80.25
aF80.25
aF80.25
aF80.25
aa(lp44
F87.0
aF81.5
aF81.5
aF81.5
aF81.5
aa(lp45
F96.75
aF96.75
aF96.75
aF96.75
aF96.75
aa(lp46
F96.5
aF80.0
aF80.0
aF80.0
aF80.0
aa(lp47
F98.0
aF82.0
aF82.0
aF82.0
aF82.0
aa(lp48
F98.0
aF98.0
aF98.0
aF98.0
aF98.0
aa(lp49
F96.75
aF88.5
aF88.5
aF88.5
aF88.5
aa(lp50
F85.5
aF80.75
aF80.75
aF80.75
aF80.75
aa(lp51
F93.75
aF80.25
aF80.25
aF80.25
aF80.25
aa(lp52
F97.0
aF81.25
aF81.25
aF81.25
aF81.25
aa(lp53
F100.25
aF80.25
aF80.25
aF80.25
aF80.25
aa(lp54
F96.0
aF96.0
aF96.0
aF96.0
aF96.0
aa(lp55
F94.25
aF81.0
aF81.0
aF81.0
aF81.0
aa(lp56
F92.25
aF80.5
aF80.5
aF80.5
aF80.5
aa(lp57
F95.5
aF83.75
aF83.75
aF83.75
aF83.75
aa(lp58
F101.25
aF84.5
aF84.5
aF84.5
aF84.5
aa(lp59
F86.5
aF82.25
aF82.25
aF82.25
aF82.25
aa(lp60
F101.0
aF81.75
aF81.75
aF81.75
aF81.75
aa(lp61
F97.75
aF81.5
aF81.5
aF81.5
aF81.5
aa(lp62
F94.0
aF94.0
aF94.0
aF94.0
aF94.0
aa(lp63
F93.25
aF80.5
aF80.5
aF80.5
aF80.5
aa(lp64
F93.25
aF82.0
aF82.0
aF82.0
aF82.0
aa(lp65
F96.5
aF81.0
aF81.0
aF81.0
aF81.0
aa(lp66
F93.75
aF81.5
aF81.5
aF81.5
aF81.5
aa(lp67
F98.75
aF80.5
aF80.5
aF80.5
aF80.5
aa(lp68
F93.0
aF83.5
aF83.5
aF83.5
aF83.5
aa(lp69
F93.0
aF93.0
aF93.0
aF93.0
aF93.0
aa(lp70
F96.0
aF85.75
aF85.75
aF85.75
aF85.75
aa(lp71
F88.25
aF92.0
aF92.0
aF92.0
aF92.0
aa(lp72
F96.5
aF80.0
aF80.0
aF80.0
aF80.0
aa(lp73
F90.25
aF81.25
aF81.25
aF81.25
aF81.25
aa(lp74
F99.5
aF99.5
aF99.5
aF99.5
aF99.5
aa(lp75
F97.75
aF80.75
aF80.75
aF80.75
aF80.75
aa(lp76
F93.25
aF80.5
aF80.5
aF80.5
aF80.5
aa(lp77
F92.25
aF82.25
aF82.25
aF82.25
aF82.25
aa(lp78
F101.0
aF80.5
aF80.5
aF80.5
aF80.5
aa(lp79
F99.0
aF82.0
aF82.0
aF82.0
aF97.5
aa(lp80
F99.5
aF82.25
aF82.25
aF82.25
aF82.25
aa(lp81
F93.0
aF80.75
aF80.75
aF80.75
aF80.75
aa(lp82
F92.0
aF82.0
aF82.0
aF82.0
aF82.0
aa(lp83
F86.5
aF80.25
aF80.25
aF80.25
aF80.25
aa(lp84
F84.5
aF80.75
aF80.75
aF80.75
aF80.75
aa(lp85
F96.25
aF83.25
aF83.25
aF83.25
aF83.25
aa(lp86
F100.5
aF80.0
aF80.0
aF80.0
aF80.0
aa(lp87
F93.25
aF81.0
aF81.0
aF81.0
aF81.0
aa(lp88
F93.75
aF81.75
aF81.75
aF81.75
aF81.75
aa(lp89
F101.5
aF80.75
aF80.75
aF80.75
aF80.75
aa(lp90
F91.5
aF82.75
aF82.75
aF82.75
aF82.75
aa(lp91
F90.0
aF83.0
aF83.0
aF83.0
aF83.0
aa(lp92
F97.0
aF81.25
aF81.25
aF81.25
aF81.25
aa(lp93
F85.75
aF81.0
aF81.0
aF81.0
aF81.0
aa(lp94
F100.25
aF81.0
aF81.0
aF81.0
aF81.0
aa(lp95
F82.0
aF82.0
aF82.0
aF82.0
aF82.0
aa(lp96
F95.5
aF95.5
aF95.5
aF95.5
aF95.5
aa(lp97
F90.75
aF90.75
aF90.75
aF90.75
aF90.75
aa(lp98
F95.25
aF85.0
aF85.0
aF85.0
aF85.0
aa(lp99
F92.0
aF83.25
aF83.25
aF83.25
aF83.25
aa(lp100
F98.75
aF81.5
aF81.5
aF81.5
aF81.5
aa(lp101
F99.0
aF81.25
aF81.25
aF81.25
aF81.25
aa(lp102
F102.0
aF102.0
aF102.0
aF102.0
aF102.0
aa(lp103
F101.25
aF80.75
aF80.75
aF80.75
aF80.75
aa(lp104
F90.75
aF80.0
aF80.0
aF80.0
aF80.0
aa(lp105
F88.25
aF99.75
aF99.75
aF99.75
aF99.75
aa(lp106
F101.0
aF80.25
aF80.25
aF80.25
aF80.25
aa(lp107
F96.25
aF82.25
aF82.25
aF82.25
aF82.25
aa(lp108
F98.25
aF80.75
aF80.75
aF80.75
aF80.75
aa(lp109
F87.75
aF80.75
aF80.75
aF80.75
aF80.75
aa(lp110
F89.5
aF86.0
aF86.0
aF86.0
aF86.0
aa(lp111
F99.25
aF83.25
aF83.25
aF83.25
aF83.25
aa(lp112
F87.0
aF87.0
aF87.0
aF87.0
aF87.0
aa(lp113
F100.75
aF80.0
aF80.0
aF80.0
aF80.0
aa(lp114
F99.0
aF86.25
aF86.25
aF86.25
aF86.25
aa(lp115
F96.0
aF81.25
aF81.25
aF81.25
aF81.25
aa(lp116
F100.0
aF84.0
aF84.0
aF84.0
aF84.0
aa(lp117
F96.25
aF89.0
aF89.0
aF89.0
aF89.0
aa(lp118
F101.75
aF80.75
aF80.75
aF80.75
aF80.75
aa(lp119
F91.75
aF91.75
aF91.75
aF91.75
aF91.75
aa(lp120
F90.25
aF81.25
aF81.25
aF81.25
aF81.25
aa(lp121
F84.75
aF80.75
aF80.75
aF80.75
aF80.75
aa(lp122
F100.75
aF100.75
aF100.75
aF100.75
aF100.75
aa(lp123
F92.0
aF80.25
aF80.25
aF80.25
aF80.25
aa(lp124
F98.0
aF98.0
aF98.0
aF98.0
aF98.0
aa(lp125
F94.25
aF81.0
aF81.0
aF81.0
aF81.0
aa(lp126
F93.5
aF80.5
aF80.5
aF80.5
aF80.5
aa(lp127
F88.25
aF82.5
aF82.5
aF82.5
aF82.5
aa(lp128
F96.75
aF83.75
aF83.75
aF83.75
aF83.75
aa(lp129
F92.75
aF81.25
aF81.25
aF81.25
aF81.25
aa(lp130
F80.25
aF80.25
aF80.25
aF80.25
aF80.25
aa(lp131
F92.5
aF80.75
aF80.75
aF82.25
aF80.75
aa(lp132
F98.5
aF80.25
aF80.25
aF80.25
aF80.25
aa(lp133
F102.0
aF82.25
aF82.25
aF82.25
aF82.25
aa(lp134
F86.75
aF80.0
aF80.0
aF80.0
aF80.0
aa(lp135
F90.0
aF80.5
aF80.5
aF80.5
aF80.5
aa(lp136
F95.25
aF81.5
aF81.5
aF81.5
aF81.5
aa(lp137
F92.5
aF80.75
aF80.75
aF80.75
aF80.75
aa(lp138
F99.5
aF80.25
aF80.25
aF80.25
aF80.25
aa(lp139
F94.5
aF80.0
aF80.0
aF80.0
aF80.0
aa(lp140
F96.5
aF80.0
aF80.0
aF80.0
aF80.0
aa(lp141
F96.0
aF82.75
aF82.75
aF82.75
aF82.75
aa(lp142
F96.5
aF80.75
aF80.75
aF80.75
aF80.75
aa(lp143
F98.25
aF81.25
aF81.25
aF81.25
aF81.25
aa(lp144
F85.75
aF85.75
aF85.75
aF85.75
aF85.75
aa(lp145
F85.0
aF80.0
aF80.0
aF80.0
aF80.0
aa(lp146
F93.75
aF80.25
aF80.25
aF80.25
aF80.25
aa(lp147
F99.0
aF83.25
aF83.25
aF83.25
aF83.25
aa(lp148
F85.75
aF80.5
aF80.5
aF80.5
aF80.5
aa(lp149
F94.0
aF94.0
aF94.0
aF94.0
aF94.0
aa(lp150
F100.5
aF80.0
aF80.0
aF80.0
aF80.0
aa(lp151
F92.0
aF92.0
aF92.0
aF92.0
aF92.0
aa(lp152
F94.0
aF83.0
aF83.0
aF83.0
aF83.0
aa(lp153
F94.25
aF81.0
aF81.0
aF81.0
aF81.0
aa(lp154
F95.5
aF80.5
aF80.5
aF80.5
aF80.5
aa(lp155
F100.0
aF82.25
aF82.25
aF82.25
aF82.25
aa(lp156
F90.5
aF82.25
aF82.25
aF82.25
aF82.25
aa(lp157
F90.0
aF80.25
aF80.25
aF80.25
aF80.25
aa(lp158
F91.5
aF81.5
aF81.5
aF81.5
aF81.5
aa(lp159
F97.5
aF81.0
aF81.0
aF81.0
aF81.0
aa(lp160
F101.0
aF81.75
aF81.75
aF81.75
aF81.75
aa(lp161
F98.5
aF80.0
aF80.0
aF80.0
aF80.0
aa(lp162
F100.75
aF100.75
aF100.75
aF100.75
aF100.75
aa(lp163
F102.0
aF81.25
aF81.25
aF81.25
aF81.25
aa(lp164
F97.5
aF80.0
aF80.0
aF80.0
aF80.0
aa(lp165
F87.75
aF87.75
aF87.75
aF87.75
aF87.75
aa(lp166
F94.0
aF80.5
aF80.5
aF80.5
aF80.5
aa(lp167
F87.0
aF84.25
aF84.25
aF84.25
aF84.25
aa(lp168
F85.75
aF85.75
aF85.75
aF85.75
aF85.75
aa(lp169
F96.0
aF80.5
aF80.5
aF80.5
aF80.5
aa(lp170
F100.5
aF80.0
aF80.0
aF80.0
aF80.0
aa(lp171
F93.25
aF80.75
aF80.75
aF80.75
aF80.75
aa(lp172
F92.25
aF80.25
aF80.25
aF80.25
aF80.25
aa(lp173
F101.5
aF82.0
aF82.0
aF82.0
aF82.0
aa(lp174
F92.0
aF84.25
aF84.25
aF84.25
aF84.25
aa(lp175
F90.75
aF90.75
aF90.75
aF90.75
aF90.75
aa(lp176
F101.75
aF81.0
aF81.0
aF81.0
aF81.0
aa(lp177
F94.5
aF80.75
aF80.75
aF80.75
aF80.75
aa(lp178
F84.5
aF80.0
aF80.0
aF80.0
aF80.0
aa(lp179
F87.5
aF87.5
aF86.0
aF87.5
aF87.5
aa(lp180
F90.0
aF85.5
aF85.5
aF101.5
aF85.5
aa(lp181
F91.5
aF80.75
aF80.75
aF80.75
aF80.75
aa(lp182
F95.0
aF80.5
aF80.5
aF80.5
aF80.5
aa(lp183
F101.25
aF81.0
aF81.0
aF81.0
aF81.0
aa(lp184
F90.5
aF90.5
aF90.5
aF90.5
aF90.5
aa(lp185
F102.0
aF82.0
aF82.0
aF82.0
aF82.0
aa(lp186
F97.0
aF80.25
aF80.25
aF80.25
aF80.25
aa(lp187
F96.0
aF84.5
aF84.5
aF84.5
aF84.5
aa(lp188
F95.75
aF83.0
aF83.0
aF83.0
aF83.0
aa(lp189
F97.75
aF80.25
aF80.25
aF80.25
aF80.25
aa(lp190
F88.0
aF80.5
aF80.5
aF80.5
aF80.5
aa(lp191
F93.5
aF81.25
aF81.25
aF81.25
aF81.25
aa(lp192
F89.25
aF80.25
aF80.25
aF80.25
aF80.25
aa(lp193
F80.5
aF80.25
aF80.25
aF80.25
aF80.25
aa(lp194
F93.75
aF82.5
aF82.5
aF82.5
aF82.5
aa(lp195
F80.25
aF80.25
aF80.25
aF80.25
aF80.25
aa(lp196
F98.0
aF82.5
aF82.5
aF82.5
aF82.5
aa(lp197
F98.0
aF81.0
aF81.0
aF81.0
aF81.0
aa(lp198
F96.25
aF81.5
aF81.5
aF81.5
aF81.5
aa(lp199
F96.5
aF80.75
aF80.75
aF80.75
aF80.75
aa(lp200
F95.0
aF81.5
aF81.5
aF81.5
aF81.5
aa(lp201
F89.0
aF81.75
aF81.75
aF81.75
aF81.75
aa(lp202
F96.5
aF80.5
aF80.5
aF80.5
aF80.5
aa(lp203
F91.75
aF83.25
aF83.25
aF83.25
aF83.25
aa(lp204
F95.25
aF80.5
aF80.5
aF80.5
aF80.5
aa(lp205
F99.0
aF85.25
aF85.25
aF85.25
aF85.25
aa(lp206
F87.0
aF80.0
aF80.0
aF80.0
aF80.0
aa(lp207
F100.5
aF81.75
aF81.75
aF81.75
aF81.75
aa(lp208
F96.0
aF96.0
aF96.0
aF96.0
aF96.0
aa(lp209
F88.5
aF88.5
aF88.5
aF88.5
aF88.5
aa(lp210
F86.5
aF86.5
aF86.5
aF86.5
aF86.5
aa(lp211
F86.75
aF82.25
aF82.25
aF82.25
aF82.25
aa(lp212
F90.5
aF81.25
aF81.25
aF81.25
aF81.25
aa(lp213
F96.5
aF80.5
aF80.5
aF80.5
aF80.5
aa(lp214
F99.0
aF80.5
aF80.5
aF80.5
aF80.5
aa(lp215
F92.0
aF92.0
aF92.0
aF92.0
aF92.0
aa(lp216
F91.75
aF83.25
aF83.25
aF83.25
aF84.25
aa(lp217
F88.5
aF83.75
aF83.75
aF83.75
aF83.75
aa(lp218
F87.0
aF87.0
aF87.0
aF87.0
aF87.0
aa(lp219
F97.25
aF80.0
aF80.0
aF80.0
aF80.0
aa(lp220
F92.5
aF80.0
aF80.0
aF80.0
aF80.0
aa(lp221
F100.25
aF80.0
aF80.0
aF80.0
aF80.0
aa(lp222
F94.75
aF94.75
aF94.75
aF94.75
aF94.75
aa(lp223
F98.5
aF80.0
aF80.0
aF80.0
aF80.0
aa(lp224
F86.25
aF80.0
aF80.0
aF80.0
aF80.0
aa(lp225
F84.5
aF80.25
aF80.25
aF80.25
aF80.25
aa(lp226
F96.0
aF80.25
aF80.25
aF80.25
aF80.25
aa(lp227
F97.5
aF81.25
aF81.25
aF81.25
aF81.25
aa(lp228
F94.25
aF84.0
aF84.0
aF84.0
aF84.0
aa(lp229
F99.0
aF81.0
aF81.0
aF81.0
aF81.0
aa(lp230
F94.75
aF81.5
aF81.5
aF81.5
aF81.5
aa(lp231
F101.0
aF80.5
aF80.5
aF80.5
aF80.5
aa(lp232
F92.5
aF92.5
aF92.5
aF92.5
aF92.5
aa(lp233
F100.25
aF100.25
aF100.25
aF100.25
aF100.25
aa(lp234
F100.5
aF81.0
aF81.0
aF81.0
aF81.0
aa(lp235
F89.25
aF80.25
aF80.25
aF80.25
aF80.25
aa(lp236
F93.5
aF80.5
aF80.5
aF80.5
aF80.5
aa(lp237
F94.75
aF81.0
aF81.0
aF81.0
aF81.0
aa(lp238
F96.0
aF81.0
aF81.0
aF81.0
aF100.25
aa(lp239
F84.0
aF84.0
aF84.0
aF84.0
aF84.0
aa(lp240
F94.5
aF80.25
aF80.25
aF80.25
aF80.25
aa(lp241
F90.0
aF80.25
aF80.25
aF80.25
aF80.25
aa(lp242
F91.75
aF80.75
aF80.75
aF80.75
aF80.75
aa(lp243
F94.0
aF81.0
aF81.0
aF81.0
aF81.0
aa(lp244
F100.75
aF81.0
aF81.0
aF81.0
aF81.0
aa(lp245
F90.5
aF90.5
aF90.5
aF90.5
aF90.5
aa(lp246
F92.75
aF80.5
aF80.5
aF80.5
aF97.5
aa(lp247
F101.25
aF101.25
aF101.25
aF101.25
aF101.25
aa(lp248
F89.5
aF80.25
aF80.25
aF80.25
aF80.25
aa(lp249
F100.0
aF80.0
aF80.0
aF80.0
aF80.0
aa(lp250
F100.5
aF80.0
aF80.0
aF80.0
aF80.0
aa(lp251
F97.0
aF81.75
aF81.75
aF81.75
aF81.75
aa(lp252
F91.25
aF82.0
aF82.0
aF82.0
aF82.0
aa(lp253
F93.0
aF82.75
aF82.75
aF82.75
aF82.75
aa(lp254
F98.5
aF83.5
aF83.5
aF83.5
aF83.5
aa(lp255
F94.25
aF81.25
aF81.25
aF81.25
aF81.25
aa(lp256
F91.0
aF98.75
aF81.0
aF81.0
aF81.0
aa(lp257
F99.0
aF99.0
aF99.0
aF99.0
aF99.0
aa(lp258
F90.5
aF80.0
aF80.0
aF80.0
aF80.0
aa(lp259
F98.0
aF80.25
aF80.25
aF80.25
aF80.25
aa(lp260
F87.5
aF80.75
aF80.75
aF80.75
aF80.75
aa(lp261
F81.75
aF81.5
aF81.5
aF81.5
aF81.5
aa(lp262
F93.75
aF81.75
aF81.75
aF81.75
aF81.75
aa(lp263
F90.5
aF80.75
aF80.75
aF80.75
aF80.75
aa(lp264
F96.5
aF84.75
aF84.75
aF84.75
aF84.75
aa(lp265
F85.75
aF85.75
aF85.75
aF85.75
aF85.75
aa(lp266
F90.0
aF90.0
aF90.0
aF90.0
aF90.0
aa(lp267
F102.0
aF80.0
aF80.0
aF80.0
aF80.0
aa(lp268
F84.25
aF84.25
aF84.25
aF84.25
aF84.25
aa(lp269
F87.75
aF80.0
aF80.0
aF80.0
aF80.0
aa(lp270
F93.0
aF80.0
aF80.0
aF80.0
aF80.0
aa(lp271
F98.75
aF80.25
aF80.25
aF80.25
aF80.25
aa(lp272
F81.0
aF80.5
aF80.5
aF80.5
aF80.5
aa(lp273
F88.25
aF82.75
aF82.75
aF82.75
aF82.75
aa(lp274
F92.5
aF80.0
aF80.0
aF80.0
aF80.0
aa(lp275
F91.75
aF80.0
aF80.0
aF80.0
aF80.0
aa(lp276
F102.0
aF80.0
aF80.0
aF86.75
aF80.0
aa(lp277
F98.5
aF80.25
aF80.25
aF80.25
aF80.25
aa(lp278
F88.5
aF81.25
aF81.25
aF81.25
aF81.25
aa(lp279
F102.0
aF81.75
aF81.75
aF81.75
aF81.75
aa(lp280
F97.0
aF81.25
aF81.25
aF81.25
aF81.25
aa(lp281
F90.75
aF81.75
aF81.75
aF81.75
aF81.75
aa(lp282
F92.5
aF80.25
aF80.25
aF80.25
aF80.25
aa(lp283
F93.75
aF81.0
aF81.0
aF81.0
aF81.0
aa(lp284
F96.0
aF96.0
aF96.0
aF96.0
aF96.0
aa(lp285
F88.5
aF80.5
aF80.5
aF80.5
aF80.5
aa(lp286
F85.5
aF82.25
aF82.25
aF82.25
aF82.25
aa(lp287
F85.75
aF85.75
aF85.75
aF85.75
aF85.75
aa(lp288
F81.0
aF81.0
aF81.0
aF81.0
aF81.0
aa(lp289
F102.0
aF92.25
aF92.25
aF92.25
aF92.25
aa(lp290
F97.25
aF80.5
aF80.5
aF80.5
aF80.5
aa(lp291
F92.5
aF80.0
aF80.0
aF80.0
aF80.0
aa(lp292
F98.5
aF80.25
aF80.25
aF80.25
aF80.25
aa(lp293
F99.0
aF80.75
aF80.75
aF80.75
aF80.75
aa(lp294
F98.75
aF80.0
aF80.0
aF80.0
aF80.0
aa(lp295
F95.75
aF80.25
aF80.25
aF80.25
aF80.25
aa(lp296
F101.25
aF80.5
aF80.5
aF80.5
aF80.5
aa(lp297
F101.0
aF82.0
aF82.0
aF82.0
aF82.0
aa(lp298
F89.25
aF80.25
aF80.25
aF80.25
aF80.25
aa(lp299
F102.0
aF81.25
aF81.25
aF81.25
aF81.25
aa(lp300
F93.0
aF80.25
aF80.25
aF80.25
aF80.25
aa(lp301
F86.75
aF86.75
aF86.75
aF86.75
aF86.75
aa(lp302
F93.5
aF93.5
aF93.5
aF93.5
aF93.5
aa(lp303
F93.75
aF81.75
aF81.75
aF81.75
aF81.75
aa(lp304
F87.75
aF85.5
aF80.0
aF80.0
aF80.0
aa(lp305
F96.5
aF80.0
aF80.0
aF80.0
aF80.0
aa(lp306
F93.25
aF80.75
aF80.75
aF80.75
aF80.75
aa(lp307
F94.0
aF94.0
aF94.0
aF94.0
aF94.0
aa(lp308
F86.5
aF81.5
aF81.5
aF81.5
aF81.5
aa(lp309
F97.75
aF81.75
aF81.75
aF81.75
aF81.75
aa(lp310
F98.0
aF80.0
aF80.0
aF80.0
aF80.0
aa(lp311
F100.5
aF80.25
aF80.25
aF80.25
aF80.25
aa(lp312
F92.25
aF92.25
aF92.25
aF92.25
aF92.25
aa(lp313
F93.0
aF81.0
aF81.0
aF81.0
aF81.0
aa(lp314
F93.75
aF80.5
aF80.5
aF80.5
aF80.5
aa(lp315
F95.0
aF80.0
aF80.0
aF80.0
aF80.0
aa(lp316
F97.75
aF81.0
aF81.0
aF81.0
aF81.0
aa(lp317
F97.5
aF80.5
aF80.5
aF80.5
aF80.5
aa(lp318
F97.25
aF80.25
aF80.25
aF80.25
aF80.25
aa(lp319
F93.25
aF81.5
aF81.5
aF81.5
aF81.5
aa(lp320
F97.25
aF80.25
aF80.25
aF80.25
aF80.25
aa(lp321
F93.75
aF80.0
aF80.0
aF80.0
aF80.0
aa(lp322
F95.25
aF95.25
aF95.25
aF95.25
aF95.25
aa(lp323
F100.5
aF100.5
aF100.5
aF100.5
aF100.5
aa(lp324
F93.25
aF80.0
aF80.0
aF80.0
aF80.0
aa(lp325
F90.5
aF80.75
aF80.75
aF80.75
aF80.75
aa(lp326
F98.0
aF80.25
aF80.25
aF80.25
aF80.25
aa(lp327
F96.75
aF96.75
aF96.75
aF96.75
aF96.75
aa(lp328
F95.25
aF95.25
aF95.25
aF95.25
aF95.25
aa(lp329
F96.5
aF96.5
aF96.5
aF96.5
aF96.5
aa(lp330
F95.75
aF81.25
aF81.25
aF81.25
aF81.25
aa(lp331
F97.5
aF82.0
aF82.0
aF82.0
aF82.0
aa(lp332
F85.25
aF81.0
aF81.0
aF81.0
aF81.0
aa(lp333
F93.25
aF80.25
aF80.25
aF80.25
aF80.25
aa(lp334
F98.25
aF80.0
aF80.0
aF80.0
aF80.0
aa(lp335
F80.0
aF82.0
aF82.0
aF82.0
aF82.0
aa(lp336
F91.0
aF91.0
aF91.0
aF91.0
aF91.0
aa(lp337
F93.5
aF80.25
aF80.25
aF80.25
aF80.25
aa(lp338
F95.75
aF81.5
aF81.5
aF81.5
aF81.5
aa(lp339
F95.5
aF96.0
aF96.0
aF96.0
aF96.0
aa(lp340
F88.0
aF80.0
aF80.0
aF80.0
aF80.0
aa(lp341
F90.75
aF100.5
aF100.5
aF100.5
aF100.5
aa(lp342
F98.5
aF98.5
aF98.5
aF98.5
aF98.5
aa(lp343
F80.75
aF80.75
aF80.75
aF80.75
aF80.75
aa(lp344
F85.5
aF85.5
aF85.5
aF85.5
aF85.5
aa(lp345
F87.25
aF82.25
aF82.25
aF82.25
aF82.25
aa(lp346
F97.5
aF99.0
aF99.0
aF99.0
aF99.0
aa(lp347
F92.5
aF81.25
aF81.25
aF81.25
aF81.25
aa(lp348
F98.25
aF84.0
aF84.0
aF84.0
aF84.0
aa(lp349
F99.0
aF80.0
aF80.0
aF84.5
aF80.0
aa(lp350
F92.75
aF96.0
aF96.0
aF96.0
aF96.0
aa(lp351
F95.75
aF80.0
aF80.0
aF80.0
aF80.0
aa(lp352
F91.75
aF80.5
aF80.5
aF80.5
aF80.5
aa(lp353
F98.75
aF81.0
aF81.0
aF81.0
aF81.0
aa(lp354
F98.0
aF98.0
aF98.0
aF98.0
aF98.0
aa(lp355
F93.75
aF81.0
aF81.0
aF81.0
aF81.0
aa(lp356
F98.5
aF81.5
aF81.5
aF81.5
aF81.5
aa(lp357
F94.5
aF80.5
aF80.5
aF80.5
aF80.5
aa(lp358
F98.75
aF98.75
aF98.75
aF98.75
aF98.75
aa(lp359
F91.25
aF91.25
aF91.25
aF91.25
aF91.25
aa(lp360
F98.0
aF80.75
aF80.75
aF80.75
aF80.75
aa(lp361
F85.25
aF85.25
aF85.25
aF85.25
aF85.25
aa(lp362
F99.75
aF80.25
aF80.25
aF80.25
aF80.25
aa(lp363
F91.0
aF81.25
aF81.25
aF81.25
aF81.25
aa(lp364
F85.5
aF80.25
aF80.25
aF80.25
aF80.25
aa(lp365
F98.0
aF85.25
aF85.25
aF85.25
aF85.25
aa(lp366
F84.5
aF84.5
aF84.5
aF84.5
aF84.5
aa(lp367
F99.0
aF83.25
aF83.25
aF83.25
aF83.25
aa(lp368
F101.25
aF83.0
aF83.0
aF83.0
aF83.0
aa(lp369
F91.5
aF80.5
aF80.5
aF80.5
aF80.5
aa(lp370
F95.5
aF81.75
aF81.75
aF81.75
aF81.75
aa(lp371
F94.5
aF81.5
aF81.5
aF81.5
aF81.5
aa(lp372
F88.0
aF80.5
aF80.5
aF80.5
aF80.5
aa(lp373
F90.5
aF90.5
aF90.5
aF90.5
aF90.5
aa(lp374
F93.5
aF93.5
aF93.5
aF93.5
aF93.5
aa(lp375
F91.25
aF80.5
aF80.5
aF80.5
aF80.5
aa(lp376
F97.0
aF80.5
aF80.5
aF80.5
aF80.5
aa(lp377
F98.25
aF81.0
aF81.0
aF81.0
aF81.0
aa(lp378
F101.25
aF80.0
aF80.0
aF80.0
aF80.0
aa(lp379
F101.75
aF80.5
aF80.5
aF80.5
aF80.5
aa(lp380
F89.25
aF81.25
aF81.25
aF81.25
aF81.25
aa(lp381
F100.25
aF80.5
aF80.5
aF80.5
aF80.5
aa(lp382
F98.0
aF81.25
aF81.25
aF81.25
aF81.25
aa(lp383
F91.0
aF80.5
aF80.5
aF80.5
aF80.5
aa(lp384
F101.5
aF80.25
aF80.25
aF80.25
aF80.25
aa(lp385
F89.75
aF80.0
aF80.0
aF80.0
aF80.0
aa(lp386
F86.25
aF83.0
aF83.0
aF83.0
aF83.0
aa(lp387
F86.5
aF81.0
aF81.0
aF81.0
aF81.0
aa(lp388
F95.75
aF81.75
aF81.75
aF81.75
aF81.75
aa(lp389
F86.5
aF86.5
aF86.5
aF86.5
aF86.5
aa(lp390
F91.5
aF91.5
aF91.5
aF91.5
aF91.5
aa(lp391
F95.5
aF83.75
aF83.75
aF83.75
aF83.75
aa(lp392
F98.0
aF83.25
aF83.25
aF83.25
aF83.25
aa(lp393
F88.75
aF80.25
aF80.25
aF80.25
aF80.25
aa(lp394
F96.75
aF80.25
aF80.25
aF80.25
aF80.25
aa(lp395
F91.0
aF80.25
aF80.25
aF80.25
aF80.25
aa(lp396
F91.5
aF80.0
aF80.0
aF80.0
aF80.0
aa(lp397
F99.75
aF85.5
aF85.5
aF85.5
aF85.5
aa(lp398
F98.25
aF98.25
aF98.25
aF98.25
aF98.25
aa(lp399
F80.25
aF80.25
aF80.25
aF80.25
aF80.25
aa(lp400
F100.5
aF97.5
aF97.5
aF97.5
aF97.5
aa(lp401
F88.5
aF81.75
aF81.75
aF81.75
aF81.75
aa(lp402
F101.25
aF101.25
aF101.25
aF101.25
aF101.25
aa(lp403
F101.0
aF83.0
aF83.0
aF83.0
aF83.0
aa(lp404
F87.0
aF83.75
aF83.75
aF83.75
aF83.75
aa(lp405
F92.0
aF81.5
aF81.5
aF81.5
aF81.5
aa(lp406
F101.5
aF80.5
aF80.5
aF80.5
aF80.5
aa(lp407
F84.5
aF80.25
aF80.25
aF80.25
aF80.25
aa(lp408
F92.0
aF80.5
aF80.5
aF80.5
aF80.5
aa(lp409
F95.25
aF80.0
aF80.0
aF80.0
aF80.0
aa(lp410
F100.25
aF81.5
aF81.5
aF81.5
aF81.5
aa(lp411
F84.0
aF84.0
aF84.0
aF84.0
aF84.0
aa(lp412
F101.0
aF101.0
aF101.0
aF101.0
aF101.0
aa(lp413
F99.75
aF80.75
aF80.75
aF80.75
aF80.75
aa(lp414
F89.25
aF88.5
aF81.25
aF81.25
aF81.25
aa(lp415
F90.0
aF80.5
aF80.5
aF80.5
aF80.5
aa(lp416
F93.75
aF80.0
aF80.0
aF80.0
aF80.0
aa(lp417
F98.25
aF82.5
aF82.5
aF82.5
aF82.5
aa(lp418
F100.25
aF82.5
aF82.5
aF82.5
aF82.5
aa(lp419
F97.75
aF82.75
aF82.75
aF82.75
aF82.75
aa(lp420
F96.75
aF83.0
aF83.0
aF83.0
aF83.0
aa(lp421
F95.5
aF83.25
aF83.25
aF83.25
aF83.25
aa(lp422
F88.0
aF80.0
aF80.0
aF80.0
aF80.0
aa(lp423
F87.0
aF81.5
aF81.5
aF81.5
aF81.5
aa(lp424
F80.75
aF80.75
aF80.75
aF80.75
aF80.75
aa(lp425
F98.25
aF98.25
aF98.25
aF98.25
aF98.25
aa(lp426
F96.75
aF96.75
aF96.75
aF96.75
aF96.75
aa(lp427
F100.75
aF80.25
aF91.5
aF80.25
aF80.25
aa(lp428
F101.5
aF83.0
aF83.0
aF83.0
aF83.0
aa(lp429
F92.0
aF81.75
aF81.75
aF81.75
aF81.75
aa(lp430
F101.0
aF81.75
aF81.75
aF81.75
aF81.75
aa(lp431
F100.75
aF80.0
aF80.0
aF80.0
aF80.0
aa(lp432
F91.25
aF83.75
aF83.75
aF83.75
aF83.75
aa(lp433
F90.75
aF90.75
aF90.75
aF90.75
aF90.75
aa(lp434
F101.25
aF80.75
aF80.75
aF80.75
aF80.75
aa(lp435
F89.75
aF80.75
aF80.75
aF80.75
aF80.75
aa(lp436
F85.5
aF80.0
aF80.0
aF80.0
aF80.0
aa(lp437
F86.75
aF80.5
aF80.5
aF80.5
aF80.5
aa(lp438
F96.25
aF96.25
aF96.25
aF96.25
aF96.25
aa(lp439
F89.0
aF89.0
aF89.0
aF89.0
aF89.0
aa(lp440
F98.75
aF80.25
aF80.25
aF80.25
aF80.25
aa(lp441
F86.0
aF80.25
aF80.25
aF80.25
aF80.25
aa(lp442
F91.75
aF81.0
aF81.0
aF81.0
aF81.0
aa(lp443
F96.5
aF82.25
aF82.25
aF82.25
aF82.25
aa(lp444
F93.0
aF85.25
aF85.25
aF85.25
aF85.25
aa(lp445
F84.25
aF84.25
aF84.25
aF84.25
aF84.25
aa(lp446
F96.0
aF82.0
aF82.0
aF82.0
aF82.0
aa(lp447
F98.75
aF98.75
aF98.75
aF98.75
aF98.75
aa(lp448
F94.5
aF94.5
aF94.5
aF94.5
aF94.5
aa(lp449
F86.75
aF81.0
aF81.0
aF81.0
aF81.0
aa(lp450
F96.25
aF80.25
aF80.25
aF80.25
aF80.25
aa(lp451
F99.75
aF80.0
aF80.0
aF80.0
aF80.0
aa(lp452
F97.75
aF80.0
aF80.0
aF80.0
aF80.0
aa(lp453
F84.75
aF81.0
aF81.0
aF81.0
aF81.0
aa(lp454
F102.0
aF80.75
aF80.75
aF80.75
aF80.75
aa(lp455
F86.25
aF80.75
aF80.75
aF80.75
aF80.75
aa(lp456
F101.5
aF80.75
aF80.75
aF80.75
aF80.75
aa(lp457
F91.5
aF91.5
aF91.5
aF91.5
aF91.5
aa(lp458
F98.75
aF83.25
aF83.25
aF83.25
aF94.25
aa(lp459
F92.75
aF80.0
aF80.0
aF80.0
aF80.0
aa(lp460
F96.25
aF80.25
aF80.25
aF80.25
aF80.25
aa(lp461
F97.0
aF80.75
aF80.75
aF80.75
aF80.75
aa(lp462
F91.0
aF81.0
aF81.0
aF81.0
aF81.0
aa(lp463
F97.25
aF80.75
aF80.75
aF80.75
aF80.75
aa(lp464
F94.0
aF81.5
aF81.5
aF81.5
aF81.5
aa(lp465
F87.5
aF87.5
aF87.5
aF87.5
aF87.5
aa(lp466
F98.25
aF98.25
aF98.25
aF98.25
aF98.25
aa(lp467
F81.25
aF81.25
aF81.25
aF81.25
aF81.25
aa(lp468
F92.5
aF80.0
aF80.0
aF80.0
aF80.0
aa(lp469
F92.25
aF80.5
aF80.5
aF80.5
aF80.5
aa(lp470
F101.5
aF101.5
aF101.5
aF101.5
aF101.5
aa(lp471
F92.0
aF83.25
aF83.25
aF83.25
aF83.25
aa(lp472
F90.75
aF82.5
aF82.5
aF82.5
aF82.5
aa(lp473
F99.5
aF99.5
aF99.5
aF99.5
aF99.5
aa(lp474
F99.25
aF80.0
aF80.0
aF80.0
aF80.0
aa(lp475
F97.75
aF82.75
aF82.75
aF82.75
aF82.75
aa(lp476
F93.75
aF80.75
aF80.75
aF80.75
aF80.75
aa(lp477
F98.25
aF80.5
aF80.5
aF80.5
aF80.5
aa(lp478
F90.25
aF80.5
aF80.5
aF80.5
aF80.5
aa(lp479
F92.25
aF101.25
aF101.25
aF101.25
aF101.25
aa(lp480
F85.25
aF80.25
aF80.25
aF80.25
aF80.25
aa(lp481
F97.75
aF80.0
aF80.0
aF80.0
aF80.0
aa(lp482
F88.25
aF80.0
aF80.0
aF80.0
aF80.0
aa(lp483
F100.75
aF100.75
aF100.75
aF100.75
aF100.75
aa(lp484
F89.0
aF82.5
aF82.5
aF82.5
aF82.5
aa(lp485
F99.0
aF80.5
aF80.5
aF80.5
aF80.5
aa(lp486
F101.25
aF82.25
aF82.25
aF82.25
aF82.25
aa(lp487
F92.25
aF80.0
aF80.0
aF80.0
aF80.0
aa(lp488
F90.0
aF80.0
aF80.0
aF80.0
aF80.0
aa(lp489
F96.0
aF96.0
aF96.0
aF96.0
aF96.0
aa(lp490
F101.25
aF80.5
aF80.5
aF80.5
aF80.5
aa(lp491
F94.0
aF80.5
aF80.5
aF80.5
aF80.5
aa(lp492
F86.75
aF80.25
aF80.25
aF80.25
aF80.25
aa(lp493
F101.75
aF101.75
aF101.75
aF101.75
aF101.75
aa(lp494
F87.0
aF87.0
aF87.0
aF87.0
aF87.0
aa(lp495
F88.75
aF80.0
aF80.0
aF80.0
aF80.0
aa(lp496
F96.5
aF80.75
aF80.75
aF80.75
aF80.75
aa(lp497
F100.5
aF80.75
aF80.75
aF80.75
aF80.75
aa(lp498
F101.5
aF101.5
aF101.5
aF80.0
aF101.5
aa(lp499
F92.0
aF80.25
aF80.25
aF80.25
aF80.25
aa(lp500
F101.75
aF80.75
aF80.75
aF80.75
aF80.75
aa(lp501
F98.0
aF80.0
aF80.0
aF80.0
aF80.0
aa(lp502
F100.0
aF82.5
aF82.5
aF82.5
aF82.5
aa(lp503
F100.5
aF80.25
aF80.25
aF80.25
aF80.25
aa(lp504
F95.75
aF80.75
aF80.75
aF80.75
aF80.75
aa(lp505
F88.5
aF80.25
aF80.25
aF80.25
aF80.25
aa(lp506
F96.25
aF83.25
aF83.25
aF83.25
aF83.25
aa(lp507
F100.0
aF100.0
aF100.0
aF100.0
aF100.0
aa(lp508
F92.25
aF80.5
aF80.5
aF80.5
aF80.5
aa(lp509
F101.25
aF101.25
aF101.25
aF101.25
aF101.25
aa(lp510
F100.0
aF82.0
aF82.0
aF82.0
aF82.0
aa(lp511
F84.25
aF84.25
aF84.25
aF84.25
aF84.25
aa(lp512
F92.5
aF81.25
aF81.25
aF81.25
aF81.25
aa(lp513
F93.0
aF81.25
aF81.25
aF81.25
aF81.25
aa(lp514
F96.25
aF87.25
aF87.25
aF87.25
aF87.25
aa(lp515
F91.25
aF80.0
aF80.0
aF80.0
aF80.0
aa(lp516
F98.0
aF81.25
aF81.25
aF81.25
aF81.25
aa(lp517
F96.0
aF80.25
aF80.25
aF80.25
aF80.25
aa(lp518
F92.75
aF84.5
aF84.5
aF84.5
aF84.5
aa(lp519
F93.75
aF85.75
aF85.75
aF85.75
aF85.75
aa(lp520
F98.25
aF80.0
aF80.0
aF80.0
aF80.0
aa(lp521
F93.75
aF83.25
aF83.25
aF83.25
aF83.25
aa(lp522
F93.0
aF81.0
aF81.0
aF81.0
aF81.0
aa(lp523
F94.0
aF80.0
aF80.0
aF80.0
aF80.0
aa(lp524
F93.0
aF84.25
aF84.25
aF84.25
aF84.25
aa(lp525
F99.5
aF80.0
aF80.0
aF80.0
aF80.0
aa(lp526
F90.75
aF90.75
aF90.75
aF90.75
aF90.75
aa(lp527
F100.5
aF80.5
aF80.5
aF80.5
aF80.5
aa(lp528
F80.5
aF80.5
aF80.5
aF80.5
aF80.5
aa(lp529
F99.0
aF80.75
aF80.75
aF80.75
aF80.75
aa(lp530
F100.25
aF82.5
aF82.5
aF82.5
aF82.5
aa(lp531
F88.5
aF84.0
aF84.0
aF84.0
aF84.0
aa(lp532
F89.75
aF81.0
aF81.0
aF81.0
aF81.0
aa(lp533
F91.75
aF82.5
aF82.5
aF82.5
aF82.5
aa(lp534
F92.75
aF92.75
aF92.75
aF92.75
aF92.75
aa(lp535
F82.5
aF82.0
aF82.0
aF82.0
aF82.0
aa(lp536
F92.0
aF80.0
aF80.0
aF80.0
aF80.0
aa(lp537
F101.0
aF80.75
aF80.75
aF80.75
aF80.75
aa(lp538
F95.75
aF83.0
aF83.0
aF83.0
aF83.0
aa(lp539
F102.0
aF83.0
aF83.0
aF83.0
aF83.0
aa(lp540
F100.75
aF86.5
aF86.5
aF86.5
aF86.5
aa(lp541
F101.0
aF80.5
aF80.5
aF80.5
aF80.5
aa(lp542
F92.25
aF81.5
aF81.5
aF81.5
aF81.5
aa(lp543
F87.0
aF83.0
aF83.0
aF83.0
aF83.0
aa(lp544
F99.5
aF99.5
aF99.5
aF99.5
aF99.5
aa(lp545
F102.0
aF80.0
aF80.0
aF80.0
aF80.0
aa(lp546
F86.25
aF86.25
aF86.25
aF86.25
aF86.25
aa(lp547
F85.75
aF80.75
aF80.75
aF80.75
aF80.75
aa(lp548
F101.5
aF82.25
aF82.25
aF82.25
aF82.25
aa(lp549
F96.25
aF82.75
aF82.75
aF82.75
aF82.75
aa(lp550
F97.0
aF80.75
aF80.75
aF80.75
aF80.75
aa(lp551
F96.5
aF82.0
aF82.0
aF82.0
aF82.0
aa(lp552
F89.75
aF80.0
aF80.0
aF80.0
aF80.0
aa(lp553
F101.5
aF80.0
aF80.0
aF80.0
aF80.0
aa(lp554
F97.0
aF97.0
aF97.0
aF97.0
aF97.0
aa(lp555
F94.25
aF80.0
aF80.0
aF80.0
aF80.0
aa(lp556
F99.25
aF83.5
aF83.5
aF83.5
aF83.5
aa(lp557
F96.0
aF80.5
aF80.5
aF80.5
aF80.5
aa(lp558
F92.75
aF92.75
aF92.75
aF92.75
aF92.75
aa(lp559
F97.25
aF82.25
aF82.25
aF82.25
aF82.25
aa(lp560
F89.0
aF83.0
aF83.0
aF83.0
aF83.0
aa(lp561
F80.0
aF80.0
aF80.0
aF80.0
aF80.0
aa(lp562
F88.75
aF88.75
aF88.75
aF88.75
aF88.75
aa(lp563
F84.5
aF84.5
aF84.5
aF84.5
aF84.5
aa(lp564
F95.0
aF84.0
aF84.0
aF84.0
aF84.0
aa(lp565
F100.0
aF100.0
aF100.0
aF100.0
aF100.0
aa(lp566
F94.0
aF94.0
aF94.0
aF94.0
aF94.0
aa(lp567
F97.75
aF81.5
aF81.5
aF81.5
aF81.5
aa(lp568
F100.25
aF81.25
aF81.25
aF81.25
aF81.25
aa(lp569
F87.5
aF81.25
aF81.25
aF81.25
aF81.25
aa(lp570
F98.0
aF98.0
aF98.0
aF98.0
aF98.0
aa(lp571
F84.75
aF84.75
aF84.75
aF84.75
aF84.75
aa(lp572
F101.5
aF80.5
aF99.5
aF80.5
aF80.5
aa(lp573
F92.0
aF82.25
aF82.25
aF82.25
aF82.25
aa(lp574
F93.0
aF80.5
aF80.5
aF80.5
aF80.5
aa(lp575
F87.75
aF81.25
aF81.25
aF81.25
aF81.25
aa(lp576
F91.75
aF91.75
aF91.75
aF91.75
aF91.75
aa(lp577
F98.75
aF80.75
aF80.75
aF80.75
aF80.75
aa(lp578
F90.0
aF90.0
aF90.0
aF90.0
aF90.0
aa(lp579
F101.75
aF80.0
aF80.0
aF80.0
aF80.0
aa(lp580
F94.25
aF82.5
aF82.5
aF82.5
aF82.5
aa(lp581
F92.25
aF80.0
aF80.0
aF87.0
aF80.0
aa(lp582
F90.25
aF90.25
aF90.25
aF90.25
aF90.25
aa(lp583
F86.5
aF80.0
aF80.0
aF80.0
aF80.0
aa(lp584
F84.0
aF84.0
aF84.0
aF84.0
aF84.0
aa(lp585
F101.25
aF80.0
aF80.0
aF80.0
aF80.0
aa(lp586
F89.5
aF81.0
aF81.0
aF81.0
aF81.0
aa(lp587
F81.5
aF81.5
aF81.5
aF81.5
aF81.5
aa(lp588
F100.75
aF84.25
aF84.25
aF84.25
aF84.25
aa(lp589
F87.75
aF80.5
aF80.5
aF80.5
aF80.5
aa(lp590
F89.75
aF84.5
aF84.5
aF84.5
aF84.5
aa(lp591
F93.0
aF80.5
aF80.5
aF80.5
aF80.5
aa(lp592
F97.75
aF81.75
aF81.75
aF81.75
aF81.75
aa(lp593
F99.0
aF82.5
aF82.5
aF82.5
aF82.5
aa(lp594
F84.5
aF84.5
aF84.5
aF84.5
aF84.5
aa(lp595
F97.75
aF82.5
aF82.5
aF82.5
aF82.5
aa(lp596
F101.25
aF101.25
aF101.25
aF101.25
aF101.25
aa(lp597
F90.25
aF80.5
aF80.5
aF80.5
aF80.5
aa(lp598
F98.75
aF80.0
aF80.0
aF80.0
aF80.0
aa(lp599
F102.0
aF81.5
aF81.5
aF81.5
aF81.5
aa(lp600
F96.5
aF80.5
aF80.5
aF80.5
aF80.5
aa(lp601
F102.0
aF80.5
aF80.5
aF80.5
aF80.5
aa(lp602
F97.75
aF80.5
aF80.5
aF80.5
aF80.5
aa(lp603
F93.75
aF80.0
aF80.0
aF80.0
aF80.0
aa(lp604
F101.5
aF80.75
aF80.75
aF80.75
aF80.75
aa(lp605
F97.25
aF81.75
aF81.75
aF81.75
aF81.75
aa(lp606
F96.0
aF80.0
aF80.0
aF80.0
aF80.0
aa(lp607
F86.0
aF80.5
aF80.5
aF80.5
aF80.5
aa(lp608
F94.0
aF94.0
aF94.0
aF94.0
aF94.0
aa(lp609
F100.0
aF100.0
aF100.0
aF100.0
aF100.0
aa(lp610
F94.75
aF82.25
aF82.25
aF82.25
aF82.25
aa(lp611
F91.5
aF80.25
aF80.25
aF80.25
aF80.25
aa(lp612
F98.0
aF98.0
aF98.0
aF98.0
aF98.0
aa(lp613
F98.25
aF81.0
aF81.0
aF81.0
aF81.0
aa(lp614
F89.25
aF80.5
aF80.5
aF80.5
aF80.5
aa(lp615
F85.0
aF80.0
aF80.0
aF80.0
aF80.0
aa(lp616
F89.25
aF80.75
aF80.75
aF80.75
aF80.75
aa(lp617
F83.25
aF83.25
aF83.25
aF83.25
aF100.75
aa(lp618
F96.25
aF80.5
aF80.5
aF80.5
aF80.5
aa(lp619
F93.0
aF93.0
aF93.0
aF93.0
aF93.0
aa(lp620
F83.5
aF83.5
aF83.5
aF83.5
aF83.5
aa(lp621
F98.25
aF98.25
aF98.25
aF98.25
aF98.25
aa(lp622
F96.25
aF96.25
aF96.25
aF96.25
aF96.25
aa(lp623
F96.5
aF96.5
aF96.5
aF96.5
aF96.5
aa(lp624
F99.25
aF81.5
aF81.5
aF81.5
aF81.5
aa(lp625
F98.0
aF98.0
aF98.0
aF98.0
aF98.0
aa(lp626
F90.25
aF90.25
aF90.25
aF90.25
aF90.25
aa(lp627
F89.75
aF80.0
aF80.0
aF80.0
aF80.0
aa(lp628
F101.25
aF101.25
aF101.25
aF101.25
aF101.25
aa(lp629
F91.5
aF80.0
aF80.0
aF80.0
aF80.0
aa(lp630
F96.75
aF80.25
aF80.25
aF80.25
aF80.25
aa(lp631
F94.25
aF80.5
aF80.5
aF80.5
aF80.5
aa(lp632
F84.75
aF84.75
aF84.75
aF84.75
aF84.75
aa(lp633
F86.5
aF80.25
aF80.25
aF80.25
aF80.25
aa(lp634
F100.0
aF80.25
aF80.25
aF80.25
aF80.25
aa(lp635
F98.75
aF80.0
aF80.0
aF80.0
aF80.0
aa(lp636
F101.5
aF80.75
aF80.75
aF80.75
aF80.75
aa(lp637
F97.5
aF81.25
aF81.25
aF81.25
aF88.75
aa(lp638
F91.75
aF82.25
aF82.25
aF82.25
aF82.25
aa(lp639
F93.0
aF93.0
aF93.0
aF93.0
aF93.0
aa(lp640
F93.0
aF80.0
aF80.0
aF80.0
aF80.0
aa(lp641
F99.0
aF84.25
aF84.25
aF84.25
aF99.0
aa(lp642
F86.75
aF80.0
aF80.0
aF80.0
aF80.0
aa(lp643
F100.75
aF80.5
aF80.5
aF80.5
aF80.5
aa(lp644
F100.75
aF100.75
aF100.75
aF100.75
aF100.75
aa(lp645
F101.75
aF80.5
aF80.5
aF80.5
aF80.5
aa(lp646
F99.5
aF80.25
aF80.25
aF80.25
aF80.25
aa(lp647
F101.5
aF82.75
aF82.75
aF82.75
aF82.75
aa(lp648
F92.5
aF92.5
aF92.5
aF92.5
aF90.25
aa(lp649
F100.5
aF81.0
aF81.0
aF81.0
aF81.0
aa(lp650
F87.5
aF86.25
aF86.25
aF86.25
aF86.25
aa(lp651
F89.0
aF80.25
aF80.25
aF80.25
aF80.25
aa(lp652
F92.0
aF81.0
aF81.0
aF81.0
aF81.0
aa(lp653
F98.0
aF81.25
aF81.25
aF81.25
aF81.25
aa(lp654
F98.5
aF82.75
aF82.75
aF82.75
aF82.75
aa(lp655
F100.5
aF80.0
aF80.0
aF80.0
aF80.0
aa(lp656
F83.0
aF83.0
aF83.0
aF83.0
aF83.0
aa(lp657
F98.25
aF98.25
aF98.25
aF98.25
aF98.25
aa(lp658
F91.75
aF80.25
aF80.25
aF83.5
aF80.25
aa(lp659
F94.25
aF82.5
aF82.5
aF82.5
aF82.5
aa(lp660
F95.25
aF85.25
aF85.25
aF85.25
aF85.25
aa(lp661
F80.5
aF80.5
aF80.5
aF80.5
aF80.5
aa(lp662
F96.5
aF96.5
aF96.5
aF96.5
aF96.5
aa(lp663
F102.0
aF80.0
aF80.0
aF80.0
aF80.0
aa(lp664
F102.0
aF80.5
aF80.5
aF80.5
aF80.5
aa(lp665
F95.0
aF95.0
aF95.0
aF95.0
aF95.0
aa(lp666
F96.5
aF80.75
aF80.75
aF80.75
aF80.75
aa(lp667
F96.25
aF80.25
aF80.25
aF80.25
aF80.25
aa(lp668
F100.25
aF100.25
aF100.25
aF100.25
aF100.25
aa(lp669
F94.75
aF80.75
aF80.75
aF80.75
aF80.75
aa(lp670
F87.25
aF83.0
aF83.0
aF83.0
aF83.0
aa(lp671
F100.0
aF81.0
aF81.0
aF81.0
aF81.0
aa(lp672
F94.5
aF80.25
aF80.25
aF80.25
aF80.25
aa(lp673
F81.0
aF81.0
aF81.0
aF81.0
aF81.0
aa(lp674
F98.5
aF81.0
aF81.0
aF81.0
aF81.0
aa(lp675
F80.75
aF80.75
aF80.75
aF80.75
aF80.75
aa(lp676
F84.5
aF80.0
aF80.0
aF80.0
aF80.0
aa(lp677
F101.25
aF101.25
aF101.25
aF101.25
aF101.25
aa(lp678
F98.75
aF82.25
aF82.25
aF82.25
aF82.25
aa(lp679
F89.75
aF86.75
aF86.75
aF86.75
aF86.75
aa(lp680
F88.5
aF88.5
aF88.5
aF88.5
aF88.5
aa(lp681
F88.0
aF80.25
aF80.25
aF80.25
aF80.25
aa(lp682
F97.75
aF80.0
aF80.0
aF80.0
aF80.0
aa(lp683
F101.25
aF80.0
aF80.0
aF80.0
aF80.0
aa(lp684
F101.5
aF101.5
aF101.5
aF101.5
aF101.5
aa(lp685
F90.0
aF90.0
aF90.0
aF90.0
aF90.0
aa(lp686
F97.25
aF97.25
aF97.25
aF97.25
aF97.25
aa(lp687
F83.5
aF80.0
aF80.0
aF80.0
aF80.0
aa(lp688
F86.25
aF80.5
aF80.5
aF80.5
aF80.5
aa(lp689
F90.25
aF85.75
aF85.75
aF85.75
aF85.75
aa(lp690
F100.0
aF81.5
aF81.5
aF81.5
aF81.5
aa(lp691
F101.75
aF80.75
aF80.75
aF80.75
aF80.75
aa(lp692
F101.5
aF81.75
aF81.75
aF81.75
aF81.75
aa(lp693
F90.75
aF80.0
aF80.0
aF80.0
aF80.0
aa(lp694
F93.5
aF87.5
aF87.5
aF87.5
aF87.5
aa(lp695
F100.25
aF80.75
aF80.75
aF80.75
aF80.75
aa(lp696
F99.75
aF80.0
aF80.0
aF80.0
aF80.0
aa(lp697
F86.0
aF86.0
aF86.0
aF86.0
aF86.0
aa(lp698
F92.75
aF82.75
aF82.75
aF82.75
aF82.75
aa(lp699
F83.75
aF83.75
aF83.75
aF83.75
aF83.75
aa(lp700
F96.25
aF80.5
aF80.5
aF80.5
aF80.5
aa(lp701
F98.25
aF83.0
aF83.0
aF83.0
aF83.0
aa(lp702
F91.5
aF91.5
aF91.5
aF91.5
aF91.5
aa(lp703
F98.0
aF80.5
aF80.5
aF80.5
aF80.5
aa(lp704
F87.5
aF80.5
aF80.5
aF80.5
aF80.5
aa(lp705
F94.25
aF82.5
aF82.5
aF82.5
aF82.5
aa(lp706
F100.25
aF84.25
aF84.25
aF84.25
aF84.25
aa(lp707
F94.0
aF80.0
aF80.0
aF80.0
aF80.0
aa(lp708
F98.25
aF82.25
aF82.25
aF82.25
aF82.25
aa(lp709
F93.0
aF93.0
aF83.25
aF93.0
aF93.0
aa(lp710
F101.0
aF101.0
aF101.0
aF101.0
aF101.0
aa(lp711
F90.0
aF90.0
aF90.0
aF90.0
aF90.0
aa(lp712
F99.5
aF80.75
aF80.75
aF80.75
aF80.75
aa(lp713
F86.75
aF86.75
aF86.75
aF86.75
aF86.75
aa(lp714
F96.75
aF80.0
aF80.0
aF80.0
aF98.0
aa(lp715
F91.0
aF83.5
aF83.5
aF83.5
aF83.5
aa(lp716
F101.5
aF81.0
aF81.0
aF81.0
aF81.0
aa(lp717
F97.75
aF80.25
aF80.25
aF80.25
aF80.25
aa(lp718
F100.0
aF100.0
aF100.0
aF100.0
aF100.0
aa(lp719
F86.0
aF81.75
aF81.75
aF81.75
aF81.75
aa(lp720
F92.25
aF80.25
aF80.25
aF80.25
aF80.25
aa(lp721
F94.75
aF80.75
aF80.75
aF80.75
aF80.75
aa(lp722
F94.0
aF80.0
aF80.0
aF80.0
aF80.0
aa(lp723
F101.75
aF80.0
aF80.0
aF80.0
aF80.0
aa(lp724
F102.0
aF102.0
aF102.0
aF102.0
aF102.0
aa(lp725
F94.5
aF82.5
aF82.5
aF82.5
aF82.5
aa(lp726
F89.75
aF89.75
aF89.75
aF89.75
aF89.75
aa(lp727
F96.0
aF80.25
aF80.25
aF80.25
aF80.25
aa(lp728
F101.25
aF85.75
aF85.75
aF85.75
aF85.75
aa(lp729
F92.75
aF80.25
aF80.25
aF80.25
aF80.25
aa(lp730
F90.0
aF83.5
aF83.5
aF83.5
aF83.5
aa(lp731
F86.0
aF86.0
aF86.0
aF86.0
aF86.0
aa(lp732
F86.0
aF86.0
aF86.0
aF86.0
aF86.0
aa(lp733
F97.0
aF80.25
aF80.25
aF80.25
aF80.25
aa(lp734
F101.5
aF82.5
aF82.5
aF82.5
aF82.5
aa(lp735
F99.25
aF81.75
aF81.75
aF81.75
aF81.75
aa(lp736
F91.75
aF84.25
aF84.25
aF84.25
aF84.25
aa(lp737
F100.25
aF100.25
aF100.25
aF100.25
aF100.25
aa(lp738
F83.5
aF80.0
aF80.0
aF80.0
aF80.0
aa(lp739
F96.0
aF84.0
aF84.0
aF84.0
aF84.0
aa(lp740
F89.5
aF81.5
aF81.5
aF81.5
aF81.5
aa(lp741
F92.75
aF80.25
aF80.25
aF80.25
aF80.25
aa(lp742
F97.5
aF81.25
aF81.25
aF81.25
aF81.25
aa(lp743
F95.5
aF95.5
aF95.5
aF95.5
aF95.5
aa(lp744
F95.5
aF80.0
aF80.0
aF80.0
aF80.0
aa(lp745
F95.0
aF80.25
aF80.25
aF80.25
aF80.25
aa(lp746
F99.5
aF80.5
aF80.5
aF80.5
aF80.5
aa(lp747
F93.5
aF80.0
aF80.0
aF80.0
aF80.0
aa(lp748
F91.25
aF91.25
aF91.25
aF91.25
aF91.25
aa(lp749
F94.25
aF82.0
aF82.0
aF82.0
aF82.0
aa(lp750
F99.25
aF81.75
aF81.75
aF81.75
aF81.75
aa(lp751
F94.5
aF80.0
aF80.0
aF85.75
aF80.0
aa(lp752
F95.0
aF82.25
aF82.25
aF82.25
aF82.25
aa(lp753
F97.25
aF97.25
aF97.25
aF97.25
aF97.25
aa(lp754
F95.5
aF80.25
aF80.25
aF80.25
aF80.25
aa(lp755
F97.75
aF80.25
aF80.25
aF80.25
aF80.25
aa(lp756
F96.5
aF96.5
aF96.5
aF96.5
aF96.5
aa(lp757
F99.0
aF80.25
aF80.25
aF80.25
aF80.25
aa(lp758
F91.75
aF91.75
aF91.75
aF91.75
aF91.75
aa(lp759
F100.25
aF100.25
aF100.25
aF100.25
aF100.25
aa(lp760
F95.5
aF81.5
aF81.5
aF81.5
aF81.5
aa(lp761
F88.25
aF88.25
aF88.25
aF88.25
aF88.25
aa(lp762
F95.0
aF83.75
aF83.75
aF83.75
aF83.75
aa(lp763
F92.75
aF81.25
aF81.25
aF81.25
aF81.25
aa(lp764
F99.5
aF81.75
aF81.75
aF81.75
aF81.75
aa(lp765
F93.25
aF81.75
aF81.75
aF81.75
aF85.25
aa(lp766
F87.75
aF87.75
aF87.75
aF87.75
aF87.75
aa(lp767
F100.25
aF80.75
aF80.75
aF80.75
aF80.75
aa(lp768
F85.75
aF85.75
aF85.75
aF85.75
aF85.75
aa(lp769
F92.0
aF92.0
aF92.0
aF92.0
aF92.0
aa(lp770
F96.75
aF83.0
aF83.0
aF83.0
aF83.0
aa(lp771
F91.25
aF89.5
aF89.5
aF89.5
aF89.5
aa(lp772
F95.0
aF80.5
aF80.5
aF80.5
aF80.5
aa(lp773
F100.25
aF80.25
aF80.25
aF80.25
aF80.25
aa(lp774
F92.25
aF80.25
aF80.25
aF80.25
aF80.25
aa(lp775
F97.75
aF87.5
aF87.5
aF87.5
aF87.5
aa(lp776
F102.0
aF80.0
aF80.0
aF85.0
aF80.0
aa(lp777
F93.75
aF80.5
aF80.5
aF80.5
aF80.5
aa(lp778
F92.25
aF80.5
aF80.5
aF80.5
aF80.5
aa(lp779
F96.25
aF81.5
aF81.5
aF81.5
aF81.5
aa(lp780
F98.5
aF81.0
aF81.0
aF81.0
aF81.0
aa(lp781
F98.75
aF83.5
aF83.5
aF83.5
aF83.5
aa(lp782
F91.5
aF82.25
aF82.25
aF82.25
aF82.25
aa(lp783
F91.0
aF91.0
aF91.0
aF91.0
aF91.0
aa(lp784
F90.75
aF90.75
aF90.75
aF90.75
aF90.75
aa(lp785
F97.0
aF95.75
aF95.75
aF95.75
aF95.75
aa(lp786
F93.5
aF95.5
aF95.5
aF95.5
aF95.5
aa(lp787
F99.25
aF82.5
aF82.5
aF82.5
aF82.5
aa(lp788
F94.75
aF80.75
aF80.75
aF80.75
aF80.75
aa(lp789
F92.5
aF81.5
aF81.5
aF81.5
aF81.5
aa(lp790
F94.75
aF82.5
aF82.5
aF82.5
aF82.5
aa(lp791
F94.0
aF82.75
aF82.75
aF82.75
aF82.75
aa(lp792
F92.5
aF92.5
aF92.5
aF92.5
aF92.5
aa(lp793
F101.0
aF81.25
aF81.25
aF81.25
aF81.25
aa(lp794
F97.25
aF80.25
aF80.25
aF80.25
aF80.25
aa(lp795
F100.0
aF80.75
aF80.75
aF80.75
aF80.75
aa(lp796
F100.25
aF85.0
aF85.0
aF85.0
aF85.0
aa(lp797
F97.25
aF81.0
aF81.0
aF94.0
aF81.0
aa(lp798
F92.0
aF80.0
aF80.0
aF80.0
aF80.0
aa(lp799
F98.0
aF82.0
aF82.0
aF82.0
aF82.0
aa(lp800
F101.5
aF80.25
aF80.25
aF80.25
aF80.25
aa(lp801
F96.25
aF80.75
aF80.75
aF80.75
aF80.75
aa(lp802
F89.5
aF100.0
aF100.0
aF100.0
aF100.0
aa(lp803
F89.75
aF80.5
aF80.5
aF80.5
aF80.5
aa(lp804
F97.25
aF81.25
aF99.25
aF81.25
aF81.25
aa(lp805
F86.5
aF80.75
aF80.75
aF80.75
aF80.75
aa(lp806
F98.25
aF81.25
aF81.25
aF81.25
aF81.25
aa(lp807
F96.5
aF82.5
aF82.5
aF82.5
aF82.5
aa(lp808
F95.75
aF80.5
aF80.5
aF80.5
aF80.5
aa(lp809
F91.75
aF88.75
aF88.75
aF88.75
aF88.75
aa(lp810
F91.75
aF80.0
aF80.0
aF80.0
aF80.0
aa(lp811
F96.25
aF96.25
aF96.25
aF96.25
aF96.25
aa(lp812
F101.0
aF101.0
aF101.0
aF101.0
aF101.0
aa(lp813
F91.0
aF81.5
aF81.5
aF81.5
aF81.5
aa(lp814
F101.5
aF80.0
aF80.0
aF80.0
aF80.0
aa(lp815
F99.5
aF82.5
aF82.5
aF82.5
aF82.5
aa(lp816
F96.5
aF80.5
aF80.5
aF80.5
aF80.5
aa(lp817
F90.75
aF80.5
aF80.5
aF80.5
aF80.5
aa(lp818
F99.0
aF99.0
aF99.0
aF99.0
aF99.0
aa(lp819
F93.25
aF83.5
aF81.5
aF81.5
aF81.5
aa(lp820
F91.5
aF80.75
aF80.75
aF80.75
aF80.75
aa(lp821
F89.5
aF80.0
aF80.0
aF80.0
aF80.0
aa(lp822
F97.75
aF85.0
aF85.0
aF85.0
aF85.0
aa(lp823
F99.5
aF82.0
aF82.0
aF82.0
aF82.0
aa(lp824
F88.75
aF80.5
aF80.5
aF80.5
aF80.5
aa(lp825
F98.0
aF80.25
aF80.25
aF80.25
aF80.25
aa(lp826
F87.0
aF80.75
aF80.75
aF80.75
aF80.75
aa(lp827
F80.25
aF80.25
aF80.25
aF80.25
aF80.25
aa(lp828
F97.75
aF80.0
aF80.0
aF80.0
aF80.0
aa(lp829
F101.25
aF80.25
aF80.25
aF80.25
aF80.25
aa(lp830
F93.75
aF80.5
aF80.5
aF80.5
aF80.5
aa(lp831
F93.75
aF93.75
aF93.75
aF93.75
aF93.75
aa(lp832
F99.0
aF80.0
aF80.0
aF80.0
aF80.0
aa(lp833
F100.25
aF80.75
aF80.75
aF80.75
aF80.75
aa(lp834
F99.25
aF80.0
aF80.0
aF80.0
aF80.0
aa(lp835
F85.25
aF85.25
aF85.25
aF85.25
aF85.25
aa(lp836
F89.25
aF80.0
aF80.0
aF80.0
aF80.0
aa(lp837
F96.75
aF82.0
aF82.0
aF82.0
aF82.0
aa(lp838
F99.75
aF81.5
aF81.5
aF81.5
aF81.5
aa(lp839
F100.0
aF80.25
aF80.25
aF80.25
aF80.25
aa(lp840
F81.25
aF80.25
aF80.25
aF80.25
aF80.25
aa(lp841
F99.0
aF84.0
aF84.0
aF84.0
aF84.0
aa(lp842
F98.5
aF86.5
aF86.5
aF86.5
aF86.5
aa(lp843
F89.25
aF80.25
aF80.25
aF80.25
aF80.25
aa(lp844
F86.5
aF81.5
aF81.5
aF81.5
aF81.5
aa(lp845
F101.0
aF81.5
aF101.75
aF81.5
aF81.5
aa(lp846
F95.75
aF83.75
aF83.75
aF83.75
aF83.75
aa(lp847
F84.75
aF82.25
aF82.25
aF82.25
aF82.25
aa(lp848
F96.25
aF80.0
aF80.0
aF80.0
aF80.0
aa(lp849
F95.5
aF80.5
aF80.5
aF80.5
aF80.5
aa(lp850
F85.75
aF81.25
aF81.25
aF81.25
aF81.25
aa(lp851
F98.75
aF80.75
aF80.75
aF80.75
aF80.75
aa(lp852
F92.0
aF84.5
aF84.5
aF84.5
aF84.5
aa(lp853
F100.25
aF80.0
aF80.0
aF80.0
aF80.0
aa(lp854
F89.5
aF80.5
aF80.5
aF80.5
aF80.5
aa(lp855
F89.5
aF80.25
aF80.25
aF80.25
aF80.25
aa(lp856
F90.75
aF80.5
aF80.5
aF80.5
aF80.5
aa(lp857
F89.0
aF89.0
aF89.0
aF89.0
aF89.0
aa(lp858
F85.5
aF81.75
aF81.75
aF81.75
aF81.75
aa(lp859
F97.0
aF83.0
aF83.0
aF83.0
aF83.0
aa(lp860
F97.75
aF80.0
aF80.0
aF80.0
aF80.0
aa(lp861
F90.75
aF80.25
aF80.25
aF80.25
aF80.25
aa(lp862
F93.25
aF80.5
aF80.5
aF80.5
aF80.5
aa(lp863
F89.25
aF80.25
aF80.25
aF80.25
aF80.25
aa(lp864
F96.75
aF89.5
aF89.5
aF89.5
aF89.5
aa(lp865
F94.5
aF83.0
aF83.0
aF83.0
aF83.0
aa(lp866
F91.0
aF80.0
aF80.0
aF80.0
aF80.0
aa(lp867
F83.75
aF83.75
aF83.75
aF83.75
aF83.75
aa(lp868
F89.25
aF81.25
aF81.25
aF81.25
aF87.5
aa(lp869
F95.0
aF95.0
aF95.0
aF95.0
aF95.0
aa(lp870
F91.0
aF91.0
aF91.0
aF91.0
aF91.0
aa(lp871
F100.0
aF80.0
aF80.0
aF80.0
aF80.0
aa(lp872
F94.0
aF84.75
aF84.75
aF84.75
aF84.75
aa(lp873
F94.0
aF80.75
aF80.75
aF80.75
aF80.75
aa(lp874
F98.25
aF81.0
aF81.0
aF81.0
aF81.0
aa(lp875
F83.0
aF80.0
aF80.0
aF80.0
aF80.0
aa(lp876
F102.0
aF80.0
aF80.0
aF80.0
aF80.0
aa(lp877
F96.75
aF82.25
aF82.25
aF82.25
aF82.25
aa(lp878
F84.5
aF84.5
aF84.5
aF84.5
aF84.5
aa(lp879
F96.25
aF82.0
aF82.0
aF82.0
aF82.0
aa(lp880
F97.75
aF97.75
aF97.75
aF97.75
aF97.75
aa(lp881
F88.75
aF80.25
aF80.25
aF80.25
aF80.25
aa(lp882
F95.5
aF82.0
aF82.0
aF82.0
aF82.0
aa(lp883
F88.5
aF88.5
aF88.5
aF88.5
aF88.5
aa(lp884
F83.75
aF83.75
aF83.75
aF83.75
aF83.75
aa(lp885
F92.0
aF82.5
aF82.5
aF82.5
aF82.5
aa(lp886
F97.5
aF97.5
aF97.5
aF97.5
aF97.5
aa(lp887
F81.0
aF81.0
aF81.0
aF81.0
aF81.0
aa(lp888
F95.0
aF95.0
aF95.0
aF95.0
aF95.0
aa(lp889
F101.75
aF80.75
aF80.75
aF80.75
aF80.75
aa(lp890
F83.5
aF83.5
aF83.5
aF83.5
aF83.5
aa(lp891
F100.25
aF80.25
aF90.75
aF80.25
aF80.25
aa(lp892
F101.5
aF83.5
aF83.5
aF83.5
aF83.5
aa(lp893
F82.75
aF81.25
aF81.25
aF81.25
aF81.25
aa(lp894
F98.25
aF80.0
aF80.0
aF80.0
aF80.0
aa(lp895
F93.75
aF80.0
aF80.0
aF80.0
aF80.0
aa(lp896
F94.25
aF81.25
aF81.25
aF81.25
aF81.25
aa(lp897
F92.75
aF82.0
aF82.0
aF82.0
aF82.0
aa(lp898
F102.0
aF81.5
aF81.5
aF81.5
aF81.5
aa(lp899
F96.25
aF80.75
aF80.75
aF80.75
aF80.75
aa(lp900
F98.75
aF98.75
aF98.75
aF98.75
aF98.75
aa(lp901
F97.25
aF81.75
aF81.75
aF81.75
aF81.75
aa(lp902
F102.0
aF80.5
aF92.75
aF80.5
aF80.5
aa(lp903
F92.25
aF82.0
aF82.0
aF82.0
aF82.0
aa(lp904
F98.25
aF81.25
aF81.25
aF81.25
aF81.25
aa(lp905
F101.25
aF101.25
aF101.25
aF101.25
aF101.25
aa(lp906
F93.0
aF80.0
aF80.0
aF80.0
aF80.0
aa(lp907
F94.0
aF80.0
aF80.0
aF80.0
aF80.0
aa(lp908
F94.75
aF83.0
aF83.0
aF83.0
aF83.0
aa(lp909
F101.5
aF81.75
aF81.75
aF81.75
aF81.75
aa(lp910
F95.75
aF80.25
aF80.25
aF80.25
aF80.25
aa(lp911
F87.25
aF80.25
aF80.25
aF80.25
aF80.25
aa(lp912
F91.5
aF91.5
aF91.5
aF91.5
aF91.5
aa(lp913
F97.5
aF97.5
aF97.5
aF97.5
aF97.5
aa(lp914
F91.5
aF81.25
aF81.25
aF81.25
aF81.25
aa(lp915
F99.5
aF99.5
aF99.5
aF99.5
aF99.5
aa(lp916
F82.75
aF82.75
aF82.75
aF82.75
aF82.75
aa(lp917
F99.0
aF99.0
aF99.0
aF99.0
aF99.0
aa(lp918
F101.5
aF80.0
aF80.0
aF80.0
aF80.0
aa(lp919
F95.25
aF82.0
aF82.0
aF82.0
aF82.0
aa(lp920
F97.5
aF80.0
aF80.0
aF80.0
aF80.0
aa(lp921
F89.75
aF83.0
aF83.0
aF83.0
aF83.0
aa(lp922
F97.75
aF81.25
aF81.25
aF81.25
aF81.25
aa(lp923
F101.75
aF80.25
aF80.25
aF80.25
aF80.25
aa(lp924
F99.75
aF83.5
aF83.5
aF83.5
aF83.5
aa(lp925
F95.25
aF83.0
aF83.0
aF83.0
aF83.0
aa(lp926
F98.5
aF80.5
aF80.5
aF80.5
aF80.5
aa(lp927
F83.75
aF80.0
aF80.0
aF80.0
aF80.0
aa(lp928
F87.0
aF80.25
aF80.25
aF80.25
aF80.25
aa(lp929
F92.0
aF80.5
aF80.5
aF80.5
aF80.5
aa(lp930
F87.5
aF82.25
aF82.25
aF82.25
aF81.25
aa(lp931
F93.25
aF80.75
aF80.75
aF80.75
aF80.75
aa(lp932
F99.5
aF83.0
aF83.0
aF83.0
aF83.0
aa(lp933
F96.5
aF84.5
aF84.5
aF84.5
aF84.5
aa(lp934
F94.75
aF81.0
aF81.0
aF81.0
aF81.0
aa(lp935
F89.75
aF80.5
aF80.5
aF80.5
aF80.5
aa(lp936
F97.5
aF97.0
aF97.0
aF97.0
aF97.0
aa(lp937
F96.5
aF80.25
aF80.25
aF80.25
aF80.25
aa(lp938
F95.75
aF95.75
aF95.75
aF95.75
aF95.75
aa(lp939
F91.25
aF80.25
aF80.25
aF80.25
aF80.25
aa(lp940
F97.25
aF97.25
aF97.25
aF97.25
aF97.25
aa(lp941
F98.5
aF80.0
aF80.0
aF80.0
aF80.0
aa(lp942
F85.0
aF80.25
aF80.25
aF80.25
aF80.25
aa(lp943
F100.5
aF80.0
aF80.0
aF80.0
aF80.0
aa(lp944
F86.25
aF86.25
aF86.25
aF86.25
aF86.25
aa(lp945
F98.0
aF83.25
aF83.25
aF83.25
aF83.25
aa(lp946
F101.25
aF80.5
aF80.5
aF80.5
aF80.5
aa(lp947
F100.5
aF82.5
aF82.5
aF82.5
aF82.5
aa(lp948
F94.75
aF85.5
aF85.5
aF85.5
aF85.5
aa(lp949
F98.25
aF80.25
aF80.25
aF80.25
aF80.25
aa(lp950
F91.0
aF82.75
aF82.75
aF82.75
aF82.75
aa(lp951
F96.75
aF96.75
aF96.75
aF96.75
aF96.75
aa(lp952
F87.25
aF85.5
aF85.5
aF82.0
aF85.5
aa(lp953
F96.5
aF81.5
aF81.5
aF81.5
aF81.5
aa(lp954
F98.75
aF80.5
aF80.5
aF80.5
aF80.5
aa(lp955
F94.0
aF94.0
aF94.0
aF94.0
aF94.0
aa(lp956
F93.5
aF93.5
aF93.5
aF93.5
aF93.5
aa(lp957
F93.75
aF80.75
aF80.75
aF80.75
aF80.75
aa(lp958
F99.75
aF80.0
aF80.0
aF80.0
aF80.0
aa(lp959
F89.75
aF80.0
aF80.0
aF80.0
aF80.0
aa(lp960
F97.0
aF80.25
aF80.25
aF80.25
aF80.25
aa(lp961
F92.5
aF83.75
aF83.75
aF83.75
aF83.75
aa(lp962
F96.5
aF80.25
aF80.25
aF80.25
aF80.25
aa(lp963
F98.75
aF80.25
aF80.25
aF80.25
aF80.25
aa(lp964
F95.25
aF80.5
aF80.5
aF80.5
aF80.5
aa(lp965
F90.0
aF80.75
aF80.75
aF80.75
aF80.75
aa(lp966
F85.25
aF81.25
aF81.25
aF81.25
aF81.25
aa(lp967
F101.5
aF81.5
aF81.5
aF81.5
aF81.5
aa(lp968
F92.5
aF80.0
aF80.0
aF80.0
aF80.0
aa(lp969
F99.75
aF80.25
aF80.25
aF80.25
aF80.25
aa(lp970
F100.25
aF80.25
aF80.25
aF80.25
aF80.25
aa(lp971
F88.25
aF80.75
aF80.75
aF80.75
aF80.75
aa(lp972
F96.25
aF83.0
aF83.0
aF83.0
aF83.0
aa(lp973
F92.0
aF92.0
aF92.0
aF92.0
aF92.0
aa(lp974
F96.5
aF80.25
aF80.25
aF80.25
aF80.25
aa(lp975
F92.5
aF80.0
aF80.0
aF80.0
aF80.0
aa(lp976
F101.5
aF81.25
aF81.25
aF81.25
aF81.25
aa(lp977
F92.25
aF80.75
aF80.75
aF80.75
aF80.75
aa(lp978
F99.75
aF81.25
aF81.25
aF81.25
aF81.25
aa(lp979
F93.0
aF80.5
aF80.5
aF80.5
aF80.5
aa(lp980
F101.0
aF101.0
aF101.0
aF101.0
aF101.0
aa(lp981
F84.0
aF81.75
aF81.75
aF81.75
aF81.75
aa(lp982
F102.0
aF81.0
aF81.0
aF81.0
aF81.0
aa(lp983
F100.5
aF100.5
aF100.5
aF100.5
aF100.5
aa(lp984
F100.75
aF80.75
aF80.75
aF80.75
aF80.75
aa(lp985
F83.75
aF83.75
aF83.75
aF83.75
aF83.75
aa(lp986
F97.0
aF97.0
aF97.0
aF97.0
aF97.0
aa(lp987
F98.75
aF80.5
aF80.5
aF80.5
aF80.5
aa(lp988
F99.25
aF80.25
aF80.25
aF80.25
aF80.25
aa(lp989
F96.5
aF80.25
aF80.25
aF80.25
aF80.25
aa(lp990
F86.75
aF80.75
aF80.75
aF80.75
aF80.75
aa(lp991
F95.0
aF80.75
aF80.75
aF80.75
aF80.75
aa(lp992
F100.5
aF82.0
aF82.0
aF82.0
aF82.0
aa(lp993
F98.5
aF80.5
aF80.5
aF80.5
aF80.5
aa(lp994
F97.75
aF97.75
aF97.75
aF97.75
aF97.75
aa(lp995
F96.5
aF96.5
aF96.5
aF96.5
aF96.5
aa(lp996
F98.25
aF83.5
aF83.5
aF83.5
aF83.5
aa(lp997
F97.5
aF97.5
aF97.5
aF97.5
aF97.5
aa(lp998
F90.75
aF80.75
aF80.75
aF80.75
aF80.75
aa(lp999
F96.25
aF80.75
aF80.75
aF80.75
aF80.75
aa(lp1000
F97.0
aF82.75
aF82.75
aF82.75
aF82.75
aa.