6000.75,5055.75,5055.75,5055.75,5055.75
5811.75,4620.7,4620.7,4620.7,4620.7
1152.0,1152.0,1152.0,1152.0,1152.0
5797.0,5022.0,5022.0,5022.0,5022.0
5755.8,5167.5,5167.5,5167.5,5167.5
5519.8,4676.1,4676.1,4676.1,4676.1
5760.0,4651.2,4651.2,4651.2,4651.2
5800.15,5038.2,5038.2,5038.2,5038.2
2275.0,2437.5,2437.5,2437.5,2437.5
6082.95,5136.0,5136.0,5136.0,5136.0
5740.8,5070.0,5070.0,5070.0,5070.0
5040.0,5040.0,5040.0,5040.0,5040.0
1337.0,1337.0,1337.0,1337.0,1337.0
5446.35,4463.55,4463.55,4463.55,4463.55
2745.0,2745.0,2745.0,2745.0,2745.0
5839.75,5329.8,5329.8,5329.8,5329.8
5958.4,4879.2,4879.2,4879.2,4879.2
1968.75,1968.75,1968.75,1968.75,1968.75
4605.6,3841.8,3841.8,3841.8,3841.8
4743.75,4275.7,4275.7,4275.7,4275.7
2014.95,1868.5,1868.5,1868.5,1868.5
5193.15,4418.85,4418.85,4418.85,4418.85
5334.2,4931.9,4931.9,4931.9,4931.9
6004.0,5071.8,5071.8,5071.8,5071.8
5974.55,5329.1,5329.1,5329.1,5329.1
6112.2,5344.0,5344.0,5344.0,5344.0
6013.15,5119.95,5119.95,5119.95,5119.95
-408.0,-408.0,-408.0,-408.0,-408.0
3860.6,3365.9,3365.9,3365.9,3365.9
5264.0,4634.0,4634.0,4634.0,4634.0
5877.6,5103.4,5103.4,5103.4,5103.4
488.75,488.75,488.75,488.75,488.75
4830.75,4830.75,4830.75,4830.75,4830.75
4721.4,4373.1,4373.1,4373.1,4373.1
6032.55,4912.0,4912.0,4912.0,4912.0
5121.6,4382.4,4382.4,4382.4,4382.4
4488.0,3718.0,3718.0,3718.0,3718.0
4385.35,3915.9,3915.9,3915.9,3915.9
5786.75,4731.95,4731.95,4731.95,4731.95
3420.0,3420.0,3420.0,3325.0,3420.0
5914.75,4734.75,4734.75,4734.75,4734.75
6106.95,5296.0,5296.0,5296.0,5296.0
6023.95,5184.15,5184.15,5184.15,5184.15
5707.2,5346.4,5346.4,5346.4,5346.4
870.75,870.75,870.75,870.75,870.75
6060.2,5024.0,5024.0,5024.0,5024.0
5409.6,4526.4,4526.4,4526.4,4526.4
392.0,392.0,392.0,392.0,392.0
3424.95,3132.9,3132.9,3132.9,3132.9
5916.6,5587.9,5587.9,5587.9,5587.9
6018.75,5152.05,5152.05,5152.05,5152.05
5664.8,4745.0,4745.0,4745.0,4745.0
5914.75,4734.75,4734.75,4734.75,4734.75
1152.0,1152.0,1152.0,1152.0,1152.0
5786.95,4973.4,4973.4,4973.4,4973.4
5959.35,5200.3,5200.3,5200.3,5200.3
4927.8,4321.5,4321.5,4321.5,4321.5
4515.75,3768.7,3768.7,3768.7,3768.7
5501.4,5231.1,5231.1,5231.1,5231.1
5413.6,4381.8,4381.8,4381.8,4381.8
5571.75,4645.5,4645.5,4645.5,4645.5
1880.0,1880.0,1880.0,1880.0,1880.0
5949.35,5135.9,5135.9,5135.9,5135.9
5501.75,4838.0,4838.0,4838.0,4838.0
5751.4,4827.6,4827.6,4827.6,4827.6
5643.75,4906.3,4906.3,4906.3,4906.3
5865.75,4781.7,4781.7,4781.7,4781.7
5059.2,4542.4,4542.4,4542.4,4542.4
2232.0,2232.0,2232.0,2232.0,2232.0
4300.8,3841.6,3841.6,3841.6,3841.6
2735.75,2852.0,2852.0,2852.0,2852.0
6060.2,5024.0,5024.0,5024.0,5024.0
5757.95,5183.75,5183.75,5183.75,5183.75
-199.0,-199.0,-199.0,-199.0,-199.0
5806.35,4796.55,4796.55,4796.55,4796.55
5949.35,5135.9,5135.9,5135.9,5135.9
5442.75,4852.75,4852.75,4852.75,4852.75
5817.6,4636.8,4636.8,4636.8,4636.8
4158.0,3444.0,3444.0,3444.0,4095.0
5293.4,4375.7,4375.7,4375.7,4375.7
5877.6,5103.4,5103.4,5103.4,5103.4
5520.0,4920.0,4920.0,4920.0,4920.0
6055.0,5617.5,5617.5,5617.5,5617.5
5915.0,5652.5,5652.5,5652.5,5652.5
5062.75,4378.95,4378.95,4378.95,4378.95
5989.8,4768.0,4768.0,4768.0,4768.0
5800.15,5038.2,5038.2,5038.2,5038.2
5568.75,4855.95,4855.95,4855.95,4855.95
5724.6,4554.3,4554.3,4554.3,4554.3
5307.0,4799.5,4799.5,4799.5,4799.5
5256.0,4847.2,4847.2,4847.2,4847.2
5664.8,4745.0,4745.0,4745.0,4745.0
5848.15,5524.2,5524.2,5524.2,5524.2
5674.15,4584.6,4584.6,4584.6,4584.6
5576.0,5576.0,5576.0,5576.0,5576.0
1337.0,1337.0,1337.0,1337.0,1337.0
2994.75,2994.75,2994.75,2994.75,2994.75
4552.95,4063.0,4063.0,4063.0,4063.0
5152.0,4662.0,4662.0,4662.0,4662.0
5549.75,4580.3,4580.3,4580.3,4580.3
5623.2,4615.0,4615.0,4615.0,4615.0
-408.0,-408.0,-408.0,-408.0,-408.0
5730.75,4570.45,4570.45,4570.45,4570.45
6116.55,5392.0,5392.0,5392.0,5392.0
547.15,618.45,618.45,618.45,618.45
5898.4,4686.6,4686.6,4686.6,4686.6
5370.75,4589.55,4589.55,4589.55,4589.55
5796.75,4764.25,4764.25,4764.25,4764.25
5914.35,5442.55,5442.55,5442.55,5442.55
4403.4,4231.2,4231.2,4231.2,4231.2
4982.35,4179.15,4179.15,4179.15,4179.15
4176.0,4176.0,4176.0,4176.0,4176.0
5984.55,4752.0,4752.0,4752.0,4752.0
4039.2,3519.0,3519.0,3519.0,3519.0
5683.2,4810.0,4810.0,4810.0,4810.0
4720.0,3964.8,3964.8,3964.8,3964.8
3291.75,3043.8,3043.8,3043.8,3043.8
5718.35,4538.15,4538.15,4538.15,4538.15
2660.75,2660.75,2660.75,2660.75,2660.75
5757.95,5183.75,5183.75,5183.75,5183.75
5915.55,5636.35,5636.35,5636.35,5636.35
-403.0,-403.0,-403.0,-403.0,-403.0
6035.2,5264.4,5264.4,5264.4,5264.4
392.0,392.0,392.0,392.0,392.0
5786.95,4973.4,4973.4,4973.4,4973.4
5946.6,5119.8,5119.8,5119.8,5119.8
5418.55,5065.5,5065.5,5065.5,5065.5
4895.55,4237.75,4237.75,4237.75,4237.75
5731.95,5021.25,5021.25,5021.25,5021.25
6018.75,6018.75,6018.75,6018.75,6018.75
5772.0,5038.8,5038.8,5132.4,5038.8
5949.4,4847.1,4847.1,4847.1,4847.1
5222.4,4211.2,4211.2,4211.2,4211.2
6124.55,5648.0,5648.0,5648.0,5648.0
5976.0,5345.2,5345.2,5345.2,5345.2
5619.75,4808.5,4808.5,4808.5,4808.5
5883.0,5135.7,5135.7,5135.7,5135.7
5930.2,4782.9,4782.9,4782.9,4782.9
6085.8,5152.0,5152.0,5152.0,5152.0
6060.2,5024.0,5024.0,5024.0,5024.0
5222.4,4501.6,4501.6,4501.6,4501.6
5828.6,4877.3,4877.3,4877.3,4877.3
5639.55,4663.75,4663.75,4663.75,4663.75
4544.75,4544.75,4544.75,4544.75,4544.75
6120.0,5760.0,5760.0,5760.0,5760.0
6018.75,5152.05,5152.05,5152.05,5152.05
4989.6,4195.8,4195.8,4195.8,4195.8
5985.35,5618.9,5618.9,5618.9,5618.9
1880.0,1880.0,1880.0,1880.0,1880.0
5989.8,4768.0,4768.0,4768.0,4768.0
2576.0,2576.0,2576.0,2576.0,2576.0
5188.8,4581.6,4581.6,4581.6,4581.6
5786.95,4973.4,4973.4,4973.4,4973.4
5921.0,4991.0,4991.0,4991.0,4991.0
5280.0,4342.8,4342.8,4342.8,4342.8
5466.2,4967.9,4967.9,4967.9,4967.9
6048.0,5392.8,5392.8,5392.8,5392.8
5673.0,5053.0,5053.0,5053.0,5053.0
5733.0,4762.8,4762.8,4762.8,4762.8
5413.6,4381.8,4381.8,4381.8,4381.8
6028.2,4896.0,4896.0,4896.0,4896.0
-403.0,-403.0,-403.0,-403.0,-403.0
5548.8,4420.0,4420.0,4420.0,4420.0
6045.0,4960.0,4960.0,4960.0,4960.0
3948.75,3948.75,3948.75,3948.75,3948.75
5940.8,5087.6,5087.6,5087.6,5087.6
4941.6,4785.4,4785.4,4785.4,4785.4
4544.75,4544.75,4544.75,4544.75,4544.75
5913.6,4958.8,4958.8,4958.8,4958.8
5989.8,4768.0,4768.0,4768.0,4768.0
5874.75,5087.25,5087.25,5087.25,5087.25
6033.15,5248.35,5248.35,5248.35,5248.35
5318.6,4296.8,4296.8,4296.8,4296.8
4857.6,4448.4,4448.4,4448.4,4448.4
2994.75,2994.75,2994.75,2994.75,2994.75
5636.95,4487.4,4487.4,4487.4,4487.4
5859.0,5006.5,5006.5,5006.5,5006.5
6117.8,5792.0,5792.0,5792.0,5792.0
4130.0,4130.0,4059.2,4130.0,4130.0
3384.0,3214.8,3214.8,3816.4,3214.8
5892.6,5200.3,5200.3,5200.3,5200.3
5928.0,5023.2,5023.2,5023.2,5023.2
5649.75,4519.8,4519.8,4519.8,4519.8
3077.0,3077.0,3077.0,3077.0,3077.0
5304.0,4264.0,4264.0,4264.0,4264.0
5975.2,4943.4,4943.4,4943.4,4943.4
4684.8,4123.6,4123.6,4123.6,4123.6
5151.35,4465.4,4465.4,4465.4,4465.4
5962.75,4895.25,4895.25,4895.25,4895.25
5984.0,5474.0,5474.0,5474.0,5474.0
5722.2,4972.5,4972.5,4972.5,4972.5
6051.15,5440.95,5440.95,5440.95,5440.95
6021.4,6002.7,6002.7,6002.7,6002.7
5343.75,4702.5,4702.5,4702.5,4702.5
6018.75,6018.75,6018.75,6018.75,6018.75
5252.8,4422.0,4422.0,4422.0,4422.0
5723.2,4730.4,4730.4,4730.4,4730.4
5601.75,4743.3,4743.3,4743.3,4743.3
5828.6,4877.3,4877.3,4877.3,4877.3
5624.0,4824.8,4824.8,4824.8,4824.8
5624.8,5166.6,5166.6,5166.6,5166.6
5905.8,4926.6,4926.6,4926.6,4926.6
5156.35,4678.65,4678.65,4678.65,4678.65
5924.55,5007.1,5007.1,5007.1,5007.1
4356.0,3751.0,3751.0,3751.0,3751.0
6124.8,5632.0,5632.0,5632.0,5632.0
5427.0,4414.5,4414.5,4414.5,4414.5
1152.0,1152.0,1152.0,1152.0,1152.0
3717.0,3717.0,3717.0,3717.0,3717.0
4325.0,4325.0,4325.0,4325.0,4325.0
5499.95,5214.65,5214.65,5214.65,5214.65
5755.8,5167.5,5167.5,5167.5,5167.5
5905.8,4926.6,4926.6,4926.6,4926.6
5860.8,4765.6,4765.6,4765.6,4765.6
2576.0,2576.0,2576.0,2576.0,2576.0
5082.95,4612.05,4612.05,4612.05,4667.45
5062.2,4790.5,4790.5,4790.5,4790.5
4176.0,4176.0,4176.0,4176.0,4176.0
6048.95,4976.0,4976.0,4976.0,4976.0
6105.0,5280.0,5280.0,5280.0,5280.0
5994.95,4784.0,4784.0,4784.0,4784.0
1610.75,1610.75,1610.75,1610.75,1610.75
6028.2,4896.0,4896.0,4896.0,4896.0
6123.75,5680.0,5680.0,5680.0,5680.0
6050.2,5745.9,5745.9,5745.9,5745.9
5990.4,5007.6,5007.6,5007.6,5007.6
5655.0,4712.5,4712.5,4712.5,4712.5
4882.15,4351.2,4351.2,4351.2,4351.2
5702.4,4665.6,4665.6,4665.6,4665.6
5628.15,4841.1,4841.1,4841.1,4841.1
5817.6,4636.8,4636.8,4636.8,4636.8
2405.0,2405.0,2405.0,2405.0,2405.0
-401.0,-401.0,-401.0,-401.0,-401.0
5668.2,4568.4,4568.4,4568.4,4568.4
6051.15,5440.95,5440.95,5440.95,5440.95
5946.6,5119.8,5119.8,5119.8,5119.8
5779.75,4941.0,4941.0,4941.0,4941.0
4281.6,3612.6,3612.6,3612.6,4471.15
5040.0,5040.0,5040.0,5040.0,5040.0
6010.2,5103.9,5103.9,5103.9,5103.9
6048.0,5392.8,5392.8,5392.8,5392.8
5890.35,5184.15,5184.15,5184.15,5184.15
5790.4,4989.6,4989.6,4989.6,4989.6
5662.15,4552.2,4552.2,4552.2,4552.2
3077.0,3077.0,3077.0,3077.0,3077.0
4693.15,4073.3,4073.3,4073.3,4933.5
-405.0,-405.0,-405.0,-405.0,-405.0
6050.2,5424.9,5424.9,5424.9,5424.9
6000.0,4800.0,4800.0,4800.0,4800.0
5989.8,4768.0,4768.0,4768.0,4768.0
5509.6,4643.4,4643.4,4643.4,4643.4
5529.75,4969.2,4969.2,4969.2,4969.2
5282.4,4700.2,4700.2,4700.2,4700.2
4925.0,4175.0,4175.0,4175.0,4175.0
5711.55,4923.75,4923.75,4923.75,4923.75
4531.8,4917.75,4033.8,4033.8,4033.8
0.0,0.0,0.0,0.0,0.0
6117.8,5408.0,5408.0,5408.0,5408.0
5958.4,4879.2,4879.2,4879.2,4879.2
5915.0,5458.7,5458.7,5458.7,5458.7
5706.15,5688.7,5688.7,5688.7,5688.7
5568.75,4855.95,4855.95,4855.95,4855.95
5900.6,5264.9,5264.9,5264.9,5264.9
4593.4,4034.1,4034.1,4034.1,4034.1
4544.75,4544.75,4544.75,4544.75,4544.75
3240.0,3240.0,3240.0,3240.0,3240.0
5956.8,4672.0,4672.0,4672.0,4672.0
4970.75,4970.75,4970.75,4970.75,4970.75
6124.95,5584.0,5584.0,5584.0,5584.0
6100.8,5248.0,5248.0,5248.0,5248.0
5944.75,4831.05,4831.05,4831.05,4831.05
5961.6,5924.8,5924.8,5924.8,5924.8
5347.95,5014.65,5014.65,5014.65,5014.65
6105.0,5280.0,5280.0,5280.0,5280.0
6110.55,5328.0,5328.0,5328.0,5328.0
5406.0,4240.0,4240.0,4597.75,4240.0
5949.4,4847.1,4847.1,4847.1,4847.1
5770.2,5297.5,5297.5,5297.5,5297.5
5385.6,4316.4,4316.4,4316.4,4316.4
5664.8,4745.0,4745.0,4745.0,4745.0
5608.35,5052.15,5052.15,5052.15,5052.15
6031.0,5232.3,5232.3,5232.3,5232.3
5793.75,5005.8,5005.8,5005.8,5005.8
1152.0,1152.0,1152.0,1152.0,1152.0
5982.6,5441.8,5441.8,5441.8,5441.8
5506.2,5296.9,5296.9,5296.9,5296.9
4544.75,4544.75,4544.75,4544.75,4544.75
5832.0,5832.0,5832.0,5832.0,5832.0
1958.4,1771.2,1771.2,1771.2,1771.2
5893.35,4878.3,4878.3,4878.3,4878.3
6105.0,5280.0,5280.0,5280.0,5280.0
5949.4,4847.1,4847.1,4847.1,4847.1
5781.6,4715.8,4715.8,4715.8,4715.8
6023.75,4880.0,4880.0,4880.0,4880.0
5993.95,5023.65,5023.65,5023.65,5023.65
5811.75,4620.7,4620.7,4620.7,4620.7
5332.8,4329.6,4329.6,4329.6,4329.6
6051.15,5440.95,5440.95,5440.95,5440.95
5548.8,4420.0,4420.0,4420.0,4420.0
6026.4,5200.2,5200.2,5200.2,5200.2
4250.75,4250.75,4250.75,4250.75,4250.75
2057.0,2057.0,2057.0,2057.0,2057.0
5568.75,4855.95,4855.95,4855.95,4855.95
5738.85,5591.7,5232.0,5232.0,5232.0
6060.2,5024.0,5024.0,5024.0,5024.0
5874.75,5087.25,5087.25,5087.25,5087.25
1880.0,1880.0,1880.0,1880.0,1880.0
5709.0,5379.0,5379.0,5379.0,5379.0
5493.55,4594.35,4594.35,4594.35,4594.35
6036.8,4928.0,4928.0,4928.0,4928.0
5909.4,4718.7,4718.7,4718.7,4718.7
2490.75,2490.75,2490.75,2490.75,2490.75
5803.2,5054.4,5054.4,5054.4,5054.4
5943.75,5103.7,5103.7,5103.7,5103.7
6080.0,5120.0,5120.0,5120.0,5120.0
5728.15,4746.6,4746.6,4746.6,4746.6
5889.0,4862.2,4862.2,4862.2,4862.2
5971.15,4927.35,4927.35,4927.35,4927.35
5650.95,4938.9,4938.9,4938.9,4938.9
5971.15,4927.35,4927.35,4927.35,4927.35
6093.75,5200.0,5200.0,5200.0,5200.0
1428.75,1428.75,1428.75,1428.75,1428.75
-402.0,-402.0,-402.0,-402.0,-402.0
6098.55,5232.0,5232.0,5232.0,5232.0
5900.6,5264.9,5264.9,5264.9,5264.9
5958.4,4879.2,4879.2,4879.2,4879.2
870.75,870.75,870.75,870.75,870.75
1428.75,1428.75,1428.75,1428.75,1428.75
965.0,965.0,965.0,965.0,965.0
5687.55,4826.25,4826.25,4826.25,4826.25
5421.0,4559.2,4559.2,4559.2,4559.2
5848.15,5556.6,5556.6,5556.6,5556.6
6023.95,5184.15,5184.15,5184.15,5184.15
6032.55,4912.0,4912.0,4912.0,4912.0
5568.0,5707.2,5707.2,5707.2,5707.2
2912.0,2912.0,2912.0,2912.0,2912.0
6021.4,5168.1,5168.1,5168.1,5168.1
5610.95,4775.9,4775.9,4775.9,4775.9
1184.2,1190.4,1190.4,1190.4,1190.4
6124.8,5568.0,5568.0,5568.0,5568.0
163.35,180.9,180.9,180.9,180.9
197.0,197.0,197.0,197.0,197.0
5894.75,5894.75,5894.75,5894.75,5894.75
4617.0,4617.0,4617.0,4617.0,4617.0
5496.75,5181.75,5181.75,5181.75,5181.75
117.0,118.8,118.8,118.8,118.8
5735.0,5037.5,5037.5,5037.5,5037.5
4774.95,4082.4,4082.4,4082.4,4082.4
5662.8,4576.0,4576.0,4833.4,4576.0
1354.15,1401.6,1401.6,1401.6,1401.6
6070.55,5072.0,5072.0,5072.0,5072.0
5963.75,5232.5,5232.5,5232.5,5232.5
5707.75,4681.8,4681.8,4681.8,4681.8
392.0,392.0,392.0,392.0,392.0
5793.75,5005.8,5005.8,5005.8,5005.8
5555.4,4596.6,4596.6,4596.6,4596.6
5934.6,5055.4,5055.4,5055.4,5055.4
98.75,98.75,98.75,98.75,98.75
2828.75,2828.75,2828.75,2828.75,2828.75
5801.6,4780.4,4780.4,4780.4,4780.4
4688.75,4688.75,4688.75,4688.75,4688.75
5925.15,4766.85,4766.85,4766.85,4766.85
5751.2,5135.0,5135.0,5135.0,5135.0
6053.4,5681.7,5681.7,5681.7,5681.7
4390.4,3819.2,3819.2,3819.2,3819.2
4901.0,4901.0,4901.0,4901.0,4901.0
4989.6,4195.8,4195.8,4195.8,4195.8
5001.75,4100.2,4100.2,4100.2,4100.2
5965.8,5248.6,5248.6,5248.6,5248.6
5539.0,4741.5,4741.5,4741.5,4741.5
5632.2,4857.4,4857.4,4857.4,4857.4
5984.0,5474.0,5474.0,5474.0,5474.0
3077.0,3077.0,3077.0,3077.0,3077.0
2057.0,2057.0,2057.0,2057.0,2057.0
5967.75,5264.7,5264.7,5264.7,5264.7
5897.6,4894.4,4894.4,4894.4,4894.4
5718.15,4714.2,4714.2,4714.2,4714.2
5973.75,4720.0,4720.0,4720.0,4720.0
5799.75,4588.5,4588.5,4588.5,4588.5
5765.55,5248.75,5248.75,5248.75,5248.75
5834.55,4685.1,4685.1,4685.1,4685.1
5644.8,4680.0,4680.0,4680.0,4680.0
5969.6,5280.8,5280.8,5280.8,5280.8
5887.0,4654.5,4654.5,4654.5,4654.5
6120.95,5456.0,5456.0,5456.0,5456.0
5295.75,5096.2,5096.2,5096.2,5096.2
5847.4,5475.6,5475.6,5475.6,5475.6
5534.35,4725.15,4725.15,4725.15,4725.15
4325.0,4325.0,4325.0,4325.0,4325.0
2745.0,2745.0,2745.0,2745.0,2745.0
4927.8,4321.5,4321.5,4321.5,4321.5
5017.6,4262.4,4262.4,4262.4,4262.4
6052.75,5473.05,5473.05,5473.05,5473.05
5979.15,4959.45,4959.45,4959.45,4959.45
6042.4,5328.6,5328.6,5328.6,5328.6
6112.2,5344.0,5344.0,5344.0,5344.0
4249.35,3642.3,3642.3,3642.3,3642.3
294.75,294.75,294.75,294.75,294.75
6018.75,6018.75,6018.75,6018.75,6018.75
361.8,351.0,351.0,351.0,351.0
5628.6,5199.3,5199.3,5199.3,5199.3
-405.0,-405.0,-405.0,-405.0,-405.0
5009.6,4116.8,4116.8,4116.8,4116.8
5080.8,4891.0,4891.0,4891.0,4891.0
5667.2,5020.4,5020.4,5020.4,5020.4
5805.8,4604.6,4604.6,4604.6,4604.6
6050.2,5745.9,5745.9,5745.9,5745.9
5961.6,5216.4,5216.4,5216.4,5216.4
6076.95,5104.0,5104.0,5104.0,5104.0
5513.75,4482.5,4482.5,4482.5,4482.5
5040.0,5040.0,5040.0,5040.0,5040.0
-404.0,-404.0,-404.0,-404.0,-404.0
5765.55,4667.35,4667.35,4667.35,4667.35
5247.9,5203.8,4777.5,4777.5,4777.5
5976.0,5345.2,5345.2,5345.2,5345.2
6093.75,5200.0,5200.0,5200.0,5200.0
5246.55,4405.5,4405.5,4405.5,4405.5
5192.95,4273.5,4273.5,4273.5,4273.5
5180.75,4385.75,4385.75,4385.75,4385.75
5127.75,4399.0,4399.0,4399.0,4399.0
5080.6,4428.9,4428.9,4428.9,4428.9
6124.8,5568.0,5568.0,5568.0,5568.0
5707.2,5346.4,5346.4,5346.4,5346.4
5894.75,5894.75,5894.75,5894.75,5894.75
294.75,294.75,294.75,294.75,294.75
870.75,870.75,870.75,870.75,870.75
4997.2,3980.4,4538.4,3980.4,3980.4
4993.8,4083.6,4083.6,4083.6,4083.6
5593.6,4970.4,4970.4,4970.4,4970.4
5413.6,4381.8,4381.8,4381.8,4381.8
5984.55,4752.0,4752.0,4752.0,4752.0
5018.75,4606.25,4606.25,4606.25,4606.25
2994.75,2994.75,2994.75,2994.75,2994.75
5730.75,4570.45,4570.45,4570.45,4570.45
5905.55,5313.35,5313.35,5313.35,5313.35
6121.8,5728.0,5728.0,5728.0,5728.0
5985.75,5554.5,5554.5,5554.5,5554.5
1058.75,1058.75,1058.75,1058.75,1058.75
3560.0,3560.0,3560.0,3560.0,3560.0
5944.75,4831.05,4831.05,4831.05,4831.05
6054.4,5649.6,5649.6,5649.6,5649.6
5816.95,5135.4,5135.4,5135.4,5135.4
5365.4,4573.1,4573.1,4573.1,4573.1
4538.4,4160.2,4160.2,4160.2,4160.2
4970.75,4970.75,4970.75,4970.75,4970.75
5452.8,4657.6,4657.6,4657.6,4657.6
98.75,98.75,98.75,98.75,98.75
1701.0,1701.0,1701.0,1701.0,1701.0
5846.95,5459.4,5459.4,5459.4,5459.4
5986.75,4991.55,4991.55,4991.55,4991.55
6004.95,4816.0,4816.0,4816.0,4816.0
6040.95,4944.0,4944.0,4944.0,4944.0
5847.75,5589.0,5589.0,5589.0,5589.0
5712.0,4522.0,4522.0,4522.0,4522.0
5916.75,5539.45,5539.45,5539.45,5539.45
5724.6,4554.3,4554.3,4554.3,4554.3
2745.0,2745.0,2745.0,2745.0,2745.0
4127.75,3479.85,3479.85,3479.85,3939.65
6102.95,5264.0,5264.0,5264.0,5264.0
5986.75,4991.55,4991.55,4991.55,4991.55
5820.0,4845.0,4845.0,4845.0,4845.0
5824.0,5184.0,5184.0,5184.0,5184.0
5815.55,4828.85,4828.85,4828.85,4828.85
5640.0,4890.0,4890.0,4890.0,4890.0
4025.0,4025.0,4025.0,4025.0,4025.0
294.75,294.75,294.75,294.75,294.75
5768.75,5768.75,5768.75,5768.75,5768.75
6105.0,5280.0,5280.0,5280.0,5280.0
5959.35,5200.3,5200.3,5200.3,5200.3
-406.0,-406.0,-406.0,-406.0,-406.0
5152.0,4662.0,4662.0,4662.0,4662.0
5390.55,4900.5,4900.5,4900.5,4900.5
-199.0,-199.0,-199.0,-199.0,-199.0
6014.55,4848.0,4848.0,4848.0,4848.0
5180.75,4385.75,4385.75,4385.75,4385.75
5868.75,5054.95,5054.95,5054.95,5054.95
5875.35,4813.9,4813.9,4813.9,4813.9
5974.55,5329.1,5329.1,5329.1,5329.1
-166.05,-182.25,-182.25,-182.25,-182.25
6052.75,5697.75,5697.75,5697.75,5697.75
6040.95,4944.0,4944.0,4944.0,4944.0
6124.55,5552.0,5552.0,5552.0,5552.0
-403.0,-403.0,-403.0,-403.0,-403.0
5411.2,5016.0,5016.0,5016.0,5016.0
5860.8,4765.6,4765.6,4765.6,4765.6
5244.75,4260.55,4260.55,4260.55,4260.55
6106.95,5296.0,5296.0,5296.0,5296.0
6120.0,5440.0,5440.0,5440.0,5440.0
1152.0,1152.0,1152.0,1152.0,1152.0
5811.75,4620.7,4620.7,4620.7,4620.7
5940.8,5087.6,5087.6,5087.6,5087.6
6055.15,5601.45,5601.45,5601.45,5601.45
-407.0,-407.0,-407.0,-407.0,-407.0
4176.0,4176.0,4176.0,4176.0,4176.0
6123.75,5520.0,5520.0,5520.0,5520.0
5828.6,4877.3,4877.3,4877.3,4877.3
5748.6,4618.9,4618.9,4618.9,4618.9
730.8,730.8,730.8,576.0,730.8
6035.2,5264.4,5264.4,5264.4,5264.4
5718.35,4538.15,4538.15,4538.15,4538.15
6036.8,4928.0,4928.0,4928.0,4928.0
5200.0,4290.0,4290.0,4290.0,4290.0
5909.4,4718.7,4718.7,4718.7,4718.7
5840.75,4925.75,4925.75,4925.75,4925.75
6053.4,5489.1,5489.1,5489.1,5489.1
5062.75,4378.95,4378.95,4378.95,4378.95
-400.0,-400.0,-400.0,-400.0,-400.0
5959.35,5200.3,5200.3,5200.3,5200.3
-405.0,-405.0,-405.0,-405.0,-405.0
5360.0,4395.2,4395.2,4395.2,4395.2
4970.75,4970.75,4970.75,4970.75,4970.75
5735.0,5037.5,5037.5,5037.5,5037.5
5728.8,5005.0,5005.0,5005.0,5005.0
3830.75,3472.55,3472.55,3472.55,3472.55
6113.75,5360.0,5360.0,5360.0,5360.0
5644.8,4680.0,4680.0,4680.0,4680.0
5990.4,5007.6,5007.6,5007.6,5007.6
4767.35,4343.3,4343.3,4343.3,4343.3
4368.75,3995.95,3995.95,3995.95,3995.95
6032.55,4912.0,4912.0,4912.0,4912.0
5118.75,4545.45,4545.45,4545.45,4545.45
5803.2,5054.4,5054.4,5054.4,5054.4
6091.2,5184.0,5184.0,5184.0,5184.0
4836.0,4381.0,4381.0,4381.0,4381.0
6009.8,4832.0,4832.0,4832.0,4832.0
2994.75,2994.75,2994.75,2994.75,2994.75
5829.0,4669.0,4669.0,4669.0,4669.0
5957.0,5957.0,5957.0,5957.0,5957.0
5781.6,4715.8,4715.8,4715.8,4715.8
5192.95,4273.5,4273.5,4273.5,4273.5
4991.4,4737.6,4737.6,4737.6,4737.6
5833.75,5265.0,5265.0,5265.0,5265.0
5376.55,4834.5,4834.5,4834.5,4834.5
2318.75,2318.75,2318.75,2318.75,2318.75
5577.0,5543.2,5543.2,5543.2,5543.2
6108.8,5312.0,5312.0,5312.0,5312.0
5736.8,4586.6,4586.6,4586.6,4586.6
5151.35,4465.4,4465.4,4465.4,4465.4
4977.6,4050.4,4050.4,4050.4,4050.4
3888.95,3338.9,3338.9,3338.9,3338.9
5817.6,4636.8,4636.8,4636.8,4636.8
5664.15,5004.1,5004.1,5004.1,5004.1
5289.6,5046.4,5046.4,5046.4,5046.4
-199.0,-199.0,-199.0,-199.0,-199.0
5956.8,4672.0,4672.0,4672.0,4672.0
4398.75,4398.75,4398.75,4398.75,4398.75
5916.75,5571.75,5571.75,5571.75,5571.75
5237.4,4244.1,4244.1,4244.1,4244.1
5216.75,4485.05,4485.05,4485.05,4485.05
5820.0,4845.0,4845.0,4845.0,4845.0
5442.6,4624.8,4624.8,4624.8,4624.8
6120.95,5456.0,5456.0,5456.0,5456.0
5968.2,4704.0,4704.0,4704.0,4704.0
776.0,776.0,776.0,776.0,776.0
6088.55,5168.0,5168.0,5168.0,5168.0
4902.95,4124.9,4124.9,4124.9,4124.9
5913.6,4958.8,4958.8,4958.8,4958.8
2318.75,2318.75,2318.75,2318.75,2318.75
5348.75,4523.75,4523.75,4523.75,4523.75
5268.8,4913.6,4913.6,4913.6,4913.6
6080.0,6080.0,6080.0,6080.0,6080.0
3638.75,3638.75,3638.75,3638.75,3638.75
4901.0,4901.0,4901.0,4901.0,4901.0
4864.0,4300.8,4300.8,4300.8,4300.8
-400.0,-400.0,-400.0,-400.0,-400.0
1880.0,1880.0,1880.0,1880.0,1880.0
5571.75,4645.5,4645.5,4645.5,4645.5
5593.95,4533.75,4533.75,4533.75,4533.75
5775.0,5362.5,5362.5,5362.5,5362.5
392.0,392.0,392.0,392.0,392.0
4830.75,4830.75,4830.75,4830.75,4830.75
4263.0,3381.0,4179.0,3381.0,3381.0
5446.4,4869.2,4869.2,4869.2,4869.2
5952.0,5152.0,5152.0,5152.0,5152.0
5773.95,5346.25,5346.25,5346.25,5346.25
2660.75,2660.75,2660.75,2660.75,2660.75
5786.75,4731.95,4731.95,4731.95,4731.95
3240.0,3240.0,3240.0,3240.0,3240.0
5962.55,4688.0,4688.0,4688.0,4688.0
5334.55,4669.5,4669.5,4669.5,4669.5
5590.35,4848.0,4848.0,5272.2,4848.0
3158.75,3158.75,3158.75,3158.75,3158.75
6124.2,5664.0,5664.0,5664.0,5664.0
5040.0,5040.0,5040.0,5040.0,5040.0
5973.75,4720.0,4720.0,4720.0,4720.0
5835.4,5281.2,5281.2,5281.2,5281.2
5705.0,5705.0,5705.0,5705.0,5705.0
4614.35,3858.65,3858.65,3858.65,3858.65
5984.55,5490.1,5490.1,5490.1,5490.1
4828.55,4546.1,4546.1,4546.1,4546.1
5952.0,5152.0,5152.0,5152.0,5152.0
5493.55,4594.35,4594.35,4594.35,4594.35
5227.2,4356.0,4356.0,4356.0,4356.0
4901.0,4901.0,4901.0,4901.0,4901.0
5258.95,4438.5,4438.5,4438.5,4438.5
-405.0,-405.0,-405.0,-405.0,-405.0
5974.55,5329.1,5329.1,5329.1,5329.1
6023.75,4880.0,4880.0,4880.0,4880.0
5467.2,4368.4,4368.4,4368.4,4368.4
5905.8,4926.6,4926.6,4926.6,4926.6
5793.6,4572.4,4572.4,4572.4,4572.4
5884.55,4846.1,4846.1,4846.1,4846.1
6093.75,5200.0,5200.0,5200.0,5200.0
5724.6,4554.3,4554.3,4554.3,4554.3
5504.35,4627.05,4627.05,4627.05,4627.05
6067.2,5056.0,5056.0,5056.0,5056.0
5985.6,5602.8,5602.8,5602.8,5602.8
1880.0,1880.0,1880.0,1880.0,1880.0
-400.0,-400.0,-400.0,-400.0,-400.0
5400.75,4688.25,4688.25,4688.25,4688.25
6039.0,5296.5,5296.5,5296.5,5296.5
392.0,392.0,392.0,392.0,392.0
5718.15,4714.2,4714.2,4714.2,4714.2
5979.75,5393.5,5393.5,5393.5,5393.5
6120.0,5760.0,5760.0,5760.0,5760.0
5908.35,5345.65,5345.65,5345.65,5345.65
4079.25,4079.25,4079.25,4079.25,4936.75
5909.75,4942.7,4942.7,4942.7,4942.7
2232.0,2232.0,2232.0,2232.0,2232.0
5177.0,5177.0,5177.0,5177.0,5177.0
294.75,294.75,294.75,294.75,294.75
1058.75,1058.75,1058.75,1058.75,1058.75
965.0,965.0,965.0,965.0,965.0
5538.15,4547.7,4547.7,4547.7,4547.7
392.0,392.0,392.0,392.0,392.0
3158.75,3158.75,3158.75,3158.75,3158.75
6120.95,5456.0,5456.0,5456.0,5456.0
-405.0,-405.0,-405.0,-405.0,-405.0
6112.2,5344.0,5344.0,5344.0,5344.0
5979.15,4959.45,4959.45,4959.45,4959.45
5937.75,5071.5,5071.5,5071.5,5071.5
4830.75,4830.75,4830.75,4830.75,4830.75
6055.0,5617.5,5617.5,5617.5,5617.5
5920.0,4750.8,4750.8,4750.8,4750.8
6023.75,4880.0,4880.0,4880.0,4880.0
5724.6,4554.3,4554.3,4554.3,4554.3
5070.0,4225.0,4225.0,4225.0,4615.0
5449.95,4885.65,4885.65,4885.65,4885.65
2232.0,2232.0,2232.0,2232.0,2232.0
6100.8,5248.0,5248.0,5248.0,5248.0
3504.6,2982.45,2982.45,2982.45,3504.6
6124.55,5648.0,5648.0,5648.0,5648.0
5823.35,4652.9,4652.9,4652.9,4652.9
-403.0,-403.0,-403.0,-403.0,-403.0
5799.75,4588.5,4588.5,4588.5,4588.5
5930.2,4782.9,4782.9,4782.9,4782.9
5075.0,4137.5,4137.5,4137.5,4137.5
2571.5,2571.5,2571.5,2571.5,2508.95
5668.2,4568.4,4568.4,4568.4,4568.4
4375.0,4312.5,4312.5,4312.5,4312.5
6052.0,5457.0,5457.0,5457.0,5457.0
5814.4,5119.2,5119.2,5119.2,5119.2
5644.8,4680.0,4680.0,4680.0,4680.0
5161.4,4336.1,4336.1,4336.1,4336.1
5989.8,4768.0,4768.0,4768.0,4768.0
5312.0,5312.0,5312.0,5312.0,5312.0
294.75,294.75,294.75,294.75,294.75
5798.6,5071.8,5071.8,5277.2,5071.8
5334.55,4669.5,4669.5,4669.5,4669.5
4476.75,4006.75,4006.75,4006.75,4006.75
5957.0,5957.0,5957.0,5957.0,5957.0
965.0,965.0,965.0,965.0,965.0
5956.8,4672.0,4672.0,4672.0,4672.0
5793.6,4572.4,4572.4,4572.4,4572.4
1520.0,1520.0,1520.0,1520.0,1520.0
5828.6,4877.3,4877.3,4877.3,4877.3
5986.75,4991.55,4991.55,4991.55,4991.55
-401.0,-401.0,-401.0,-401.0,-401.0
5855.55,4990.35,4990.35,4990.35,4990.35
5287.35,5029.8,5029.8,5029.8,5029.8
5680.0,4600.8,4600.8,4600.8,4600.8
6010.2,5103.9,5103.9,5103.9,5103.9
5832.0,5832.0,5832.0,5832.0,5832.0
5713.0,4698.0,4698.0,4698.0,4698.0
5894.75,5894.75,5894.75,5894.75,5894.75
6117.8,5792.0,5792.0,5792.0,5792.0
-405.0,-405.0,-405.0,-405.0,-405.0
5312.75,4425.05,4425.05,4425.05,4425.05
4182.35,4042.55,4042.55,4042.55,4042.55
3717.0,3717.0,3717.0,3717.0,3717.0
6054.4,5521.2,5521.2,5521.2,5521.2
6040.95,4944.0,4944.0,4944.0,4944.0
5973.75,4720.0,4720.0,4720.0,4720.0
-406.0,-406.0,-406.0,-406.0,-406.0
3240.0,3240.0,3240.0,3240.0,3240.0
680.75,680.75,680.75,680.75,680.75
6112.2,5856.0,5856.0,5856.0,5856.0
5985.75,5586.7,5586.7,5586.7,5586.7
4458.35,4236.05,4236.05,4236.05,4236.05
5520.0,4498.8,4498.8,4498.8,4498.8
5718.35,4538.15,4538.15,4538.15,4538.15
5399.8,4349.1,4349.1,4349.1,4349.1
6116.55,5392.0,5392.0,5392.0,5392.0
3852.2,3605.0,3605.0,3605.0,3605.0
5754.35,4635.05,4635.05,4635.05,4635.05
6004.95,4816.0,4816.0,4816.0,4816.0
4472.0,4472.0,4472.0,4472.0,4472.0
5286.75,4716.75,4716.75,4716.75,4716.75
5108.75,5108.75,5108.75,5108.75,5108.75
5909.75,4942.7,4942.7,4942.7,4942.7
5089.35,4299.4,4299.4,4299.4,4299.4
2745.0,2745.0,2745.0,2745.0,2745.0
5880.0,4830.0,4830.0,4830.0,4830.0
5985.0,5506.2,5506.2,5506.2,5506.2
5334.55,4669.5,4669.5,4669.5,4669.5
4631.55,3892.35,3892.35,3892.35,3892.35
6091.2,5184.0,5184.0,5184.0,5184.0
5325.15,4457.95,4457.95,4457.95,4457.95
2957.4,2957.4,2647.35,2957.4,2957.4
-404.0,-404.0,-404.0,-404.0,-404.0
3240.0,3240.0,3240.0,3240.0,3240.0
5771.0,4683.5,4683.5,4683.5,4683.5
4250.75,4250.75,4250.75,4250.75,4250.75
4663.35,3856.0,3856.0,3856.0,4723.6
5096.0,4676.0,4676.0,4676.0,4676.0
5643.4,4503.6,4503.6,4503.6,4503.6
5962.75,4895.25,4895.25,4895.25,4895.25
-400.0,-400.0,-400.0,-400.0,-400.0
5641.6,5362.8,5362.8,5362.8,5362.8
6033.15,5248.35,5248.35,5248.35,5248.35
5855.55,4990.35,4990.35,4990.35,4990.35
6091.2,5184.0,5184.0,5184.0,5184.0
5962.55,4688.0,4688.0,4688.0,4688.0
-408.0,-408.0,-408.0,-408.0,-408.0
5329.8,4653.0,4653.0,4653.0,4653.0
3320.75,3320.75,3320.75,3320.75,3320.75
5990.4,5007.6,5007.6,5007.6,5007.6
4110.75,3481.45,3481.45,3481.45,3481.45
6028.75,5216.25,5216.25,5216.25,5216.25
5112.0,4742.8,4742.8,4742.8,4742.8
4472.0,4472.0,4472.0,4472.0,4472.0
4472.0,4472.0,4472.0,4472.0,4472.0
5975.2,4943.4,4943.4,4943.4,4943.4
5156.2,4191.0,4191.0,4191.0,4191.0
5458.75,4496.25,4496.25,4496.25,4496.25
4862.75,4465.25,4465.25,4465.25,4465.25
-401.0,-401.0,-401.0,-401.0,-401.0
6112.2,5856.0,5856.0,5856.0,5856.0
4838.4,4233.6,4233.6,4233.6,4233.6
5692.2,5183.4,5183.4,5183.4,5183.4
6028.75,5216.25,5216.25,5216.25,5216.25
5655.0,4712.5,4712.5,4712.5,4712.5
1337.0,1337.0,1337.0,1337.0,1337.0
6073.8,5088.0,5088.0,5088.0,5088.0
6004.0,5071.8,5071.8,5071.8,5071.8
5850.6,4733.4,4733.4,4733.4,4733.4
6096.2,5216.0,5216.0,5216.0,5216.0
2828.75,2828.75,2828.75,2828.75,2828.75
5485.35,4772.4,4772.4,4772.4,4772.4
5458.75,4496.25,4496.25,4496.25,4496.25
5651.1,4784.0,4784.0,5127.85,4784.0
5396.0,4671.8,4671.8,4671.8,4671.8
680.75,680.75,680.75,680.75,680.75
5997.4,5039.7,5039.7,5039.7,5039.7
5962.75,4895.25,4895.25,4895.25,4895.25
965.0,965.0,965.0,965.0,965.0
5940.0,4815.0,4815.0,4815.0,4815.0
2660.75,2660.75,2660.75,2660.75,2660.75
-401.0,-401.0,-401.0,-401.0,-401.0
5615.4,4792.2,4792.2,4792.2,4792.2
3794.75,3794.75,3794.75,3794.75,3794.75
4940.0,4355.0,4355.0,4355.0,4355.0
5731.95,5021.25,5021.25,5021.25,5021.25
5452.6,4479.9,4479.9,4479.9,4479.9
5315.25,4659.75,4659.75,4659.75,4859.25
3948.75,3948.75,3948.75,3948.75,3948.75
5754.35,4635.05,4635.05,4635.05,4635.05
4544.75,4544.75,4544.75,4544.75,4544.75
2576.0,2576.0,2576.0,2576.0,2576.0
5127.75,4399.0,4399.0,4399.0,4399.0
3339.75,3275.7,3275.7,3275.7,3275.7
5928.0,5023.2,5023.2,5023.2,5023.2
5914.75,4734.75,4734.75,4734.75,4734.75
6033.15,5248.35,5248.35,5248.35,5248.35
3694.95,3307.5,3307.5,3307.5,3307.5
5548.8,4352.0,4352.0,4624.0,4352.0
5943.75,5103.7,5103.7,5103.7,5103.7
5959.35,5200.3,5200.3,5200.3,5200.3
5601.75,4743.3,4743.3,4743.3,4743.3
5713.0,4698.0,4698.0,4698.0,4698.0
4917.75,4158.3,4158.3,4158.3,4158.3
5453.4,4902.1,4902.1,4902.1,4902.1
2912.0,2912.0,2912.0,2912.0,2912.0
2994.75,2994.75,2994.75,2994.75,2994.75
1164.0,1149.0,1149.0,1149.0,1149.0
1458.6,1489.8,1489.8,1489.8,1489.8
5220.55,4339.5,4339.5,4339.5,4339.5
5855.55,4990.35,4990.35,4990.35,4990.35
5661.0,4987.8,4987.8,4987.8,4987.8
5324.95,4636.5,4636.5,4636.5,4636.5
5264.0,4634.0,4634.0,4634.0,4634.0
2405.0,2405.0,2405.0,2405.0,2405.0
5575.2,4485.0,4485.0,4485.0,4485.0
5971.15,4927.35,4927.35,4927.35,4927.35
5760.0,4651.2,4651.2,4651.2,4651.2
4390.95,3723.0,3723.0,3723.0,3723.0
4726.35,3936.6,3936.6,4568.4,3936.6
6108.8,5312.0,5312.0,5312.0,5312.0
5409.6,4526.4,4526.4,4526.4,4526.4
5887.0,4654.5,4654.5,4654.5,4654.5
5832.75,4893.45,4893.45,4893.45,4893.45
393.8,440.0,440.0,440.0,440.0
5977.35,5361.3,5361.3,5361.3,5361.3
4259.55,3558.75,4347.15,3558.75,3558.75
5916.6,5523.3,5523.3,5523.3,5523.3
5639.55,4663.75,4663.75,4663.75,4663.75
5288.2,4521.0,4521.0,4521.0,4521.0
5917.35,4974.9,4974.9,4974.9,4974.9
3541.55,3425.75,3425.75,3425.75,3425.75
6110.55,5328.0,5328.0,5328.0,5328.0
1058.75,1058.75,1058.75,1058.75,1058.75
-404.0,-404.0,-404.0,-404.0,-404.0
5678.4,5085.6,5085.6,5085.6,5085.6
5968.2,4704.0,4704.0,4704.0,4704.0
5213.8,4323.0,4323.0,4323.0,4323.0
5905.8,4926.6,4926.6,4926.6,4926.6
5971.35,5296.9,5296.9,5296.9,5296.9
0.0,0.0,0.0,0.0,0.0
5501.75,4926.5,4808.5,4808.5,4808.5
5892.6,5200.3,5200.3,5200.3,5200.3
6121.8,5472.0,5472.0,5472.0,5472.0
4476.95,3893.0,3893.0,3893.0,3893.0
5373.0,4428.0,4428.0,4428.0,4428.0
5981.75,5425.7,5425.7,5425.7,5425.7
5958.4,4879.2,4879.2,4879.2,4879.2
5916.0,5491.0,5491.0,5491.0,5491.0
6018.75,6018.75,6018.75,6018.75,6018.75
6040.95,4944.0,4944.0,4944.0,4944.0
5892.75,4670.55,4670.55,4670.55,4670.55
5943.75,5103.7,5103.7,5103.7,5103.7
1968.75,1968.75,1968.75,1968.75,1968.75
6019.2,4864.0,4864.0,4864.0,4864.0
5754.35,4635.05,4635.05,4635.05,4635.05
6014.55,4848.0,4848.0,4848.0,4848.0
4688.75,4688.75,4688.75,4688.75,4688.75
6122.55,5488.0,5488.0,5488.0,5488.0
5437.35,4608.4,4608.4,4608.4,4608.4
5526.15,4515.1,4515.1,4515.1,4515.1
5920.0,4750.8,4750.8,4750.8,4750.8
6028.75,5954.55,5954.55,5954.55,5954.55
4752.0,4032.0,4032.0,4032.0,4032.0
3979.4,3494.6,3494.6,3494.6,3494.6
6051.15,5440.95,5440.95,5440.95,5440.95
5709.0,5379.0,5379.0,5379.0,5379.0
3858.2,3113.3,3886.85,3113.3,3113.3
4921.55,4304.75,4304.75,4304.75,4304.75
5508.75,5346.25,5346.25,5346.25,5346.25
6063.75,5040.0,5040.0,5040.0,5040.0
5921.0,4991.0,4991.0,4991.0,4991.0
5779.55,5476.25,5476.25,5476.25,5476.25
5786.75,4731.95,4731.95,4731.95,4731.95
4784.0,4394.0,4394.0,4394.0,4394.0
5994.95,4784.0,4784.0,4784.0,4784.0
5978.6,5377.4,5377.4,5377.4,5377.4
6050.2,5424.9,5424.9,5424.9,5424.9
5971.35,5296.9,5296.9,5296.9,5296.9
3560.0,3560.0,3560.0,3560.0,3560.0
5643.0,5395.5,5395.5,5395.5,5395.5
5121.6,4382.4,4382.4,4382.4,4382.4
6040.95,4944.0,4944.0,4944.0,4944.0
6043.95,5344.65,5344.65,5344.65,5344.65
5949.35,5135.9,5135.9,5135.9,5135.9
6051.15,5440.95,5440.95,5440.95,5440.95
3115.35,2881.9,2881.9,2881.9,2881.9
5178.6,4548.4,4548.4,4548.4,4548.4
6115.2,5376.0,5376.0,5376.0,5376.0
5108.75,5108.75,5108.75,5108.75,5108.75
5319.3,4842.5,4842.5,4842.5,5215.0
1520.0,1520.0,1520.0,1520.0,1520.0
2912.0,2912.0,2912.0,2912.0,2912.0
6000.0,4800.0,4800.0,4800.0,4800.0
4662.4,4203.6,4203.6,4203.6,4203.6
5865.6,5038.8,5038.8,5038.8,5038.8
5718.15,4714.2,4714.2,4714.2,4714.2
6108.8,5888.0,5888.0,5888.0,5888.0
5956.8,4672.0,4672.0,4672.0,4672.0
5359.95,4556.65,4556.65,4556.65,4556.65
4901.0,4901.0,4901.0,4901.0,4901.0
5447.75,4641.2,4641.2,4641.2,4641.2
488.75,488.75,488.75,488.75,488.75
6052.75,5473.05,5473.05,5473.05,5473.05
5462.6,4690.4,4690.4,4690.4,4690.4
3717.0,3717.0,3717.0,3717.0,3717.0
5108.75,5108.75,5108.75,5108.75,5108.75
5372.8,4818.0,4818.0,4818.0,4818.0
585.0,585.0,585.0,585.0,585.0
5832.0,5832.0,5832.0,5832.0,5832.0
1520.0,1520.0,1520.0,1520.0,1520.0
5718.35,4538.15,4538.15,4538.15,4538.15
5177.0,5177.0,5177.0,5177.0,5177.0
5072.65,4060.65,4591.95,4060.65,4060.65
4831.4,3974.6,3974.6,3974.6,3974.6
5775.95,5671.25,5671.25,5671.25,5671.25
6032.55,4912.0,4912.0,4912.0,4912.0
6093.75,5200.0,5200.0,5200.0,5200.0
5711.55,4923.75,4923.75,4923.75,4923.75
5509.35,4870.8,4870.8,4870.8,4870.8
5467.2,4368.4,4368.4,4368.4,4368.4
5832.75,4893.45,4893.45,4893.45,4893.45
98.75,98.75,98.75,98.75,98.75
5504.35,4627.05,4627.05,4627.05,4627.05
4794.0,3783.5,4359.25,3783.5,3783.5
5516.55,4903.6,4903.6,4903.6,4903.6
5639.55,4663.75,4663.75,4663.75,4663.75
-405.0,-405.0,-405.0,-405.0,-405.0
6100.8,5248.0,5248.0,5248.0,5248.0
6091.2,5184.0,5184.0,5184.0,5184.0
5173.35,4531.8,4531.8,4531.8,4531.8
5399.8,4349.1,4349.1,4349.1,4349.1
5993.95,5023.65,5023.65,5023.65,5023.65
6055.15,5569.35,5569.35,5569.35,5569.35
2745.0,2745.0,2745.0,2745.0,2745.0
585.0,585.0,585.0,585.0,585.0
5746.2,5102.5,5102.5,5102.5,5102.5
-199.0,-199.0,-199.0,-199.0,-199.0
5378.75,5378.75,5378.75,5378.75,5378.75
0.0,0.0,0.0,0.0,0.0
5968.2,4704.0,4704.0,4704.0,4704.0
5467.35,4706.8,4706.8,4706.8,4706.8
6045.0,4960.0,4960.0,4960.0,4960.0
5259.35,4863.8,4863.8,4863.8,4863.8
5649.95,4696.25,4696.25,4696.25,4696.25
5881.15,4638.45,4638.45,4638.45,4638.45
4887.75,4091.5,4091.5,4091.5,4091.5
5162.55,4498.6,4498.6,4498.6,4498.6
5870.6,4797.8,4797.8,4797.8,4797.8
6113.75,5840.0,5840.0,5840.0,5840.0
6055.2,5585.4,5585.4,5585.4,5585.4
5961.6,5216.4,5216.4,5216.4,5216.4
5565.0,5231.1,5231.1,5231.1,5167.5
5874.75,5087.25,5087.25,5087.25,5087.25
5054.6,4216.4,4216.4,4216.4,4216.4
4670.6,4089.8,4089.8,4089.8,4089.8
5779.75,4941.0,4941.0,4941.0,4941.0
5977.35,5361.3,5361.3,5361.3,5361.3
741.0,737.2,737.2,737.2,737.2
5983.0,4975.5,4975.5,4975.5,4975.5
1244.75,1244.75,1244.75,1244.75,1244.75
6040.75,5312.55,5312.55,5312.55,5312.55
680.75,680.75,680.75,680.75,680.75
6028.2,4896.0,4896.0,4896.0,4896.0
6052.0,5713.8,5713.8,5713.8,5713.8
5989.8,4768.0,4768.0,4768.0,4768.0
4398.75,4398.75,4398.75,4398.75,4398.75
5017.6,4262.4,4262.4,4262.4,4262.4
5811.75,4620.7,4620.7,4620.7,4620.7
5185.8,4257.0,4257.0,4257.0,4257.0
4415.35,3984.3,3984.3,3984.3,3984.3
5953.95,4863.15,4863.15,4863.15,4863.15
5314.4,4832.6,4832.6,4832.6,4832.6
870.75,870.75,870.75,870.75,870.75
4833.65,4736.7,4736.7,4542.8,4736.7
5597.0,4727.0,4727.0,4727.0,4727.0
5865.75,4781.7,4781.7,4781.7,4781.7
1880.0,1880.0,1880.0,1880.0,1880.0
2057.0,2057.0,2057.0,2057.0,2057.0
5868.75,5054.95,5054.95,5054.95,5054.95
6004.95,4816.0,4816.0,4816.0,4816.0
6120.95,5456.0,5456.0,5456.0,5456.0
5975.2,4943.4,4943.4,4943.4,4943.4
4995.0,4522.5,4522.5,4522.5,4522.5
5983.0,4975.5,4975.5,4975.5,4975.5
5944.75,4831.05,4831.05,4831.05,4831.05
5924.55,5007.1,5007.1,5007.1,5007.1
5904.0,5297.2,5297.2,5297.2,5297.2
5779.95,5508.75,5508.75,5508.75,5508.75
5481.0,4401.0,4401.0,4401.0,4401.0
6105.0,5280.0,5280.0,5280.0,5280.0
5925.15,4766.85,4766.85,4766.85,4766.85
5914.75,4734.75,4734.75,4734.75,4734.75
5912.75,5410.25,5410.25,5410.25,5410.25
5139.75,4432.2,4432.2,4432.2,4432.2
2576.0,2576.0,2576.0,2576.0,2576.0
5983.0,4975.5,4975.5,4975.5,4975.5
6105.0,5280.0,5280.0,5280.0,5280.0
5562.2,4452.5,4452.5,4452.5,4452.5
5885.55,5151.85,5151.85,5151.85,5151.85
5605.95,4566.25,4566.25,4566.25,4566.25
5952.0,5152.0,5152.0,5152.0,5152.0
-404.0,-404.0,-404.0,-404.0,-404.0
5644.8,5493.6,5493.6,5493.6,5493.6
5630.4,4471.2,4471.2,4471.2,4471.2
-402.0,-402.0,-402.0,-402.0,-402.0
5742.75,4602.75,4602.75,4602.75,4602.75
5108.75,5108.75,5108.75,5108.75,5108.75
776.0,776.0,776.0,776.0,776.0
5865.75,4781.7,4781.7,4781.7,4781.7
5935.15,4798.95,4798.95,4798.95,4798.95
5983.0,4975.5,4975.5,4975.5,4975.5
5916.35,5507.15,5507.15,5507.15,5507.15
5852.0,4974.2,4974.2,4974.2,4974.2
5346.6,4362.4,4362.4,4362.4,4362.4
5870.6,4797.8,4797.8,4797.8,4797.8
488.75,488.75,488.75,488.75,488.75
965.0,965.0,965.0,965.0,965.0
4932.15,4191.7,4191.7,4191.7,4191.7
585.0,585.0,585.0,585.0,585.0
5898.75,5248.75,5248.75,5248.75,5248.75
5832.75,4893.45,4893.45,4893.45,4893.45
5199.2,4435.4,4435.4,4435.4,4435.4
